%!PS-Adobe-3.0 EPSF-3.0
%%Creator: (MATLAB, The Mathworks, Inc. Version 9.2.0.556344 \(R2017a\). Operating System: Windows 8)
%%Title: ./PITHZ.eps
%%CreationDate: 2018-12-17T00:00:57
%%Pages: (atend)
%%BoundingBox:    33     6   850   483
%%LanguageLevel: 3
%%EndComments
%%BeginProlog
%%BeginResource: procset (Apache XML Graphics Std ProcSet) 1.2 0
%%Version: 1.2 0
%%Copyright: (Copyright 2001-2003,2010 The Apache Software Foundation. License terms: http://www.apache.org/licenses/LICENSE-2.0)
/bd{bind def}bind def
/ld{load def}bd
/GR/grestore ld
/M/moveto ld
/LJ/setlinejoin ld
/C/curveto ld
/f/fill ld
/LW/setlinewidth ld
/GC/setgray ld
/t/show ld
/N/newpath ld
/CT/concat ld
/cp/closepath ld
/S/stroke ld
/L/lineto ld
/CC/setcmykcolor ld
/A/ashow ld
/GS/gsave ld
/RC/setrgbcolor ld
/RM/rmoveto ld
/ML/setmiterlimit ld
/re {4 2 roll M
1 index 0 rlineto
0 exch rlineto
neg 0 rlineto
cp } bd
/_ctm matrix def
/_tm matrix def
/BT { _ctm currentmatrix pop matrix _tm copy pop 0 0 moveto } bd
/ET { _ctm setmatrix } bd
/iTm { _ctm setmatrix _tm concat } bd
/Tm { _tm astore pop iTm 0 0 moveto } bd
/ux 0.0 def
/uy 0.0 def
/F {
  /Tp exch def
  /Tf exch def
  Tf findfont Tp scalefont setfont
  /cf Tf def  /cs Tp def
} bd
/ULS {currentpoint /uy exch def /ux exch def} bd
/ULE {
  /Tcx currentpoint pop def
  gsave
  newpath
  cf findfont cs scalefont dup
  /FontMatrix get 0 get /Ts exch def /FontInfo get dup
  /UnderlinePosition get Ts mul /To exch def
  /UnderlineThickness get Ts mul /Tt exch def
  ux uy To add moveto  Tcx uy To add lineto
  Tt setlinewidth stroke
  grestore
} bd
/OLE {
  /Tcx currentpoint pop def
  gsave
  newpath
  cf findfont cs scalefont dup
  /FontMatrix get 0 get /Ts exch def /FontInfo get dup
  /UnderlinePosition get Ts mul /To exch def
  /UnderlineThickness get Ts mul /Tt exch def
  ux uy To add cs add moveto Tcx uy To add cs add lineto
  Tt setlinewidth stroke
  grestore
} bd
/SOE {
  /Tcx currentpoint pop def
  gsave
  newpath
  cf findfont cs scalefont dup
  /FontMatrix get 0 get /Ts exch def /FontInfo get dup
  /UnderlinePosition get Ts mul /To exch def
  /UnderlineThickness get Ts mul /Tt exch def
  ux uy To add cs 10 mul 26 idiv add moveto Tcx uy To add cs 10 mul 26 idiv add lineto
  Tt setlinewidth stroke
  grestore
} bd
/QT {
/Y22 exch store
/X22 exch store
/Y21 exch store
/X21 exch store
currentpoint
/Y21 load 2 mul add 3 div exch
/X21 load 2 mul add 3 div exch
/X21 load 2 mul /X22 load add 3 div
/Y21 load 2 mul /Y22 load add 3 div
/X22 load /Y22 load curveto
} bd
/SSPD {
dup length /d exch dict def
{
/v exch def
/k exch def
currentpagedevice k known {
/cpdv currentpagedevice k get def
v cpdv ne {
/upd false def
/nullv v type /nulltype eq def
/nullcpdv cpdv type /nulltype eq def
nullv nullcpdv or
{
/upd true def
} {
/sametype v type cpdv type eq def
sametype {
v type /arraytype eq {
/vlen v length def
/cpdvlen cpdv length def
vlen cpdvlen eq {
0 1 vlen 1 sub {
/i exch def
/obj v i get def
/cpdobj cpdv i get def
obj cpdobj ne {
/upd true def
exit
} if
} for
} {
/upd true def
} ifelse
} {
v type /dicttype eq {
v {
/dv exch def
/dk exch def
/cpddv cpdv dk get def
dv cpddv ne {
/upd true def
exit
} if
} forall
} {
/upd true def
} ifelse
} ifelse
} if
} ifelse
upd true eq {
d k v put
} if
} if
} if
} forall
d length 0 gt {
d setpagedevice
} if
} bd
/RE { % /NewFontName [NewEncodingArray] /FontName RE -
  findfont dup length dict begin
  {
    1 index /FID ne
    {def} {pop pop} ifelse
  } forall
  /Encoding exch def
  /FontName 1 index def
  currentdict definefont pop
  end
} bind def
%%EndResource
%%BeginResource: procset (Apache XML Graphics EPS ProcSet) 1.0 0
%%Version: 1.0 0
%%Copyright: (Copyright 2002-2003 The Apache Software Foundation. License terms: http://www.apache.org/licenses/LICENSE-2.0)
/BeginEPSF { %def
/b4_Inc_state save def         % Save state for cleanup
/dict_count countdictstack def % Count objects on dict stack
/op_count count 1 sub def      % Count objects on operand stack
userdict begin                 % Push userdict on dict stack
/showpage { } def              % Redefine showpage, { } = null proc
0 setgray 0 setlinecap         % Prepare graphics state
1 setlinewidth 0 setlinejoin
10 setmiterlimit [ ] 0 setdash newpath
/languagelevel where           % If level not equal to 1 then
{pop languagelevel             % set strokeadjust and
1 ne                           % overprint to their defaults.
{false setstrokeadjust false setoverprint
} if
} if
} bd
/EndEPSF { %def
count op_count sub {pop} repeat            % Clean up stacks
countdictstack dict_count sub {end} repeat
b4_Inc_state restore
} bd
%%EndResource
%FOPBeginFontDict
%%IncludeResource: font Courier-Bold
%%IncludeResource: font Helvetica
%%IncludeResource: font Courier-BoldOblique
%%IncludeResource: font Courier-Oblique
%%IncludeResource: font Times-Roman
%%IncludeResource: font Helvetica-BoldOblique
%%IncludeResource: font Helvetica-Bold
%%IncludeResource: font Helvetica-Oblique
%%IncludeResource: font Times-BoldItalic
%%IncludeResource: font Courier
%%IncludeResource: font Times-Italic
%%IncludeResource: font Times-Bold
%%IncludeResource: font Symbol
%%IncludeResource: font ZapfDingbats
%FOPEndFontDict
%%BeginResource: encoding WinAnsiEncoding
/WinAnsiEncoding [
/.notdef /.notdef /.notdef /.notdef /.notdef
/.notdef /.notdef /.notdef /.notdef /.notdef
/.notdef /.notdef /.notdef /.notdef /.notdef
/.notdef /.notdef /.notdef /.notdef /.notdef
/.notdef /.notdef /.notdef /.notdef /.notdef
/.notdef /.notdef /.notdef /.notdef /.notdef
/.notdef /.notdef /space /exclam /quotedbl
/numbersign /dollar /percent /ampersand /quotesingle
/parenleft /parenright /asterisk /plus /comma
/hyphen /period /slash /zero /one
/two /three /four /five /six
/seven /eight /nine /colon /semicolon
/less /equal /greater /question /at
/A /B /C /D /E
/F /G /H /I /J
/K /L /M /N /O
/P /Q /R /S /T
/U /V /W /X /Y
/Z /bracketleft /backslash /bracketright /asciicircum
/underscore /quoteleft /a /b /c
/d /e /f /g /h
/i /j /k /l /m
/n /o /p /q /r
/s /t /u /v /w
/x /y /z /braceleft /bar
/braceright /asciitilde /bullet /Euro /bullet
/quotesinglbase /florin /quotedblbase /ellipsis /dagger
/daggerdbl /circumflex /perthousand /Scaron /guilsinglleft
/OE /bullet /Zcaron /bullet /bullet
/quoteleft /quoteright /quotedblleft /quotedblright /bullet
/endash /emdash /asciitilde /trademark /scaron
/guilsinglright /oe /bullet /zcaron /Ydieresis
/space /exclamdown /cent /sterling /currency
/yen /brokenbar /section /dieresis /copyright
/ordfeminine /guillemotleft /logicalnot /sfthyphen /registered
/macron /degree /plusminus /twosuperior /threesuperior
/acute /mu /paragraph /middot /cedilla
/onesuperior /ordmasculine /guillemotright /onequarter /onehalf
/threequarters /questiondown /Agrave /Aacute /Acircumflex
/Atilde /Adieresis /Aring /AE /Ccedilla
/Egrave /Eacute /Ecircumflex /Edieresis /Igrave
/Iacute /Icircumflex /Idieresis /Eth /Ntilde
/Ograve /Oacute /Ocircumflex /Otilde /Odieresis
/multiply /Oslash /Ugrave /Uacute /Ucircumflex
/Udieresis /Yacute /Thorn /germandbls /agrave
/aacute /acircumflex /atilde /adieresis /aring
/ae /ccedilla /egrave /eacute /ecircumflex
/edieresis /igrave /iacute /icircumflex /idieresis
/eth /ntilde /ograve /oacute /ocircumflex
/otilde /odieresis /divide /oslash /ugrave
/uacute /ucircumflex /udieresis /yacute /thorn
/ydieresis
] def
%%EndResource
%FOPBeginFontReencode
/Courier-Bold findfont
dup length dict begin
  {1 index /FID ne {def} {pop pop} ifelse} forall
  /Encoding WinAnsiEncoding def
  currentdict
end
/Courier-Bold exch definefont pop
/Helvetica findfont
dup length dict begin
  {1 index /FID ne {def} {pop pop} ifelse} forall
  /Encoding WinAnsiEncoding def
  currentdict
end
/Helvetica exch definefont pop
/Courier-BoldOblique findfont
dup length dict begin
  {1 index /FID ne {def} {pop pop} ifelse} forall
  /Encoding WinAnsiEncoding def
  currentdict
end
/Courier-BoldOblique exch definefont pop
/Courier-Oblique findfont
dup length dict begin
  {1 index /FID ne {def} {pop pop} ifelse} forall
  /Encoding WinAnsiEncoding def
  currentdict
end
/Courier-Oblique exch definefont pop
/Times-Roman findfont
dup length dict begin
  {1 index /FID ne {def} {pop pop} ifelse} forall
  /Encoding WinAnsiEncoding def
  currentdict
end
/Times-Roman exch definefont pop
/Helvetica-BoldOblique findfont
dup length dict begin
  {1 index /FID ne {def} {pop pop} ifelse} forall
  /Encoding WinAnsiEncoding def
  currentdict
end
/Helvetica-BoldOblique exch definefont pop
/Helvetica-Bold findfont
dup length dict begin
  {1 index /FID ne {def} {pop pop} ifelse} forall
  /Encoding WinAnsiEncoding def
  currentdict
end
/Helvetica-Bold exch definefont pop
/Helvetica-Oblique findfont
dup length dict begin
  {1 index /FID ne {def} {pop pop} ifelse} forall
  /Encoding WinAnsiEncoding def
  currentdict
end
/Helvetica-Oblique exch definefont pop
/Times-BoldItalic findfont
dup length dict begin
  {1 index /FID ne {def} {pop pop} ifelse} forall
  /Encoding WinAnsiEncoding def
  currentdict
end
/Times-BoldItalic exch definefont pop
/Courier findfont
dup length dict begin
  {1 index /FID ne {def} {pop pop} ifelse} forall
  /Encoding WinAnsiEncoding def
  currentdict
end
/Courier exch definefont pop
/Times-Italic findfont
dup length dict begin
  {1 index /FID ne {def} {pop pop} ifelse} forall
  /Encoding WinAnsiEncoding def
  currentdict
end
/Times-Italic exch definefont pop
/Times-Bold findfont
dup length dict begin
  {1 index /FID ne {def} {pop pop} ifelse} forall
  /Encoding WinAnsiEncoding def
  currentdict
end
/Times-Bold exch definefont pop
%FOPEndFontReencode
%%EndProlog
%%Page: 1 1
%%PageBoundingBox: 0 0 842 497
%%BeginPageSetup
[1 0 0 -1 0 497] CT
%%EndPageSetup
GS
[0.75 0 0 0.75 0 -0.25] CT
1 GC
N
0 0 1123 663 re
f
GR
GS
[0.75 0 0 0.75 0 -0.25] CT
1 GC
N
0 0 1123 663 re
f
GR
GS
[0.75 0 0 0.75 0 -0.25] CT
1 GC
N
51 306 M
1071 306 L
1071 51 L
51 51 L
cp
f
GR
GS
[0.75 0 0 0.75 0 -0.25] CT
0.149 GC
2 setlinecap
1 LJ
0.667 LW
N
51 306 M
1071 306 L
S
GR
GS
[0.75 0 0 0.75 0 -0.25] CT
0.149 GC
2 setlinecap
1 LJ
0.667 LW
N
51 306 M
51 295.8 L
S
GR
GS
[0.75 0 0 0.75 0 -0.25] CT
0.149 GC
2 setlinecap
1 LJ
0.667 LW
N
114.75 306 M
114.75 295.8 L
S
GR
GS
[0.75 0 0 0.75 0 -0.25] CT
0.149 GC
2 setlinecap
1 LJ
0.667 LW
N
178.5 306 M
178.5 295.8 L
S
GR
GS
[0.75 0 0 0.75 0 -0.25] CT
0.149 GC
2 setlinecap
1 LJ
0.667 LW
N
242.25 306 M
242.25 295.8 L
S
GR
GS
[0.75 0 0 0.75 0 -0.25] CT
0.149 GC
2 setlinecap
1 LJ
0.667 LW
N
306 306 M
306 295.8 L
S
GR
GS
[0.75 0 0 0.75 0 -0.25] CT
0.149 GC
2 setlinecap
1 LJ
0.667 LW
N
369.75 306 M
369.75 295.8 L
S
GR
GS
[0.75 0 0 0.75 0 -0.25] CT
0.149 GC
2 setlinecap
1 LJ
0.667 LW
N
433.5 306 M
433.5 295.8 L
S
GR
GS
[0.75 0 0 0.75 0 -0.25] CT
0.149 GC
2 setlinecap
1 LJ
0.667 LW
N
497.25 306 M
497.25 295.8 L
S
GR
GS
[0.75 0 0 0.75 0 -0.25] CT
0.149 GC
2 setlinecap
1 LJ
0.667 LW
N
561 306 M
561 295.8 L
S
GR
GS
[0.75 0 0 0.75 0 -0.25] CT
0.149 GC
2 setlinecap
1 LJ
0.667 LW
N
624.75 306 M
624.75 295.8 L
S
GR
GS
[0.75 0 0 0.75 0 -0.25] CT
0.149 GC
2 setlinecap
1 LJ
0.667 LW
N
688.5 306 M
688.5 295.8 L
S
GR
GS
[0.75 0 0 0.75 0 -0.25] CT
0.149 GC
2 setlinecap
1 LJ
0.667 LW
N
752.25 306 M
752.25 295.8 L
S
GR
GS
[0.75 0 0 0.75 0 -0.25] CT
0.149 GC
2 setlinecap
1 LJ
0.667 LW
N
816 306 M
816 295.8 L
S
GR
GS
[0.75 0 0 0.75 0 -0.25] CT
0.149 GC
2 setlinecap
1 LJ
0.667 LW
N
879.75 306 M
879.75 295.8 L
S
GR
GS
[0.75 0 0 0.75 0 -0.25] CT
0.149 GC
2 setlinecap
1 LJ
0.667 LW
N
943.5 306 M
943.5 295.8 L
S
GR
GS
[0.75 0 0 0.75 0 -0.25] CT
0.149 GC
2 setlinecap
1 LJ
0.667 LW
N
1007.25 306 M
1007.25 295.8 L
S
GR
GS
[0.75 0 0 0.75 0 -0.25] CT
0.149 GC
2 setlinecap
1 LJ
0.667 LW
N
1071 306 M
1071 295.8 L
S
GR
GS
[0.75 0 0 0.75 0 -0.25] CT
0.149 GC
2 setlinecap
1 LJ
0.667 LW
N
63.75 306 M
63.75 300.9 L
S
GR
GS
[0.75 0 0 0.75 0 -0.25] CT
0.149 GC
2 setlinecap
1 LJ
0.667 LW
N
76.5 306 M
76.5 300.9 L
S
GR
GS
[0.75 0 0 0.75 0 -0.25] CT
0.149 GC
2 setlinecap
1 LJ
0.667 LW
N
89.25 306 M
89.25 300.9 L
S
GR
GS
[0.75 0 0 0.75 0 -0.25] CT
0.149 GC
2 setlinecap
1 LJ
0.667 LW
N
102 306 M
102 300.9 L
S
GR
GS
[0.75 0 0 0.75 0 -0.25] CT
0.149 GC
2 setlinecap
1 LJ
0.667 LW
N
127.5 306 M
127.5 300.9 L
S
GR
GS
[0.75 0 0 0.75 0 -0.25] CT
0.149 GC
2 setlinecap
1 LJ
0.667 LW
N
140.25 306 M
140.25 300.9 L
S
GR
GS
[0.75 0 0 0.75 0 -0.25] CT
0.149 GC
2 setlinecap
1 LJ
0.667 LW
N
153 306 M
153 300.9 L
S
GR
GS
[0.75 0 0 0.75 0 -0.25] CT
0.149 GC
2 setlinecap
1 LJ
0.667 LW
N
165.75 306 M
165.75 300.9 L
S
GR
GS
[0.75 0 0 0.75 0 -0.25] CT
0.149 GC
2 setlinecap
1 LJ
0.667 LW
N
191.25 306 M
191.25 300.9 L
S
GR
GS
[0.75 0 0 0.75 0 -0.25] CT
0.149 GC
2 setlinecap
1 LJ
0.667 LW
N
204 306 M
204 300.9 L
S
GR
GS
[0.75 0 0 0.75 0 -0.25] CT
0.149 GC
2 setlinecap
1 LJ
0.667 LW
N
216.75 306 M
216.75 300.9 L
S
GR
GS
[0.75 0 0 0.75 0 -0.25] CT
0.149 GC
2 setlinecap
1 LJ
0.667 LW
N
229.5 306 M
229.5 300.9 L
S
GR
GS
[0.75 0 0 0.75 0 -0.25] CT
0.149 GC
2 setlinecap
1 LJ
0.667 LW
N
255 306 M
255 300.9 L
S
GR
GS
[0.75 0 0 0.75 0 -0.25] CT
0.149 GC
2 setlinecap
1 LJ
0.667 LW
N
267.75 306 M
267.75 300.9 L
S
GR
GS
[0.75 0 0 0.75 0 -0.25] CT
0.149 GC
2 setlinecap
1 LJ
0.667 LW
N
280.5 306 M
280.5 300.9 L
S
GR
GS
[0.75 0 0 0.75 0 -0.25] CT
0.149 GC
2 setlinecap
1 LJ
0.667 LW
N
293.25 306 M
293.25 300.9 L
S
GR
GS
[0.75 0 0 0.75 0 -0.25] CT
0.149 GC
2 setlinecap
1 LJ
0.667 LW
N
318.75 306 M
318.75 300.9 L
S
GR
GS
[0.75 0 0 0.75 0 -0.25] CT
0.149 GC
2 setlinecap
1 LJ
0.667 LW
N
331.5 306 M
331.5 300.9 L
S
GR
GS
[0.75 0 0 0.75 0 -0.25] CT
0.149 GC
2 setlinecap
1 LJ
0.667 LW
N
344.25 306 M
344.25 300.9 L
S
GR
GS
[0.75 0 0 0.75 0 -0.25] CT
0.149 GC
2 setlinecap
1 LJ
0.667 LW
N
357 306 M
357 300.9 L
S
GR
GS
[0.75 0 0 0.75 0 -0.25] CT
0.149 GC
2 setlinecap
1 LJ
0.667 LW
N
382.5 306 M
382.5 300.9 L
S
GR
GS
[0.75 0 0 0.75 0 -0.25] CT
0.149 GC
2 setlinecap
1 LJ
0.667 LW
N
395.25 306 M
395.25 300.9 L
S
GR
GS
[0.75 0 0 0.75 0 -0.25] CT
0.149 GC
2 setlinecap
1 LJ
0.667 LW
N
408 306 M
408 300.9 L
S
GR
GS
[0.75 0 0 0.75 0 -0.25] CT
0.149 GC
2 setlinecap
1 LJ
0.667 LW
N
420.75 306 M
420.75 300.9 L
S
GR
GS
[0.75 0 0 0.75 0 -0.25] CT
0.149 GC
2 setlinecap
1 LJ
0.667 LW
N
446.25 306 M
446.25 300.9 L
S
GR
GS
[0.75 0 0 0.75 0 -0.25] CT
0.149 GC
2 setlinecap
1 LJ
0.667 LW
N
459 306 M
459 300.9 L
S
GR
GS
[0.75 0 0 0.75 0 -0.25] CT
0.149 GC
2 setlinecap
1 LJ
0.667 LW
N
471.75 306 M
471.75 300.9 L
S
GR
GS
[0.75 0 0 0.75 0 -0.25] CT
0.149 GC
2 setlinecap
1 LJ
0.667 LW
N
484.5 306 M
484.5 300.9 L
S
GR
GS
[0.75 0 0 0.75 0 -0.25] CT
0.149 GC
2 setlinecap
1 LJ
0.667 LW
N
510 306 M
510 300.9 L
S
GR
GS
[0.75 0 0 0.75 0 -0.25] CT
0.149 GC
2 setlinecap
1 LJ
0.667 LW
N
522.75 306 M
522.75 300.9 L
S
GR
GS
[0.75 0 0 0.75 0 -0.25] CT
0.149 GC
2 setlinecap
1 LJ
0.667 LW
N
535.5 306 M
535.5 300.9 L
S
GR
GS
[0.75 0 0 0.75 0 -0.25] CT
0.149 GC
2 setlinecap
1 LJ
0.667 LW
N
548.25 306 M
548.25 300.9 L
S
GR
GS
[0.75 0 0 0.75 0 -0.25] CT
0.149 GC
2 setlinecap
1 LJ
0.667 LW
N
573.75 306 M
573.75 300.9 L
S
GR
GS
[0.75 0 0 0.75 0 -0.25] CT
0.149 GC
2 setlinecap
1 LJ
0.667 LW
N
586.5 306 M
586.5 300.9 L
S
GR
GS
[0.75 0 0 0.75 0 -0.25] CT
0.149 GC
2 setlinecap
1 LJ
0.667 LW
N
599.25 306 M
599.25 300.9 L
S
GR
GS
[0.75 0 0 0.75 0 -0.25] CT
0.149 GC
2 setlinecap
1 LJ
0.667 LW
N
612 306 M
612 300.9 L
S
GR
GS
[0.75 0 0 0.75 0 -0.25] CT
0.149 GC
2 setlinecap
1 LJ
0.667 LW
N
637.5 306 M
637.5 300.9 L
S
GR
GS
[0.75 0 0 0.75 0 -0.25] CT
0.149 GC
2 setlinecap
1 LJ
0.667 LW
N
650.25 306 M
650.25 300.9 L
S
GR
GS
[0.75 0 0 0.75 0 -0.25] CT
0.149 GC
2 setlinecap
1 LJ
0.667 LW
N
663 306 M
663 300.9 L
S
GR
GS
[0.75 0 0 0.75 0 -0.25] CT
0.149 GC
2 setlinecap
1 LJ
0.667 LW
N
675.75 306 M
675.75 300.9 L
S
GR
GS
[0.75 0 0 0.75 0 -0.25] CT
0.149 GC
2 setlinecap
1 LJ
0.667 LW
N
701.25 306 M
701.25 300.9 L
S
GR
GS
[0.75 0 0 0.75 0 -0.25] CT
0.149 GC
2 setlinecap
1 LJ
0.667 LW
N
714 306 M
714 300.9 L
S
GR
GS
[0.75 0 0 0.75 0 -0.25] CT
0.149 GC
2 setlinecap
1 LJ
0.667 LW
N
726.75 306 M
726.75 300.9 L
S
GR
GS
[0.75 0 0 0.75 0 -0.25] CT
0.149 GC
2 setlinecap
1 LJ
0.667 LW
N
739.5 306 M
739.5 300.9 L
S
GR
GS
[0.75 0 0 0.75 0 -0.25] CT
0.149 GC
2 setlinecap
1 LJ
0.667 LW
N
765 306 M
765 300.9 L
S
GR
GS
[0.75 0 0 0.75 0 -0.25] CT
0.149 GC
2 setlinecap
1 LJ
0.667 LW
N
777.75 306 M
777.75 300.9 L
S
GR
GS
[0.75 0 0 0.75 0 -0.25] CT
0.149 GC
2 setlinecap
1 LJ
0.667 LW
N
790.5 306 M
790.5 300.9 L
S
GR
GS
[0.75 0 0 0.75 0 -0.25] CT
0.149 GC
2 setlinecap
1 LJ
0.667 LW
N
803.25 306 M
803.25 300.9 L
S
GR
GS
[0.75 0 0 0.75 0 -0.25] CT
0.149 GC
2 setlinecap
1 LJ
0.667 LW
N
828.75 306 M
828.75 300.9 L
S
GR
GS
[0.75 0 0 0.75 0 -0.25] CT
0.149 GC
2 setlinecap
1 LJ
0.667 LW
N
841.5 306 M
841.5 300.9 L
S
GR
GS
[0.75 0 0 0.75 0 -0.25] CT
0.149 GC
2 setlinecap
1 LJ
0.667 LW
N
854.25 306 M
854.25 300.9 L
S
GR
GS
[0.75 0 0 0.75 0 -0.25] CT
0.149 GC
2 setlinecap
1 LJ
0.667 LW
N
867 306 M
867 300.9 L
S
GR
GS
[0.75 0 0 0.75 0 -0.25] CT
0.149 GC
2 setlinecap
1 LJ
0.667 LW
N
892.5 306 M
892.5 300.9 L
S
GR
GS
[0.75 0 0 0.75 0 -0.25] CT
0.149 GC
2 setlinecap
1 LJ
0.667 LW
N
905.25 306 M
905.25 300.9 L
S
GR
GS
[0.75 0 0 0.75 0 -0.25] CT
0.149 GC
2 setlinecap
1 LJ
0.667 LW
N
918 306 M
918 300.9 L
S
GR
GS
[0.75 0 0 0.75 0 -0.25] CT
0.149 GC
2 setlinecap
1 LJ
0.667 LW
N
930.75 306 M
930.75 300.9 L
S
GR
GS
[0.75 0 0 0.75 0 -0.25] CT
0.149 GC
2 setlinecap
1 LJ
0.667 LW
N
956.25 306 M
956.25 300.9 L
S
GR
GS
[0.75 0 0 0.75 0 -0.25] CT
0.149 GC
2 setlinecap
1 LJ
0.667 LW
N
969 306 M
969 300.9 L
S
GR
GS
[0.75 0 0 0.75 0 -0.25] CT
0.149 GC
2 setlinecap
1 LJ
0.667 LW
N
981.75 306 M
981.75 300.9 L
S
GR
GS
[0.75 0 0 0.75 0 -0.25] CT
0.149 GC
2 setlinecap
1 LJ
0.667 LW
N
994.5 306 M
994.5 300.9 L
S
GR
GS
[0.75 0 0 0.75 0 -0.25] CT
0.149 GC
2 setlinecap
1 LJ
0.667 LW
N
1020 306 M
1020 300.9 L
S
GR
GS
[0.75 0 0 0.75 0 -0.25] CT
0.149 GC
2 setlinecap
1 LJ
0.667 LW
N
1032.75 306 M
1032.75 300.9 L
S
GR
GS
[0.75 0 0 0.75 0 -0.25] CT
0.149 GC
2 setlinecap
1 LJ
0.667 LW
N
1045.5 306 M
1045.5 300.9 L
S
GR
GS
[0.75 0 0 0.75 0 -0.25] CT
0.149 GC
2 setlinecap
1 LJ
0.667 LW
N
1058.25 306 M
1058.25 300.9 L
S
GR
GS
[0.75 0 0 0.75 38.25 233.25001] CT
0.149 GC
/Helvetica 13.333 F
GS
[1 0 0 1 0 0] CT
-4 14 moveto 
1 -1 scale
(0) t 
GR
GR
GS
[0.75 0 0 0.75 86.0625 233.25001] CT
0.149 GC
/Helvetica 13.333 F
GS
[1 0 0 1 0 0] CT
-4 14 moveto 
1 -1 scale
(1) t 
GR
GR
GS
[0.75 0 0 0.75 133.875 233.25001] CT
0.149 GC
/Helvetica 13.333 F
GS
[1 0 0 1 0 0] CT
-4 14 moveto 
1 -1 scale
(2) t 
GR
GR
GS
[0.75 0 0 0.75 181.6875 233.25001] CT
0.149 GC
/Helvetica 13.333 F
GS
[1 0 0 1 0 0] CT
-4 14 moveto 
1 -1 scale
(3) t 
GR
GR
GS
[0.75 0 0 0.75 229.5 233.25001] CT
0.149 GC
/Helvetica 13.333 F
GS
[1 0 0 1 0 0] CT
-4 14 moveto 
1 -1 scale
(4) t 
GR
GR
GS
[0.75 0 0 0.75 277.3125 233.25001] CT
0.149 GC
/Helvetica 13.333 F
GS
[1 0 0 1 0 0] CT
-4 14 moveto 
1 -1 scale
(5) t 
GR
GR
GS
[0.75 0 0 0.75 325.125 233.25001] CT
0.149 GC
/Helvetica 13.333 F
GS
[1 0 0 1 0 0] CT
-4 14 moveto 
1 -1 scale
(6) t 
GR
GR
GS
[0.75 0 0 0.75 372.9375 233.25001] CT
0.149 GC
/Helvetica 13.333 F
GS
[1 0 0 1 0 0] CT
-4 14 moveto 
1 -1 scale
(7) t 
GR
GR
GS
[0.75 0 0 0.75 420.75 233.25001] CT
0.149 GC
/Helvetica 13.333 F
GS
[1 0 0 1 0 0] CT
-4 14 moveto 
1 -1 scale
(8) t 
GR
GR
GS
[0.75 0 0 0.75 468.5625 233.25001] CT
0.149 GC
/Helvetica 13.333 F
GS
[1 0 0 1 0 0] CT
-4 14 moveto 
1 -1 scale
(9) t 
GR
GR
GS
[0.75 0 0 0.75 516.375 233.25001] CT
0.149 GC
/Helvetica 13.333 F
GS
[1 0 0 1 0 0] CT
-7.5 14 moveto 
1 -1 scale
(10) t 
GR
GR
GS
[0.75 0 0 0.75 564.1875 233.25001] CT
0.149 GC
/Helvetica 13.333 F
GS
[1 0 0 1 0 0] CT
-7.5 14 moveto 
1 -1 scale
(11) t 
GR
GR
GS
[0.75 0 0 0.75 612 233.25001] CT
0.149 GC
/Helvetica 13.333 F
GS
[1 0 0 1 0 0] CT
-7.5 14 moveto 
1 -1 scale
(12) t 
GR
GR
GS
[0.75 0 0 0.75 659.8125 233.25001] CT
0.149 GC
/Helvetica 13.333 F
GS
[1 0 0 1 0 0] CT
-7.5 14 moveto 
1 -1 scale
(13) t 
GR
GR
GS
[0.75 0 0 0.75 707.625 233.25001] CT
0.149 GC
/Helvetica 13.333 F
GS
[1 0 0 1 0 0] CT
-7.5 14 moveto 
1 -1 scale
(14) t 
GR
GR
GS
[0.75 0 0 0.75 755.4375 233.25001] CT
0.149 GC
/Helvetica 13.333 F
GS
[1 0 0 1 0 0] CT
-7.5 14 moveto 
1 -1 scale
(15) t 
GR
GR
GS
[0.75 0 0 0.75 803.25 233.25001] CT
0.149 GC
/Helvetica 13.333 F
GS
[1 0 0 1 0 0] CT
-7.5 14 moveto 
1 -1 scale
(16) t 
GR
GR
GS
[0.75 0 0 0.75 0 -0.25] CT
1 1 0 RC
N
51 299.2 M
63.049 299.2 L
63.049 231.2 L
51 231.2 L
cp
f
GR
GS
[0.75 0 0 0.75 0 -0.25] CT
1 1 0 RC
10.0 ML
0.667 LW
N
51 299.2 M
63.049 299.2 L
63.049 231.2 L
51 231.2 L
cp
S
GR
GS
[0 -0.75 0.75 0 43.03125 206.3] CT
/Helvetica 12 F
GS
[1 0 0 1 0 0] CT
0 5 moveto 
1 -1 scale
(GUN) t 
GR
GR
GS
[0.75 0 0 0.75 0 -0.25] CT
1 1 0 RC
N
221.531 299.2 M
330.544 299.2 L
330.544 231.2 L
221.531 231.2 L
cp
f
GR
GS
[0.75 0 0 0.75 0 -0.25] CT
1 1 0 RC
10.0 ML
0.667 LW
N
221.531 299.2 M
330.544 299.2 L
330.544 231.2 L
221.531 231.2 L
cp
S
GR
GS
[0.75 0 0 0.75 207.02813 198.65001] CT
/Helvetica 12 F
GS
[1 0 0 1 0 0] CT
-44.5 5 moveto 
1 -1 scale
(CDS-BOOSTER) t 
GR
GR
GS
[0.75 0 0 0.75 0 -0.25] CT
1 1 0 RC
N
729.427 299.2 M
773.211 299.2 L
773.211 231.2 L
729.427 231.2 L
cp
f
GR
GS
[0.75 0 0 0.75 0 -0.25] CT
1 1 0 RC
10.0 ML
0.667 LW
N
729.427 299.2 M
773.211 299.2 L
773.211 231.2 L
729.427 231.2 L
cp
S
GR
GS
[0.75 0 0 0.75 563.48946 198.65001] CT
/Helvetica 12 F
GS
[1 0 0 1 0 0] CT
-12 5 moveto 
1 -1 scale
(TDS) t 
GR
GR
GS
[0.75 0 0 0.75 0 -0.25] CT
1 1 0 RC
N
/f1744404848{729.427 299.2 M
773.211 299.2 L
773.211 231.2 L
729.427 231.2 L
cp}def
f1744404848
f
GR
GS
[0.75 0 0 0.75 0 -0.25] CT
1 1 0 RC
10.0 ML
0.667 LW
N
729.427 299.2 M
773.211 299.2 L
773.211 231.2 L
729.427 231.2 L
cp
S
GR
GS
[0.75 0 0 0.75 563.48946 198.65001] CT
/Helvetica 12 F
GS
[1 0 0 1 0 0] CT
-12 5 moveto 
1 -1 scale
(TDS) t 
GR
GR
GS
[0.75 0 0 0.75 0 -0.25] CT
1 0 0 RC
N
/f1961747092{354.354 306 M
358.371 306 L
358.371 136 L
354.354 136 L
cp}def
f1961747092
f
GR
GS
[0.75 0 0 0.75 0 -0.25] CT
1 0 0 RC
10.0 ML
0.667 LW
N
354.354 306 M
358.371 306 L
358.371 136 L
354.354 136 L
cp
S
GR
GS
[0 -0.75 0.75 0 267.27187 96.65001] CT
1 0 0 RC
/Helvetica 10.667 F
GS
[1 0 0 1 0 0] CT
0 4.5 moveto 
1 -1 scale
(HIGH1.Q1) t 
GR
GR
GS
[0.75 0 0 0.75 0 -0.25] CT
1 0 0 RC
N
/f1206915622{368.061 306 M
372.077 306 L
372.077 136 L
368.061 136 L
cp}def
f1206915622
f
GR
GS
[0.75 0 0 0.75 0 -0.25] CT
1 0 0 RC
10.0 ML
0.667 LW
N
368.061 306 M
372.077 306 L
372.077 136 L
368.061 136 L
cp
S
GR
GS
[0 -0.75 0.75 0 277.55157 96.65001] CT
1 0 0 RC
/Helvetica 10.667 F
GS
[1 0 0 1 0 0] CT
0 4.5 moveto 
1 -1 scale
(HIGH1.Q2) t 
GR
GR
GS
[0.75 0 0 0.75 0 -0.25] CT
1 0 0 RC
N
/f2061664906{406.151 306 M
410.167 306 L
410.167 136 L
406.151 136 L
cp}def
f2061664906
f
GR
GS
[0.75 0 0 0.75 0 -0.25] CT
1 0 0 RC
10.0 ML
0.667 LW
N
406.151 306 M
410.167 306 L
410.167 136 L
406.151 136 L
cp
S
GR
GS
[0 -0.75 0.75 0 306.11952 96.65001] CT
1 0 0 RC
/Helvetica 10.667 F
GS
[1 0 0 1 0 0] CT
0 4.5 moveto 
1 -1 scale
(HIGH1.Q3) t 
GR
GR
GS
[0.75 0 0 0.75 0 -0.25] CT
1 0 0 RC
N
/f-1726404228{422.089 306 M
426.105 306 L
426.105 136 L
422.089 136 L
cp}def
f-1726404228
f
GR
GS
[0.75 0 0 0.75 0 -0.25] CT
1 0 0 RC
10.0 ML
0.667 LW
N
422.089 306 M
426.105 306 L
426.105 136 L
422.089 136 L
cp
S
GR
GS
[0 -0.75 0.75 0 318.07265 96.65001] CT
1 0 0 RC
/Helvetica 10.667 F
GS
[1 0 0 1 0 0] CT
0 4.5 moveto 
1 -1 scale
(HIGH1.Q4) t 
GR
GR
GS
[0.75 0 0 0.75 0 -0.25] CT
1 0 0 RC
N
/f-1158879176{472.77 306 M
476.786 306 L
476.786 136 L
472.77 136 L
cp}def
f-1158879176
f
GR
GS
[0.75 0 0 0.75 0 -0.25] CT
1 0 0 RC
10.0 ML
0.667 LW
N
472.77 306 M
476.786 306 L
476.786 136 L
472.77 136 L
cp
S
GR
GS
[0 -0.75 0.75 0 356.0836 96.65001] CT
1 0 0 RC
/Helvetica 10.667 F
GS
[1 0 0 1 0 0] CT
0 4.5 moveto 
1 -1 scale
(HIGH1.Q5) t 
GR
GR
GS
[0.75 0 0 0.75 0 -0.25] CT
1 0 0 RC
N
/f-576973626{488.389 306 M
492.405 306 L
492.405 136 L
488.389 136 L
cp}def
f-576973626
f
GR
GS
[0.75 0 0 0.75 0 -0.25] CT
1 0 0 RC
10.0 ML
0.667 LW
N
488.389 306 M
492.405 306 L
492.405 136 L
488.389 136 L
cp
S
GR
GS
[0 -0.75 0.75 0 367.79766 96.65001] CT
1 0 0 RC
/Helvetica 10.667 F
GS
[1 0 0 1 0 0] CT
0 4.5 moveto 
1 -1 scale
(HIGH1.Q6) t 
GR
GR
GS
[0.75 0 0 0.75 0 -0.25] CT
1 0 0 RC
N
/f-1827034726{570.467 306 M
574.483 306 L
574.483 136 L
570.467 136 L
cp}def
f-1827034726
f
GR
GS
[0.75 0 0 0.75 0 -0.25] CT
1 0 0 RC
10.0 ML
0.667 LW
N
570.467 306 M
574.483 306 L
574.483 136 L
570.467 136 L
cp
S
GR
GS
[0 -0.75 0.75 0 429.35628 96.65001] CT
1 0 0 RC
/Helvetica 10.667 F
GS
[1 0 0 1 0 0] CT
0 4.5 moveto 
1 -1 scale
(HIGH1.Q7) t 
GR
GR
GS
[0.75 0 0 0.75 0 -0.25] CT
1 0 0 RC
N
/f-196189214{600.748 306 M
604.764 306 L
604.764 136 L
600.748 136 L
cp}def
f-196189214
f
GR
GS
[0.75 0 0 0.75 0 -0.25] CT
1 0 0 RC
10.0 ML
0.667 LW
N
600.748 306 M
604.764 306 L
604.764 136 L
600.748 136 L
cp
S
GR
GS
[0 -0.75 0.75 0 452.06717 96.65001] CT
1 0 0 RC
/Helvetica 10.667 F
GS
[1 0 0 1 0 0] CT
0 4.5 moveto 
1 -1 scale
(HIGH1.Q8) t 
GR
GR
GS
[0.75 0 0 0.75 0 -0.25] CT
1 0 0 RC
N
/f16062312{699.752 306 M
703.768 306 L
703.768 136 L
699.752 136 L
cp}def
f16062312
f
GR
GS
[0.75 0 0 0.75 0 -0.25] CT
1 0 0 RC
10.0 ML
0.667 LW
N
699.752 306 M
703.768 306 L
703.768 136 L
699.752 136 L
cp
S
GR
GS
[0 -0.75 0.75 0 526.32001 96.65001] CT
1 0 0 RC
/Helvetica 10.667 F
GS
[1 0 0 1 0 0] CT
0 4.5 moveto 
1 -1 scale
(HIGH1.Q9) t 
GR
GR
GS
[0.75 0 0 0.75 0 -0.25] CT
1 0 0 RC
N
/f-876348050{711.227 306 M
715.243 306 L
715.243 136 L
711.227 136 L
cp}def
f-876348050
f
GR
GS
[0.75 0 0 0.75 0 -0.25] CT
1 0 0 RC
10.0 ML
0.667 LW
N
711.227 306 M
715.243 306 L
715.243 136 L
711.227 136 L
cp
S
GR
GS
[0 -0.75 0.75 0 534.92624 96.65001] CT
1 0 0 RC
/Helvetica 10.667 F
GS
[1 0 0 1 0 0] CT
0 4.5 moveto 
1 -1 scale
(HIGH1.Q10) t 
GR
GR
GS
[0.75 0 0 0.75 0 -0.25] CT
1 0 0 RC
N
/f467365958{819.602 306 M
823.618 306 L
823.618 136 L
819.602 136 L
cp}def
f467365958
f
GR
GS
[0.75 0 0 0.75 0 -0.25] CT
1 0 0 RC
10.0 ML
0.667 LW
N
819.602 306 M
823.618 306 L
823.618 136 L
819.602 136 L
cp
S
GR
GS
[0 -0.75 0.75 0 616.20753 96.65001] CT
1 0 0 RC
/Helvetica 10.667 F
GS
[1 0 0 1 0 0] CT
0 4.5 moveto 
1 -1 scale
(PST.QM1) t 
GR
GR
GS
[0.75 0 0 0.75 0 -0.25] CT
1 0 0 RC
N
/f1057848534{843.827 306 M
847.843 306 L
847.843 136 L
843.827 136 L
cp}def
f1057848534
f
GR
GS
[0.75 0 0 0.75 0 -0.25] CT
1 0 0 RC
10.0 ML
0.667 LW
N
843.827 306 M
847.843 306 L
847.843 136 L
843.827 136 L
cp
S
GR
GS
[0 -0.75 0.75 0 634.37627 96.65001] CT
1 0 0 RC
/Helvetica 10.667 F
GS
[1 0 0 1 0 0] CT
0 4.5 moveto 
1 -1 scale
(PST.QM2) t 
GR
GR
GS
[0.75 0 0 0.75 0 -0.25] CT
1 0 0 RC
N
/f1385026186{868.052 306 M
872.068 306 L
872.068 136 L
868.052 136 L
cp}def
f1385026186
f
GR
GS
[0.75 0 0 0.75 0 -0.25] CT
1 0 0 RC
10.0 ML
0.667 LW
N
868.052 306 M
872.068 306 L
872.068 136 L
868.052 136 L
cp
S
GR
GS
[0 -0.75 0.75 0 652.545 96.65001] CT
1 0 0 RC
/Helvetica 10.667 F
GS
[1 0 0 1 0 0] CT
0 4.5 moveto 
1 -1 scale
(PST.QM3) t 
GR
GR
GS
[0.75 0 0 0.75 0 -0.25] CT
1 0 0 RC
N
/f1975508762{892.277 306 M
896.293 306 L
896.293 136 L
892.277 136 L
cp}def
f1975508762
f
GR
GS
[0.75 0 0 0.75 0 -0.25] CT
1 0 0 RC
10.0 ML
0.667 LW
N
892.277 306 M
896.293 306 L
896.293 136 L
892.277 136 L
cp
S
GR
GS
[0 -0.75 0.75 0 670.71373 96.65001] CT
1 0 0 RC
/Helvetica 10.667 F
GS
[1 0 0 1 0 0] CT
0 4.5 moveto 
1 -1 scale
(PST.QT1) t 
GR
GR
GS
[0.75 0 0 0.75 0 -0.25] CT
1 0 0 RC
N
/f1095763794{916.502 306 M
920.518 306 L
920.518 136 L
916.502 136 L
cp}def
f1095763794
f
GR
GS
[0.75 0 0 0.75 0 -0.25] CT
1 0 0 RC
10.0 ML
0.667 LW
N
916.502 306 M
920.518 306 L
920.518 136 L
916.502 136 L
cp
S
GR
GS
[0 -0.75 0.75 0 688.88251 96.65001] CT
1 0 0 RC
/Helvetica 10.667 F
GS
[1 0 0 1 0 0] CT
0 4.5 moveto 
1 -1 scale
(PST.QT2) t 
GR
GR
GS
[0.75 0 0 0.75 0 -0.25] CT
1 0 0 RC
N
/f1686246370{940.727 306 M
944.743 306 L
944.743 136 L
940.727 136 L
cp}def
f1686246370
f
GR
GS
[0.75 0 0 0.75 0 -0.25] CT
1 0 0 RC
10.0 ML
0.667 LW
N
940.727 306 M
944.743 306 L
944.743 136 L
940.727 136 L
cp
S
GR
GS
[0 -0.75 0.75 0 707.05124 96.65001] CT
1 0 0 RC
/Helvetica 10.667 F
GS
[1 0 0 1 0 0] CT
0 4.5 moveto 
1 -1 scale
(PST.QT3) t 
GR
GR
GS
[0.75 0 0 0.75 0 -0.25] CT
1 0 0 RC
N
/f200354332{964.952 306 M
968.968 306 L
968.968 136 L
964.952 136 L
cp}def
f200354332
f
GR
GS
[0.75 0 0 0.75 0 -0.25] CT
1 0 0 RC
10.0 ML
0.667 LW
N
964.952 306 M
968.968 306 L
968.968 136 L
964.952 136 L
cp
S
GR
GS
[0 -0.75 0.75 0 725.22002 96.65001] CT
1 0 0 RC
/Helvetica 10.667 F
GS
[1 0 0 1 0 0] CT
0 4.5 moveto 
1 -1 scale
(PST.QT4) t 
GR
GR
GS
[0.75 0 0 0.75 0 -0.25] CT
1 0 0 RC
N
/f-91349040{989.177 306 M
993.193 306 L
993.193 136 L
989.177 136 L
cp}def
f-91349040
f
GR
GS
[0.75 0 0 0.75 0 -0.25] CT
1 0 0 RC
10.0 ML
0.667 LW
N
989.177 306 M
993.193 306 L
993.193 136 L
989.177 136 L
cp
S
GR
GS
[0 -0.75 0.75 0 743.38875 96.65001] CT
1 0 0 RC
/Helvetica 10.667 F
GS
[1 0 0 1 0 0] CT
0 4.5 moveto 
1 -1 scale
(PST.QT5) t 
GR
GR
GS
[0.75 0 0 0.75 0 -0.25] CT
1 0 0 RC
N
/f49370542{1013.402 306 M
1017.418 306 L
1017.418 136 L
1013.402 136 L
cp}def
f49370542
f
GR
GS
[0.75 0 0 0.75 0 -0.25] CT
1 0 0 RC
10.0 ML
0.667 LW
N
1013.402 306 M
1017.418 306 L
1017.418 136 L
1013.402 136 L
cp
S
GR
GS
[0 -0.75 0.75 0 761.55753 96.65001] CT
1 0 0 RC
/Helvetica 10.667 F
GS
[1 0 0 1 0 0] CT
0 4.5 moveto 
1 -1 scale
(PST.QT6) t 
GR
GR
GS
[0.75 0 0 0.75 0 -0.25] CT
0 0 1 RC
N
/f-1368000786{101.872 306 M
102.51 306 L
102.51 204 L
101.872 204 L
cp}def
f-1368000786
f
GR
GS
[0.75 0 0 0.75 0 -0.25] CT
0 0 1 RC
10.0 ML
0.667 LW
N
101.872 306 M
102.51 306 L
102.51 204 L
101.872 204 L
cp
S
GR
GS
[0 -0.75 0.75 0 76.64343 147.65] CT
0 0 1 RC
/Helvetica 10.667 F
GS
[1 0 0 1 0 0] CT
0 4.5 moveto 
1 -1 scale
(LOW.SCR1) t 
GR
GR
GS
[0.75 0 0 0.75 0 -0.25] CT
0 0 1 RC
N
/f104708944{138.592 306 M
139.23 306 L
139.23 204 L
138.592 204 L
cp}def
f104708944
f
GR
GS
[0.75 0 0 0.75 0 -0.25] CT
0 0 1 RC
10.0 ML
0.667 LW
N
138.592 306 M
139.23 306 L
139.23 204 L
138.592 204 L
cp
S
GR
GS
[0 -0.75 0.75 0 104.18343 147.65] CT
0 0 1 RC
/Helvetica 10.667 F
GS
[1 0 0 1 0 0] CT
0 4.5 moveto 
1 -1 scale
(LOW.SCR2) t 
GR
GR
GS
[0.75 0 0 0.75 0 -0.25] CT
0 0 1 RC
N
/f1894246280{159.566 306 M
160.204 306 L
160.204 204 L
159.566 204 L
cp}def
f1894246280
f
GR
GS
[0.75 0 0 0.75 0 -0.25] CT
0 0 1 RC
10.0 ML
0.667 LW
N
159.566 306 M
160.204 306 L
160.204 204 L
159.566 204 L
cp
S
GR
GS
[0 -0.75 0.75 0 119.91375 147.65] CT
0 0 1 RC
/Helvetica 10.667 F
GS
[1 0 0 1 0 0] CT
0 4.5 moveto 
1 -1 scale
(LOW.SCR3) t 
GR
GR
GS
[0.75 0 0 0.75 0 -0.25] CT
0 0 1 RC
N
/f1846892486{387.09 306 M
387.728 306 L
387.728 204 L
387.09 204 L
cp}def
f1846892486
f
GR
GS
[0.75 0 0 0.75 0 -0.25] CT
0 0 1 RC
10.0 ML
0.667 LW
N
387.09 306 M
387.728 306 L
387.728 204 L
387.09 204 L
cp
S
GR
GS
[0 -0.75 0.75 0 290.55656 147.65] CT
0 0 1 RC
/Helvetica 10.667 F
GS
[1 0 0 1 0 0] CT
0 4.5 moveto 
1 -1 scale
(HIGH1.SCR1) t 
GR
GR
GS
[0.75 0 0 0.75 0 -0.25] CT
0 0 1 RC
N
/f1385015704{449.119 306 M
449.756 306 L
449.756 204 L
449.119 204 L
cp}def
f1385015704
f
GR
GS
[0.75 0 0 0.75 0 -0.25] CT
0 0 1 RC
10.0 ML
0.667 LW
N
449.119 306 M
449.756 306 L
449.756 204 L
449.119 204 L
cp
S
GR
GS
[0 -0.75 0.75 0 337.07813 147.65] CT
0 0 1 RC
/Helvetica 10.667 F
GS
[1 0 0 1 0 0] CT
0 4.5 moveto 
1 -1 scale
(HIGH1.SCR2) t 
GR
GR
GS
[0.75 0 0 0.75 0 -0.25] CT
0 0 1 RC
N
/f1116307986{504.9 306 M
505.538 306 L
505.538 204 L
504.9 204 L
cp}def
f1116307986
f
GR
GS
[0.75 0 0 0.75 0 -0.25] CT
0 0 1 RC
10.0 ML
0.667 LW
N
504.9 306 M
505.538 306 L
505.538 204 L
504.9 204 L
cp
S
GR
GS
[0 -0.75 0.75 0 378.91406 147.65] CT
0 0 1 RC
/Helvetica 10.667 F
GS
[1 0 0 1 0 0] CT
0 4.5 moveto 
1 -1 scale
(HIGH1.SCR3) t 
GR
GR
GS
[0.75 0 0 0.75 0 -0.25] CT
0 0 1 RC
N
/f79048486{586.819 306 M
587.456 306 L
587.456 204 L
586.819 204 L
cp}def
f79048486
f
GR
GS
[0.75 0 0 0.75 0 -0.25] CT
0 0 1 RC
10.0 ML
0.667 LW
N
586.819 306 M
587.456 306 L
587.456 204 L
586.819 204 L
cp
S
GR
GS
[0 -0.75 0.75 0 440.35313 147.65] CT
0 0 1 RC
/Helvetica 10.667 F
GS
[1 0 0 1 0 0] CT
0 4.5 moveto 
1 -1 scale
(HIGH1.SCR4 ) t 
GR
GR
GS
[0.75 0 0 0.75 0 -0.25] CT
0 0 1 RC
N
/f-1700762292{619.331 306 M
619.969 306 L
619.969 204 L
619.331 204 L
cp}def
f-1700762292
f
GR
GS
[0.75 0 0 0.75 0 -0.25] CT
0 0 1 RC
10.0 ML
0.667 LW
N
619.331 306 M
619.969 306 L
619.969 204 L
619.331 204 L
cp
S
GR
GS
[0 -0.75 0.75 0 464.73752 147.65] CT
0 0 1 RC
/Helvetica 10.667 F
GS
[1 0 0 1 0 0] CT
0 4.5 moveto 
1 -1 scale
(HIGH1.SCR5) t 
GR
GR
GS
[0.75 0 0 0.75 0 -0.25] CT
0 0 1 RC
N
/f1802110514{833.404 306 M
834.041 306 L
834.041 204 L
833.404 204 L
cp}def
f1802110514
f
GR
GS
[0.75 0 0 0.75 0 -0.25] CT
0 0 1 RC
10.0 ML
0.667 LW
N
833.404 306 M
834.041 306 L
834.041 204 L
833.404 204 L
cp
S
GR
GS
[0 -0.75 0.75 0 625.29185 147.65] CT
0 0 1 RC
/Helvetica 10.667 F
GS
[1 0 0 1 0 0] CT
0 4.5 moveto 
1 -1 scale
(PST.SCR1) t 
GR
GR
GS
[0.75 0 0 0.75 0 -0.25] CT
0 0 1 RC
N
/f-1837228206{881.854 306 M
882.491 306 L
882.491 204 L
881.854 204 L
cp}def
f-1837228206
f
GR
GS
[0.75 0 0 0.75 0 -0.25] CT
0 0 1 RC
10.0 ML
0.667 LW
N
881.854 306 M
882.491 306 L
882.491 204 L
881.854 204 L
cp
S
GR
GS
[0 -0.75 0.75 0 661.62936 147.65] CT
0 0 1 RC
/Helvetica 10.667 F
GS
[1 0 0 1 0 0] CT
0 4.5 moveto 
1 -1 scale
(PST.SCR2) t 
GR
GR
GS
[0.75 0 0 0.75 0 -0.25] CT
0 0 1 RC
N
/f307300524{930.304 306 M
930.941 306 L
930.941 204 L
930.304 204 L
cp}def
f307300524
f
GR
GS
[0.75 0 0 0.75 0 -0.25] CT
0 0 1 RC
10.0 ML
0.667 LW
N
930.304 306 M
930.941 306 L
930.941 204 L
930.304 204 L
cp
S
GR
GS
[0 -0.75 0.75 0 697.96687 147.65] CT
0 0 1 RC
/Helvetica 10.667 F
GS
[1 0 0 1 0 0] CT
0 4.5 moveto 
1 -1 scale
(PST.SCR3) t 
GR
GR
GS
[0.75 0 0 0.75 0 -0.25] CT
0 0 1 RC
N
/f-1160156750{978.754 306 M
979.391 306 L
979.391 204 L
978.754 204 L
cp}def
f-1160156750
f
GR
GS
[0.75 0 0 0.75 0 -0.25] CT
0 0 1 RC
10.0 ML
0.667 LW
N
978.754 306 M
979.391 306 L
979.391 204 L
978.754 204 L
cp
S
GR
GS
[0 -0.75 0.75 0 734.30434 147.65] CT
0 0 1 RC
/Helvetica 10.667 F
GS
[1 0 0 1 0 0] CT
0 4.5 moveto 
1 -1 scale
(PST.SCR4) t 
GR
GR
GS
[0.75 0 0 0.75 0 -0.25] CT
0 0 1 RC
N
/f-1150178322{1027.204 306 M
1027.841 306 L
1027.841 204 L
1027.204 204 L
cp}def
f-1150178322
f
GR
GS
[0.75 0 0 0.75 0 -0.25] CT
0 0 1 RC
10.0 ML
0.667 LW
N
1027.204 306 M
1027.841 306 L
1027.841 204 L
1027.204 204 L
cp
S
GR
GS
[0 -0.75 0.75 0 770.64185 147.65] CT
0 0 1 RC
/Helvetica 10.667 F
GS
[1 0 0 1 0 0] CT
0 4.5 moveto 
1 -1 scale
(PST.SCR5) t 
GR
GR
GS
[0.75 0 0 0.75 0 -0.25] CT
0 1 0 RC
N
/f1146594350{80.771 306 M
83.959 306 L
83.959 136 L
80.771 136 L
cp}def
f1146594350
f
GR
GS
[0.75 0 0 0.75 0 -0.25] CT
0 1 0 RC
10.0 ML
0.667 LW
N
80.771 306 M
83.959 306 L
83.959 136 L
80.771 136 L
cp
S
GR
GS
[0 -0.75 0.75 0 61.77375 96.65001] CT
0 1 0 RC
/Helvetica 10.667 F
GS
[1 0 0 1 0 0] CT
0 4.5 moveto 
1 -1 scale
(LOW.ST1) t 
GR
GR
GS
[0.75 0 0 0.75 0 -0.25] CT
0 1 0 RC
N
/f-471667388{110.798 306 M
113.985 306 L
113.985 136 L
110.798 136 L
cp}def
f-471667388
f
GR
GS
[0.75 0 0 0.75 0 -0.25] CT
0 1 0 RC
10.0 ML
0.667 LW
N
110.798 306 M
113.985 306 L
113.985 136 L
110.798 136 L
cp
S
GR
GS
[0 -0.75 0.75 0 84.29344 96.65001] CT
0 1 0 RC
/Helvetica 10.667 F
GS
[1 0 0 1 0 0] CT
0 4.5 moveto 
1 -1 scale
(LOW.ST2) t 
GR
GR
GS
[0.75 0 0 0.75 0 -0.25] CT
0 1 0 RC
N
/f1180112844{130.369 306 M
133.556 306 L
133.556 136 L
130.369 136 L
cp}def
f1180112844
f
GR
GS
[0.75 0 0 0.75 0 -0.25] CT
0 1 0 RC
10.0 ML
0.667 LW
N
130.369 306 M
133.556 306 L
133.556 136 L
130.369 136 L
cp
S
GR
GS
[0 -0.75 0.75 0 98.97187 96.65001] CT
0 1 0 RC
/Helvetica 10.667 F
GS
[1 0 0 1 0 0] CT
0 4.5 moveto 
1 -1 scale
(LOW.ST3) t 
GR
GR
GS
[0.75 0 0 0.75 0 -0.25] CT
0 1 0 RC
N
/f-2135272230{142.673 306 M
145.86 306 L
145.86 136 L
142.673 136 L
cp}def
f-2135272230
f
GR
GS
[0.75 0 0 0.75 0 -0.25] CT
0 1 0 RC
10.0 ML
0.667 LW
N
142.673 306 M
145.86 306 L
145.86 136 L
142.673 136 L
cp
S
GR
GS
[0 -0.75 0.75 0 108.19969 96.65001] CT
0 1 0 RC
/Helvetica 10.667 F
GS
[1 0 0 1 0 0] CT
0 4.5 moveto 
1 -1 scale
(LOW.ST4) t 
GR
GR
GS
[0.75 0 0 0.75 0 -0.25] CT
0 1 0 RC
N
/f-2014793136{176.014 306 M
179.201 306 L
179.201 136 L
176.014 136 L
cp}def
f-2014793136
f
GR
GS
[0.75 0 0 0.75 0 -0.25] CT
0 1 0 RC
10.0 ML
0.667 LW
N
176.014 306 M
179.201 306 L
179.201 136 L
176.014 136 L
cp
S
GR
GS
[0 -0.75 0.75 0 133.20562 96.65001] CT
0 1 0 RC
/Helvetica 10.667 F
GS
[1 0 0 1 0 0] CT
0 4.5 moveto 
1 -1 scale
(LOW.ST5-A) t 
GR
GR
GS
[0.75 0 0 0.75 0 -0.25] CT
0 1 0 RC
N
/f409462432{361.462 306 M
364.65 306 L
364.65 136 L
361.462 136 L
cp}def
f409462432
f
GR
GS
[0.75 0 0 0.75 0 -0.25] CT
0 1 0 RC
10.0 ML
0.667 LW
N
361.462 306 M
364.65 306 L
364.65 136 L
361.462 136 L
cp
S
GR
GS
[0 -0.75 0.75 0 272.29218 96.65001] CT
0 1 0 RC
/Helvetica 10.667 F
GS
[1 0 0 1 0 0] CT
0 4.5 moveto 
1 -1 scale
(HIGH1.ST1) t 
GR
GR
GS
[0.75 0 0 0.75 0 -0.25] CT
0 1 0 RC
N
/f920256848{395.378 306 M
398.565 306 L
398.565 136 L
395.378 136 L
cp}def
f920256848
f
GR
GS
[0.75 0 0 0.75 0 -0.25] CT
0 1 0 RC
10.0 ML
0.667 LW
N
395.378 306 M
398.565 306 L
398.565 136 L
395.378 136 L
cp
S
GR
GS
[0 -0.75 0.75 0 297.72844 96.65001] CT
0 1 0 RC
/Helvetica 10.667 F
GS
[1 0 0 1 0 0] CT
0 4.5 moveto 
1 -1 scale
(HIGH1.STA1) t 
GR
GR
GS
[0.75 0 0 0.75 0 -0.25] CT
0 1 0 RC
N
/f211026308{498.206 306 M
501.394 306 L
501.394 136 L
498.206 136 L
cp}def
f211026308
f
GR
GS
[0.75 0 0 0.75 0 -0.25] CT
0 1 0 RC
10.0 ML
0.667 LW
N
498.206 306 M
501.394 306 L
501.394 136 L
498.206 136 L
cp
S
GR
GS
[0 -0.75 0.75 0 374.84999 96.65001] CT
0 1 0 RC
/Helvetica 10.667 F
GS
[1 0 0 1 0 0] CT
0 4.5 moveto 
1 -1 scale
(HIGH1.ST2) t 
GR
GR
GS
[0.75 0 0 0.75 0 -0.25] CT
0 1 0 RC
N
/f-288974258{514.622 306 M
517.809 306 L
517.809 136 L
514.622 136 L
cp}def
f-288974258
f
GR
GS
[0.75 0 0 0.75 0 -0.25] CT
0 1 0 RC
10.0 ML
0.667 LW
N
514.622 306 M
517.809 306 L
517.809 136 L
514.622 136 L
cp
S
GR
GS
[0 -0.75 0.75 0 387.16173 96.65001] CT
0 1 0 RC
/Helvetica 10.667 F
GS
[1 0 0 1 0 0] CT
0 4.5 moveto 
1 -1 scale
(HIGH1.STA2) t 
GR
GR
GS
[0.75 0 0 0.75 0 -0.25] CT
0 1 0 RC
N
/f-391164156{567.566 306 M
570.754 306 L
570.754 136 L
567.566 136 L
cp}def
f-391164156
f
GR
GS
[0.75 0 0 0.75 0 -0.25] CT
0 1 0 RC
10.0 ML
0.667 LW
N
567.566 306 M
570.754 306 L
570.754 136 L
567.566 136 L
cp
S
GR
GS
[0 -0.75 0.75 0 426.87003 96.65001] CT
0 1 0 RC
/Helvetica 10.667 F
GS
[1 0 0 1 0 0] CT
0 4.5 moveto 
1 -1 scale
(HIGH1.ST3) t 
GR
GR
GS
[0.75 0 0 0.75 0 -0.25] CT
0 1 0 RC
N
/f450324040{675.622 306 M
678.81 306 L
678.81 136 L
675.622 136 L
cp}def
f450324040
f
GR
GS
[0.75 0 0 0.75 0 -0.25] CT
0 1 0 RC
10.0 ML
0.667 LW
N
675.622 306 M
678.81 306 L
678.81 136 L
675.622 136 L
cp
S
GR
GS
[0 -0.75 0.75 0 507.91219 96.65001] CT
0 1 0 RC
/Helvetica 10.667 F
GS
[1 0 0 1 0 0] CT
0 4.5 moveto 
1 -1 scale
(HIGH1.ST4) t 
GR
GR
GS
[0.75 0 0 0.75 0 -0.25] CT
0 1 0 RC
N
/f-1126436608{788.906 306 M
792.094 306 L
792.094 136 L
788.906 136 L
cp}def
f-1126436608
f
GR
GS
[0.75 0 0 0.75 0 -0.25] CT
0 1 0 RC
10.0 ML
0.667 LW
N
788.906 306 M
792.094 306 L
792.094 136 L
788.906 136 L
cp
S
GR
GS
[0 -0.75 0.75 0 592.875 96.65001] CT
0 1 0 RC
/Helvetica 10.667 F
GS
[1 0 0 1 0 0] CT
0 4.5 moveto 
1 -1 scale
(PST.ST1) t 
GR
GR
GS
[0.75 0 0 0.75 0 -0.25] CT
0 1 0 RC
N
/f1011551462{839.269 306 M
842.456 306 L
842.456 136 L
839.269 136 L
cp}def
f1011551462
f
GR
GS
[0.75 0 0 0.75 0 -0.25] CT
0 1 0 RC
10.0 ML
0.667 LW
N
839.269 306 M
842.456 306 L
842.456 136 L
839.269 136 L
cp
S
GR
GS
[0 -0.75 0.75 0 630.64691 96.65001] CT
0 1 0 RC
/Helvetica 10.667 F
GS
[1 0 0 1 0 0] CT
0 4.5 moveto 
1 -1 scale
(PST.ST2 ) t 
GR
GR
GS
[0.75 0 0 0.75 0 -0.25] CT
0 1 0 RC
N
/f-2063796006{887.719 306 M
890.906 306 L
890.906 136 L
887.719 136 L
cp}def
f-2063796006
f
GR
GS
[0.75 0 0 0.75 0 -0.25] CT
0 1 0 RC
10.0 ML
0.667 LW
N
887.719 306 M
890.906 306 L
890.906 136 L
887.719 136 L
cp
S
GR
GS
[0 -0.75 0.75 0 666.98438 96.65001] CT
0 1 0 RC
/Helvetica 10.667 F
GS
[1 0 0 1 0 0] CT
0 4.5 moveto 
1 -1 scale
(PST.ST3 ) t 
GR
GR
GS
[0.75 0 0 0.75 0 -0.25] CT
0 1 0 RC
N
/f88911260{936.169 306 M
939.356 306 L
939.356 136 L
936.169 136 L
cp}def
f88911260
f
GR
GS
[0.75 0 0 0.75 0 -0.25] CT
0 1 0 RC
10.0 ML
0.667 LW
N
936.169 306 M
939.356 306 L
939.356 136 L
936.169 136 L
cp
S
GR
GS
[0 -0.75 0.75 0 703.32188 96.65001] CT
0 1 0 RC
/Helvetica 10.667 F
GS
[1 0 0 1 0 0] CT
0 4.5 moveto 
1 -1 scale
(PST.ST4) t 
GR
GR
GS
[0.75 0 0 0.75 0 -0.25] CT
0 1 0 RC
N
/f1308531088{984.619 306 M
987.806 306 L
987.806 136 L
984.619 136 L
cp}def
f1308531088
f
GR
GS
[0.75 0 0 0.75 0 -0.25] CT
0 1 0 RC
10.0 ML
0.667 LW
N
984.619 306 M
987.806 306 L
987.806 136 L
984.619 136 L
cp
S
GR
GS
[0 -0.75 0.75 0 739.65939 96.65001] CT
0 1 0 RC
/Helvetica 10.667 F
GS
[1 0 0 1 0 0] CT
0 4.5 moveto 
1 -1 scale
(PST.ST5) t 
GR
GR
GS
[0.75 0 0 0.75 0 -0.25] CT
0 1 0 RC
N
/f640140974{1004.445 306 M
1007.632 306 L
1007.632 136 L
1004.445 136 L
cp}def
f640140974
f
GR
GS
[0.75 0 0 0.75 0 -0.25] CT
0 1 0 RC
10.0 ML
0.667 LW
N
1004.445 306 M
1007.632 306 L
1007.632 136 L
1004.445 136 L
cp
S
GR
GS
[0 -0.75 0.75 0 754.52907 96.65001] CT
0 1 0 RC
/Helvetica 10.667 F
GS
[1 0 0 1 0 0] CT
0 4.5 moveto 
1 -1 scale
(PST.ST6) t 
GR
GR
GS
[0.75 0 0 0.75 0 -0.25] CT
1 0 1 RC
N
/f-803850330{108.247 306 M
108.885 306 L
108.885 204 L
108.247 204 L
cp}def
f-803850330
f
GR
GS
[0.75 0 0 0.75 0 -0.25] CT
1 0 1 RC
10.0 ML
0.667 LW
N
108.247 306 M
108.885 306 L
108.885 204 L
108.247 204 L
cp
S
GR
GS
[0 -0.75 0.75 0 81.42468 147.65] CT
1 0 1 RC
/Helvetica 10.667 F
GS
[1 0 0 1 0 0] CT
0 4.5 moveto 
1 -1 scale
(LOW.ICT1) t 
GR
GR
GS
[0.75 0 0 0.75 0 -0.25] CT
1 0 1 RC
N
/f-577349692{376.89 306 M
377.528 306 L
377.528 204 L
376.89 204 L
cp}def
f-577349692
f
GR
GS
[0.75 0 0 0.75 0 -0.25] CT
1 0 1 RC
10.0 ML
0.667 LW
N
376.89 306 M
377.528 306 L
377.528 204 L
376.89 204 L
cp
S
GR
GS
[0 -0.75 0.75 0 282.90658 147.65] CT
1 0 1 RC
/Helvetica 10.667 F
GS
[1 0 0 1 0 0] CT
0 4.5 moveto 
1 -1 scale
(HIGH1.ICT1) t 
GR
GR
GS
[0.75 0 0 0.75 0 -0.25] CT
0 1 1 RC
N
f-1368000786
f
GR
GS
[0.75 0 0 0.75 0 -0.25] CT
0 1 1 RC
[1 3] 0 setdash
2 LJ
0.667 LW
N
101.872 306 M
102.51 306 L
102.51 204 L
101.872 204 L
cp
S
GR
GS
[0 -0.75 0.75 0 76.64343 96.65001] CT
0 1 1 RC
/Helvetica 10.667 F
GS
[1 0 0 1 0 0] CT
0 4.5 moveto 
1 -1 scale
(LOW.FC1) t 
GR
GR
GS
[0.75 0 0 0.75 0 -0.25] CT
0 1 1 RC
N
f104708944
f
GR
GS
[0.75 0 0 0.75 0 -0.25] CT
0 1 1 RC
[1 3] 0 setdash
2 LJ
0.667 LW
N
138.592 306 M
139.23 306 L
139.23 204 L
138.592 204 L
cp
S
GR
GS
[0 -0.75 0.75 0 104.18343 96.65001] CT
0 1 1 RC
/Helvetica 10.667 F
GS
[1 0 0 1 0 0] CT
0 4.5 moveto 
1 -1 scale
(LOW.FC2) t 
GR
GR
GS
[0.75 0 0 0.75 0 -0.25] CT
N
/f217784110{93.011 306 M
93.649 306 L
93.649 204 L
93.011 204 L
cp}def
f217784110
f
GR
GS
[0.75 0 0 0.75 0 -0.25] CT
10.0 ML
0.667 LW
N
93.011 306 M
93.649 306 L
93.649 204 L
93.011 204 L
cp
S
GR
GS
[0 -0.75 0.75 0 69.9975 147.65] CT
/Helvetica 10.667 F
GS
[1 0 0 1 0 0] CT
0 4.5 moveto 
1 -1 scale
(LOW.BPM1) t 
GR
GR
GS
[0.75 0 0 0.75 0 -0.25] CT
N
/f1193327024{134.768 306 M
135.405 306 L
135.405 204 L
134.768 204 L
cp}def
f1193327024
f
GR
GS
[0.75 0 0 0.75 0 -0.25] CT
10.0 ML
0.667 LW
N
134.768 306 M
135.405 306 L
135.405 204 L
134.768 204 L
cp
S
GR
GS
[0 -0.75 0.75 0 101.31469 147.65] CT
/Helvetica 10.667 F
GS
[1 0 0 1 0 0] CT
0 4.5 moveto 
1 -1 scale
(LOW.BPM2) t 
GR
GR
GS
[0.75 0 0 0.75 0 -0.25] CT
N
/f-527513694{207.188 306 M
207.825 306 L
207.825 204 L
207.188 204 L
cp}def
f-527513694
f
GR
GS
[0.75 0 0 0.75 0 -0.25] CT
10.0 ML
0.667 LW
N
207.188 306 M
207.825 306 L
207.825 204 L
207.188 204 L
cp
S
GR
GS
[0 -0.75 0.75 0 155.62968 147.65] CT
/Helvetica 10.667 F
GS
[1 0 0 1 0 0] CT
0 4.5 moveto 
1 -1 scale
(BOOST.BPM1) t 
GR
GR
GS
[0.75 0 0 0.75 0 -0.25] CT
N
/f404180894{344.25 306 M
344.888 306 L
344.888 204 L
344.25 204 L
cp}def
f404180894
f
GR
GS
[0.75 0 0 0.75 0 -0.25] CT
10.0 ML
0.667 LW
N
344.25 306 M
344.888 306 L
344.888 204 L
344.25 204 L
cp
S
GR
GS
[0 -0.75 0.75 0 258.42657 147.65] CT
/Helvetica 10.667 F
GS
[1 0 0 1 0 0] CT
0 4.5 moveto 
1 -1 scale
(BOOST.BPM2) t 
GR
GR
GS
[0.75 0 0 0.75 0 -0.25] CT
N
/f-1894697570{726.367 306 M
727.005 306 L
727.005 204 L
726.367 204 L
cp}def
f-1894697570
f
GR
GS
[0.75 0 0 0.75 0 -0.25] CT
10.0 ML
0.667 LW
N
726.367 306 M
727.005 306 L
727.005 204 L
726.367 204 L
cp
S
GR
GS
[0 -0.75 0.75 0 545.01466 147.65] CT
/Helvetica 10.667 F
GS
[1 0 0 1 0 0] CT
0 4.5 moveto 
1 -1 scale
(RFD.BPM1) t 
GR
GR
GS
[0.75 0 0 0.75 0 -0.25] CT
N
/f1801753026{775.634 306 M
776.271 306 L
776.271 204 L
775.634 204 L
cp}def
f1801753026
f
GR
GS
[0.75 0 0 0.75 0 -0.25] CT
10.0 ML
0.667 LW
N
775.634 306 M
776.271 306 L
776.271 204 L
775.634 204 L
cp
S
GR
GS
[0 -0.75 0.75 0 581.9642 147.65] CT
/Helvetica 10.667 F
GS
[1 0 0 1 0 0] CT
0 4.5 moveto 
1 -1 scale
(RFD.BPM2) t 
GR
GR
GS
[0.75 0 0 0.75 0 -0.25] CT
N
/f1833318552{828.514 306 M
829.152 306 L
829.152 204 L
828.514 204 L
cp}def
f1833318552
f
GR
GS
[0.75 0 0 0.75 0 -0.25] CT
10.0 ML
0.667 LW
N
828.514 306 M
829.152 306 L
829.152 204 L
828.514 204 L
cp
S
GR
GS
[0 -0.75 0.75 0 621.62462 147.65] CT
/Helvetica 10.667 F
GS
[1 0 0 1 0 0] CT
0 4.5 moveto 
1 -1 scale
(PST.BPM1) t 
GR
GR
GS
[0.75 0 0 0.75 0 -0.25] CT
N
/f-379262174{876.964 306 M
877.602 306 L
877.602 204 L
876.964 204 L
cp}def
f-379262174
f
GR
GS
[0.75 0 0 0.75 0 -0.25] CT
10.0 ML
0.667 LW
N
876.964 306 M
877.602 306 L
877.602 204 L
876.964 204 L
cp
S
GR
GS
[0 -0.75 0.75 0 657.96217 147.65] CT
/Helvetica 10.667 F
GS
[1 0 0 1 0 0] CT
0 4.5 moveto 
1 -1 scale
(PST.BPM2) t 
GR
GR
GS
[0.75 0 0 0.75 0 -0.25] CT
N
/f-1833250908{925.414 306 M
926.052 306 L
926.052 204 L
925.414 204 L
cp}def
f-1833250908
f
GR
GS
[0.75 0 0 0.75 0 -0.25] CT
10.0 ML
0.667 LW
N
925.414 306 M
926.052 306 L
926.052 204 L
925.414 204 L
cp
S
GR
GS
[0 -0.75 0.75 0 694.29968 147.65] CT
/Helvetica 10.667 F
GS
[1 0 0 1 0 0] CT
0 4.5 moveto 
1 -1 scale
(PST.BPM3) t 
GR
GR
GS
[0.75 0 0 0.75 0 -0.25] CT
N
/f249135662{973.864 306 M
974.502 306 L
974.502 204 L
973.864 204 L
cp}def
f249135662
f
GR
GS
[0.75 0 0 0.75 0 -0.25] CT
10.0 ML
0.667 LW
N
973.864 306 M
974.502 306 L
974.502 204 L
973.864 204 L
cp
S
GR
GS
[0 -0.75 0.75 0 730.63719 147.65] CT
/Helvetica 10.667 F
GS
[1 0 0 1 0 0] CT
0 4.5 moveto 
1 -1 scale
(PST.BPM4) t 
GR
GR
GS
[0.75 0 0 0.75 0 -0.25] CT
N
/f-817828722{1022.314 306 M
1022.952 306 L
1022.952 204 L
1022.314 204 L
cp}def
f-817828722
f
GR
GS
[0.75 0 0 0.75 0 -0.25] CT
10.0 ML
0.667 LW
N
1022.314 306 M
1022.952 306 L
1022.952 204 L
1022.314 204 L
cp
S
GR
GS
[0 -0.75 0.75 0 766.97466 147.65] CT
/Helvetica 10.667 F
GS
[1 0 0 1 0 0] CT
0 4.5 moveto 
1 -1 scale
(PST.BPM5) t 
GR
GR
GS
[0.75 0 0 0.75 0 -0.25] CT
0.584 0.816 0.988 RC
N
/f-1946744754{112.391 299.2 M
129.349 299.2 L
129.349 231.2 L
112.391 231.2 L
cp}def
f-1946744754
f
GR
GS
[0.75 0 0 0.75 0 -0.25] CT
0.584 0.816 0.988 RC
10.0 ML
0.667 LW
N
112.391 299.2 M
129.349 299.2 L
129.349 231.2 L
112.391 231.2 L
cp
S
GR
GS
[0 -0.75 0.75 0 90.6525 140] CT
/Helvetica 12 F
GS
[1 0 0 1 0 0] CT
-33.5 5 moveto 
1 -1 scale
(LOW.DIPOL) t 
GR
GR
GS
[0.75 0 0 0.75 0 -0.25] CT
0.584 0.816 0.988 RC
N
/f2107561530{520.837 299.2 M
559.087 299.2 L
559.087 231.2 L
520.837 231.2 L
cp}def
f2107561530
f
GR
GS
[0.75 0 0 0.75 0 -0.25] CT
0.584 0.816 0.988 RC
10.0 ML
0.667 LW
N
520.837 299.2 M
559.087 299.2 L
559.087 231.2 L
520.837 231.2 L
cp
S
GR
GS
[0 -0.75 0.75 0 404.97189 140] CT
/Helvetica 12 F
GS
[1 0 0 1 0 0] CT
-38.5 5 moveto 
1 -1 scale
(HIGH1.DIPOL) t 
GR
GR
GS
[0.75 0 0 0.75 0 -0.25] CT
1 GC
N
/f842787278{51 612 M
1071 612 L
1071 357 L
51 357 L
cp}def
f842787278
f
GR
GS
[0.75 0 0 0.75 0 -0.25] CT
0.149 GC
2 setlinecap
1 LJ
0.667 LW
N
51 612 M
1071 612 L
S
GR
GS
[0.75 0 0 0.75 0 -0.25] CT
0.149 GC
2 setlinecap
1 LJ
0.667 LW
N
51 612 M
51 601.8 L
S
GR
GS
[0.75 0 0 0.75 0 -0.25] CT
0.149 GC
2 setlinecap
1 LJ
0.667 LW
N
114.75 612 M
114.75 601.8 L
S
GR
GS
[0.75 0 0 0.75 0 -0.25] CT
0.149 GC
2 setlinecap
1 LJ
0.667 LW
N
178.5 612 M
178.5 601.8 L
S
GR
GS
[0.75 0 0 0.75 0 -0.25] CT
0.149 GC
2 setlinecap
1 LJ
0.667 LW
N
242.25 612 M
242.25 601.8 L
S
GR
GS
[0.75 0 0 0.75 0 -0.25] CT
0.149 GC
2 setlinecap
1 LJ
0.667 LW
N
306 612 M
306 601.8 L
S
GR
GS
[0.75 0 0 0.75 0 -0.25] CT
0.149 GC
2 setlinecap
1 LJ
0.667 LW
N
369.75 612 M
369.75 601.8 L
S
GR
GS
[0.75 0 0 0.75 0 -0.25] CT
0.149 GC
2 setlinecap
1 LJ
0.667 LW
N
433.5 612 M
433.5 601.8 L
S
GR
GS
[0.75 0 0 0.75 0 -0.25] CT
0.149 GC
2 setlinecap
1 LJ
0.667 LW
N
497.25 612 M
497.25 601.8 L
S
GR
GS
[0.75 0 0 0.75 0 -0.25] CT
0.149 GC
2 setlinecap
1 LJ
0.667 LW
N
561 612 M
561 601.8 L
S
GR
GS
[0.75 0 0 0.75 0 -0.25] CT
0.149 GC
2 setlinecap
1 LJ
0.667 LW
N
624.75 612 M
624.75 601.8 L
S
GR
GS
[0.75 0 0 0.75 0 -0.25] CT
0.149 GC
2 setlinecap
1 LJ
0.667 LW
N
688.5 612 M
688.5 601.8 L
S
GR
GS
[0.75 0 0 0.75 0 -0.25] CT
0.149 GC
2 setlinecap
1 LJ
0.667 LW
N
752.25 612 M
752.25 601.8 L
S
GR
GS
[0.75 0 0 0.75 0 -0.25] CT
0.149 GC
2 setlinecap
1 LJ
0.667 LW
N
816 612 M
816 601.8 L
S
GR
GS
[0.75 0 0 0.75 0 -0.25] CT
0.149 GC
2 setlinecap
1 LJ
0.667 LW
N
879.75 612 M
879.75 601.8 L
S
GR
GS
[0.75 0 0 0.75 0 -0.25] CT
0.149 GC
2 setlinecap
1 LJ
0.667 LW
N
943.5 612 M
943.5 601.8 L
S
GR
GS
[0.75 0 0 0.75 0 -0.25] CT
0.149 GC
2 setlinecap
1 LJ
0.667 LW
N
1007.25 612 M
1007.25 601.8 L
S
GR
GS
[0.75 0 0 0.75 0 -0.25] CT
0.149 GC
2 setlinecap
1 LJ
0.667 LW
N
1071 612 M
1071 601.8 L
S
GR
GS
[0.75 0 0 0.75 0 -0.25] CT
0.149 GC
2 setlinecap
1 LJ
0.667 LW
N
63.75 612 M
63.75 606.9 L
S
GR
GS
[0.75 0 0 0.75 0 -0.25] CT
0.149 GC
2 setlinecap
1 LJ
0.667 LW
N
76.5 612 M
76.5 606.9 L
S
GR
GS
[0.75 0 0 0.75 0 -0.25] CT
0.149 GC
2 setlinecap
1 LJ
0.667 LW
N
89.25 612 M
89.25 606.9 L
S
GR
GS
[0.75 0 0 0.75 0 -0.25] CT
0.149 GC
2 setlinecap
1 LJ
0.667 LW
N
102 612 M
102 606.9 L
S
GR
GS
[0.75 0 0 0.75 0 -0.25] CT
0.149 GC
2 setlinecap
1 LJ
0.667 LW
N
127.5 612 M
127.5 606.9 L
S
GR
GS
[0.75 0 0 0.75 0 -0.25] CT
0.149 GC
2 setlinecap
1 LJ
0.667 LW
N
140.25 612 M
140.25 606.9 L
S
GR
GS
[0.75 0 0 0.75 0 -0.25] CT
0.149 GC
2 setlinecap
1 LJ
0.667 LW
N
153 612 M
153 606.9 L
S
GR
GS
[0.75 0 0 0.75 0 -0.25] CT
0.149 GC
2 setlinecap
1 LJ
0.667 LW
N
165.75 612 M
165.75 606.9 L
S
GR
GS
[0.75 0 0 0.75 0 -0.25] CT
0.149 GC
2 setlinecap
1 LJ
0.667 LW
N
191.25 612 M
191.25 606.9 L
S
GR
GS
[0.75 0 0 0.75 0 -0.25] CT
0.149 GC
2 setlinecap
1 LJ
0.667 LW
N
204 612 M
204 606.9 L
S
GR
GS
[0.75 0 0 0.75 0 -0.25] CT
0.149 GC
2 setlinecap
1 LJ
0.667 LW
N
216.75 612 M
216.75 606.9 L
S
GR
GS
[0.75 0 0 0.75 0 -0.25] CT
0.149 GC
2 setlinecap
1 LJ
0.667 LW
N
229.5 612 M
229.5 606.9 L
S
GR
GS
[0.75 0 0 0.75 0 -0.25] CT
0.149 GC
2 setlinecap
1 LJ
0.667 LW
N
255 612 M
255 606.9 L
S
GR
GS
[0.75 0 0 0.75 0 -0.25] CT
0.149 GC
2 setlinecap
1 LJ
0.667 LW
N
267.75 612 M
267.75 606.9 L
S
GR
GS
[0.75 0 0 0.75 0 -0.25] CT
0.149 GC
2 setlinecap
1 LJ
0.667 LW
N
280.5 612 M
280.5 606.9 L
S
GR
GS
[0.75 0 0 0.75 0 -0.25] CT
0.149 GC
2 setlinecap
1 LJ
0.667 LW
N
293.25 612 M
293.25 606.9 L
S
GR
GS
[0.75 0 0 0.75 0 -0.25] CT
0.149 GC
2 setlinecap
1 LJ
0.667 LW
N
318.75 612 M
318.75 606.9 L
S
GR
GS
[0.75 0 0 0.75 0 -0.25] CT
0.149 GC
2 setlinecap
1 LJ
0.667 LW
N
331.5 612 M
331.5 606.9 L
S
GR
GS
[0.75 0 0 0.75 0 -0.25] CT
0.149 GC
2 setlinecap
1 LJ
0.667 LW
N
344.25 612 M
344.25 606.9 L
S
GR
GS
[0.75 0 0 0.75 0 -0.25] CT
0.149 GC
2 setlinecap
1 LJ
0.667 LW
N
357 612 M
357 606.9 L
S
GR
GS
[0.75 0 0 0.75 0 -0.25] CT
0.149 GC
2 setlinecap
1 LJ
0.667 LW
N
382.5 612 M
382.5 606.9 L
S
GR
GS
[0.75 0 0 0.75 0 -0.25] CT
0.149 GC
2 setlinecap
1 LJ
0.667 LW
N
395.25 612 M
395.25 606.9 L
S
GR
GS
[0.75 0 0 0.75 0 -0.25] CT
0.149 GC
2 setlinecap
1 LJ
0.667 LW
N
408 612 M
408 606.9 L
S
GR
GS
[0.75 0 0 0.75 0 -0.25] CT
0.149 GC
2 setlinecap
1 LJ
0.667 LW
N
420.75 612 M
420.75 606.9 L
S
GR
GS
[0.75 0 0 0.75 0 -0.25] CT
0.149 GC
2 setlinecap
1 LJ
0.667 LW
N
446.25 612 M
446.25 606.9 L
S
GR
GS
[0.75 0 0 0.75 0 -0.25] CT
0.149 GC
2 setlinecap
1 LJ
0.667 LW
N
459 612 M
459 606.9 L
S
GR
GS
[0.75 0 0 0.75 0 -0.25] CT
0.149 GC
2 setlinecap
1 LJ
0.667 LW
N
471.75 612 M
471.75 606.9 L
S
GR
GS
[0.75 0 0 0.75 0 -0.25] CT
0.149 GC
2 setlinecap
1 LJ
0.667 LW
N
484.5 612 M
484.5 606.9 L
S
GR
GS
[0.75 0 0 0.75 0 -0.25] CT
0.149 GC
2 setlinecap
1 LJ
0.667 LW
N
510 612 M
510 606.9 L
S
GR
GS
[0.75 0 0 0.75 0 -0.25] CT
0.149 GC
2 setlinecap
1 LJ
0.667 LW
N
522.75 612 M
522.75 606.9 L
S
GR
GS
[0.75 0 0 0.75 0 -0.25] CT
0.149 GC
2 setlinecap
1 LJ
0.667 LW
N
535.5 612 M
535.5 606.9 L
S
GR
GS
[0.75 0 0 0.75 0 -0.25] CT
0.149 GC
2 setlinecap
1 LJ
0.667 LW
N
548.25 612 M
548.25 606.9 L
S
GR
GS
[0.75 0 0 0.75 0 -0.25] CT
0.149 GC
2 setlinecap
1 LJ
0.667 LW
N
573.75 612 M
573.75 606.9 L
S
GR
GS
[0.75 0 0 0.75 0 -0.25] CT
0.149 GC
2 setlinecap
1 LJ
0.667 LW
N
586.5 612 M
586.5 606.9 L
S
GR
GS
[0.75 0 0 0.75 0 -0.25] CT
0.149 GC
2 setlinecap
1 LJ
0.667 LW
N
599.25 612 M
599.25 606.9 L
S
GR
GS
[0.75 0 0 0.75 0 -0.25] CT
0.149 GC
2 setlinecap
1 LJ
0.667 LW
N
612 612 M
612 606.9 L
S
GR
GS
[0.75 0 0 0.75 0 -0.25] CT
0.149 GC
2 setlinecap
1 LJ
0.667 LW
N
637.5 612 M
637.5 606.9 L
S
GR
GS
[0.75 0 0 0.75 0 -0.25] CT
0.149 GC
2 setlinecap
1 LJ
0.667 LW
N
650.25 612 M
650.25 606.9 L
S
GR
GS
[0.75 0 0 0.75 0 -0.25] CT
0.149 GC
2 setlinecap
1 LJ
0.667 LW
N
663 612 M
663 606.9 L
S
GR
GS
[0.75 0 0 0.75 0 -0.25] CT
0.149 GC
2 setlinecap
1 LJ
0.667 LW
N
675.75 612 M
675.75 606.9 L
S
GR
GS
[0.75 0 0 0.75 0 -0.25] CT
0.149 GC
2 setlinecap
1 LJ
0.667 LW
N
701.25 612 M
701.25 606.9 L
S
GR
GS
[0.75 0 0 0.75 0 -0.25] CT
0.149 GC
2 setlinecap
1 LJ
0.667 LW
N
714 612 M
714 606.9 L
S
GR
GS
[0.75 0 0 0.75 0 -0.25] CT
0.149 GC
2 setlinecap
1 LJ
0.667 LW
N
726.75 612 M
726.75 606.9 L
S
GR
GS
[0.75 0 0 0.75 0 -0.25] CT
0.149 GC
2 setlinecap
1 LJ
0.667 LW
N
739.5 612 M
739.5 606.9 L
S
GR
GS
[0.75 0 0 0.75 0 -0.25] CT
0.149 GC
2 setlinecap
1 LJ
0.667 LW
N
765 612 M
765 606.9 L
S
GR
GS
[0.75 0 0 0.75 0 -0.25] CT
0.149 GC
2 setlinecap
1 LJ
0.667 LW
N
777.75 612 M
777.75 606.9 L
S
GR
GS
[0.75 0 0 0.75 0 -0.25] CT
0.149 GC
2 setlinecap
1 LJ
0.667 LW
N
790.5 612 M
790.5 606.9 L
S
GR
GS
[0.75 0 0 0.75 0 -0.25] CT
0.149 GC
2 setlinecap
1 LJ
0.667 LW
N
803.25 612 M
803.25 606.9 L
S
GR
GS
[0.75 0 0 0.75 0 -0.25] CT
0.149 GC
2 setlinecap
1 LJ
0.667 LW
N
828.75 612 M
828.75 606.9 L
S
GR
GS
[0.75 0 0 0.75 0 -0.25] CT
0.149 GC
2 setlinecap
1 LJ
0.667 LW
N
841.5 612 M
841.5 606.9 L
S
GR
GS
[0.75 0 0 0.75 0 -0.25] CT
0.149 GC
2 setlinecap
1 LJ
0.667 LW
N
854.25 612 M
854.25 606.9 L
S
GR
GS
[0.75 0 0 0.75 0 -0.25] CT
0.149 GC
2 setlinecap
1 LJ
0.667 LW
N
867 612 M
867 606.9 L
S
GR
GS
[0.75 0 0 0.75 0 -0.25] CT
0.149 GC
2 setlinecap
1 LJ
0.667 LW
N
892.5 612 M
892.5 606.9 L
S
GR
GS
[0.75 0 0 0.75 0 -0.25] CT
0.149 GC
2 setlinecap
1 LJ
0.667 LW
N
905.25 612 M
905.25 606.9 L
S
GR
GS
[0.75 0 0 0.75 0 -0.25] CT
0.149 GC
2 setlinecap
1 LJ
0.667 LW
N
918 612 M
918 606.9 L
S
GR
GS
[0.75 0 0 0.75 0 -0.25] CT
0.149 GC
2 setlinecap
1 LJ
0.667 LW
N
930.75 612 M
930.75 606.9 L
S
GR
GS
[0.75 0 0 0.75 0 -0.25] CT
0.149 GC
2 setlinecap
1 LJ
0.667 LW
N
956.25 612 M
956.25 606.9 L
S
GR
GS
[0.75 0 0 0.75 0 -0.25] CT
0.149 GC
2 setlinecap
1 LJ
0.667 LW
N
969 612 M
969 606.9 L
S
GR
GS
[0.75 0 0 0.75 0 -0.25] CT
0.149 GC
2 setlinecap
1 LJ
0.667 LW
N
981.75 612 M
981.75 606.9 L
S
GR
GS
[0.75 0 0 0.75 0 -0.25] CT
0.149 GC
2 setlinecap
1 LJ
0.667 LW
N
994.5 612 M
994.5 606.9 L
S
GR
GS
[0.75 0 0 0.75 0 -0.25] CT
0.149 GC
2 setlinecap
1 LJ
0.667 LW
N
1020 612 M
1020 606.9 L
S
GR
GS
[0.75 0 0 0.75 0 -0.25] CT
0.149 GC
2 setlinecap
1 LJ
0.667 LW
N
1032.75 612 M
1032.75 606.9 L
S
GR
GS
[0.75 0 0 0.75 0 -0.25] CT
0.149 GC
2 setlinecap
1 LJ
0.667 LW
N
1045.5 612 M
1045.5 606.9 L
S
GR
GS
[0.75 0 0 0.75 0 -0.25] CT
0.149 GC
2 setlinecap
1 LJ
0.667 LW
N
1058.25 612 M
1058.25 606.9 L
S
GR
GS
[0.75 0 0 0.75 38.25 462.74998] CT
0.149 GC
/Helvetica 13.333 F
GS
[1 0 0 1 0 0] CT
-7.5 14 moveto 
1 -1 scale
(16) t 
GR
GR
GS
[0.75 0 0 0.75 86.0625 462.74998] CT
0.149 GC
/Helvetica 13.333 F
GS
[1 0 0 1 0 0] CT
-7.5 14 moveto 
1 -1 scale
(17) t 
GR
GR
GS
[0.75 0 0 0.75 133.875 462.74998] CT
0.149 GC
/Helvetica 13.333 F
GS
[1 0 0 1 0 0] CT
-7.5 14 moveto 
1 -1 scale
(18) t 
GR
GR
GS
[0.75 0 0 0.75 181.6875 462.74998] CT
0.149 GC
/Helvetica 13.333 F
GS
[1 0 0 1 0 0] CT
-7.5 14 moveto 
1 -1 scale
(19) t 
GR
GR
GS
[0.75 0 0 0.75 229.5 462.74998] CT
0.149 GC
/Helvetica 13.333 F
GS
[1 0 0 1 0 0] CT
-7.5 14 moveto 
1 -1 scale
(20) t 
GR
GR
GS
[0.75 0 0 0.75 277.3125 462.74998] CT
0.149 GC
/Helvetica 13.333 F
GS
[1 0 0 1 0 0] CT
-7.5 14 moveto 
1 -1 scale
(21) t 
GR
GR
GS
[0.75 0 0 0.75 325.125 462.74998] CT
0.149 GC
/Helvetica 13.333 F
GS
[1 0 0 1 0 0] CT
-7.5 14 moveto 
1 -1 scale
(22) t 
GR
GR
GS
[0.75 0 0 0.75 372.9375 462.74998] CT
0.149 GC
/Helvetica 13.333 F
GS
[1 0 0 1 0 0] CT
-7.5 14 moveto 
1 -1 scale
(23) t 
GR
GR
GS
[0.75 0 0 0.75 420.75 462.74998] CT
0.149 GC
/Helvetica 13.333 F
GS
[1 0 0 1 0 0] CT
-7.5 14 moveto 
1 -1 scale
(24) t 
GR
GR
GS
[0.75 0 0 0.75 468.5625 462.74998] CT
0.149 GC
/Helvetica 13.333 F
GS
[1 0 0 1 0 0] CT
-7.5 14 moveto 
1 -1 scale
(25) t 
GR
GR
GS
[0.75 0 0 0.75 516.375 462.74998] CT
0.149 GC
/Helvetica 13.333 F
GS
[1 0 0 1 0 0] CT
-7.5 14 moveto 
1 -1 scale
(26) t 
GR
GR
GS
[0.75 0 0 0.75 564.1875 462.74998] CT
0.149 GC
/Helvetica 13.333 F
GS
[1 0 0 1 0 0] CT
-7.5 14 moveto 
1 -1 scale
(27) t 
GR
GR
GS
[0.75 0 0 0.75 612 462.74998] CT
0.149 GC
/Helvetica 13.333 F
GS
[1 0 0 1 0 0] CT
-7.5 14 moveto 
1 -1 scale
(28) t 
GR
GR
GS
[0.75 0 0 0.75 659.8125 462.74998] CT
0.149 GC
/Helvetica 13.333 F
GS
[1 0 0 1 0 0] CT
-7.5 14 moveto 
1 -1 scale
(29) t 
GR
GR
GS
[0.75 0 0 0.75 707.625 462.74998] CT
0.149 GC
/Helvetica 13.333 F
GS
[1 0 0 1 0 0] CT
-7.5 14 moveto 
1 -1 scale
(30) t 
GR
GR
GS
[0.75 0 0 0.75 755.4375 462.74998] CT
0.149 GC
/Helvetica 13.333 F
GS
[1 0 0 1 0 0] CT
-7.5 14 moveto 
1 -1 scale
(31) t 
GR
GR
GS
[0.75 0 0 0.75 803.25 462.74998] CT
0.149 GC
/Helvetica 13.333 F
GS
[1 0 0 1 0 0] CT
-7.5 14 moveto 
1 -1 scale
(32) t 
GR
GR
GS
[0.75 0 0 0.75 420.75037 476.50002] CT
0.149 GC
/Helvetica 14.667 F
GS
[1 0 0 1 0 0] CT
-17.5 16 moveto 
1 -1 scale
(z \(m\)) t 
GR
GR
GS
[0.75 0 0 0.75 0 -0.25] CT
0.502 GC
[10 6] 0 setdash
2 LJ
0.667 LW
N
242.25 608.6 M
1071 608.6 L
1071 374 L
242.25 374 L
cp
S
GR
GS
[0.75 0 0 0.75 0 -0.25] CT
0.651 GC
N
/f1943045682{566.546 605.2 M
662.171 605.2 L
662.171 537.2 L
566.546 537.2 L
cp}def
f1943045682
f
GR
GS
[0.75 0 0 0.75 0 -0.25] CT
0.651 GC
10.0 ML
0.667 LW
N
566.546 605.2 M
662.171 605.2 L
662.171 537.2 L
566.546 537.2 L
cp
S
GR
GS
[0.75 0 0 0.75 460.76907 428.15001] CT
/Helvetica 12 F
GS
[1 0 0 1 0 0] CT
-12 5 moveto 
1 -1 scale
(Wall) t 
GR
GR
GS
[0.75 0 0 0.75 0 -0.25] CT
0.651 GC
N
/f1132907042{762.023 605.2 M
783.698 605.2 L
783.698 568.208 L
762.023 568.208 L
cp}def
f1132907042
f
GR
GS
[0.75 0 0 0.75 0 -0.25] CT
0.651 GC
10.0 ML
0.667 LW
N
762.023 605.2 M
783.698 605.2 L
783.698 568.208 L
762.023 568.208 L
cp
S
GR
GS
[0.75 0 0 0.75 0 -0.25] CT
1 0 1 RC
N
/f-956209262{783.698 605.2 M
805.373 605.2 L
805.373 568.208 L
783.698 568.208 L
cp}def
f-956209262
f
GR
GS
[0.75 0 0 0.75 0 -0.25] CT
1 0 1 RC
10.0 ML
0.667 LW
N
783.698 605.2 M
805.373 605.2 L
805.373 568.208 L
783.698 568.208 L
cp
S
GR
GS
[0.75 0 0 0.75 0 -0.25] CT
0.651 GC
N
/f1724128152{783.698 568.208 M
805.373 568.208 L
805.373 531.216 L
783.698 531.216 L
cp}def
f1724128152
f
GR
GS
[0.75 0 0 0.75 0 -0.25] CT
0.651 GC
10.0 ML
0.667 LW
N
783.698 568.208 M
805.373 568.208 L
805.373 531.216 L
783.698 531.216 L
cp
S
GR
GS
[0.75 0 0 0.75 0 -0.25] CT
1 0 1 RC
N
/f1605042024{762.023 568.208 M
783.698 568.208 L
783.698 531.216 L
762.023 531.216 L
cp}def
f1605042024
f
GR
GS
[0.75 0 0 0.75 0 -0.25] CT
1 0 1 RC
10.0 ML
0.667 LW
N
762.023 568.208 M
783.698 568.208 L
783.698 531.216 L
762.023 531.216 L
cp
S
GR
GS
[0.75 0 0 0.75 0 -0.25] CT
0.651 GC
N
/f-380981506{805.373 605.2 M
827.048 605.2 L
827.048 568.208 L
805.373 568.208 L
cp}def
f-380981506
f
GR
GS
[0.75 0 0 0.75 0 -0.25] CT
0.651 GC
10.0 ML
0.667 LW
N
805.373 605.2 M
827.048 605.2 L
827.048 568.208 L
805.373 568.208 L
cp
S
GR
GS
[0.75 0 0 0.75 0 -0.25] CT
1 0 1 RC
N
/f-1759696658{827.048 605.2 M
848.723 605.2 L
848.723 568.208 L
827.048 568.208 L
cp}def
f-1759696658
f
GR
GS
[0.75 0 0 0.75 0 -0.25] CT
1 0 1 RC
10.0 ML
0.667 LW
N
827.048 605.2 M
848.723 605.2 L
848.723 568.208 L
827.048 568.208 L
cp
S
GR
GS
[0.75 0 0 0.75 0 -0.25] CT
0.651 GC
N
/f1969830900{827.048 568.208 M
848.723 568.208 L
848.723 531.216 L
827.048 531.216 L
cp}def
f1969830900
f
GR
GS
[0.75 0 0 0.75 0 -0.25] CT
0.651 GC
10.0 ML
0.667 LW
N
827.048 568.208 M
848.723 568.208 L
848.723 531.216 L
827.048 531.216 L
cp
S
GR
GS
[0.75 0 0 0.75 0 -0.25] CT
1 0 1 RC
N
/f1720703684{805.373 568.208 M
827.048 568.208 L
827.048 531.216 L
805.373 531.216 L
cp}def
f1720703684
f
GR
GS
[0.75 0 0 0.75 0 -0.25] CT
1 0 1 RC
10.0 ML
0.667 LW
N
805.373 568.208 M
827.048 568.208 L
827.048 531.216 L
805.373 531.216 L
cp
S
GR
GS
[0.75 0 0 0.75 0 -0.25] CT
0.651 GC
N
/f-1505624374{848.723 605.2 M
870.398 605.2 L
870.398 568.208 L
848.723 568.208 L
cp}def
f-1505624374
f
GR
GS
[0.75 0 0 0.75 0 -0.25] CT
0.651 GC
10.0 ML
0.667 LW
N
848.723 605.2 M
870.398 605.2 L
870.398 568.208 L
848.723 568.208 L
cp
S
GR
GS
[0.75 0 0 0.75 0 -0.25] CT
1 0 1 RC
N
/f1469502968{870.398 605.2 M
892.073 605.2 L
892.073 568.208 L
870.398 568.208 L
cp}def
f1469502968
f
GR
GS
[0.75 0 0 0.75 0 -0.25] CT
1 0 1 RC
10.0 ML
0.667 LW
N
870.398 605.2 M
892.073 605.2 L
892.073 568.208 L
870.398 568.208 L
cp
S
GR
GS
[0.75 0 0 0.75 0 -0.25] CT
0.651 GC
N
/f-384282562{870.398 568.208 M
892.073 568.208 L
892.073 531.216 L
870.398 531.216 L
cp}def
f-384282562
f
GR
GS
[0.75 0 0 0.75 0 -0.25] CT
0.651 GC
10.0 ML
0.667 LW
N
870.398 568.208 M
892.073 568.208 L
892.073 531.216 L
870.398 531.216 L
cp
S
GR
GS
[0.75 0 0 0.75 0 -0.25] CT
1 0 1 RC
N
/f-735050992{848.723 568.208 M
870.398 568.208 L
870.398 531.216 L
848.723 531.216 L
cp}def
f-735050992
f
GR
GS
[0.75 0 0 0.75 0 -0.25] CT
1 0 1 RC
10.0 ML
0.667 LW
N
848.723 568.208 M
870.398 568.208 L
870.398 531.216 L
848.723 531.216 L
cp
S
GR
GS
[0.75 0 0 0.75 0 -0.25] CT
0.651 GC
N
/f865112018{892.073 605.2 M
913.748 605.2 L
913.748 568.208 L
892.073 568.208 L
cp}def
f865112018
f
GR
GS
[0.75 0 0 0.75 0 -0.25] CT
0.651 GC
10.0 ML
0.667 LW
N
892.073 605.2 M
913.748 605.2 L
913.748 568.208 L
892.073 568.208 L
cp
S
GR
GS
[0.75 0 0 0.75 0 -0.25] CT
1 0 1 RC
N
/f-287990292{913.748 605.2 M
935.423 605.2 L
935.423 568.208 L
913.748 568.208 L
cp}def
f-287990292
f
GR
GS
[0.75 0 0 0.75 0 -0.25] CT
1 0 1 RC
10.0 ML
0.667 LW
N
913.748 605.2 M
935.423 605.2 L
935.423 568.208 L
913.748 568.208 L
cp
S
GR
GS
[0.75 0 0 0.75 0 -0.25] CT
0.651 GC
N
/f-1173970318{913.748 568.208 M
935.423 568.208 L
935.423 531.216 L
913.748 531.216 L
cp}def
f-1173970318
f
GR
GS
[0.75 0 0 0.75 0 -0.25] CT
0.651 GC
10.0 ML
0.667 LW
N
913.748 568.208 M
935.423 568.208 L
935.423 531.216 L
913.748 531.216 L
cp
S
GR
GS
[0.75 0 0 0.75 0 -0.25] CT
1 0 1 RC
N
/f1442343256{892.073 568.208 M
913.748 568.208 L
913.748 531.216 L
892.073 531.216 L
cp}def
f1442343256
f
GR
GS
[0.75 0 0 0.75 0 -0.25] CT
1 0 1 RC
10.0 ML
0.667 LW
N
892.073 568.208 M
913.748 568.208 L
913.748 531.216 L
892.073 531.216 L
cp
S
GR
GS
[0.75 0 0 0.75 0 -0.25] CT
0.651 GC
N
/f494406852{935.423 605.2 M
957.098 605.2 L
957.098 568.208 L
935.423 568.208 L
cp}def
f494406852
f
GR
GS
[0.75 0 0 0.75 0 -0.25] CT
0.651 GC
10.0 ML
0.667 LW
N
935.423 605.2 M
957.098 605.2 L
957.098 568.208 L
935.423 568.208 L
cp
S
GR
GS
[0.75 0 0 0.75 0 -0.25] CT
1 0 1 RC
N
/f194377546{957.098 605.2 M
978.773 605.2 L
978.773 568.208 L
957.098 568.208 L
cp}def
f194377546
f
GR
GS
[0.75 0 0 0.75 0 -0.25] CT
1 0 1 RC
10.0 ML
0.667 LW
N
957.098 605.2 M
978.773 605.2 L
978.773 568.208 L
957.098 568.208 L
cp
S
GR
GS
[0.75 0 0 0.75 0 -0.25] CT
0.651 GC
N
/f-1913949936{957.098 568.208 M
978.773 568.208 L
978.773 531.216 L
957.098 531.216 L
cp}def
f-1913949936
f
GR
GS
[0.75 0 0 0.75 0 -0.25] CT
0.651 GC
10.0 ML
0.667 LW
N
957.098 568.208 M
978.773 568.208 L
978.773 531.216 L
957.098 531.216 L
cp
S
GR
GS
[0.75 0 0 0.75 0 -0.25] CT
1 0 1 RC
N
/f-1446867766{935.423 568.208 M
957.098 568.208 L
957.098 531.216 L
935.423 531.216 L
cp}def
f-1446867766
f
GR
GS
[0.75 0 0 0.75 0 -0.25] CT
1 0 1 RC
10.0 ML
0.667 LW
N
935.423 568.208 M
957.098 568.208 L
957.098 531.216 L
935.423 531.216 L
cp
S
GR
GS
[0.75 0 0 0.75 652.79842 377.15001] CT
/Helvetica 12 F
GS
[1 0 0 1 0 0] CT
-19 5 moveto 
1 -1 scale
(LCLS-I) t 
GR
GR
GS
[0.75 0 0 0.75 0 -0.25] CT
1 0 0 RC
N
/f1666522382{89.473 612 M
93.489 612 L
93.489 442 L
89.473 442 L
cp}def
f1666522382
f
GR
GS
[0.75 0 0 0.75 0 -0.25] CT
1 0 0 RC
10.0 ML
0.667 LW
N
89.473 612 M
93.489 612 L
93.489 442 L
89.473 442 L
cp
S
GR
GS
[0 -0.75 0.75 0 68.61095 326.15001] CT
1 0 0 RC
/Helvetica 10.667 F
GS
[1 0 0 1 0 0] CT
0 4.5 moveto 
1 -1 scale
(HIGH2.Q1) t 
GR
GR
GS
[0.75 0 0 0.75 0 -0.25] CT
1 0 0 RC
N
/f-1737480626{95.848 612 M
99.864 612 L
99.864 442 L
95.848 442 L
cp}def
f-1737480626
f
GR
GS
[0.75 0 0 0.75 0 -0.25] CT
1 0 0 RC
10.0 ML
0.667 LW
N
95.848 612 M
99.864 612 L
99.864 442 L
95.848 442 L
cp
S
GR
GS
[0 -0.75 0.75 0 73.39221 326.15001] CT
1 0 0 RC
/Helvetica 10.667 F
GS
[1 0 0 1 0 0] CT
0 4.5 moveto 
1 -1 scale
(HIGH2.Q2) t 
GR
GR
GS
[0.75 0 0 0.75 0 -0.25] CT
1 0 0 RC
N
/f-327018936{303.163 612 M
307.179 612 L
307.179 442 L
303.163 442 L
cp}def
f-327018936
f
GR
GS
[0.75 0 0 0.75 0 -0.25] CT
1 0 0 RC
10.0 ML
0.667 LW
N
303.163 612 M
307.179 612 L
307.179 442 L
303.163 442 L
cp
S
GR
GS
[0 -0.75 0.75 0 228.8784 326.15001] CT
1 0 0 RC
/Helvetica 10.667 F
GS
[1 0 0 1 0 0] CT
0 4.5 moveto 
1 -1 scale
(HIGH2.Q3) t 
GR
GR
GS
[0.75 0 0 0.75 0 -0.25] CT
1 0 0 RC
N
/f-373141220{371.216 612 M
375.233 612 L
375.233 442 L
371.216 442 L
cp}def
f-373141220
f
GR
GS
[0.75 0 0 0.75 0 -0.25] CT
1 0 0 RC
10.0 ML
0.667 LW
N
371.216 612 M
375.233 612 L
375.233 442 L
371.216 442 L
cp
S
GR
GS
[0 -0.75 0.75 0 279.91832 326.15001] CT
1 0 0 RC
/Helvetica 10.667 F
GS
[1 0 0 1 0 0] CT
0 4.5 moveto 
1 -1 scale
(HIGH2.Q4) t 
GR
GR
GS
[0.75 0 0 0.75 0 -0.25] CT
1 0 0 RC
N
/f-980226362{439.269 612 M
443.286 612 L
443.286 442 L
439.269 442 L
cp}def
f-980226362
f
GR
GS
[0.75 0 0 0.75 0 -0.25] CT
1 0 0 RC
10.0 ML
0.667 LW
N
439.269 612 M
443.286 612 L
443.286 442 L
439.269 442 L
cp
S
GR
GS
[0 -0.75 0.75 0 330.95812 326.15001] CT
1 0 0 RC
/Helvetica 10.667 F
GS
[1 0 0 1 0 0] CT
0 4.5 moveto 
1 -1 scale
(HIGH2.Q5) t 
GR
GR
GS
[0.75 0 0 0.75 0 -0.25] CT
1 0 0 RC
N
/f1478671622{683.515 612 M
687.531 612 L
687.531 442 L
683.515 442 L
cp}def
f1478671622
f
GR
GS
[0.75 0 0 0.75 0 -0.25] CT
1 0 0 RC
10.0 ML
0.667 LW
N
683.515 612 M
687.531 612 L
687.531 442 L
683.515 442 L
cp
S
GR
GS
[0 -0.75 0.75 0 514.14217 326.15001] CT
1 0 0 RC
/Helvetica 10.667 F
GS
[1 0 0 1 0 0] CT
0 4.5 moveto 
1 -1 scale
(HIGH3.Q1) t 
GR
GR
GS
[0.75 0 0 0.75 0 -0.25] CT
1 0 0 RC
N
/f881825588{709.015 612 M
713.031 612 L
713.031 442 L
709.015 442 L
cp}def
f881825588
f
GR
GS
[0.75 0 0 0.75 0 -0.25] CT
1 0 0 RC
10.0 ML
0.667 LW
N
709.015 612 M
713.031 612 L
713.031 442 L
709.015 442 L
cp
S
GR
GS
[0 -0.75 0.75 0 533.26717 326.15001] CT
1 0 0 RC
/Helvetica 10.667 F
GS
[1 0 0 1 0 0] CT
0 4.5 moveto 
1 -1 scale
(HIGH3.Q2) t 
GR
GR
GS
[0.75 0 0 0.75 0 -0.25] CT
1 0 0 RC
N
/f-1618919574{734.515 612 M
738.531 612 L
738.531 442 L
734.515 442 L
cp}def
f-1618919574
f
GR
GS
[0.75 0 0 0.75 0 -0.25] CT
1 0 0 RC
10.0 ML
0.667 LW
N
734.515 612 M
738.531 612 L
738.531 442 L
734.515 442 L
cp
S
GR
GS
[0 -0.75 0.75 0 552.39212 326.15001] CT
1 0 0 RC
/Helvetica 10.667 F
GS
[1 0 0 1 0 0] CT
0 4.5 moveto 
1 -1 scale
(HIGH3.Q3) t 
GR
GR
GS
[0.75 0 0 0.75 0 -0.25] CT
0 0 1 RC
N
/f448443470{69.998 612 M
70.635 612 L
70.635 510 L
69.998 510 L
cp}def
f448443470
f
GR
GS
[0.75 0 0 0.75 0 -0.25] CT
0 0 1 RC
10.0 ML
0.667 LW
N
69.998 612 M
70.635 612 L
70.635 510 L
69.998 510 L
cp
S
GR
GS
[0 -0.75 0.75 0 52.73716 377.15001] CT
0 0 1 RC
/Helvetica 10.667 F
GS
[1 0 0 1 0 0] CT
0 4.5 moveto 
1 -1 scale
(HIGH2.SCR1) t 
GR
GR
GS
[0.75 0 0 0.75 0 -0.25] CT
0 0 1 RC
N
/f444515940{194.884 612 M
195.521 612 L
195.521 510 L
194.884 510 L
cp}def
f444515940
f
GR
GS
[0.75 0 0 0.75 0 -0.25] CT
0 0 1 RC
10.0 ML
0.667 LW
N
194.884 612 M
195.521 612 L
195.521 510 L
194.884 510 L
cp
S
GR
GS
[0 -0.75 0.75 0 146.40183 377.15001] CT
0 0 1 RC
/Helvetica 10.667 F
GS
[1 0 0 1 0 0] CT
0 4.5 moveto 
1 -1 scale
(HIGH2.SCR2) t 
GR
GR
GS
[0.75 0 0 0.75 0 -0.25] CT
0 0 1 RC
N
/f1493513292{723.454 612 M
724.092 612 L
724.092 510 L
723.454 510 L
cp}def
f1493513292
f
GR
GS
[0.75 0 0 0.75 0 -0.25] CT
0 0 1 RC
10.0 ML
0.667 LW
N
723.454 612 M
724.092 612 L
724.092 510 L
723.454 510 L
cp
S
GR
GS
[0 -0.75 0.75 0 542.82971 377.15001] CT
0 0 1 RC
/Helvetica 10.667 F
GS
[1 0 0 1 0 0] CT
0 4.5 moveto 
1 -1 scale
(HIHG3.SCR1) t 
GR
GR
GS
[0.75 0 0 0.75 0 -0.25] CT
0 0 1 RC
N
/f1176728814{1015.856 612 M
1016.494 612 L
1016.494 510 L
1015.856 510 L
cp}def
f1176728814
f
GR
GS
[0.75 0 0 0.75 0 -0.25] CT
0 0 1 RC
10.0 ML
0.667 LW
N
1015.856 612 M
1016.494 612 L
1016.494 510 L
1015.856 510 L
cp
S
GR
GS
[0 -0.75 0.75 0 762.13124 377.15001] CT
0 0 1 RC
/Helvetica 10.667 F
GS
[1 0 0 1 0 0] CT
0 4.5 moveto 
1 -1 scale
(HIGH3.SCR2) t 
GR
GR
GS
[0.75 0 0 0.75 0 -0.25] CT
0 1 0 RC
N
/f862134318{78.285 612 M
81.473 612 L
81.473 442 L
78.285 442 L
cp}def
f862134318
f
GR
GS
[0.75 0 0 0.75 0 -0.25] CT
0 1 0 RC
10.0 ML
0.667 LW
N
78.285 612 M
81.473 612 L
81.473 442 L
78.285 442 L
cp
S
GR
GS
[0 -0.75 0.75 0 59.90902 326.15001] CT
0 1 0 RC
/Helvetica 10.667 F
GS
[1 0 0 1 0 0] CT
0 4.5 moveto 
1 -1 scale
(HIGH2.ST1) t 
GR
GR
GS
[0.75 0 0 0.75 0 -0.25] CT
0 1 0 RC
N
/f-238379970{102.446 612 M
105.634 612 L
105.634 442 L
102.446 442 L
cp}def
f-238379970
f
GR
GS
[0.75 0 0 0.75 0 -0.25] CT
0 1 0 RC
10.0 ML
0.667 LW
N
102.446 612 M
105.634 612 L
105.634 442 L
102.446 442 L
cp
S
GR
GS
[0 -0.75 0.75 0 78.03004 326.15001] CT
0 1 0 RC
/Helvetica 10.667 F
GS
[1 0 0 1 0 0] CT
0 4.5 moveto 
1 -1 scale
(HIGH2.ST2) t 
GR
GR
GS
[0.75 0 0 0.75 0 -0.25] CT
0 1 0 RC
N
/f1009266414{249.39 612 M
252.578 612 L
252.578 442 L
249.39 442 L
cp}def
f1009266414
f
GR
GS
[0.75 0 0 0.75 0 -0.25] CT
0 1 0 RC
10.0 ML
0.667 LW
N
249.39 612 M
252.578 612 L
252.578 442 L
249.39 442 L
cp
S
GR
GS
[0 -0.75 0.75 0 188.23777 326.15001] CT
0 1 0 RC
/Helvetica 10.667 F
GS
[1 0 0 1 0 0] CT
0 4.5 moveto 
1 -1 scale
(HIGH2.ST3) t 
GR
GR
GS
[0.75 0 0 0.75 0 -0.25] CT
0 1 0 RC
N
/f-1669630370{362.068 612 M
365.256 612 L
365.256 442 L
362.068 442 L
cp}def
f-1669630370
f
GR
GS
[0.75 0 0 0.75 0 -0.25] CT
0 1 0 RC
10.0 ML
0.667 LW
N
362.068 612 M
365.256 612 L
365.256 442 L
362.068 442 L
cp
S
GR
GS
[0 -0.75 0.75 0 272.74635 326.15001] CT
0 1 0 RC
/Helvetica 10.667 F
GS
[1 0 0 1 0 0] CT
0 4.5 moveto 
1 -1 scale
(HIGH2.ST4) t 
GR
GR
GS
[0.75 0 0 0.75 0 -0.25] CT
0 1 0 RC
N
/f123416200{430.121 612 M
433.309 612 L
433.309 442 L
430.121 442 L
cp}def
f123416200
f
GR
GS
[0.75 0 0 0.75 0 -0.25] CT
0 1 0 RC
10.0 ML
0.667 LW
N
430.121 612 M
433.309 612 L
433.309 442 L
430.121 442 L
cp
S
GR
GS
[0 -0.75 0.75 0 323.78625 326.15001] CT
0 1 0 RC
/Helvetica 10.667 F
GS
[1 0 0 1 0 0] CT
0 4.5 moveto 
1 -1 scale
(HIGH2.ST4A) t 
GR
GR
GS
[0.75 0 0 0.75 0 -0.25] CT
0 1 0 RC
N
/f-1674973802{677.344 612 M
680.531 612 L
680.531 442 L
677.344 442 L
cp}def
f-1674973802
f
GR
GS
[0.75 0 0 0.75 0 -0.25] CT
0 1 0 RC
10.0 ML
0.667 LW
N
677.344 612 M
680.531 612 L
680.531 442 L
677.344 442 L
cp
S
GR
GS
[0 -0.75 0.75 0 509.20313 326.15001] CT
0 1 0 RC
/Helvetica 10.667 F
GS
[1 0 0 1 0 0] CT
0 4.5 moveto 
1 -1 scale
(HIGH3.ST1) t 
GR
GR
GS
[0.75 0 0 0.75 0 -0.25] CT
0 1 0 RC
N
/f424713014{696.679 612 M
699.867 612 L
699.867 442 L
696.679 442 L
cp}def
f424713014
f
GR
GS
[0.75 0 0 0.75 0 -0.25] CT
0 1 0 RC
10.0 ML
0.667 LW
N
696.679 612 M
699.867 612 L
699.867 442 L
696.679 442 L
cp
S
GR
GS
[0 -0.75 0.75 0 523.70462 326.15001] CT
0 1 0 RC
/Helvetica 10.667 F
GS
[1 0 0 1 0 0] CT
0 4.5 moveto 
1 -1 scale
(HIGH3.ST2) t 
GR
GR
GS
[0.75 0 0 0.75 0 -0.25] CT
1 0 1 RC
N
/f-1803673912{119.531 612 M
120.169 612 L
120.169 510 L
119.531 510 L
cp}def
f-1803673912
f
GR
GS
[0.75 0 0 0.75 0 -0.25] CT
1 0 1 RC
10.0 ML
0.667 LW
N
119.531 612 M
120.169 612 L
120.169 510 L
119.531 510 L
cp
S
GR
GS
[0 -0.75 0.75 0 89.8875 377.15001] CT
1 0 1 RC
/Helvetica 10.667 F
GS
[1 0 0 1 0 0] CT
0 4.5 moveto 
1 -1 scale
(HIGH2.ICT1) t 
GR
GR
GS
[0.75 0 0 0.75 0 -0.25] CT
N
/f-764325286{347.182 612 M
347.82 612 L
347.82 510 L
347.182 510 L
cp}def
f-764325286
f
GR
GS
[0.75 0 0 0.75 0 -0.25] CT
10.0 ML
0.667 LW
N
347.182 612 M
347.82 612 L
347.82 510 L
347.182 510 L
cp
S
GR
GS
[0 -0.75 0.75 0 260.62589 377.15001] CT
/Helvetica 10.667 F
GS
[1 0 0 1 0 0] CT
0 4.5 moveto 
1 -1 scale
(HIGH2.BPM1) t 
GR
GR
GS
[0.75 0 0 0.75 0 -0.25] CT
N
/f1775143940{502.35 612 M
502.988 612 L
502.988 510 L
502.35 510 L
cp}def
f1775143940
f
GR
GS
[0.75 0 0 0.75 0 -0.25] CT
10.0 ML
0.667 LW
N
502.35 612 M
502.988 612 L
502.988 510 L
502.35 510 L
cp
S
GR
GS
[0 -0.75 0.75 0 377.00153 377.15001] CT
/Helvetica 10.667 F
GS
[1 0 0 1 0 0] CT
0 4.5 moveto 
1 -1 scale
(HIGH2.BPM2) t 
GR
GR
GS
[0.75 0 0 0.75 0 -0.25] CT
N
/f-407010128{536.138 612 M
536.775 612 L
536.775 510 L
536.138 510 L
cp}def
f-407010128
f
GR
GS
[0.75 0 0 0.75 0 -0.25] CT
10.0 ML
0.667 LW
N
536.138 612 M
536.775 612 L
536.775 510 L
536.138 510 L
cp
S
GR
GS
[0 -0.75 0.75 0 402.34218 377.15001] CT
/Helvetica 10.667 F
GS
[1 0 0 1 0 0] CT
0 4.5 moveto 
1 -1 scale
(HIGH2.BPM3) t 
GR
GR
GS
[0.75 0 0 0.75 0 -0.25] CT
N
/f1449246572{668.1 612 M
668.738 612 L
668.738 510 L
668.1 510 L
cp}def
f1449246572
f
GR
GS
[0.75 0 0 0.75 0 -0.25] CT
10.0 ML
0.667 LW
N
668.1 612 M
668.738 612 L
668.738 510 L
668.1 510 L
cp
S
GR
GS
[0 -0.75 0.75 0 501.31403 377.15001] CT
/Helvetica 10.667 F
GS
[1 0 0 1 0 0] CT
0 4.5 moveto 
1 -1 scale
(HIGH3.BPM1) t 
GR
GR
GS
[0.75 0 0 0.75 0 -0.25] CT
N
/f-981742158{742.579 612 M
743.217 612 L
743.217 510 L
742.579 510 L
cp}def
f-981742158
f
GR
GS
[0.75 0 0 0.75 0 -0.25] CT
10.0 ML
0.667 LW
N
742.579 612 M
743.217 612 L
743.217 510 L
742.579 510 L
cp
S
GR
GS
[0 -0.75 0.75 0 557.17342 377.15001] CT
/Helvetica 10.667 F
GS
[1 0 0 1 0 0] CT
0 4.5 moveto 
1 -1 scale
(HIGH3.BPM2) t 
GR
GR
GS
[0.75 0 0 0.75 0 -0.25] CT
N
/f941850410{997.579 612 M
998.217 612 L
998.217 510 L
997.579 510 L
cp}def
f941850410
f
GR
GS
[0.75 0 0 0.75 0 -0.25] CT
10.0 ML
0.667 LW
N
997.579 612 M
998.217 612 L
998.217 510 L
997.579 510 L
cp
S
GR
GS
[0 -0.75 0.75 0 748.42342 377.15001] CT
/Helvetica 10.667 F
GS
[1 0 0 1 0 0] CT
0 4.5 moveto 
1 -1 scale
(HIGH3.BPM3) t 
GR
GR
GS
[0.75 0 0 0.75 0 -0.25] CT
0.584 0.816 0.988 RC
N
/f-1050950594{123.675 605.2 M
179.52 605.2 L
179.52 537.2 L
123.675 537.2 L
cp}def
f-1050950594
f
GR
GS
[0.75 0 0 0.75 0 -0.25] CT
0.584 0.816 0.988 RC
10.0 ML
0.667 LW
N
123.675 605.2 M
179.52 605.2 L
179.52 537.2 L
123.675 537.2 L
cp
S
GR
GS
[0 -0.75 0.75 0 113.69808 369.5] CT
/Helvetica 12 F
GS
[1 0 0 1 0 0] CT
-27 5 moveto 
1 -1 scale
(DISP3.D1) t 
GR
GR
GS
[0.75 0 0 0.75 0 -0.25] CT
0.584 0.816 0.988 RC
N
/f895449262{1039.125 605.2 M
1071 605.2 L
1071 537.2 L
1039.125 537.2 L
cp}def
f895449262
f
GR
GS
[0.75 0 0 0.75 0 -0.25] CT
0.584 0.816 0.988 RC
10.0 ML
0.667 LW
N
1039.125 605.2 M
1071 605.2 L
1071 537.2 L
1039.125 537.2 L
cp
S
GR
GS
[0 -0.75 0.75 0 791.29688 369.5] CT
/Helvetica 12 F
GS
[1 0 0 1 0 0] CT
-38.5 5 moveto 
1 -1 scale
(HIGH3.DIPOL) t 
GR
GR
GS
[0.75 0 0 0.75 0 -0.25] CT
0.929 0.69 0.129 RC
N
/f1498139728{513.188 605.2 M
525.938 605.2 L
525.938 600.1 L
513.188 600.1 L
cp}def
f1498139728
f
GR
GS
[0.75 0 0 0.75 0 -0.25] CT
0.929 0.69 0.129 RC
10.0 ML
0.667 LW
N
513.188 605.2 M
525.938 605.2 L
525.938 600.1 L
513.188 600.1 L
cp
S
GR
GS
[0.75 0 0 0.75 0 -0.25] CT
0.929 0.69 0.129 RC
N
/f1614476700{513.188 595 M
525.938 595 L
525.938 589.9 L
513.188 589.9 L
cp}def
f1614476700
f
GR
GS
[0.75 0 0 0.75 0 -0.25] CT
0.929 0.69 0.129 RC
10.0 ML
0.667 LW
N
513.188 595 M
525.938 595 L
525.938 589.9 L
513.188 589.9 L
cp
S
GR
GS
[0 -0.75 0.75 0 389.67188 407.75] CT
/Helvetica 12 F
GS
[1 0 0 1 0 0] CT
-39.5 5 moveto 
1 -1 scale
(COLLIMATOR) t 
GR
GR
GS
[0.75 0 0 0.75 38.25 14.75] CT
N
0 0 M
0 22 L
113 22 L
113 0 L
cp
clip
0.94 GC
N
0 0 113 22 re
f
GR
GS
[0.75 0 0 0.75 38.25 14.75] CT
N
0 0 M
0 22 L
113 22 L
113 0 L
cp
clip
0.94 GC
N
0 0 113 22 re
f
GR
GS
[0.75 0 0 0.75 39 18.5] CT
[1 0 0 1 0 0] CT
N
-1 -5 M
-1 17 L
112 17 L
112 -5 L
cp
clip
GS
0 0 translate
13 13 scale
%AXGBeginBitmap: java.awt.image.BufferedImage
{{
/RawData currentfile /ASCII85Decode filter def
/Data RawData /FlateDecode filter def
/DeviceRGB setcolorspace
<<
  /Decode [0 1 0 1 0 1]
  /BitsPerComponent 8
  /Width 13
  /ImageType 1
  /DataSource Data
  /ImageMatrix [13 0 0 13 0 0]
  /Height 13
>> image
} stopped {handleerror} if
  RawData flushfile
} exec
GapQJ-5QM,"K8']dA'2Q*ZdCdm(fA)U*_r`qqJSu\<J/;JQiI<(+9HQ_Q!gC%*/SZ6<%Eo61t@b-)MS;
T0cLdWZ`3%j=);X!!&r0?>]~>

%AXGEndBitmap
GR
GR
GS
[0.75 0 0 0.75 38.25 14.75] CT
1 0 0 RC
/Helvetica 13.333 F
GS
N
0 -1 M
113 -1 L
113 22 L
0 22 L
0 -1 L
cp
clip
[1 0 0 1 0 0] CT
18 16 moveto 
1 -1 scale
(Quadrupole) t 
GR
GR
GS
[0.75 0 0 0.75 123 14.75] CT
N
0 0 M
0 22 L
113 22 L
113 0 L
cp
clip
0.94 GC
N
0 0 113 22 re
f
GR
GS
[0.75 0 0 0.75 123 14.75] CT
N
0 0 M
0 22 L
113 22 L
113 0 L
cp
clip
0.94 GC
N
0 0 113 22 re
f
GR
GS
[0.75 0 0 0.75 123.75 18.5] CT
[1 0 0 1 0 0] CT
N
-1 -5 M
-1 17 L
112 17 L
112 -5 L
cp
clip
GS
0 0 translate
13 13 scale
%AXGBeginBitmap: java.awt.image.BufferedImage
{{
/RawData currentfile /ASCII85Decode filter def
/Data RawData /FlateDecode filter def
/DeviceRGB setcolorspace
<<
  /Decode [0 1 0 1 0 1]
  /BitsPerComponent 8
  /Width 13
  /ImageType 1
  /DataSource Data
  /ImageMatrix [13 0 0 13 0 0]
  /Height 13
>> image
} stopped {handleerror} if
  RawData flushfile
} exec
GapQJ-5QM,"K8']dA'2Q*ZdCdm(fA)U*_r`qqJSu\<J/;JQiI<(+9HQ_Q!gC%*/SZ6<%Eo61t@b-)MS;
T0cLdWZ`3%j=);X!!&r0?>]~>

%AXGEndBitmap
GR
GR
GS
[0.75 0 0 0.75 123 14.75] CT
0 0 1 RC
/Helvetica 13.333 F
GS
N
0 -1 M
113 -1 L
113 22 L
0 22 L
0 -1 L
cp
clip
[1 0 0 1 0 0] CT
18 16 moveto 
1 -1 scale
(Screen) t 
GR
GR
GS
[0.75 0 0 0.75 207.75 14.75] CT
N
0 0 M
0 22 L
113 22 L
113 0 L
cp
clip
0.94 GC
N
0 0 113 22 re
f
GR
GS
[0.75 0 0 0.75 207.75 14.75] CT
N
0 0 M
0 22 L
113 22 L
113 0 L
cp
clip
0.94 GC
N
0 0 113 22 re
f
GR
GS
[0.75 0 0 0.75 208.5 18.5] CT
[1 0 0 1 0 0] CT
N
-1 -5 M
-1 17 L
112 17 L
112 -5 L
cp
clip
GS
0 0 translate
13 13 scale
%AXGBeginBitmap: java.awt.image.BufferedImage
{{
/RawData currentfile /ASCII85Decode filter def
/Data RawData /FlateDecode filter def
/DeviceRGB setcolorspace
<<
  /Decode [0 1 0 1 0 1]
  /BitsPerComponent 8
  /Width 13
  /ImageType 1
  /DataSource Data
  /ImageMatrix [13 0 0 13 0 0]
  /Height 13
>> image
} stopped {handleerror} if
  RawData flushfile
} exec
GapQJ-5QM,"K8']dA'2Q*ZdCdm(fA)U*_r`qqJSu\<J/;JQiI<(+9HQ_Q!gC%*/SZ6<%Eo61t@b-)MS;
T0cLdWZ`3%j=);X!!&r0?>]~>

%AXGEndBitmap
GR
GR
GS
[0.75 0 0 0.75 207.75 14.75] CT
0 1 0 RC
/Helvetica 13.333 F
GS
N
0 -1 M
113 -1 L
113 22 L
0 22 L
0 -1 L
cp
clip
[1 0 0 1 0 0] CT
18 16 moveto 
1 -1 scale
(Steerer) t 
GR
GR
GS
[0.75 0 0 0.75 293.25 14.75] CT
N
0 0 M
0 22 L
113 22 L
113 0 L
cp
clip
0.94 GC
N
0 0 113 22 re
f
GR
GS
[0.75 0 0 0.75 293.25 14.75] CT
N
0 0 M
0 22 L
113 22 L
113 0 L
cp
clip
0.94 GC
N
0 0 113 22 re
f
GR
GS
[0.75 0 0 0.75 294 18.5] CT
[1 0 0 1 0 0] CT
N
-1 -5 M
-1 17 L
112 17 L
112 -5 L
cp
clip
GS
0 0 translate
13 13 scale
%AXGBeginBitmap: java.awt.image.BufferedImage
{{
/RawData currentfile /ASCII85Decode filter def
/Data RawData /FlateDecode filter def
/DeviceRGB setcolorspace
<<
  /Decode [0 1 0 1 0 1]
  /BitsPerComponent 8
  /Width 13
  /ImageType 1
  /DataSource Data
  /ImageMatrix [13 0 0 13 0 0]
  /Height 13
>> image
} stopped {handleerror} if
  RawData flushfile
} exec
GapQJ-5QM,"K8']dA'2Q*ZdCdm(fA)U*_r`qqJSu\<J/;JQiI<(+9HQ_Q!gC%*/SZ6<%Eo61t@b-)MS;
T0cLdWZ`3%j=);X!!&r0?>]~>

%AXGEndBitmap
GR
GR
GS
[0.75 0 0 0.75 293.25 14.75] CT
1 0 1 RC
/Helvetica 13.333 F
GS
N
0 -1 M
113 -1 L
113 22 L
0 22 L
0 -1 L
cp
clip
[1 0 0 1 0 0] CT
18 16 moveto 
1 -1 scale
(ICT) t 
GR
GR
GS
[0.75 0 0 0.75 378 14.75] CT
N
0 0 M
0 22 L
113 22 L
113 0 L
cp
clip
0.94 GC
N
0 0 113 22 re
f
GR
GS
[0.75 0 0 0.75 378 14.75] CT
N
0 0 M
0 22 L
113 22 L
113 0 L
cp
clip
0.94 GC
N
0 0 113 22 re
f
GR
GS
[0.75 0 0 0.75 378.75 18.5] CT
[1 0 0 1 0 0] CT
N
-1 -5 M
-1 17 L
112 17 L
112 -5 L
cp
clip
GS
0 0 translate
13 13 scale
%AXGBeginBitmap: java.awt.image.BufferedImage
{{
/RawData currentfile /ASCII85Decode filter def
/Data RawData /FlateDecode filter def
/DeviceRGB setcolorspace
<<
  /Decode [0 1 0 1 0 1]
  /BitsPerComponent 8
  /Width 13
  /ImageType 1
  /DataSource Data
  /ImageMatrix [13 0 0 13 0 0]
  /Height 13
>> image
} stopped {handleerror} if
  RawData flushfile
} exec
GapQJ-5QM,"K8']dA'2Q*ZdCdm(fA)U*_r`qqJSu\<J/;JQiI<(+9HQ_Q!gC%*/SZ6<%Eo61t@b-)MS;
T0cLdWZ`3%j=);X!!&r0?>]~>

%AXGEndBitmap
GR
GR
GS
[0.75 0 0 0.75 378 14.75] CT
0 1 1 RC
/Helvetica 13.333 F
GS
N
0 -1 M
113 -1 L
113 22 L
0 22 L
0 -1 L
cp
clip
[1 0 0 1 0 0] CT
18 16 moveto 
1 -1 scale
(Faraday Cup) t 
GR
GR
GS
[0.75 0 0 0.75 462.75 14.75] CT
N
0 0 M
0 22 L
113 22 L
113 0 L
cp
clip
0.94 GC
N
0 0 113 22 re
f
GR
GS
[0.75 0 0 0.75 462.75 14.75] CT
N
0 0 M
0 22 L
113 22 L
113 0 L
cp
clip
0.94 GC
N
0 0 113 22 re
f
GR
GS
[0.75 0 0 0.75 463.5 18.5] CT
[1 0 0 1 0 0] CT
N
-1 -5 M
-1 17 L
112 17 L
112 -5 L
cp
clip
GS
0 0 translate
13 13 scale
%AXGBeginBitmap: java.awt.image.BufferedImage
{{
/RawData currentfile /ASCII85Decode filter def
/Data RawData /FlateDecode filter def
/DeviceRGB setcolorspace
<<
  /Decode [0 1 0 1 0 1]
  /BitsPerComponent 8
  /Width 13
  /ImageType 1
  /DataSource Data
  /ImageMatrix [13 0 0 13 0 0]
  /Height 13
>> image
} stopped {handleerror} if
  RawData flushfile
} exec
GapQJ-5QM,"K8']dA'2Q*ZdCdm(fA)U*_r`qqJSu\<J/;JQiI<(+9HQ_Q!gC%*/SZ6<%Eo61t@b-)MS;
T0cLdWZ`3%j=);X!!&r0?>]~>

%AXGEndBitmap
GR
GR
GS
[0.75 0 0 0.75 462.75 14.75] CT
/Helvetica 13.333 F
GS
N
0 -1 M
113 -1 L
113 22 L
0 22 L
0 -1 L
cp
clip
[1 0 0 1 0 0] CT
18 16 moveto 
1 -1 scale
(BPM) t 
GR
GR
GS
[0.75 0 0 0.75 548.25 14.75] CT
N
0 0 M
0 22 L
113 22 L
113 0 L
cp
clip
0.94 GC
N
0 0 113 22 re
f
GR
GS
[0.75 0 0 0.75 548.25 14.75] CT
N
0 0 M
0 22 L
113 22 L
113 0 L
cp
clip
0.94 GC
N
0 0 113 22 re
f
GR
GS
[0.75 0 0 0.75 549 18.5] CT
[1 0 0 1 0 0] CT
N
-1 -5 M
-1 17 L
112 17 L
112 -5 L
cp
clip
GS
0 0 translate
13 13 scale
%AXGBeginBitmap: java.awt.image.BufferedImage
{{
/RawData currentfile /ASCII85Decode filter def
/Data RawData /FlateDecode filter def
/DeviceRGB setcolorspace
<<
  /Decode [0 1 0 1 0 1]
  /BitsPerComponent 8
  /Width 13
  /ImageType 1
  /DataSource Data
  /ImageMatrix [13 0 0 13 0 0]
  /Height 13
>> image
} stopped {handleerror} if
  RawData flushfile
} exec
GapQJ-5QM,"K8']dA'2Q*ZdCdm(fA)U*_r`qqJSu\<J/;JQiI<(+9HQ_Q!gC%*/SZ6<%Eo61t@b-)MS;
T0cLdWZ`3%j=);X!!&r0?>]~>

%AXGEndBitmap
GR
GR
GS
[0.75 0 0 0.75 548.25 14.75] CT
0.584 0.816 0.988 RC
/Helvetica 13.333 F
GS
N
0 -1 M
113 -1 L
113 22 L
0 22 L
0 -1 L
cp
clip
[1 0 0 1 0 0] CT
18 16 moveto 
1 -1 scale
(Dipole) t 
GR
GR
GS
[0.75 0 0 0.75 633 14.75] CT
N
0 0 M
0 22 L
113 22 L
113 0 L
cp
clip
0.94 GC
N
0 0 113 22 re
f
GR
GS
[0.75 0 0 0.75 633 14.75] CT
N
0 0 M
0 22 L
113 22 L
113 0 L
cp
clip
0.94 GC
N
0 0 113 22 re
f
GR
GS
[0.75 0 0 0.75 633.75 18.5] CT
[1 0 0 1 0 0] CT
N
-1 -5 M
-1 17 L
112 17 L
112 -5 L
cp
clip
GS
0 0 translate
13 13 scale
%AXGBeginBitmap: java.awt.image.BufferedImage
{{
/RawData currentfile /ASCII85Decode filter def
/Data RawData /FlateDecode filter def
/DeviceRGB setcolorspace
<<
  /Decode [0 1 0 1 0 1]
  /BitsPerComponent 8
  /Width 13
  /ImageType 1
  /DataSource Data
  /ImageMatrix [13 0 0 13 0 0]
  /Height 13
>> image
} stopped {handleerror} if
  RawData flushfile
} exec
GapQJ-5QM,"K8']dA'2Q*ZdCdm(fA)U*_r`qqJSu\<J/;JQiI<(+9HQ_Q!gC%*/SZ6<%Eo61t@b-)MS;
T0cLdWZ`3%j=);X!!&r0?>]~>

%AXGEndBitmap
GR
GR
GS
[0.75 0 0 0.75 633 14.75] CT
0.93 0.69 0.13 RC
/Helvetica 13.333 F
GS
N
0 -1 M
113 -1 L
113 22 L
0 22 L
0 -1 L
cp
clip
[1 0 0 1 0 0] CT
18 16 moveto 
1 -1 scale
(Collimator) t 
GR
GR
GS
[0.75 0 0 0.75 765 16.25] CT
N
0 0 M
0 22 L
103 22 L
103 0 L
cp
clip
0.94 GC
N
0 0 113 22 re
f
GR
GS
[0.75 0 0 0.75 765 16.25] CT
/Helvetica 13.333 F
GS
N
0 -1 M
103 -1 L
103 22 L
0 22 L
0 -1 L
cp
clip
[1 0 0 1 0 0] CT
26 13 moveto 
1 -1 scale
(24.0392 m) t 
GR
GR
GS
[0.75 0 0 0.75 733.5 16.25] CT
N
0 0 M
0 22 L
71 22 L
71 0 L
cp
clip
0.94 GC
N
0 0 71 22 re
f
GR
GS
[0.75 0 0 0.75 733.5 16.25] CT
/Helvetica 13.333 F
GS
N
0 -1 M
71 -1 L
71 22 L
0 22 L
0 -1 L
cp
clip
[1 0 0 1 0 0] CT
1 13 moveto 
1 -1 scale
(Position at: ) t 
GR
GR
GS
[0.75 0 0 0.75 733.5 16.25] CT
/Helvetica 13.333 F
GS
N
0 -2 M
71 -2 L
71 22 L
0 22 L
0 -2 L
cp
clip
[1 0 0 1 0 0] CT
35 29 moveto 
1 -1 scale
() t 
GR
GR
%%Trailer
%%Pages: 1
%%EOF
