%!PS-Adobe-3.0 EPSF-3.0
%%Title: ../energy-spread-z-2.eps
%%Creator: matplotlib version 2.2.2, http://matplotlib.org/
%%CreationDate: Sun Dec  2 14:05:58 2018
%%Orientation: portrait
%%BoundingBox: 126 288 486 504
%%EndComments
%%BeginProlog
/mpldict 10 dict def
mpldict begin
/m { moveto } bind def
/l { lineto } bind def
/r { rlineto } bind def
/c { curveto } bind def
/cl { closepath } bind def
/box {
m
1 index 0 r
0 exch r
neg 0 r
cl
} bind def
/clipbox {
box
clip
newpath
} bind def
%!PS-Adobe-3.0 Resource-Font
%%Title: DejaVu Serif
%%Copyright: Copyright (c) 2003 by Bitstream, Inc. All Rights Reserved. DejaVu changes are in public domain 
%%Creator: Converted from TrueType to type 3 by PPR
25 dict begin
/_d{bind def}bind def
/_m{moveto}_d
/_l{lineto}_d
/_cl{closepath eofill}_d
/_c{curveto}_d
/_sc{7 -1 roll{setcachedevice}{pop pop pop pop pop pop}ifelse}_d
/_e{exec}_d
/FontName /DejaVuSerif def
/PaintType 0 def
/FontMatrix[.001 0 0 .001 0 0]def
/FontBBox[-770 -347 2105 1109]def
/FontType 3 def
/Encoding [ /space /parenleft /parenright /period /zero /one /two /five /seven /E /V /a /d /e /g /k /m /n /p /r /s /y /minus ] def
/FontInfo 10 dict dup begin
/FamilyName (DejaVu Serif) def
/FullName (DejaVu Serif) def
/Notice (Copyright (c) 2003 by Bitstream, Inc. All Rights Reserved. DejaVu changes are in public domain ) def
/Weight (Book) def
/Version (Version 2.35) def
/ItalicAngle 0.0 def
/isFixedPitch false def
/UnderlinePosition -130 def
/UnderlineThickness 90 def
end readonly def
/CharStrings 24 dict dup begin
/.notdef 0 def
/space{318 0 0 0 0 0 _sc
}_d
/parenleft{390 0 79 -155 319 760 _sc
319 -155 _m
239 -119 179 -63 139 13 _c
99 89 79 186 79 302 _c
79 418 99 514 139 591 _c
179 668 239 724 319 760 _c
319 712 _l
269 677 233 628 211 566 _c
189 503 178 415 178 302 _c
178 188 189 100 211 38 _c
233 -24 269 -72 319 -107 _c
319 -155 _l
_cl}_d
/parenright{390 0 71 -155 311 760 _sc
71 -155 _m
71 -107 _l
121 -72 157 -24 179 38 _c
201 100 212 188 212 302 _c
212 415 201 503 179 566 _c
157 628 121 677 71 712 _c
71 760 _l
150 724 210 668 250 591 _c
290 514 311 418 311 302 _c
311 186 290 89 250 13 _c
210 -63 150 -119 71 -155 _c
_cl}_d
/period{318 0 94 -13 224 116 _sc
94 51 _m
94 69 100 84 112 97 _c
124 109 140 116 159 116 _c
177 116 192 109 205 97 _c
217 84 224 69 224 51 _c
224 33 217 17 205 5 _c
192 -7 177 -13 159 -13 _c
140 -13 124 -7 112 5 _c
100 17 94 32 94 51 _c
_cl}_d
/zero{636 0 66 -13 570 742 _sc
318 34 _m
368 34 405 61 430 116 _c
454 170 467 253 467 364 _c
467 474 454 557 430 612 _c
405 666 368 694 318 694 _c
268 694 230 666 206 612 _c
181 557 169 474 169 364 _c
169 253 181 170 206 116 _c
230 61 268 34 318 34 _c
318 -13 _m
238 -13 176 20 132 86 _c
88 152 66 244 66 364 _c
66 483 88 576 132 642 _c
176 708 238 742 318 742 _c
397 742 459 708 503 642 _c
547 576 570 483 570 364 _c
570 244 547 152 503 86 _c
459 20 397 -13 318 -13 _c
_cl}_d
/one{636 0 122 0 494 742 _sc
142 0 _m
142 52 _l
269 52 _l
269 658 _l
122 563 _l
122 627 _l
300 742 _l
367 742 _l
367 52 _l
494 52 _l
494 0 _l
142 0 _l
_cl}_d
/two{{636 0 68 0 538 742 _sc
128 555 _m
73 555 _l
73 685 _l
107 703 142 717 178 727 _c
213 737 248 742 282 742 _c
358 742 418 723 462 687 _c
506 650 528 600 528 537 _c
528 465 478 380 378 281 _c
370 273 365 268 361 264 _c
177 80 _l
481 80 _l
481 170 _l
538 170 _l
538 0 _l
68 0 _l
68 53 _l
289 274 _l
337 322 372 367 393 408 _c
414 449 425 492 425 537 _c
}_e{425 586 412 624 386 652 _c
360 680 325 694 281 694 _c
234 694 198 682 173 659 _c
147 636 132 601 128 555 _c
_cl}_e}_d
/five{{636 0 85 -13 559 729 _sc
503 729 _m
503 649 _l
169 649 _l
169 440 _l
185 452 205 460 228 466 _c
250 472 276 475 304 475 _c
382 475 444 453 490 409 _c
536 365 559 306 559 231 _c
559 153 536 93 490 51 _c
444 8 379 -13 296 -13 _c
262 -13 228 -9 193 -1 _c
157 6 121 18 85 35 _c
85 177 _l
140 177 _l
143 130 158 94 184 70 _c
210 46 248 34 296 34 _c
}_e{347 34 386 51 414 85 _c
442 119 456 167 456 231 _c
456 294 442 342 415 376 _c
387 410 348 427 296 427 _c
266 427 240 421 218 411 _c
196 401 176 385 159 363 _c
117 363 _l
117 729 _l
503 729 _l
_cl}_e}_d
/seven{636 0 84 0 564 729 _sc
564 679 _m
279 0 _l
206 0 _l
478 649 _l
141 649 _l
141 559 _l
84 559 _l
84 729 _l
564 729 _l
564 679 _l
_cl}_d
/E{730 0 55 0 650 729 _sc
55 0 _m
55 52 _l
148 52 _l
148 677 _l
55 677 _l
55 729 _l
642 729 _l
642 567 _l
582 567 _l
582 669 _l
247 669 _l
247 425 _l
486 425 _l
486 516 _l
546 516 _l
546 274 _l
486 274 _l
486 365 _l
247 365 _l
247 60 _l
590 60 _l
590 162 _l
650 162 _l
650 0 _l
55 0 _l
_cl}_d
/V{722 0 -9 0 737 729 _sc
175 677 _m
390 117 _l
605 677 _l
523 677 _l
523 729 _l
737 729 _l
737 677 _l
666 677 _l
406 0 _l
322 0 _l
63 677 _l
-9 677 _l
-9 729 _l
256 729 _l
256 677 _l
175 677 _l
_cl}_d
/a{{596 0 50 -13 568 533 _sc
398 163 _m
398 273 _l
282 273 _l
237 273 204 263 182 244 _c
160 224 150 195 150 156 _c
150 120 161 91 183 70 _c
205 48 235 38 273 38 _c
310 38 340 49 363 72 _c
386 95 398 125 398 163 _c
488 324 _m
488 52 _l
568 52 _l
568 0 _l
398 0 _l
398 56 _l
378 32 355 14 329 3 _c
303 -7 272 -13 238 -13 _c
180 -13 134 2 100 32 _c
}_e{66 62 50 104 50 156 _c
50 209 69 250 108 280 _c
146 310 201 325 272 325 _c
398 325 _l
398 361 _l
398 400 386 430 362 452 _c
338 474 304 485 261 485 _c
225 485 197 476 176 460 _c
154 444 141 420 136 388 _c
90 388 _l
90 493 _l
121 506 151 516 181 523 _c
210 529 239 533 267 533 _c
339 533 393 515 431 479 _c
469 443 488 392 488 324 _c
_cl}_e}_d
/d{{640 0 50 -13 611 760 _sc
525 52 _m
611 52 _l
611 0 _l
435 0 _l
435 81 _l
417 48 395 24 368 9 _c
340 -5 307 -13 267 -13 _c
203 -13 150 12 110 62 _c
70 112 50 178 50 260 _c
50 341 70 407 110 457 _c
150 507 203 533 267 533 _c
307 533 340 525 368 510 _c
395 494 417 470 435 438 _c
435 708 _l
350 708 _l
350 760 _l
525 760 _l
525 52 _l
435 234 _m
435 285 _l
}_e{435 347 423 394 399 427 _c
375 460 340 477 295 477 _c
249 477 214 458 190 422 _c
166 386 155 332 155 260 _c
155 188 166 133 190 97 _c
214 60 249 42 295 42 _c
340 42 375 58 399 91 _c
423 123 435 171 435 234 _c
_cl}_e}_d
/e{{592 0 50 -13 542 533 _sc
542 250 _m
155 250 _l
155 246 _l
155 176 168 123 194 87 _c
220 51 259 34 311 34 _c
350 34 382 44 408 65 _c
433 85 451 116 461 157 _c
533 157 _l
519 100 492 57 454 29 _c
415 1 364 -13 302 -13 _c
226 -13 165 11 119 61 _c
73 111 50 177 50 260 _c
50 342 72 408 118 458 _c
163 508 222 533 296 533 _c
374 533 435 508 477 460 _c
}_e{519 412 540 342 542 250 _c
436 302 _m
434 362 421 408 397 439 _c
373 469 340 485 296 485 _c
254 485 222 469 198 438 _c
174 407 160 362 155 302 _c
436 302 _l
_cl}_e}_d
/g{{640 0 50 -221 611 533 _sc
525 467 _m
525 11 _l
525 -63 504 -120 463 -160 _c
422 -200 364 -221 288 -221 _c
254 -221 221 -218 190 -212 _c
158 -206 128 -196 100 -184 _c
100 -75 _l
147 -75 _l
153 -109 166 -133 188 -149 _c
210 -165 241 -173 282 -173 _c
334 -173 373 -158 398 -128 _c
422 -98 435 -51 435 11 _c
435 81 _l
417 48 395 24 368 9 _c
340 -5 307 -13 267 -13 _c
203 -13 150 12 110 62 _c
}_e{70 112 50 178 50 260 _c
50 341 70 407 110 457 _c
150 507 203 533 267 533 _c
307 533 340 525 368 510 _c
395 494 417 470 435 438 _c
435 519 _l
611 519 _l
611 467 _l
525 467 _l
435 285 _m
435 347 423 394 399 427 _c
375 460 340 477 295 477 _c
249 477 214 458 190 422 _c
166 386 155 332 155 260 _c
155 188 166 133 190 97 _c
214 60 249 42 295 42 _c
}_e{340 42 375 58 399 91 _c
423 123 435 171 435 234 _c
435 285 _l
_cl}_e}_d
/k{{606 0 29 0 613 760 _sc
286 0 _m
34 0 _l
34 52 _l
115 52 _l
115 708 _l
29 708 _l
29 760 _l
205 760 _l
205 265 _l
424 467 _l
349 467 _l
349 519 _l
584 519 _l
584 467 _l
495 467 _l
341 324 _l
538 52 _l
613 52 _l
613 0 _l
357 0 _l
357 52 _l
431 52 _l
276 265 _l
205 199 _l
205 52 _l
286 52 _l
286 0 _l
_cl}_e}_d
/m{{948 0 36 0 921 533 _sc
518 418 _m
535 456 557 484 584 504 _c
611 523 642 533 678 533 _c
732 533 773 516 800 482 _c
826 448 840 398 840 330 _c
840 52 _l
921 52 _l
921 0 _l
672 0 _l
672 52 _l
750 52 _l
750 320 _l
750 372 742 410 726 433 _c
710 455 685 467 649 467 _c
609 467 578 451 557 421 _c
536 391 526 347 526 289 _c
526 52 _l
604 52 _l
604 0 _l
358 0 _l
}_e{358 52 _l
436 52 _l
436 323 _l
436 375 428 412 412 434 _c
396 456 371 467 335 467 _c
295 467 264 451 243 421 _c
222 391 212 347 212 289 _c
212 52 _l
290 52 _l
290 0 _l
41 0 _l
41 52 _l
122 52 _l
122 468 _l
36 468 _l
36 519 _l
212 519 _l
212 427 _l
228 461 249 488 275 506 _c
301 524 330 533 363 533 _c
403 533 436 523 463 503 _c
}_e{490 483 508 454 518 418 _c
_cl}_e}_d
/n{{644 0 36 0 616 533 _sc
41 0 _m
41 52 _l
122 52 _l
122 467 _l
36 467 _l
36 519 _l
212 519 _l
212 427 _l
228 461 250 488 276 506 _c
302 524 333 533 369 533 _c
426 533 468 516 495 484 _c
522 451 536 400 536 330 _c
536 52 _l
616 52 _l
616 0 _l
368 0 _l
368 52 _l
446 52 _l
446 302 _l
446 365 438 408 422 432 _c
406 456 379 468 340 468 _c
}_e{298 468 266 452 244 422 _c
222 391 212 347 212 289 _c
212 52 _l
290 52 _l
290 0 _l
41 0 _l
_cl}_e}_d
/p{{640 0 29 -207 590 533 _sc
205 285 _m
205 234 _l
205 171 217 123 241 91 _c
265 58 299 42 345 42 _c
391 42 425 60 449 97 _c
473 133 485 188 485 260 _c
485 332 473 386 449 422 _c
425 458 391 477 345 477 _c
299 477 265 460 241 427 _c
217 394 205 347 205 285 _c
115 467 _m
29 467 _l
29 519 _l
205 519 _l
205 438 _l
222 470 244 494 272 510 _c
299 525 333 533 373 533 _c
}_e{437 533 489 507 529 457 _c
569 407 590 341 590 260 _c
590 178 569 112 529 62 _c
489 12 437 -13 373 -13 _c
333 -13 299 -5 272 9 _c
244 24 222 48 205 81 _c
205 -155 _l
290 -155 _l
290 -207 _l
29 -207 _l
29 -155 _l
115 -155 _l
115 467 _l
_cl}_e}_d
/r{478 0 36 0 478 533 _sc
478 520 _m
478 390 _l
426 390 _l
424 416 417 435 405 448 _c
392 460 373 467 349 467 _c
305 467 271 451 247 421 _c
223 390 212 346 212 289 _c
212 52 _l
316 52 _l
316 0 _l
41 0 _l
41 52 _l
122 52 _l
122 468 _l
36 468 _l
36 519 _l
212 519 _l
212 427 _l
229 463 251 489 279 507 _c
307 524 341 533 381 533 _c
395 533 411 531 427 529 _c
443 527 460 524 478 520 _c
_cl}_d
/s{{513 0 56 -13 462 533 _sc
56 29 _m
56 150 _l
108 150 _l
109 111 121 82 144 63 _c
167 43 201 34 246 34 _c
286 34 317 41 338 57 _c
359 72 370 94 370 123 _c
370 145 362 164 347 178 _c
331 192 299 207 249 223 _c
184 245 _l
139 259 107 277 87 299 _c
67 320 57 347 57 381 _c
57 428 74 465 109 492 _c
144 519 192 533 254 533 _c
281 533 310 529 340 522 _c
}_e{370 515 402 505 434 491 _c
434 378 _l
382 378 _l
380 411 369 437 347 456 _c
325 475 295 485 257 485 _c
219 485 190 478 171 465 _c
151 451 142 431 142 405 _c
142 383 149 365 164 352 _c
178 339 208 326 252 312 _c
323 290 _l
372 274 407 255 429 232 _c
451 209 462 180 462 144 _c
462 94 443 56 405 28 _c
367 0 316 -13 250 -13 _c
216 -13 184 -9 152 -3 _c
}_e{120 3 88 14 56 29 _c
_cl}_e}_d
/y{{565 0 -2 -221 562 519 _sc
216 -94 _m
250 -8 _l
56 467 _l
-2 467 _l
-2 519 _l
236 519 _l
236 467 _l
153 467 _l
299 110 _l
445 467 _l
367 467 _l
367 519 _l
562 519 _l
562 467 _l
504 467 _l
266 -116 _l
250 -156 232 -184 212 -199 _c
192 -213 164 -221 128 -221 _c
112 -221 97 -219 81 -217 _c
65 -214 48 -210 32 -206 _c
32 -107 _l
78 -107 _l
80 -129 85 -144 95 -154 _c
}_e{104 -164 118 -169 138 -169 _c
156 -169 170 -164 181 -154 _c
192 -144 204 -124 216 -94 _c
_cl}_e}_d
/minus{838 0 106 274 732 353 _sc
106 353 _m
732 353 _l
732 274 _l
106 274 _l
106 353 _l
_cl}_d
end readonly def

/BuildGlyph
 {exch begin
 CharStrings exch
 2 copy known not{pop /.notdef}if
 true 3 1 roll get exec
 end}_d

/BuildChar {
 1 index /Encoding get exch get
 1 index /BuildGlyph get exec
}_d

FontName currentdict end definefont pop
%!PS-Adobe-3.0 Resource-Font
%%Title: DejaVu Sans Oblique
%%Copyright: Copyright (c) 2003 by Bitstream, Inc. All Rights Reserved. Copyright (c) 2006 by Tavmjong Bah. All Rights Reserved. DejaVu changes are in public domain 
%%Creator: Converted from TrueType to type 3 by PPR
25 dict begin
/_d{bind def}bind def
/_m{moveto}_d
/_l{lineto}_d
/_cl{closepath eofill}_d
/_c{curveto}_d
/_sc{7 -1 roll{setcachedevice}{pop pop pop pop pop pop}ifelse}_d
/_e{exec}_d
/FontName /DejaVuSans-Oblique def
/PaintType 0 def
/FontMatrix[.001 0 0 .001 0 0]def
/FontBBox[-1016 -350 1659 1068]def
/FontType 3 def
/Encoding [ /E /k /z ] def
/FontInfo 10 dict dup begin
/FamilyName (DejaVu Sans) def
/FullName (DejaVu Sans Oblique) def
/Notice (Copyright (c) 2003 by Bitstream, Inc. All Rights Reserved. Copyright (c) 2006 by Tavmjong Bah. All Rights Reserved. DejaVu changes are in public domain ) def
/Weight (Oblique) def
/Version (Version 2.35) def
/ItalicAngle -11.0 def
/isFixedPitch false def
/UnderlinePosition -130 def
/UnderlineThickness 90 def
end readonly def
/CharStrings 4 dict dup begin
/.notdef 0 def
/E{632 0 27 0 630 729 _sc
169 729 _m
630 729 _l
614 646 _l
251 646 _l
209 430 _l
557 430 _l
541 347 _l
193 347 _l
142 83 _l
513 83 _l
497 0 _l
27 0 _l
169 729 _l
_cl}_d
/k{579 0 35 0 612 760 _sc
183 760 _m
273 760 _l
187 317 _l
495 547 _l
612 547 _l
268 285 _l
519 0 _l
410 0 _l
177 267 _l
125 0 _l
35 0 _l
183 760 _l
_cl}_d
/z{525 0 -2 0 543 547 _sc
116 547 _m
543 547 _l
527 465 _l
115 72 _l
455 72 _l
441 0 _l
-2 0 _l
13 82 _l
425 475 _l
102 475 _l
116 547 _l
_cl}_d
end readonly def

/BuildGlyph
 {exch begin
 CharStrings exch
 2 copy known not{pop /.notdef}if
 true 3 1 roll get exec
 end}_d

/BuildChar {
 1 index /Encoding get exch get
 1 index /BuildGlyph get exec
}_d

FontName currentdict end definefont pop
%!PS-Adobe-3.0 Resource-Font
%%Title: DejaVu Sans
%%Copyright: Copyright (c) 2003 by Bitstream, Inc. All Rights Reserved. Copyright (c) 2006 by Tavmjong Bah. All Rights Reserved. DejaVu changes are in public domain 
%%Creator: Converted from TrueType to type 3 by PPR
25 dict begin
/_d{bind def}bind def
/_m{moveto}_d
/_l{lineto}_d
/_cl{closepath eofill}_d
/_c{curveto}_d
/_sc{7 -1 roll{setcachedevice}{pop pop pop pop pop pop}ifelse}_d
/_e{exec}_d
/FontName /DejaVuSans def
/PaintType 0 def
/FontMatrix[.001 0 0 .001 0 0]def
/FontBBox[-1021 -463 1793 1232]def
/FontType 3 def
/Encoding [ /underscore /c /o /r /uni0394 ] def
/FontInfo 10 dict dup begin
/FamilyName (DejaVu Sans) def
/FullName (DejaVu Sans) def
/Notice (Copyright (c) 2003 by Bitstream, Inc. All Rights Reserved. Copyright (c) 2006 by Tavmjong Bah. All Rights Reserved. DejaVu changes are in public domain ) def
/Weight (Book) def
/Version (Version 2.35) def
/ItalicAngle 0.0 def
/isFixedPitch false def
/UnderlinePosition -130 def
/UnderlineThickness 90 def
end readonly def
/CharStrings 6 dict dup begin
/.notdef 0 def
/underscore{500 0 -9 -235 510 -165 _sc
510 -165 _m
510 -235 _l
-9 -235 _l
-9 -165 _l
510 -165 _l
_cl}_d
/c{{550 0 55 -13 488 560 _sc
488 526 _m
488 442 _l
462 456 437 466 411 473 _c
385 480 360 484 334 484 _c
276 484 230 465 198 428 _c
166 391 150 339 150 273 _c
150 206 166 154 198 117 _c
230 80 276 62 334 62 _c
360 62 385 65 411 72 _c
437 79 462 90 488 104 _c
488 21 _l
462 9 436 0 410 -5 _c
383 -10 354 -13 324 -13 _c
242 -13 176 12 128 64 _c
}_e{79 115 55 185 55 273 _c
55 362 79 432 128 483 _c
177 534 244 560 330 560 _c
358 560 385 557 411 551 _c
437 545 463 537 488 526 _c
_cl}_e}_d
/o{612 0 55 -13 557 560 _sc
306 484 _m
258 484 220 465 192 427 _c
164 389 150 338 150 273 _c
150 207 163 156 191 118 _c
219 80 257 62 306 62 _c
354 62 392 80 420 118 _c
448 156 462 207 462 273 _c
462 337 448 389 420 427 _c
392 465 354 484 306 484 _c
306 560 _m
384 560 445 534 490 484 _c
534 433 557 363 557 273 _c
557 183 534 113 490 63 _c
445 12 384 -13 306 -13 _c
227 -13 165 12 121 63 _c
77 113 55 183 55 273 _c
55 363 77 433 121 484 _c
165 534 227 560 306 560 _c
_cl}_d
/r{411 0 91 0 411 560 _sc
411 463 _m
401 469 390 473 378 476 _c
366 478 353 480 339 480 _c
288 480 249 463 222 430 _c
194 397 181 350 181 288 _c
181 0 _l
91 0 _l
91 547 _l
181 547 _l
181 462 _l
199 495 224 520 254 536 _c
284 552 321 560 365 560 _c
371 560 378 559 386 559 _c
393 558 401 557 411 555 _c
411 463 _l
_cl}_d
/uni0394{684 0 8 0 676 729 _sc
342 632 _m
142 82 _l
542 82 _l
342 632 _l
8 0 _m
286 729 _l
398 729 _l
676 0 _l
8 0 _l
_cl}_d
end readonly def

/BuildGlyph
 {exch begin
 CharStrings exch
 2 copy known not{pop /.notdef}if
 true 3 1 roll get exec
 end}_d

/BuildChar {
 1 index /Encoding get exch get
 1 index /BuildGlyph get exec
}_d

FontName currentdict end definefont pop
end
%%EndProlog
mpldict begin
126 288 translate
360 216 0 0 clipbox
gsave
0 0 m
360 0 l
360 216 l
0 216 l
cl
1.000 setgray
fill
grestore
gsave
54 32.4 m
324 32.4 l
324 194.4 l
54 194.4 l
cl
1.000 setgray
fill
grestore
0.800 setlinewidth
1 setlinejoin
2 setlinecap
[] 0 setdash
0.690 setgray
gsave
270 162 54 32.4 clipbox
54 32.4 m
54 194.4 l
stroke
grestore
1.000 setlinewidth
0 setlinecap
0.000 setgray
gsave
/o {
gsave
newpath
translate
1.0 setlinewidth
1 setlinejoin
0 setlinecap
0 0 m
0 5 l

gsave
0.000 setgray
fill
grestore
stroke
grestore
} bind def
54 32.4 o
grestore
gsave
/o {
gsave
newpath
translate
1.0 setlinewidth
1 setlinejoin
0 setlinecap
0 0 m
0 -5 l

gsave
0.000 setgray
fill
grestore
stroke
grestore
} bind def
54 194.4 o
grestore
/DejaVuSerif findfont
10.000 scalefont
setfont
gsave
46.046875 21.306250 translate
0.000000 rotate
0.000000 0.000000 m /zero glyphshow
6.362305 0.000000 m /period glyphshow
9.541016 0.000000 m /zero glyphshow
grestore
0.800 setlinewidth
2 setlinecap
0.690 setgray
gsave
270 162 54 32.4 clipbox
87.75 32.4 m
87.75 194.4 l
stroke
grestore
1.000 setlinewidth
0 setlinecap
0.000 setgray
gsave
/o {
gsave
newpath
translate
1.0 setlinewidth
1 setlinejoin
0 setlinecap
0 0 m
0 5 l

gsave
0.000 setgray
fill
grestore
stroke
grestore
} bind def
87.75 32.4 o
grestore
gsave
/o {
gsave
newpath
translate
1.0 setlinewidth
1 setlinejoin
0 setlinecap
0 0 m
0 -5 l

gsave
0.000 setgray
fill
grestore
stroke
grestore
} bind def
87.75 194.4 o
grestore
gsave
79.796875 21.306250 translate
0.000000 rotate
0.000000 0.000000 m /two glyphshow
6.362305 0.000000 m /period glyphshow
9.541016 0.000000 m /five glyphshow
grestore
0.800 setlinewidth
2 setlinecap
0.690 setgray
gsave
270 162 54 32.4 clipbox
121.5 32.4 m
121.5 194.4 l
stroke
grestore
1.000 setlinewidth
0 setlinecap
0.000 setgray
gsave
/o {
gsave
newpath
translate
1.0 setlinewidth
1 setlinejoin
0 setlinecap
0 0 m
0 5 l

gsave
0.000 setgray
fill
grestore
stroke
grestore
} bind def
121.5 32.4 o
grestore
gsave
/o {
gsave
newpath
translate
1.0 setlinewidth
1 setlinejoin
0 setlinecap
0 0 m
0 -5 l

gsave
0.000 setgray
fill
grestore
stroke
grestore
} bind def
121.5 194.4 o
grestore
gsave
113.546875 21.306250 translate
0.000000 rotate
0.000000 0.000000 m /five glyphshow
6.362305 0.000000 m /period glyphshow
9.541016 0.000000 m /zero glyphshow
grestore
0.800 setlinewidth
2 setlinecap
0.690 setgray
gsave
270 162 54 32.4 clipbox
155.25 32.4 m
155.25 194.4 l
stroke
grestore
1.000 setlinewidth
0 setlinecap
0.000 setgray
gsave
/o {
gsave
newpath
translate
1.0 setlinewidth
1 setlinejoin
0 setlinecap
0 0 m
0 5 l

gsave
0.000 setgray
fill
grestore
stroke
grestore
} bind def
155.25 32.4 o
grestore
gsave
/o {
gsave
newpath
translate
1.0 setlinewidth
1 setlinejoin
0 setlinecap
0 0 m
0 -5 l

gsave
0.000 setgray
fill
grestore
stroke
grestore
} bind def
155.25 194.4 o
grestore
gsave
147.296875 21.306250 translate
0.000000 rotate
0.000000 0.000000 m /seven glyphshow
6.362305 0.000000 m /period glyphshow
9.541016 0.000000 m /five glyphshow
grestore
0.800 setlinewidth
2 setlinecap
0.690 setgray
gsave
270 162 54 32.4 clipbox
189 32.4 m
189 194.4 l
stroke
grestore
1.000 setlinewidth
0 setlinecap
0.000 setgray
gsave
/o {
gsave
newpath
translate
1.0 setlinewidth
1 setlinejoin
0 setlinecap
0 0 m
0 5 l

gsave
0.000 setgray
fill
grestore
stroke
grestore
} bind def
189 32.4 o
grestore
gsave
/o {
gsave
newpath
translate
1.0 setlinewidth
1 setlinejoin
0 setlinecap
0 0 m
0 -5 l

gsave
0.000 setgray
fill
grestore
stroke
grestore
} bind def
189 194.4 o
grestore
gsave
177.867188 21.306250 translate
0.000000 rotate
0.000000 0.000000 m /one glyphshow
6.362305 0.000000 m /zero glyphshow
12.724609 0.000000 m /period glyphshow
15.903320 0.000000 m /zero glyphshow
grestore
0.800 setlinewidth
2 setlinecap
0.690 setgray
gsave
270 162 54 32.4 clipbox
222.75 32.4 m
222.75 194.4 l
stroke
grestore
1.000 setlinewidth
0 setlinecap
0.000 setgray
gsave
/o {
gsave
newpath
translate
1.0 setlinewidth
1 setlinejoin
0 setlinecap
0 0 m
0 5 l

gsave
0.000 setgray
fill
grestore
stroke
grestore
} bind def
222.75 32.4 o
grestore
gsave
/o {
gsave
newpath
translate
1.0 setlinewidth
1 setlinejoin
0 setlinecap
0 0 m
0 -5 l

gsave
0.000 setgray
fill
grestore
stroke
grestore
} bind def
222.75 194.4 o
grestore
gsave
211.617188 21.306250 translate
0.000000 rotate
0.000000 0.000000 m /one glyphshow
6.362305 0.000000 m /two glyphshow
12.724609 0.000000 m /period glyphshow
15.903320 0.000000 m /five glyphshow
grestore
0.800 setlinewidth
2 setlinecap
0.690 setgray
gsave
270 162 54 32.4 clipbox
256.5 32.4 m
256.5 194.4 l
stroke
grestore
1.000 setlinewidth
0 setlinecap
0.000 setgray
gsave
/o {
gsave
newpath
translate
1.0 setlinewidth
1 setlinejoin
0 setlinecap
0 0 m
0 5 l

gsave
0.000 setgray
fill
grestore
stroke
grestore
} bind def
256.5 32.4 o
grestore
gsave
/o {
gsave
newpath
translate
1.0 setlinewidth
1 setlinejoin
0 setlinecap
0 0 m
0 -5 l

gsave
0.000 setgray
fill
grestore
stroke
grestore
} bind def
256.5 194.4 o
grestore
gsave
245.367188 21.306250 translate
0.000000 rotate
0.000000 0.000000 m /one glyphshow
6.362305 0.000000 m /five glyphshow
12.724609 0.000000 m /period glyphshow
15.903320 0.000000 m /zero glyphshow
grestore
0.800 setlinewidth
2 setlinecap
0.690 setgray
gsave
270 162 54 32.4 clipbox
290.25 32.4 m
290.25 194.4 l
stroke
grestore
1.000 setlinewidth
0 setlinecap
0.000 setgray
gsave
/o {
gsave
newpath
translate
1.0 setlinewidth
1 setlinejoin
0 setlinecap
0 0 m
0 5 l

gsave
0.000 setgray
fill
grestore
stroke
grestore
} bind def
290.25 32.4 o
grestore
gsave
/o {
gsave
newpath
translate
1.0 setlinewidth
1 setlinejoin
0 setlinecap
0 0 m
0 -5 l

gsave
0.000 setgray
fill
grestore
stroke
grestore
} bind def
290.25 194.4 o
grestore
gsave
279.117188 21.306250 translate
0.000000 rotate
0.000000 0.000000 m /one glyphshow
6.362305 0.000000 m /seven glyphshow
12.724609 0.000000 m /period glyphshow
15.903320 0.000000 m /five glyphshow
grestore
0.800 setlinewidth
2 setlinecap
0.690 setgray
gsave
270 162 54 32.4 clipbox
324 32.4 m
324 194.4 l
stroke
grestore
1.000 setlinewidth
0 setlinecap
0.000 setgray
gsave
/o {
gsave
newpath
translate
1.0 setlinewidth
1 setlinejoin
0 setlinecap
0 0 m
0 5 l

gsave
0.000 setgray
fill
grestore
stroke
grestore
} bind def
324 32.4 o
grestore
gsave
/o {
gsave
newpath
translate
1.0 setlinewidth
1 setlinejoin
0 setlinecap
0 0 m
0 -5 l

gsave
0.000 setgray
fill
grestore
stroke
grestore
} bind def
324 194.4 o
grestore
gsave
312.867188 21.306250 translate
0.000000 rotate
0.000000 0.000000 m /two glyphshow
6.362305 0.000000 m /zero glyphshow
12.724609 0.000000 m /period glyphshow
15.903320 0.000000 m /zero glyphshow
grestore
0.700 setlinewidth
gsave
/o {
gsave
newpath
translate
0.7 setlinewidth
1 setlinejoin
0 setlinecap
0 0 m
0 3 l

gsave
0.000 setgray
fill
grestore
stroke
grestore
} bind def
62.4375 32.4 o
grestore
gsave
/o {
gsave
newpath
translate
0.7 setlinewidth
1 setlinejoin
0 setlinecap
0 0 m
0 -3 l

gsave
0.000 setgray
fill
grestore
stroke
grestore
} bind def
62.4375 194.4 o
grestore
gsave
/o {
gsave
newpath
translate
0.7 setlinewidth
1 setlinejoin
0 setlinecap
0 0 m
0 3 l

gsave
0.000 setgray
fill
grestore
stroke
grestore
} bind def
70.875 32.4 o
grestore
gsave
/o {
gsave
newpath
translate
0.7 setlinewidth
1 setlinejoin
0 setlinecap
0 0 m
0 -3 l

gsave
0.000 setgray
fill
grestore
stroke
grestore
} bind def
70.875 194.4 o
grestore
gsave
/o {
gsave
newpath
translate
0.7 setlinewidth
1 setlinejoin
0 setlinecap
0 0 m
0 3 l

gsave
0.000 setgray
fill
grestore
stroke
grestore
} bind def
79.3125 32.4 o
grestore
gsave
/o {
gsave
newpath
translate
0.7 setlinewidth
1 setlinejoin
0 setlinecap
0 0 m
0 -3 l

gsave
0.000 setgray
fill
grestore
stroke
grestore
} bind def
79.3125 194.4 o
grestore
gsave
/o {
gsave
newpath
translate
0.7 setlinewidth
1 setlinejoin
0 setlinecap
0 0 m
0 3 l

gsave
0.000 setgray
fill
grestore
stroke
grestore
} bind def
96.1875 32.4 o
grestore
gsave
/o {
gsave
newpath
translate
0.7 setlinewidth
1 setlinejoin
0 setlinecap
0 0 m
0 -3 l

gsave
0.000 setgray
fill
grestore
stroke
grestore
} bind def
96.1875 194.4 o
grestore
gsave
/o {
gsave
newpath
translate
0.7 setlinewidth
1 setlinejoin
0 setlinecap
0 0 m
0 3 l

gsave
0.000 setgray
fill
grestore
stroke
grestore
} bind def
104.625 32.4 o
grestore
gsave
/o {
gsave
newpath
translate
0.7 setlinewidth
1 setlinejoin
0 setlinecap
0 0 m
0 -3 l

gsave
0.000 setgray
fill
grestore
stroke
grestore
} bind def
104.625 194.4 o
grestore
gsave
/o {
gsave
newpath
translate
0.7 setlinewidth
1 setlinejoin
0 setlinecap
0 0 m
0 3 l

gsave
0.000 setgray
fill
grestore
stroke
grestore
} bind def
113.062 32.4 o
grestore
gsave
/o {
gsave
newpath
translate
0.7 setlinewidth
1 setlinejoin
0 setlinecap
0 0 m
0 -3 l

gsave
0.000 setgray
fill
grestore
stroke
grestore
} bind def
113.062 194.4 o
grestore
gsave
/o {
gsave
newpath
translate
0.7 setlinewidth
1 setlinejoin
0 setlinecap
0 0 m
0 3 l

gsave
0.000 setgray
fill
grestore
stroke
grestore
} bind def
129.938 32.4 o
grestore
gsave
/o {
gsave
newpath
translate
0.7 setlinewidth
1 setlinejoin
0 setlinecap
0 0 m
0 -3 l

gsave
0.000 setgray
fill
grestore
stroke
grestore
} bind def
129.938 194.4 o
grestore
gsave
/o {
gsave
newpath
translate
0.7 setlinewidth
1 setlinejoin
0 setlinecap
0 0 m
0 3 l

gsave
0.000 setgray
fill
grestore
stroke
grestore
} bind def
138.375 32.4 o
grestore
gsave
/o {
gsave
newpath
translate
0.7 setlinewidth
1 setlinejoin
0 setlinecap
0 0 m
0 -3 l

gsave
0.000 setgray
fill
grestore
stroke
grestore
} bind def
138.375 194.4 o
grestore
gsave
/o {
gsave
newpath
translate
0.7 setlinewidth
1 setlinejoin
0 setlinecap
0 0 m
0 3 l

gsave
0.000 setgray
fill
grestore
stroke
grestore
} bind def
146.812 32.4 o
grestore
gsave
/o {
gsave
newpath
translate
0.7 setlinewidth
1 setlinejoin
0 setlinecap
0 0 m
0 -3 l

gsave
0.000 setgray
fill
grestore
stroke
grestore
} bind def
146.812 194.4 o
grestore
gsave
/o {
gsave
newpath
translate
0.7 setlinewidth
1 setlinejoin
0 setlinecap
0 0 m
0 3 l

gsave
0.000 setgray
fill
grestore
stroke
grestore
} bind def
163.688 32.4 o
grestore
gsave
/o {
gsave
newpath
translate
0.7 setlinewidth
1 setlinejoin
0 setlinecap
0 0 m
0 -3 l

gsave
0.000 setgray
fill
grestore
stroke
grestore
} bind def
163.688 194.4 o
grestore
gsave
/o {
gsave
newpath
translate
0.7 setlinewidth
1 setlinejoin
0 setlinecap
0 0 m
0 3 l

gsave
0.000 setgray
fill
grestore
stroke
grestore
} bind def
172.125 32.4 o
grestore
gsave
/o {
gsave
newpath
translate
0.7 setlinewidth
1 setlinejoin
0 setlinecap
0 0 m
0 -3 l

gsave
0.000 setgray
fill
grestore
stroke
grestore
} bind def
172.125 194.4 o
grestore
gsave
/o {
gsave
newpath
translate
0.7 setlinewidth
1 setlinejoin
0 setlinecap
0 0 m
0 3 l

gsave
0.000 setgray
fill
grestore
stroke
grestore
} bind def
180.562 32.4 o
grestore
gsave
/o {
gsave
newpath
translate
0.7 setlinewidth
1 setlinejoin
0 setlinecap
0 0 m
0 -3 l

gsave
0.000 setgray
fill
grestore
stroke
grestore
} bind def
180.562 194.4 o
grestore
gsave
/o {
gsave
newpath
translate
0.7 setlinewidth
1 setlinejoin
0 setlinecap
0 0 m
0 3 l

gsave
0.000 setgray
fill
grestore
stroke
grestore
} bind def
197.438 32.4 o
grestore
gsave
/o {
gsave
newpath
translate
0.7 setlinewidth
1 setlinejoin
0 setlinecap
0 0 m
0 -3 l

gsave
0.000 setgray
fill
grestore
stroke
grestore
} bind def
197.438 194.4 o
grestore
gsave
/o {
gsave
newpath
translate
0.7 setlinewidth
1 setlinejoin
0 setlinecap
0 0 m
0 3 l

gsave
0.000 setgray
fill
grestore
stroke
grestore
} bind def
205.875 32.4 o
grestore
gsave
/o {
gsave
newpath
translate
0.7 setlinewidth
1 setlinejoin
0 setlinecap
0 0 m
0 -3 l

gsave
0.000 setgray
fill
grestore
stroke
grestore
} bind def
205.875 194.4 o
grestore
gsave
/o {
gsave
newpath
translate
0.7 setlinewidth
1 setlinejoin
0 setlinecap
0 0 m
0 3 l

gsave
0.000 setgray
fill
grestore
stroke
grestore
} bind def
214.312 32.4 o
grestore
gsave
/o {
gsave
newpath
translate
0.7 setlinewidth
1 setlinejoin
0 setlinecap
0 0 m
0 -3 l

gsave
0.000 setgray
fill
grestore
stroke
grestore
} bind def
214.312 194.4 o
grestore
gsave
/o {
gsave
newpath
translate
0.7 setlinewidth
1 setlinejoin
0 setlinecap
0 0 m
0 3 l

gsave
0.000 setgray
fill
grestore
stroke
grestore
} bind def
231.188 32.4 o
grestore
gsave
/o {
gsave
newpath
translate
0.7 setlinewidth
1 setlinejoin
0 setlinecap
0 0 m
0 -3 l

gsave
0.000 setgray
fill
grestore
stroke
grestore
} bind def
231.188 194.4 o
grestore
gsave
/o {
gsave
newpath
translate
0.7 setlinewidth
1 setlinejoin
0 setlinecap
0 0 m
0 3 l

gsave
0.000 setgray
fill
grestore
stroke
grestore
} bind def
239.625 32.4 o
grestore
gsave
/o {
gsave
newpath
translate
0.7 setlinewidth
1 setlinejoin
0 setlinecap
0 0 m
0 -3 l

gsave
0.000 setgray
fill
grestore
stroke
grestore
} bind def
239.625 194.4 o
grestore
gsave
/o {
gsave
newpath
translate
0.7 setlinewidth
1 setlinejoin
0 setlinecap
0 0 m
0 3 l

gsave
0.000 setgray
fill
grestore
stroke
grestore
} bind def
248.062 32.4 o
grestore
gsave
/o {
gsave
newpath
translate
0.7 setlinewidth
1 setlinejoin
0 setlinecap
0 0 m
0 -3 l

gsave
0.000 setgray
fill
grestore
stroke
grestore
} bind def
248.062 194.4 o
grestore
gsave
/o {
gsave
newpath
translate
0.7 setlinewidth
1 setlinejoin
0 setlinecap
0 0 m
0 3 l

gsave
0.000 setgray
fill
grestore
stroke
grestore
} bind def
264.938 32.4 o
grestore
gsave
/o {
gsave
newpath
translate
0.7 setlinewidth
1 setlinejoin
0 setlinecap
0 0 m
0 -3 l

gsave
0.000 setgray
fill
grestore
stroke
grestore
} bind def
264.938 194.4 o
grestore
gsave
/o {
gsave
newpath
translate
0.7 setlinewidth
1 setlinejoin
0 setlinecap
0 0 m
0 3 l

gsave
0.000 setgray
fill
grestore
stroke
grestore
} bind def
273.375 32.4 o
grestore
gsave
/o {
gsave
newpath
translate
0.7 setlinewidth
1 setlinejoin
0 setlinecap
0 0 m
0 -3 l

gsave
0.000 setgray
fill
grestore
stroke
grestore
} bind def
273.375 194.4 o
grestore
gsave
/o {
gsave
newpath
translate
0.7 setlinewidth
1 setlinejoin
0 setlinecap
0 0 m
0 3 l

gsave
0.000 setgray
fill
grestore
stroke
grestore
} bind def
281.812 32.4 o
grestore
gsave
/o {
gsave
newpath
translate
0.7 setlinewidth
1 setlinejoin
0 setlinecap
0 0 m
0 -3 l

gsave
0.000 setgray
fill
grestore
stroke
grestore
} bind def
281.812 194.4 o
grestore
gsave
/o {
gsave
newpath
translate
0.7 setlinewidth
1 setlinejoin
0 setlinecap
0 0 m
0 3 l

gsave
0.000 setgray
fill
grestore
stroke
grestore
} bind def
298.688 32.4 o
grestore
gsave
/o {
gsave
newpath
translate
0.7 setlinewidth
1 setlinejoin
0 setlinecap
0 0 m
0 -3 l

gsave
0.000 setgray
fill
grestore
stroke
grestore
} bind def
298.688 194.4 o
grestore
gsave
/o {
gsave
newpath
translate
0.7 setlinewidth
1 setlinejoin
0 setlinecap
0 0 m
0 3 l

gsave
0.000 setgray
fill
grestore
stroke
grestore
} bind def
307.125 32.4 o
grestore
gsave
/o {
gsave
newpath
translate
0.7 setlinewidth
1 setlinejoin
0 setlinecap
0 0 m
0 -3 l

gsave
0.000 setgray
fill
grestore
stroke
grestore
} bind def
307.125 194.4 o
grestore
gsave
/o {
gsave
newpath
translate
0.7 setlinewidth
1 setlinejoin
0 setlinecap
0 0 m
0 3 l

gsave
0.000 setgray
fill
grestore
stroke
grestore
} bind def
315.562 32.4 o
grestore
gsave
/o {
gsave
newpath
translate
0.7 setlinewidth
1 setlinejoin
0 setlinecap
0 0 m
0 -3 l

gsave
0.000 setgray
fill
grestore
stroke
grestore
} bind def
315.562 194.4 o
grestore
gsave
171.000000 8.228125 translate
0.000000 rotate
/DejaVuSans-Oblique findfont
14.0 scalefont
setfont
0.000000 0.359375 moveto
/z glyphshow

/DejaVuSerif findfont
14.0 scalefont
setfont
7.348633 0.359375 moveto
/space glyphshow

11.798828 0.359375 moveto
/parenleft glyphshow

17.260742 0.359375 moveto
/m glyphshow

30.536133 0.359375 moveto
/parenright glyphshow


grestore
0.800 setlinewidth
2 setlinecap
0.690 setgray
gsave
270 162 54 32.4 clipbox
54 50.561747 m
324 50.561747 l
stroke
grestore
1.000 setlinewidth
0 setlinecap
0.000 setgray
gsave
/o {
gsave
newpath
translate
1.0 setlinewidth
1 setlinejoin
0 setlinecap
0 0 m
5 0 l

gsave
0.000 setgray
fill
grestore
stroke
grestore
} bind def
54 50.5617 o
grestore
gsave
/o {
gsave
newpath
translate
1.0 setlinewidth
1 setlinejoin
0 setlinecap
0 0 m
-5 0 l

gsave
0.000 setgray
fill
grestore
stroke
grestore
} bind def
324 50.5617 o
grestore
gsave
23.046875 46.764872 translate
0.000000 rotate
0.000000 0.000000 m /minus glyphshow
8.378906 0.000000 m /one glyphshow
14.741211 0.000000 m /zero glyphshow
21.103516 0.000000 m /zero glyphshow
grestore
0.800 setlinewidth
2 setlinecap
0.690 setgray
gsave
270 162 54 32.4 clipbox
54 80.707227 m
324 80.707227 l
stroke
grestore
1.000 setlinewidth
0 setlinecap
0.000 setgray
gsave
/o {
gsave
newpath
translate
1.0 setlinewidth
1 setlinejoin
0 setlinecap
0 0 m
5 0 l

gsave
0.000 setgray
fill
grestore
stroke
grestore
} bind def
54 80.7072 o
grestore
gsave
/o {
gsave
newpath
translate
1.0 setlinewidth
1 setlinejoin
0 setlinecap
0 0 m
-5 0 l

gsave
0.000 setgray
fill
grestore
stroke
grestore
} bind def
324 80.7072 o
grestore
gsave
29.406250 76.910352 translate
0.000000 rotate
0.000000 0.000000 m /minus glyphshow
8.378906 0.000000 m /five glyphshow
14.741211 0.000000 m /zero glyphshow
grestore
0.800 setlinewidth
2 setlinecap
0.690 setgray
gsave
270 162 54 32.4 clipbox
54 110.852707 m
324 110.852707 l
stroke
grestore
1.000 setlinewidth
0 setlinecap
0.000 setgray
gsave
/o {
gsave
newpath
translate
1.0 setlinewidth
1 setlinejoin
0 setlinecap
0 0 m
5 0 l

gsave
0.000 setgray
fill
grestore
stroke
grestore
} bind def
54 110.853 o
grestore
gsave
/o {
gsave
newpath
translate
1.0 setlinewidth
1 setlinejoin
0 setlinecap
0 0 m
-5 0 l

gsave
0.000 setgray
fill
grestore
stroke
grestore
} bind def
324 110.853 o
grestore
gsave
44.140625 107.055832 translate
0.000000 rotate
0.000000 0.000000 m /zero glyphshow
grestore
0.800 setlinewidth
2 setlinecap
0.690 setgray
gsave
270 162 54 32.4 clipbox
54 140.998187 m
324 140.998187 l
stroke
grestore
1.000 setlinewidth
0 setlinecap
0.000 setgray
gsave
/o {
gsave
newpath
translate
1.0 setlinewidth
1 setlinejoin
0 setlinecap
0 0 m
5 0 l

gsave
0.000 setgray
fill
grestore
stroke
grestore
} bind def
54 140.998 o
grestore
gsave
/o {
gsave
newpath
translate
1.0 setlinewidth
1 setlinejoin
0 setlinecap
0 0 m
-5 0 l

gsave
0.000 setgray
fill
grestore
stroke
grestore
} bind def
324 140.998 o
grestore
gsave
37.781250 137.201312 translate
0.000000 rotate
0.000000 0.000000 m /five glyphshow
6.362305 0.000000 m /zero glyphshow
grestore
0.800 setlinewidth
2 setlinecap
0.690 setgray
gsave
270 162 54 32.4 clipbox
54 171.143667 m
324 171.143667 l
stroke
grestore
1.000 setlinewidth
0 setlinecap
0.000 setgray
gsave
/o {
gsave
newpath
translate
1.0 setlinewidth
1 setlinejoin
0 setlinecap
0 0 m
5 0 l

gsave
0.000 setgray
fill
grestore
stroke
grestore
} bind def
54 171.144 o
grestore
gsave
/o {
gsave
newpath
translate
1.0 setlinewidth
1 setlinejoin
0 setlinecap
0 0 m
-5 0 l

gsave
0.000 setgray
fill
grestore
stroke
grestore
} bind def
324 171.144 o
grestore
gsave
31.421875 167.346792 translate
0.000000 rotate
0.000000 0.000000 m /one glyphshow
6.362305 0.000000 m /zero glyphshow
12.724609 0.000000 m /zero glyphshow
grestore
0.700 setlinewidth
gsave
/o {
gsave
newpath
translate
0.7 setlinewidth
1 setlinejoin
0 setlinecap
0 0 m
3 0 l

gsave
0.000 setgray
fill
grestore
stroke
grestore
} bind def
54 32.4745 o
grestore
gsave
/o {
gsave
newpath
translate
0.7 setlinewidth
1 setlinejoin
0 setlinecap
0 0 m
-3 0 l

gsave
0.000 setgray
fill
grestore
stroke
grestore
} bind def
324 32.4745 o
grestore
gsave
/o {
gsave
newpath
translate
0.7 setlinewidth
1 setlinejoin
0 setlinecap
0 0 m
3 0 l

gsave
0.000 setgray
fill
grestore
stroke
grestore
} bind def
54 38.5036 o
grestore
gsave
/o {
gsave
newpath
translate
0.7 setlinewidth
1 setlinejoin
0 setlinecap
0 0 m
-3 0 l

gsave
0.000 setgray
fill
grestore
stroke
grestore
} bind def
324 38.5036 o
grestore
gsave
/o {
gsave
newpath
translate
0.7 setlinewidth
1 setlinejoin
0 setlinecap
0 0 m
3 0 l

gsave
0.000 setgray
fill
grestore
stroke
grestore
} bind def
54 44.5327 o
grestore
gsave
/o {
gsave
newpath
translate
0.7 setlinewidth
1 setlinejoin
0 setlinecap
0 0 m
-3 0 l

gsave
0.000 setgray
fill
grestore
stroke
grestore
} bind def
324 44.5327 o
grestore
gsave
/o {
gsave
newpath
translate
0.7 setlinewidth
1 setlinejoin
0 setlinecap
0 0 m
3 0 l

gsave
0.000 setgray
fill
grestore
stroke
grestore
} bind def
54 56.5908 o
grestore
gsave
/o {
gsave
newpath
translate
0.7 setlinewidth
1 setlinejoin
0 setlinecap
0 0 m
-3 0 l

gsave
0.000 setgray
fill
grestore
stroke
grestore
} bind def
324 56.5908 o
grestore
gsave
/o {
gsave
newpath
translate
0.7 setlinewidth
1 setlinejoin
0 setlinecap
0 0 m
3 0 l

gsave
0.000 setgray
fill
grestore
stroke
grestore
} bind def
54 62.6199 o
grestore
gsave
/o {
gsave
newpath
translate
0.7 setlinewidth
1 setlinejoin
0 setlinecap
0 0 m
-3 0 l

gsave
0.000 setgray
fill
grestore
stroke
grestore
} bind def
324 62.6199 o
grestore
gsave
/o {
gsave
newpath
translate
0.7 setlinewidth
1 setlinejoin
0 setlinecap
0 0 m
3 0 l

gsave
0.000 setgray
fill
grestore
stroke
grestore
} bind def
54 68.649 o
grestore
gsave
/o {
gsave
newpath
translate
0.7 setlinewidth
1 setlinejoin
0 setlinecap
0 0 m
-3 0 l

gsave
0.000 setgray
fill
grestore
stroke
grestore
} bind def
324 68.649 o
grestore
gsave
/o {
gsave
newpath
translate
0.7 setlinewidth
1 setlinejoin
0 setlinecap
0 0 m
3 0 l

gsave
0.000 setgray
fill
grestore
stroke
grestore
} bind def
54 74.6781 o
grestore
gsave
/o {
gsave
newpath
translate
0.7 setlinewidth
1 setlinejoin
0 setlinecap
0 0 m
-3 0 l

gsave
0.000 setgray
fill
grestore
stroke
grestore
} bind def
324 74.6781 o
grestore
gsave
/o {
gsave
newpath
translate
0.7 setlinewidth
1 setlinejoin
0 setlinecap
0 0 m
3 0 l

gsave
0.000 setgray
fill
grestore
stroke
grestore
} bind def
54 86.7363 o
grestore
gsave
/o {
gsave
newpath
translate
0.7 setlinewidth
1 setlinejoin
0 setlinecap
0 0 m
-3 0 l

gsave
0.000 setgray
fill
grestore
stroke
grestore
} bind def
324 86.7363 o
grestore
gsave
/o {
gsave
newpath
translate
0.7 setlinewidth
1 setlinejoin
0 setlinecap
0 0 m
3 0 l

gsave
0.000 setgray
fill
grestore
stroke
grestore
} bind def
54 92.7654 o
grestore
gsave
/o {
gsave
newpath
translate
0.7 setlinewidth
1 setlinejoin
0 setlinecap
0 0 m
-3 0 l

gsave
0.000 setgray
fill
grestore
stroke
grestore
} bind def
324 92.7654 o
grestore
gsave
/o {
gsave
newpath
translate
0.7 setlinewidth
1 setlinejoin
0 setlinecap
0 0 m
3 0 l

gsave
0.000 setgray
fill
grestore
stroke
grestore
} bind def
54 98.7945 o
grestore
gsave
/o {
gsave
newpath
translate
0.7 setlinewidth
1 setlinejoin
0 setlinecap
0 0 m
-3 0 l

gsave
0.000 setgray
fill
grestore
stroke
grestore
} bind def
324 98.7945 o
grestore
gsave
/o {
gsave
newpath
translate
0.7 setlinewidth
1 setlinejoin
0 setlinecap
0 0 m
3 0 l

gsave
0.000 setgray
fill
grestore
stroke
grestore
} bind def
54 104.824 o
grestore
gsave
/o {
gsave
newpath
translate
0.7 setlinewidth
1 setlinejoin
0 setlinecap
0 0 m
-3 0 l

gsave
0.000 setgray
fill
grestore
stroke
grestore
} bind def
324 104.824 o
grestore
gsave
/o {
gsave
newpath
translate
0.7 setlinewidth
1 setlinejoin
0 setlinecap
0 0 m
3 0 l

gsave
0.000 setgray
fill
grestore
stroke
grestore
} bind def
54 116.882 o
grestore
gsave
/o {
gsave
newpath
translate
0.7 setlinewidth
1 setlinejoin
0 setlinecap
0 0 m
-3 0 l

gsave
0.000 setgray
fill
grestore
stroke
grestore
} bind def
324 116.882 o
grestore
gsave
/o {
gsave
newpath
translate
0.7 setlinewidth
1 setlinejoin
0 setlinecap
0 0 m
3 0 l

gsave
0.000 setgray
fill
grestore
stroke
grestore
} bind def
54 122.911 o
grestore
gsave
/o {
gsave
newpath
translate
0.7 setlinewidth
1 setlinejoin
0 setlinecap
0 0 m
-3 0 l

gsave
0.000 setgray
fill
grestore
stroke
grestore
} bind def
324 122.911 o
grestore
gsave
/o {
gsave
newpath
translate
0.7 setlinewidth
1 setlinejoin
0 setlinecap
0 0 m
3 0 l

gsave
0.000 setgray
fill
grestore
stroke
grestore
} bind def
54 128.94 o
grestore
gsave
/o {
gsave
newpath
translate
0.7 setlinewidth
1 setlinejoin
0 setlinecap
0 0 m
-3 0 l

gsave
0.000 setgray
fill
grestore
stroke
grestore
} bind def
324 128.94 o
grestore
gsave
/o {
gsave
newpath
translate
0.7 setlinewidth
1 setlinejoin
0 setlinecap
0 0 m
3 0 l

gsave
0.000 setgray
fill
grestore
stroke
grestore
} bind def
54 134.969 o
grestore
gsave
/o {
gsave
newpath
translate
0.7 setlinewidth
1 setlinejoin
0 setlinecap
0 0 m
-3 0 l

gsave
0.000 setgray
fill
grestore
stroke
grestore
} bind def
324 134.969 o
grestore
gsave
/o {
gsave
newpath
translate
0.7 setlinewidth
1 setlinejoin
0 setlinecap
0 0 m
3 0 l

gsave
0.000 setgray
fill
grestore
stroke
grestore
} bind def
54 147.027 o
grestore
gsave
/o {
gsave
newpath
translate
0.7 setlinewidth
1 setlinejoin
0 setlinecap
0 0 m
-3 0 l

gsave
0.000 setgray
fill
grestore
stroke
grestore
} bind def
324 147.027 o
grestore
gsave
/o {
gsave
newpath
translate
0.7 setlinewidth
1 setlinejoin
0 setlinecap
0 0 m
3 0 l

gsave
0.000 setgray
fill
grestore
stroke
grestore
} bind def
54 153.056 o
grestore
gsave
/o {
gsave
newpath
translate
0.7 setlinewidth
1 setlinejoin
0 setlinecap
0 0 m
-3 0 l

gsave
0.000 setgray
fill
grestore
stroke
grestore
} bind def
324 153.056 o
grestore
gsave
/o {
gsave
newpath
translate
0.7 setlinewidth
1 setlinejoin
0 setlinecap
0 0 m
3 0 l

gsave
0.000 setgray
fill
grestore
stroke
grestore
} bind def
54 159.085 o
grestore
gsave
/o {
gsave
newpath
translate
0.7 setlinewidth
1 setlinejoin
0 setlinecap
0 0 m
-3 0 l

gsave
0.000 setgray
fill
grestore
stroke
grestore
} bind def
324 159.085 o
grestore
gsave
/o {
gsave
newpath
translate
0.7 setlinewidth
1 setlinejoin
0 setlinecap
0 0 m
3 0 l

gsave
0.000 setgray
fill
grestore
stroke
grestore
} bind def
54 165.115 o
grestore
gsave
/o {
gsave
newpath
translate
0.7 setlinewidth
1 setlinejoin
0 setlinecap
0 0 m
-3 0 l

gsave
0.000 setgray
fill
grestore
stroke
grestore
} bind def
324 165.115 o
grestore
gsave
/o {
gsave
newpath
translate
0.7 setlinewidth
1 setlinejoin
0 setlinecap
0 0 m
3 0 l

gsave
0.000 setgray
fill
grestore
stroke
grestore
} bind def
54 177.173 o
grestore
gsave
/o {
gsave
newpath
translate
0.7 setlinewidth
1 setlinejoin
0 setlinecap
0 0 m
-3 0 l

gsave
0.000 setgray
fill
grestore
stroke
grestore
} bind def
324 177.173 o
grestore
gsave
/o {
gsave
newpath
translate
0.7 setlinewidth
1 setlinejoin
0 setlinecap
0 0 m
3 0 l

gsave
0.000 setgray
fill
grestore
stroke
grestore
} bind def
54 183.202 o
grestore
gsave
/o {
gsave
newpath
translate
0.7 setlinewidth
1 setlinejoin
0 setlinecap
0 0 m
-3 0 l

gsave
0.000 setgray
fill
grestore
stroke
grestore
} bind def
324 183.202 o
grestore
gsave
/o {
gsave
newpath
translate
0.7 setlinewidth
1 setlinejoin
0 setlinecap
0 0 m
3 0 l

gsave
0.000 setgray
fill
grestore
stroke
grestore
} bind def
54 189.231 o
grestore
gsave
/o {
gsave
newpath
translate
0.7 setlinewidth
1 setlinejoin
0 setlinecap
0 0 m
-3 0 l

gsave
0.000 setgray
fill
grestore
stroke
grestore
} bind def
324 189.231 o
grestore
/DejaVuSerif findfont
14.000 scalefont
setfont
gsave
19.937500 40.282813 translate
90.000000 rotate
0.000000 0.000000 m /E glyphshow
10.219727 0.000000 m /n glyphshow
19.236328 0.000000 m /e glyphshow
27.521484 0.000000 m /r glyphshow
34.213867 0.000000 m /g glyphshow
43.175781 0.000000 m /y glyphshow
51.084961 0.000000 m /space glyphshow
55.535156 0.000000 m /s glyphshow
62.719727 0.000000 m /p glyphshow
71.681641 0.000000 m /r glyphshow
78.374023 0.000000 m /e glyphshow
86.659180 0.000000 m /a glyphshow
95.005859 0.000000 m /d glyphshow
103.967773 0.000000 m /space glyphshow
108.417969 0.000000 m /parenleft glyphshow
113.879883 0.000000 m /k glyphshow
122.363281 0.000000 m /e glyphshow
130.648438 0.000000 m /V glyphshow
140.758789 0.000000 m /parenright glyphshow
grestore
2.000 setlinewidth
2 setlinecap
1.000 0.000 0.000 setrgbcolor
gsave
270 162 54 32.4 clipbox
54.54 169.686434 m
55.08 131.156291 l
55.61892 141.6433 l
56.699325 119.735374 l
57.23973 123.756178 l
57.78 124.528505 l
66.42 132.423004 l
71.82 137.854616 l
80.46 146.916347 l
90.18 157.027141 l
90.72 157.490779 l
91.8 161.533288 l
92.34 152.66509 l
92.88 154.637811 l
93.42 155.71521 l
93.96 146.61851 l
94.5 149.441936 l
95.04 149.735553 l
95.58 141.179663 l
96.12 144.195416 l
96.66 143.696207 l
97.2 136.604182 l
97.74 139.319686 l
98.28 138.016196 l
98.82 133.591442 l
99.36 135.453227 l
100.44 132.868554 l
100.98 133.494374 l
101.52 133.885059 l
102.06 134.56695 l
102.6 134.255246 l
103.14 138.013784 l
103.68 138.353222 l
104.22 137.796737 l
104.76 144.548119 l
105.3 143.836082 l
105.84 143.518952 l
106.38 152.181557 l
106.92 150.641726 l
107.46 150.852744 l
108 160.524017 l
108.54 158.434332 l
109.08 159.563582 l
109.62 169.431403 l
110.16 166.959474 l
110.7 169.662921 l
111.24 178.667978 l
111.78 176.051351 l
112.86 187.036364 l
118.8 185.752166 l
157.14 177.727439 l
179.28 173.38649 l
196.56 170.214583 l
214.38 167.160846 l
232.74 164.254822 l
249.48 161.820876 l
266.22 159.593125 l
284.58 157.384064 l
303.48 155.35889 l
321.3 153.674964 l
324 153.438021 l
324 153.438021 l
stroke
grestore
0.000 0.000 1.000 setrgbcolor
gsave
270 162 54 32.4 clipbox
54.54 169.571278 m
55.08 130.322467 l
55.61892 140.897501 l
56.699325 114.287664 l
57.23973 120.44319 l
57.78 121.235413 l
61.02 124.180024 l
67.5 130.423755 l
75.06 138.045136 l
90.72 153.983051 l
91.8 158.156391 l
92.34 148.333788 l
92.88 150.440957 l
93.42 151.535238 l
93.96 141.022303 l
94.5 144.17552 l
95.04 144.409449 l
95.58 133.728303 l
96.12 137.38495 l
96.66 136.590918 l
97.2 126.275737 l
97.74 130.170533 l
98.28 127.829435 l
98.82 118.753837 l
99.36 122.604621 l
99.9 118.023111 l
100.44 111.363215 l
100.98 114.724291 l
101.52 107.544361 l
102.06 104.062739 l
102.6 106.538768 l
103.14 97.149175 l
103.68 96.522149 l
104.22 98.030026 l
104.76 87.268089 l
105.3 88.473306 l
105.84 89.139521 l
106.38 77.727045 l
106.92 79.874609 l
107.46 79.738954 l
108 68.169119 l
108.54 70.802628 l
109.08 69.608264 l
109.62 58.417659 l
110.16 61.342374 l
110.7 58.47795 l
111.24 48.560087 l
111.78 51.551122 l
112.32 46.311235 l
112.86 39.763636 l
117.72 41.011659 l
129.6 44.038265 l
173.88 55.294588 l
197.64 61.12412 l
220.32 66.458062 l
240.84 71.067908 l
262.44 75.686196 l
282.42 79.747998 l
302.94 83.716349 l
324 87.584617 l
324 87.584617 l
stroke
grestore
0.800 setlinewidth
0 setlinejoin
[] 0 setdash
0.000 setgray
gsave
54 32.4 m
54 194.4 l
stroke
grestore
gsave
324 32.4 m
324 194.4 l
stroke
grestore
gsave
54 32.4 m
324 32.4 l
stroke
grestore
gsave
54 194.4 m
324 194.4 l
stroke
grestore
2.000 setlinewidth
1 setlinejoin
[] 0 setdash
1.000 0.000 0.000 setrgbcolor
gsave
235.2 121.0875 m
260.4 121.0875 l
stroke
grestore
0.000 setgray
gsave
265.200000 116.887500 translate
0.000000 rotate
/DejaVuSans findfont
12.0 scalefont
setfont
0.000000 0.250000 moveto
/uni0394 glyphshow

/DejaVuSans-Oblique findfont
12.0 scalefont
setfont
8.208984 0.250000 moveto
/E glyphshow

/DejaVuSans-Oblique findfont
8.4 scalefont
setfont
15.791016 -1.718750 moveto
/k glyphshow


grestore
0.000 0.000 1.000 setrgbcolor
gsave
235.2 107.9875 m
260.4 107.9875 l
stroke
grestore
0.000 setgray
gsave
265.200000 103.787500 translate
0.000000 rotate
/DejaVuSans findfont
12.0 scalefont
setfont
0.000000 0.875000 moveto
/c glyphshow

6.597656 0.875000 moveto
/o glyphshow

13.939453 0.875000 moveto
/r glyphshow

18.873047 0.875000 moveto
/underscore glyphshow

24.873047 0.875000 moveto
/uni0394 glyphshow

/DejaVuSans-Oblique findfont
12.0 scalefont
setfont
33.082031 0.875000 moveto
/E glyphshow

40.664062 0.875000 moveto
/k glyphshow


grestore

end
showpage
