%!PS-Adobe-3.0 EPSF-3.0
%%Title: I-t_2213.eps
%%Creator: matplotlib version 2.2.2, http://matplotlib.org/
%%CreationDate: Fri Apr 26 17:39:32 2019
%%Orientation: portrait
%%BoundingBox: 162 252 450 540
%%EndComments
%%BeginProlog
/mpldict 9 dict def
mpldict begin
/m { moveto } bind def
/l { lineto } bind def
/r { rlineto } bind def
/c { curveto } bind def
/cl { closepath } bind def
/box {
m
1 index 0 r
0 exch r
neg 0 r
cl
} bind def
/clipbox {
box
clip
newpath
} bind def
%!PS-Adobe-3.0 Resource-Font
%%Title: DejaVu Serif
%%Copyright: Copyright (c) 2003 by Bitstream, Inc. All Rights Reserved. DejaVu changes are in public domain 
%%Creator: Converted from TrueType to type 3 by PPR
25 dict begin
/_d{bind def}bind def
/_m{moveto}_d
/_l{lineto}_d
/_cl{closepath eofill}_d
/_c{curveto}_d
/_sc{7 -1 roll{setcachedevice}{pop pop pop pop pop pop}ifelse}_d
/_e{exec}_d
/FontName /DejaVuSerif def
/PaintType 0 def
/FontMatrix[.001 0 0 .001 0 0]def
/FontBBox[-770 -347 2105 1109]def
/FontType 3 def
/Encoding [ /space /parenleft /parenright /zero /one /two /five /seven /A /p /s /minus ] def
/FontInfo 10 dict dup begin
/FamilyName (DejaVu Serif) def
/FullName (DejaVu Serif) def
/Notice (Copyright (c) 2003 by Bitstream, Inc. All Rights Reserved. DejaVu changes are in public domain ) def
/Weight (Book) def
/Version (Version 2.35) def
/ItalicAngle 0.0 def
/isFixedPitch false def
/UnderlinePosition -130 def
/UnderlineThickness 90 def
end readonly def
/CharStrings 13 dict dup begin
/.notdef 0 def
/space{318 0 0 0 0 0 _sc
}_d
/parenleft{390 0 79 -155 319 760 _sc
319 -155 _m
239 -119 179 -63 139 13 _c
99 89 79 186 79 302 _c
79 418 99 514 139 591 _c
179 668 239 724 319 760 _c
319 712 _l
269 677 233 628 211 566 _c
189 503 178 415 178 302 _c
178 188 189 100 211 38 _c
233 -24 269 -72 319 -107 _c
319 -155 _l
_cl}_d
/parenright{390 0 71 -155 311 760 _sc
71 -155 _m
71 -107 _l
121 -72 157 -24 179 38 _c
201 100 212 188 212 302 _c
212 415 201 503 179 566 _c
157 628 121 677 71 712 _c
71 760 _l
150 724 210 668 250 591 _c
290 514 311 418 311 302 _c
311 186 290 89 250 13 _c
210 -63 150 -119 71 -155 _c
_cl}_d
/zero{636 0 66 -13 570 742 _sc
318 34 _m
368 34 405 61 430 116 _c
454 170 467 253 467 364 _c
467 474 454 557 430 612 _c
405 666 368 694 318 694 _c
268 694 230 666 206 612 _c
181 557 169 474 169 364 _c
169 253 181 170 206 116 _c
230 61 268 34 318 34 _c
318 -13 _m
238 -13 176 20 132 86 _c
88 152 66 244 66 364 _c
66 483 88 576 132 642 _c
176 708 238 742 318 742 _c
397 742 459 708 503 642 _c
547 576 570 483 570 364 _c
570 244 547 152 503 86 _c
459 20 397 -13 318 -13 _c
_cl}_d
/one{636 0 122 0 494 742 _sc
142 0 _m
142 52 _l
269 52 _l
269 658 _l
122 563 _l
122 627 _l
300 742 _l
367 742 _l
367 52 _l
494 52 _l
494 0 _l
142 0 _l
_cl}_d
/two{{636 0 68 0 538 742 _sc
128 555 _m
73 555 _l
73 685 _l
107 703 142 717 178 727 _c
213 737 248 742 282 742 _c
358 742 418 723 462 687 _c
506 650 528 600 528 537 _c
528 465 478 380 378 281 _c
370 273 365 268 361 264 _c
177 80 _l
481 80 _l
481 170 _l
538 170 _l
538 0 _l
68 0 _l
68 53 _l
289 274 _l
337 322 372 367 393 408 _c
414 449 425 492 425 537 _c
}_e{425 586 412 624 386 652 _c
360 680 325 694 281 694 _c
234 694 198 682 173 659 _c
147 636 132 601 128 555 _c
_cl}_e}_d
/five{{636 0 85 -13 559 729 _sc
503 729 _m
503 649 _l
169 649 _l
169 440 _l
185 452 205 460 228 466 _c
250 472 276 475 304 475 _c
382 475 444 453 490 409 _c
536 365 559 306 559 231 _c
559 153 536 93 490 51 _c
444 8 379 -13 296 -13 _c
262 -13 228 -9 193 -1 _c
157 6 121 18 85 35 _c
85 177 _l
140 177 _l
143 130 158 94 184 70 _c
210 46 248 34 296 34 _c
}_e{347 34 386 51 414 85 _c
442 119 456 167 456 231 _c
456 294 442 342 415 376 _c
387 410 348 427 296 427 _c
266 427 240 421 218 411 _c
196 401 176 385 159 363 _c
117 363 _l
117 729 _l
503 729 _l
_cl}_e}_d
/seven{636 0 84 0 564 729 _sc
564 679 _m
279 0 _l
206 0 _l
478 649 _l
141 649 _l
141 559 _l
84 559 _l
84 729 _l
564 729 _l
564 679 _l
_cl}_d
/A{722 0 -5 0 732 729 _sc
200 264 _m
468 264 _l
334 611 _l
200 264 _l
-5 0 _m
-5 52 _l
58 52 _l
318 729 _l
400 729 _l
660 52 _l
732 52 _l
732 0 _l
467 0 _l
467 52 _l
548 52 _l
487 212 _l
180 212 _l
119 52 _l
199 52 _l
199 0 _l
-5 0 _l
_cl}_d
/p{{640 0 29 -207 590 533 _sc
205 285 _m
205 234 _l
205 171 217 123 241 91 _c
265 58 299 42 345 42 _c
391 42 425 60 449 97 _c
473 133 485 188 485 260 _c
485 332 473 386 449 422 _c
425 458 391 477 345 477 _c
299 477 265 460 241 427 _c
217 394 205 347 205 285 _c
115 467 _m
29 467 _l
29 519 _l
205 519 _l
205 438 _l
222 470 244 494 272 510 _c
299 525 333 533 373 533 _c
}_e{437 533 489 507 529 457 _c
569 407 590 341 590 260 _c
590 178 569 112 529 62 _c
489 12 437 -13 373 -13 _c
333 -13 299 -5 272 9 _c
244 24 222 48 205 81 _c
205 -155 _l
290 -155 _l
290 -207 _l
29 -207 _l
29 -155 _l
115 -155 _l
115 467 _l
_cl}_e}_d
/s{{513 0 56 -13 462 533 _sc
56 29 _m
56 150 _l
108 150 _l
109 111 121 82 144 63 _c
167 43 201 34 246 34 _c
286 34 317 41 338 57 _c
359 72 370 94 370 123 _c
370 145 362 164 347 178 _c
331 192 299 207 249 223 _c
184 245 _l
139 259 107 277 87 299 _c
67 320 57 347 57 381 _c
57 428 74 465 109 492 _c
144 519 192 533 254 533 _c
281 533 310 529 340 522 _c
}_e{370 515 402 505 434 491 _c
434 378 _l
382 378 _l
380 411 369 437 347 456 _c
325 475 295 485 257 485 _c
219 485 190 478 171 465 _c
151 451 142 431 142 405 _c
142 383 149 365 164 352 _c
178 339 208 326 252 312 _c
323 290 _l
372 274 407 255 429 232 _c
451 209 462 180 462 144 _c
462 94 443 56 405 28 _c
367 0 316 -13 250 -13 _c
216 -13 184 -9 152 -3 _c
}_e{120 3 88 14 56 29 _c
_cl}_e}_d
/minus{838 0 106 274 732 353 _sc
106 353 _m
732 353 _l
732 274 _l
106 274 _l
106 353 _l
_cl}_d
end readonly def

/BuildGlyph
 {exch begin
 CharStrings exch
 2 copy known not{pop /.notdef}if
 true 3 1 roll get exec
 end}_d

/BuildChar {
 1 index /Encoding get exch get
 1 index /BuildGlyph get exec
}_d

FontName currentdict end definefont pop
%!PS-Adobe-3.0 Resource-Font
%%Title: DejaVu Sans Oblique
%%Copyright: Copyright (c) 2003 by Bitstream, Inc. All Rights Reserved. Copyright (c) 2006 by Tavmjong Bah. All Rights Reserved. DejaVu changes are in public domain 
%%Creator: Converted from TrueType to type 3 by PPR
25 dict begin
/_d{bind def}bind def
/_m{moveto}_d
/_l{lineto}_d
/_cl{closepath eofill}_d
/_c{curveto}_d
/_sc{7 -1 roll{setcachedevice}{pop pop pop pop pop pop}ifelse}_d
/_e{exec}_d
/FontName /DejaVuSans-Oblique def
/PaintType 0 def
/FontMatrix[.001 0 0 .001 0 0]def
/FontBBox[-1016 -350 1659 1068]def
/FontType 3 def
/Encoding [ /I /t ] def
/FontInfo 10 dict dup begin
/FamilyName (DejaVu Sans) def
/FullName (DejaVu Sans Oblique) def
/Notice (Copyright (c) 2003 by Bitstream, Inc. All Rights Reserved. Copyright (c) 2006 by Tavmjong Bah. All Rights Reserved. DejaVu changes are in public domain ) def
/Weight (Oblique) def
/Version (Version 2.35) def
/ItalicAngle -11.0 def
/isFixedPitch false def
/UnderlinePosition -130 def
/UnderlineThickness 90 def
end readonly def
/CharStrings 3 dict dup begin
/.notdef 0 def
/I{295 0 27 0 268 729 _sc
169 729 _m
268 729 _l
126 0 _l
27 0 _l
169 729 _l
_cl}_d
/t{{392 0 64 0 423 702 _sc
423 547 _m
409 477 _l
230 477 _l
172 180 _l
170 169 168 160 167 152 _c
166 144 166 139 166 135 _c
166 114 172 99 185 89 _c
197 79 217 75 245 75 _c
336 75 _l
321 0 _l
235 0 _l
181 0 141 10 115 31 _c
89 52 76 84 76 126 _c
76 133 76 141 77 150 _c
78 159 80 169 82 180 _c
140 477 _l
64 477 _l
78 547 _l
153 547 _l
183 702 _l
}_e{273 702 _l
243 547 _l
423 547 _l
_cl}_e}_d
end readonly def

/BuildGlyph
 {exch begin
 CharStrings exch
 2 copy known not{pop /.notdef}if
 true 3 1 roll get exec
 end}_d

/BuildChar {
 1 index /Encoding get exch get
 1 index /BuildGlyph get exec
}_d

FontName currentdict end definefont pop
end
%%EndProlog
mpldict begin
162 252 translate
288 288 0 0 clipbox
gsave
0 0 m
288 0 l
288 288 l
0 288 l
cl
1.000 setgray
fill
grestore
gsave
43.2 43.2 m
259.2 43.2 l
259.2 259.2 l
43.2 259.2 l
cl
1.000 setgray
fill
grestore
gsave
216 216 43.2 43.2 clipbox
342.978 43.2 m
342.978 43.2 l
342.408 43.2 l
341.838 43.2 l
341.268 43.2 l
340.698 43.2 l
340.128 43.2 l
339.558 43.2 l
338.988 43.2 l
338.418 43.2 l
337.848 43.2 l
337.272 43.2 l
336.702 43.2 l
336.132 43.2 l
335.562 43.2 l
334.992 43.2 l
334.422 43.2 l
333.852 43.2 l
333.282 43.2 l
332.712 43.2 l
332.142 43.2 l
331.572 43.2 l
330.996 43.2 l
330.426 43.2 l
329.856 43.2 l
329.286 43.2 l
328.716 43.2 l
328.146 43.2 l
327.576 43.2 l
327.006 43.2 l
326.436 43.2 l
325.866 43.2 l
325.296 43.2 l
324.72 43.2 l
324.15 43.2 l
323.58 43.2 l
323.01 43.2 l
322.44 43.2 l
321.87 43.2 l
321.3 43.2 l
320.73 43.2 l
320.16 43.2 l
319.59 43.2 l
319.02 43.2 l
318.444 43.2 l
317.874 43.2 l
317.304 43.2 l
316.734 43.2 l
316.164 43.2 l
315.594 43.2 l
315.024 43.2 l
314.454 43.2 l
313.884 43.2 l
313.314 43.2 l
312.738 43.2 l
312.168 43.2 l
311.598 43.2 l
311.028 43.2 l
310.458 43.2 l
309.888 43.2 l
309.318 43.2 l
308.748 43.2 l
308.178 43.2 l
307.608 43.2 l
307.038 43.2 l
306.462 43.2 l
305.892 43.2 l
305.322 43.2 l
304.752 43.2 l
304.182 43.2 l
303.612 43.2 l
303.042 43.2 l
302.472 43.2 l
301.902 43.2 l
301.332 43.2 l
300.762 43.2 l
300.186 43.2 l
299.616 43.2 l
299.046 43.2 l
298.476 43.2 l
297.906 43.2 l
297.336 43.2 l
296.766 43.2 l
296.196 43.2 l
295.626 43.2 l
295.056 43.2 l
294.486 43.2 l
293.91 43.2 l
293.34 43.2 l
292.77 43.2 l
292.2 43.2 l
291.63 43.2 l
291.06 43.2 l
290.49 43.2 l
289.92 43.2 l
289.35 43.2 l
288.78 43.2 l
288.21 43.2 l
287.634 43.2 l
287.064 43.2 l
286.494 43.2 l
285.924 43.2 l
285.354 43.2 l
284.784 43.2 l
284.214 43.2 l
283.644 43.2 l
283.074 43.2 l
282.504 43.2 l
281.934 43.2 l
281.358 43.2 l
280.788 43.2 l
280.218 43.2 l
279.648 43.2 l
279.078 43.2 l
278.508 43.2 l
277.938 43.2 l
277.368 43.2 l
276.798 43.2 l
276.228 43.2 l
275.658 43.2 l
275.082 43.2 l
274.512 43.2 l
273.942 43.2 l
273.372 43.2 l
272.802 43.2 l
272.232 43.2 l
271.662 43.2 l
271.092 43.2 l
270.522 43.2 l
269.952 43.2 l
269.382 43.2 l
268.806 43.2 l
268.236 43.2 l
267.666 43.2 l
267.096 43.2 l
266.526 43.2 l
265.956 43.2 l
265.386 43.2 l
264.816 43.2 l
264.246 43.2 l
263.676 43.2 l
263.106 43.2 l
262.53 43.2 l
261.96 43.2 l
261.39 43.2 l
260.82 43.2 l
260.25 43.2 l
259.68 43.2 l
259.11 43.2 l
258.54 43.2 l
257.97 43.2 l
257.4 43.2 l
256.83 43.2 l
256.254 43.2 l
255.684 43.2 l
255.114 43.2 l
254.544 43.2 l
253.974 43.2 l
253.404 43.2 l
252.834 43.2 l
252.264 43.2 l
251.694 43.2 l
251.124 43.2 l
250.554 43.2 l
249.978 43.2 l
249.408 43.2 l
248.838 43.2 l
248.268 43.2 l
247.698 43.2 l
247.128 43.2 l
246.558 43.191903 l
245.988 43.184814 l
245.418 43.187391 l
244.848 43.162695 l
244.272 43.151172 l
243.702 43.178476 l
243.132 43.148398 l
242.562 43.092986 l
241.992 43.046447 l
241.422 43.141324 l
240.852 43.106071 l
240.282 43.102179 l
239.712 43.066993 l
239.142 43.070497 l
238.572 43.015144 l
237.996 43.063704 l
237.426 42.974334 l
236.856 43.048465 l
236.286 43.169112 l
235.716 43.070216 l
235.146 43.028658 l
234.576 43.243254 l
234.006 43.26034 l
233.436 43.157578 l
232.866 43.269995 l
232.296 43.297945 l
231.72 43.443983 l
231.15 43.717039 l
230.58 43.931182 l
230.01 44.387449 l
229.44 44.818531 l
228.87 44.904996 l
228.3 45.37404 l
227.73 46.170864 l
227.16 46.642824 l
226.59 47.62584 l
226.02 48.52116 l
225.444 49.581936 l
224.874 50.654592 l
224.304 52.035048 l
223.734 53.555148 l
223.164 54.725544 l
222.594 56.676564 l
222.024 58.114368 l
221.454 60.189372 l
220.884 62.231544 l
220.314 63.882648 l
219.744 66.25638 l
219.168 68.387544 l
218.598 70.4673 l
218.028 72.31302 l
217.458 74.809008 l
216.888 77.15196 l
216.318 79.280964 l
215.748 81.242028 l
215.178 83.851848 l
214.608 85.844664 l
214.038 87.72354 l
213.468 90.245232 l
212.892 91.978632 l
212.322 94.049964 l
211.752 96.434496 l
211.1832 98.539524 l
210.6126 100.95192 l
210.042 102.842028 l
209.4714 105.246648 l
208.9008 107.368848 l
208.3302 108.964548 l
207.7596 111.051972 l
207.189 113.126868 l
206.6184 115.5924 l
206.0484 116.96184 l
205.4778 119.251332 l
204.9072 121.279896 l
204.3366 123.429852 l
203.766 125.60562 l
203.1954 127.837656 l
202.6248 130.327056 l
202.0542 132.006672 l
201.4836 133.565328 l
200.913 135.400356 l
200.3424 138.251232 l
199.7718 139.619808 l
199.2018 141.888456 l
198.6312 143.088444 l
198.0606 144.301824 l
197.49 145.303092 l
196.9194 146.923524 l
196.3488 148.373532 l
195.7782 150.202188 l
195.2076 151.407576 l
194.637 153.004788 l
194.0664 154.264932 l
193.4958 156.1302 l
192.9252 157.510656 l
192.3552 158.193648 l
191.7846 160.230096 l
191.214 160.952616 l
190.6434 161.93952 l
190.0728 163.755972 l
189.5022 164.75346 l
188.9316 166.80708 l
188.361 168.270264 l
187.7904 169.399188 l
187.2198 169.893072 l
186.6492 171.09522 l
186.0786 172.086228 l
185.5086 173.121408 l
184.938 174.425724 l
184.3674 175.42656 l
183.7968 176.133096 l
183.2262 177.33654 l
182.6556 178.231752 l
182.085 179.220168 l
181.5144 179.964072 l
180.9438 180.94644 l
180.3732 181.62954 l
179.8026 182.223216 l
179.232 182.71656 l
178.662 183.980484 l
178.0914 185.405004 l
177.5208 186.357672 l
176.9502 187.46208 l
176.3796 188.401032 l
175.809 188.911764 l
175.2384 188.5275 l
174.6678 189.60534 l
174.0972 190.09512 l
173.5266 191.58876 l
172.956 192.491964 l
172.3854 193.322052 l
171.8154 193.282848 l
171.2448 193.902552 l
170.6742 194.863104 l
170.1036 195.431832 l
169.533 195.70356 l
168.9624 195.651072 l
168.3918 196.862832 l
167.8212 196.780644 l
167.2506 197.4807 l
166.68 198.007092 l
166.1094 198.878328 l
165.5388 198.782964 l
164.9688 200.216556 l
164.3982 199.631196 l
163.8276 200.627928 l
163.257 200.52738 l
162.6864 201.683304 l
162.1158 201.410388 l
161.5452 201.795084 l
160.9746 201.774564 l
160.404 202.64526 l
159.8334 202.305708 l
159.2628 203.051448 l
158.6922 202.901328 l
158.1222 202.878756 l
157.5516 202.956192 l
156.98082 202.689864 l
156.41028 202.066704 l
155.83974 203.309244 l
155.2692 203.241636 l
154.69866 204.10326 l
154.12812 204.257484 l
153.55752 204.476076 l
152.98698 203.825052 l
152.41644 203.893416 l
151.8459 203.992776 l
151.275342 203.832936 l
150.70479 203.486364 l
150.13422 203.600196 l
149.56368 202.967208 l
148.99314 203.121324 l
148.4226 202.263696 l
147.85206 202.108824 l
147.28152 201.672936 l
146.71092 201.110688 l
146.14038 200.439468 l
145.56984 200.380932 l
144.999 199.852596 l
144.429 200.22822 l
143.8584 200.33028 l
143.2878 199.374372 l
142.7172 198.646992 l
142.1466 198.242532 l
141.576 197.643996 l
141.0054 196.642404 l
140.4348 196.406532 l
139.8642 196.001208 l
139.2936 195.345864 l
138.723 194.939244 l
138.1524 194.1894 l
137.5824 193.56408 l
137.0118 192.714228 l
136.4412 192.096144 l
135.8706 191.106216 l
135.3 190.496664 l
134.7294 189.475848 l
134.1588 189.009828 l
133.5882 188.844264 l
133.0176 187.75854 l
132.447 187.11648 l
131.8764 186.773688 l
131.3058 185.451768 l
130.7358 185.61906 l
130.1652 184.238928 l
129.5946 183.770748 l
129.024 182.571408 l
128.4534 181.353168 l
127.8828 180.956592 l
127.3122 180.63324 l
126.7416 179.614476 l
126.171 178.221924 l
125.6004 177.521652 l
125.0298 176.153616 l
124.4592 175.4622 l
123.8892 174.281544 l
123.3186 173.216556 l
122.748 172.221984 l
122.1774 170.47152 l
121.6068 169.310412 l
121.0362 168.803136 l
120.4656 167.708448 l
119.895 166.914432 l
119.3244 166.356288 l
118.7538 165.10338 l
118.1832 165.227796 l
117.6126 163.657584 l
117.0426 163.204416 l
116.472 161.718552 l
115.9014 160.102008 l
115.3308 159.45228 l
114.7602 158.343444 l
114.1896 157.187736 l
113.619 156.18312 l
113.0484 155.5335 l
112.4778 154.138572 l
111.9072 152.49546 l
111.3366 151.157232 l
110.766 149.823108 l
110.196 149.229 l
109.6254 147.924252 l
109.0548 146.684844 l
108.4842 145.145196 l
107.9136 143.824896 l
107.343 142.409664 l
106.7724 141.36228 l
106.2018 139.651128 l
105.6312 138.023352 l
105.0606 136.570104 l
104.49 135.17496 l
103.9194 133.81956 l
103.3494 131.8788 l
102.7788 130.26852 l
102.2082 128.765376 l
101.6376 126.883584 l
101.067 125.33238 l
100.4964 123.55092 l
99.9258 121.971852 l
99.3552 120.594852 l
98.7846 118.887696 l
98.214 117.320832 l
97.6434 115.93692 l
97.0728 114.66198 l
96.5028 112.663116 l
95.9322 111.327264 l
95.3616 109.420308 l
94.791 107.768232 l
94.2204 106.404948 l
93.6498 104.852772 l
93.0792 102.994848 l
92.5086 101.967876 l
91.938 100.373472 l
91.3674 98.871624 l
90.798 97.378092 l
90.228 96.069456 l
89.658 94.399884 l
89.088 92.750616 l
88.512 91.049184 l
87.942 89.724888 l
87.372 88.413552 l
86.802 86.744304 l
86.232 85.585032 l
85.662 83.91924 l
85.092 82.46286 l
84.522 80.9406 l
83.952 79.511544 l
83.382 77.94846 l
82.812 76.782924 l
82.236 75.21552 l
81.666 73.928376 l
81.096 72.643392 l
80.526 71.044992 l
79.956 70.340616 l
79.386 68.6961 l
78.816 67.27536 l
78.246 65.859696 l
77.676 64.192932 l
77.106 63.098136 l
76.536 62.121168 l
75.96 60.661656 l
75.39 59.130216 l
74.82 58.327992 l
74.25 57.080592 l
73.68 56.0007 l
73.11 54.821772 l
72.54 53.868132 l
71.97 52.867404 l
71.4 52.307856 l
70.83 51.368148 l
70.26 50.546052 l
69.684 49.61412 l
69.114 48.962016 l
68.544 48.278376 l
67.974 47.50812 l
67.404 47.122733 l
66.834 46.918289 l
66.264 45.964487 l
65.694 45.67847 l
65.124 45.530068 l
64.554 45.282845 l
63.984 44.79394 l
63.408 44.692949 l
62.838 44.378615 l
62.268 44.268854 l
61.698 44.156664 l
61.128 44.135885 l
60.558 44.043804 l
59.988 44.011393 l
59.418 43.878823 l
58.848 43.757518 l
58.278 43.657002 l
57.708 43.583346 l
57.132 43.440948 l
56.562 43.349731 l
55.992 43.232756 l
55.422 43.138753 l
54.852 43.183435 l
54.282 43.194399 l
53.712 43.2 l
53.142 43.2 l
52.572 43.2 l
52.002 43.2 l
51.432 43.2 l
50.856 43.2 l
50.286 43.2 l
49.716 43.2 l
49.146 43.2 l
48.576 43.2 l
48.006 43.2 l
47.436 43.2 l
46.866 43.2 l
46.296 43.2 l
45.726 43.2 l
45.156 43.2 l
44.58 43.2 l
44.01 43.2 l
43.44 43.2 l
42.87 43.2 l
42.3 43.2 l
41.73 43.2 l
41.16 43.2 l
40.59 43.2 l
40.02 43.2 l
39.45 43.2 l
38.874 43.2 l
38.304 43.2 l
37.734 43.2 l
37.164 43.2 l
36.594 43.2 l
36.024 43.2 l
35.454 43.2 l
34.884 43.2 l
34.314 43.2 l
33.744 43.2 l
33.174 43.2 l
32.598 43.2 l
32.028 43.2 l
31.458 43.2 l
30.888 43.2 l
30.318 43.2 l
29.748 43.2 l
29.178 43.2 l
28.608 43.2 l
28.038 43.2 l
27.468 43.2 l
26.898 43.2 l
26.322 43.2 l
25.752 43.2 l
25.182 43.2 l
24.612 43.2 l
24.042 43.2 l
23.472 43.2 l
22.902 43.2 l
22.332 43.2 l
21.762 43.2 l
21.192 43.2 l
20.622 43.2 l
20.046 43.2 l
19.476 43.2 l
18.906 43.2 l
18.336 43.2 l
17.766 43.2 l
17.196 43.2 l
16.626 43.2 l
16.056 43.2 l
15.486 43.2 l
14.916 43.2 l
14.346 43.2 l
13.77 43.2 l
13.2 43.2 l
12.63 43.2 l
12.06 43.2 l
11.49 43.2 l
10.92 43.2 l
10.35 43.2 l
9.78 43.2 l
9.21 43.2 l
8.64 43.2 l
8.07 43.2 l
7.494 43.2 l
6.924 43.2 l
6.354 43.2 l
5.784 43.2 l
5.214 43.2 l
4.644 43.2 l
4.074 43.2 l
3.504 43.2 l
2.934 43.2 l
2.364 43.2 l
1.794 43.2 l
1.218 43.2 l
0.648 43.2 l
0.078 43.2 l
-0.492 43.2 l
-1.062 43.2 l
-1.632 43.2 l
-2.202 43.2 l
-2.772 43.2 l
-3.342 43.2 l
-3.912 43.2 l
-4.482 43.2 l
-5.058 43.2 l
-5.628 43.2 l
-6.198 43.2 l
-6.768 43.2 l
-7.338 43.2 l
-7.908 43.2 l
-8.478 43.2 l
-9.048 43.2 l
-9.618 43.2 l
-10.188 43.2 l
-10.758 43.2 l
-11.334 43.2 l
-11.904 43.2 l
-12.474 43.2 l
-13.044 43.2 l
-13.614 43.2 l
-14.184 43.2 l
-14.754 43.2 l
-15.324 43.2 l
-15.894 43.2 l
-16.464 43.2 l
-17.034 43.2 l
-17.61 43.2 l
-18.18 43.2 l
-18.75 43.2 l
-19.32 43.2 l
-19.89 43.2 l
-20.46 43.2 l
-21.03 43.2 l
-21.6 43.2 l
-22.17 43.2 l
-22.74 43.2 l
-23.31 43.2 l
-23.886 43.2 l
-24.456 43.2 l
-25.026 43.2 l
-25.596 43.2 l
-26.166 43.2 l
-26.736 43.2 l
-27.306 43.2 l
-27.876 43.2 l
-28.446 43.2 l
-29.016 43.2 l
-29.592 43.2 l
-30.162 43.2 l
-30.732 43.2 l
-31.302 43.2 l
-31.872 43.2 l
-32.442 43.2 l
-33.012 43.2 l
-33.582 43.2 l
-34.152 43.2 l
-34.722 43.2 l
-35.292 43.2 l
-35.868 43.2 l
-36.438 43.2 l
-37.008 43.2 l
-37.578 43.2 l
-38.148 43.2 l
-38.718 43.2 l
-39.288 43.2 l
-39.858 43.2 l
-40.428 43.2 l
-40.998 43.2 l
-41.568 43.2 l
-42.144 43.2 l
-42.714 43.2 l
-43.284 43.2 l
-43.854 43.2 l
-44.424 43.2 l
-44.994 43.2 l
-45.564 43.2 l
-45.564 43.2 l
-45.564 43.2 l
-44.994 43.2 l
-44.424 43.2 l
-43.854 43.2 l
-43.284 43.2 l
-42.714 43.2 l
-42.144 43.2 l
-41.568 43.2 l
-40.998 43.2 l
-40.428 43.2 l
-39.858 43.2 l
-39.288 43.2 l
-38.718 43.2 l
-38.148 43.2 l
-37.578 43.2 l
-37.008 43.2 l
-36.438 43.2 l
-35.868 43.2 l
-35.292 43.2 l
-34.722 43.2 l
-34.152 43.2 l
-33.582 43.2 l
-33.012 43.2 l
-32.442 43.2 l
-31.872 43.2 l
-31.302 43.2 l
-30.732 43.2 l
-30.162 43.2 l
-29.592 43.2 l
-29.016 43.2 l
-28.446 43.2 l
-27.876 43.2 l
-27.306 43.2 l
-26.736 43.2 l
-26.166 43.2 l
-25.596 43.2 l
-25.026 43.2 l
-24.456 43.2 l
-23.886 43.2 l
-23.31 43.2 l
-22.74 43.2 l
-22.17 43.2 l
-21.6 43.2 l
-21.03 43.2 l
-20.46 43.2 l
-19.89 43.2 l
-19.32 43.2 l
-18.75 43.2 l
-18.18 43.2 l
-17.61 43.2 l
-17.034 43.2 l
-16.464 43.2 l
-15.894 43.2 l
-15.324 43.2 l
-14.754 43.2 l
-14.184 43.2 l
-13.614 43.2 l
-13.044 43.2 l
-12.474 43.2 l
-11.904 43.2 l
-11.334 43.2 l
-10.758 43.2 l
-10.188 43.2 l
-9.618 43.2 l
-9.048 43.2 l
-8.478 43.2 l
-7.908 43.2 l
-7.338 43.2 l
-6.768 43.2 l
-6.198 43.2 l
-5.628 43.2 l
-5.058 43.2 l
-4.482 43.2 l
-3.912 43.2 l
-3.342 43.2 l
-2.772 43.2 l
-2.202 43.2 l
-1.632 43.2 l
-1.062 43.2 l
-0.492 43.2 l
0.078 43.2 l
0.648 43.2 l
1.218 43.2 l
1.794 43.2 l
2.364 43.2 l
2.934 43.2 l
3.504 43.2 l
4.074 43.2 l
4.644 43.2 l
5.214 43.2 l
5.784 43.2 l
6.354 43.2 l
6.924 43.2 l
7.494 43.2 l
8.07 43.2 l
8.64 43.2 l
9.21 43.2 l
9.78 43.2 l
10.35 43.2 l
10.92 43.2 l
11.49 43.2 l
12.06 43.2 l
12.63 43.2 l
13.2 43.2 l
13.77 43.2 l
14.346 43.2 l
14.916 43.2 l
15.486 43.2 l
16.056 43.2 l
16.626 43.2 l
17.196 43.2 l
17.766 43.2 l
18.336 43.2 l
18.906 43.2 l
19.476 43.2 l
20.046 43.2 l
20.622 43.2 l
21.192 43.2 l
21.762 43.2 l
22.332 43.2 l
22.902 43.2 l
23.472 43.2 l
24.042 43.2 l
24.612 43.2 l
25.182 43.2 l
25.752 43.2 l
26.322 43.2 l
26.898 43.2 l
27.468 43.2 l
28.038 43.2 l
28.608 43.2 l
29.178 43.2 l
29.748 43.2 l
30.318 43.2 l
30.888 43.2 l
31.458 43.2 l
32.028 43.2 l
32.598 43.2 l
33.174 43.2 l
33.744 43.2 l
34.314 43.2 l
34.884 43.2 l
35.454 43.2 l
36.024 43.2 l
36.594 43.2 l
37.164 43.2 l
37.734 43.2 l
38.304 43.2 l
38.874 43.2 l
39.45 43.2 l
40.02 43.2 l
40.59 43.2 l
41.16 43.2 l
41.73 43.2 l
42.3 43.2 l
42.87 43.2 l
43.44 43.2 l
44.01 43.2 l
44.58 43.2 l
45.156 43.2 l
45.726 43.2 l
46.296 43.2 l
46.866 43.2 l
47.436 43.2 l
48.006 43.2 l
48.576 43.2 l
49.146 43.2 l
49.716 43.2 l
50.286 43.2 l
50.856 43.2 l
51.432 43.2 l
52.002 43.2 l
52.572 43.2 l
53.142 43.2 l
53.712 43.2 l
54.282 43.213328 l
54.852 43.272658 l
55.422 43.516192 l
55.992 43.629224 l
56.562 43.709609 l
57.132 43.937122 l
57.708 43.984091 l
58.278 44.232512 l
58.848 44.32171 l
59.418 44.530344 l
59.988 44.579711 l
60.558 44.49155 l
61.128 44.774251 l
61.698 44.882424 l
62.268 44.824666 l
62.838 45.284281 l
63.408 45.489211 l
63.984 45.456044 l
64.554 45.486835 l
65.124 46.019156 l
65.694 46.655266 l
66.264 47.078377 l
66.834 48.082615 l
67.404 48.550795 l
67.974 49.878288 l
68.544 50.599728 l
69.114 51.655752 l
69.684 52.699464 l
70.26 53.763156 l
70.83 54.842076 l
71.4 56.091744 l
71.97 57.374676 l
72.54 58.484268 l
73.11 60.010308 l
73.68 61.19658 l
74.25 62.773488 l
74.82 63.683928 l
75.39 64.968264 l
75.96 66.443544 l
76.536 67.902192 l
77.106 68.750424 l
77.676 70.057548 l
78.246 71.546544 l
78.816 73.0944 l
79.386 74.15334 l
79.956 75.634344 l
80.526 77.172048 l
81.096 78.379488 l
81.666 80.211384 l
82.236 81.26568 l
82.812 82.776276 l
83.382 84.12714 l
83.952 85.490856 l
84.522 87.1398 l
85.092 88.3305 l
85.662 89.60868 l
86.232 90.798408 l
86.802 91.762416 l
87.372 93.484368 l
87.942 95.164632 l
88.512 96.235776 l
89.088 98.322984 l
89.658 99.259236 l
90.228 101.045664 l
90.798 102.305268 l
91.3674 103.831416 l
91.938 105.204528 l
92.5086 106.951644 l
93.0792 108.378432 l
93.6498 109.896588 l
94.2204 111.085452 l
94.791 112.461048 l
95.3616 114.411852 l
95.9322 115.896096 l
96.5028 117.383364 l
97.0728 118.66338 l
97.6434 119.50308 l
98.214 120.881808 l
98.7846 122.652144 l
99.3552 123.906348 l
99.9258 125.976708 l
100.4964 126.99396 l
101.067 129.1653 l
101.6376 131.048496 l
102.2082 132.536304 l
102.7788 134.07228 l
103.3494 135.90504 l
103.9194 137.27988 l
104.49 138.93768 l
105.0606 140.806296 l
105.6312 142.737768 l
106.2018 144.449352 l
106.7724 146.14668 l
107.343 147.233376 l
107.9136 148.220064 l
108.4842 149.377284 l
109.0548 150.621876 l
109.6254 152.244468 l
110.196 153.3222 l
110.766 154.477692 l
111.3366 156.016368 l
111.9072 157.70214 l
112.4778 159.147828 l
113.0484 160.0425 l
113.619 162.13608 l
114.1896 163.658664 l
114.7602 164.706156 l
115.3308 165.80052 l
115.9014 168.261192 l
116.472 169.647048 l
117.0426 171.336384 l
117.6126 173.086416 l
118.1832 174.281004 l
118.7538 174.90222 l
119.3244 175.830912 l
119.895 176.633568 l
120.4656 178.064352 l
121.0362 178.438464 l
121.6068 180.544788 l
122.1774 181.84608 l
122.748 183.011616 l
123.3186 184.306644 l
123.8892 185.747256 l
124.4592 187.2882 l
125.0298 187.784784 l
125.6004 188.879148 l
126.171 190.014876 l
126.7416 190.933524 l
127.3122 191.62116 l
127.8828 192.939408 l
128.4534 194.659632 l
129.024 195.212592 l
129.5946 196.302852 l
130.1652 196.957872 l
130.7358 197.24094 l
131.3058 197.905032 l
131.8764 199.088712 l
132.447 199.63152 l
133.0176 200.63106 l
133.5882 201.294936 l
134.1588 202.425372 l
134.7294 202.607352 l
135.3 203.724936 l
135.8706 203.914584 l
136.4412 205.538256 l
137.0118 206.086572 l
137.5824 206.31672 l
138.1524 206.5338 l
138.723 206.734356 l
139.2936 207.666936 l
139.8642 208.782792 l
140.4348 208.269468 l
141.0054 209.545596 l
141.576 208.997604 l
142.1466 209.371068 l
142.7172 209.938608 l
143.2878 210.723228 l
143.8584 210.43692 l
144.429 210.62538 l
144.999 211.087404 l
145.56984 211.617468 l
146.14038 211.947732 l
146.71092 212.032512 l
147.28152 211.837464 l
147.85206 212.503176 l
148.4226 212.521104 l
148.99314 212.635476 l
149.56368 212.271192 l
150.13422 212.372604 l
150.70479 212.616036 l
151.275342 213.457464 l
151.8459 213.643224 l
152.41644 213.288984 l
152.98698 212.774148 l
153.55752 212.879124 l
154.12812 213.184116 l
154.69866 212.90634 l
155.2692 213.897564 l
155.83974 213.894756 l
156.41028 214.165296 l
156.98082 214.319736 l
157.5516 214.031808 l
158.1222 213.698844 l
158.6922 214.021872 l
159.2628 213.936552 l
159.8334 213.494292 l
160.404 213.71634 l
160.9746 214.565436 l
161.5452 214.955316 l
162.1158 214.584012 l
162.6864 214.872696 l
163.257 214.40862 l
163.8276 213.768072 l
164.3982 213.965604 l
164.9688 212.710644 l
165.5388 212.416236 l
166.1094 212.342472 l
166.68 211.636908 l
167.2506 212.4873 l
167.8212 211.200156 l
168.3918 210.405168 l
168.9624 210.018528 l
169.533 209.98764 l
170.1036 209.330568 l
170.6742 208.797696 l
171.2448 208.570248 l
171.8154 208.952352 l
172.3854 208.481148 l
172.956 207.820836 l
173.5266 206.52084 l
174.0972 205.14168 l
174.6678 204.33546 l
175.2384 204.0309 l
175.809 202.955436 l
176.3796 202.710168 l
176.9502 202.02912 l
177.5208 201.275928 l
178.0914 200.586996 l
178.662 198.728316 l
179.232 198.65304 l
179.8026 197.699184 l
180.3732 196.28406 l
180.9438 195.75756 l
181.5144 194.666328 l
182.085 194.092632 l
182.6556 193.050648 l
183.2262 191.54826 l
183.7968 189.857304 l
184.3674 189.37584 l
184.938 188.389476 l
185.5086 186.907392 l
186.0786 184.248972 l
186.6492 183.46878 l
187.2198 182.014128 l
187.7904 180.823212 l
188.361 179.446536 l
188.9316 177.95052 l
189.5022 176.48334 l
190.0728 174.564828 l
190.6434 173.05488 l
191.214 171.708984 l
191.7846 169.558704 l
192.3552 167.599152 l
192.9252 167.266944 l
193.4958 164.6514 l
194.0664 163.125468 l
194.637 161.448012 l
195.2076 159.502824 l
195.7782 158.418612 l
196.3488 156.704868 l
196.9194 154.938636 l
197.49 153.805068 l
198.0606 151.663536 l
198.6312 149.459796 l
199.2018 147.285864 l
199.7718 145.472112 l
200.3424 144.479808 l
200.913 141.829164 l
201.4836 139.653072 l
202.0542 137.168208 l
202.6248 135.445824 l
203.1954 133.597944 l
203.766 131.23566 l
204.3366 129.121668 l
204.9072 127.489464 l
205.4778 125.269308 l
206.0484 123.07464 l
206.6184 120.744 l
207.189 118.472652 l
207.7596 116.288028 l
208.3302 114.543612 l
208.9008 111.676752 l
209.4714 109.589112 l
210.042 107.773092 l
210.6126 106.32816 l
211.1832 103.997196 l
211.752 101.643984 l
212.322 100.183716 l
212.892 98.131608 l
213.468 95.698368 l
214.038 94.05558 l
214.608 91.450296 l
215.178 89.861832 l
215.748 87.620292 l
216.318 85.712796 l
216.888 83.46132 l
217.458 81.073872 l
218.028 79.04034 l
218.598 76.81662 l
219.168 74.872296 l
219.744 72.81522 l
220.314 70.363512 l
220.884 68.418216 l
221.454 65.920068 l
222.024 64.210752 l
222.594 62.075916 l
223.164 60.486696 l
223.734 58.803732 l
224.304 56.971512 l
224.874 55.51308 l
225.444 53.917056 l
226.02 52.591032 l
226.59 51.089832 l
227.16 50.302512 l
227.73 49.01364 l
228.3 48.033864 l
228.87 47.300868 l
229.44 46.628093 l
230.01 45.959303 l
230.58 45.562154 l
231.15 45.128729 l
231.72 44.606128 l
232.296 44.378032 l
232.866 44.052066 l
233.436 44.085449 l
234.006 43.722191 l
234.576 43.956896 l
235.146 43.881448 l
235.716 43.777487 l
236.286 43.680535 l
236.856 43.731025 l
237.426 43.719102 l
237.996 43.63051 l
238.572 43.48961 l
239.142 43.64901 l
239.712 43.484823 l
240.282 43.464044 l
240.852 43.406247 l
241.422 43.446661 l
241.992 43.511257 l
242.562 43.368732 l
243.132 43.293396 l
243.702 43.320936 l
244.272 43.320991 l
244.848 43.263452 l
245.418 43.236047 l
245.988 43.205293 l
246.558 43.235544 l
247.128 43.2 l
247.698 43.2 l
248.268 43.2 l
248.838 43.2 l
249.408 43.2 l
249.978 43.2 l
250.554 43.2 l
251.124 43.2 l
251.694 43.2 l
252.264 43.2 l
252.834 43.2 l
253.404 43.2 l
253.974 43.2 l
254.544 43.2 l
255.114 43.2 l
255.684 43.2 l
256.254 43.2 l
256.83 43.2 l
257.4 43.2 l
257.97 43.2 l
258.54 43.2 l
259.11 43.2 l
259.68 43.2 l
260.25 43.2 l
260.82 43.2 l
261.39 43.2 l
261.96 43.2 l
262.53 43.2 l
263.106 43.2 l
263.676 43.2 l
264.246 43.2 l
264.816 43.2 l
265.386 43.2 l
265.956 43.2 l
266.526 43.2 l
267.096 43.2 l
267.666 43.2 l
268.236 43.2 l
268.806 43.2 l
269.382 43.2 l
269.952 43.2 l
270.522 43.2 l
271.092 43.2 l
271.662 43.2 l
272.232 43.2 l
272.802 43.2 l
273.372 43.2 l
273.942 43.2 l
274.512 43.2 l
275.082 43.2 l
275.658 43.2 l
276.228 43.2 l
276.798 43.2 l
277.368 43.2 l
277.938 43.2 l
278.508 43.2 l
279.078 43.2 l
279.648 43.2 l
280.218 43.2 l
280.788 43.2 l
281.358 43.2 l
281.934 43.2 l
282.504 43.2 l
283.074 43.2 l
283.644 43.2 l
284.214 43.2 l
284.784 43.2 l
285.354 43.2 l
285.924 43.2 l
286.494 43.2 l
287.064 43.2 l
287.634 43.2 l
288.21 43.2 l
288.78 43.2 l
289.35 43.2 l
289.92 43.2 l
290.49 43.2 l
291.06 43.2 l
291.63 43.2 l
292.2 43.2 l
292.77 43.2 l
293.34 43.2 l
293.91 43.2 l
294.486 43.2 l
295.056 43.2 l
295.626 43.2 l
296.196 43.2 l
296.766 43.2 l
297.336 43.2 l
297.906 43.2 l
298.476 43.2 l
299.046 43.2 l
299.616 43.2 l
300.186 43.2 l
300.762 43.2 l
301.332 43.2 l
301.902 43.2 l
302.472 43.2 l
303.042 43.2 l
303.612 43.2 l
304.182 43.2 l
304.752 43.2 l
305.322 43.2 l
305.892 43.2 l
306.462 43.2 l
307.038 43.2 l
307.608 43.2 l
308.178 43.2 l
308.748 43.2 l
309.318 43.2 l
309.888 43.2 l
310.458 43.2 l
311.028 43.2 l
311.598 43.2 l
312.168 43.2 l
312.738 43.2 l
313.314 43.2 l
313.884 43.2 l
314.454 43.2 l
315.024 43.2 l
315.594 43.2 l
316.164 43.2 l
316.734 43.2 l
317.304 43.2 l
317.874 43.2 l
318.444 43.2 l
319.02 43.2 l
319.59 43.2 l
320.16 43.2 l
320.73 43.2 l
321.3 43.2 l
321.87 43.2 l
322.44 43.2 l
323.01 43.2 l
323.58 43.2 l
324.15 43.2 l
324.72 43.2 l
325.296 43.2 l
325.866 43.2 l
326.436 43.2 l
327.006 43.2 l
327.576 43.2 l
328.146 43.2 l
328.716 43.2 l
329.286 43.2 l
329.856 43.2 l
330.426 43.2 l
330.996 43.2 l
331.572 43.2 l
332.142 43.2 l
332.712 43.2 l
333.282 43.2 l
333.852 43.2 l
334.422 43.2 l
334.992 43.2 l
335.562 43.2 l
336.132 43.2 l
336.702 43.2 l
337.272 43.2 l
337.848 43.2 l
338.418 43.2 l
338.988 43.2 l
339.558 43.2 l
340.128 43.2 l
340.698 43.2 l
341.268 43.2 l
341.838 43.2 l
342.408 43.2 l
342.978 43.2 l
cl
1.000 0.000 0.000 setrgbcolor
fill
grestore
0.800 setlinewidth
1 setlinejoin
2 setlinecap
[] 0 setdash
0.690 setgray
gsave
216 216 43.2 43.2 clipbox
91.2 43.2 m
91.2 259.2 l
stroke
grestore
1.000 setlinewidth
0 setlinecap
0.000 setgray
gsave
/o {
gsave
newpath
translate
1.0 setlinewidth
1 setlinejoin
0 setlinecap
0 0 m
0 5 l

gsave
0.000 setgray
fill
grestore
stroke
grestore
} bind def
91.2 43.2 o
grestore
gsave
/o {
gsave
newpath
translate
1.0 setlinewidth
1 setlinejoin
0 setlinecap
0 0 m
0 -5 l

gsave
0.000 setgray
fill
grestore
stroke
grestore
} bind def
91.2 259.2 o
grestore
/DejaVuSerif findfont
10.000 scalefont
setfont
gsave
80.653125 32.106250 translate
0.000000 rotate
0.000000 0.000000 m /minus glyphshow
8.378906 0.000000 m /one glyphshow
14.741211 0.000000 m /zero glyphshow
grestore
0.800 setlinewidth
2 setlinecap
0.690 setgray
gsave
216 216 43.2 43.2 clipbox
151.2 43.2 m
151.2 259.2 l
stroke
grestore
1.000 setlinewidth
0 setlinecap
0.000 setgray
gsave
/o {
gsave
newpath
translate
1.0 setlinewidth
1 setlinejoin
0 setlinecap
0 0 m
0 5 l

gsave
0.000 setgray
fill
grestore
stroke
grestore
} bind def
151.2 43.2 o
grestore
gsave
/o {
gsave
newpath
translate
1.0 setlinewidth
1 setlinejoin
0 setlinecap
0 0 m
0 -5 l

gsave
0.000 setgray
fill
grestore
stroke
grestore
} bind def
151.2 259.2 o
grestore
gsave
148.020312 32.106250 translate
0.000000 rotate
0.000000 0.000000 m /zero glyphshow
grestore
0.800 setlinewidth
2 setlinecap
0.690 setgray
gsave
216 216 43.2 43.2 clipbox
211.2 43.2 m
211.2 259.2 l
stroke
grestore
1.000 setlinewidth
0 setlinecap
0.000 setgray
gsave
/o {
gsave
newpath
translate
1.0 setlinewidth
1 setlinejoin
0 setlinecap
0 0 m
0 5 l

gsave
0.000 setgray
fill
grestore
stroke
grestore
} bind def
211.2 43.2 o
grestore
gsave
/o {
gsave
newpath
translate
1.0 setlinewidth
1 setlinejoin
0 setlinecap
0 0 m
0 -5 l

gsave
0.000 setgray
fill
grestore
stroke
grestore
} bind def
211.2 259.2 o
grestore
gsave
204.840625 32.106250 translate
0.000000 rotate
0.000000 0.000000 m /one glyphshow
6.362305 0.000000 m /zero glyphshow
grestore
0.700 setlinewidth
gsave
/o {
gsave
newpath
translate
0.7 setlinewidth
1 setlinejoin
0 setlinecap
0 0 m
0 3 l

gsave
0.000 setgray
fill
grestore
stroke
grestore
} bind def
55.2 43.2 o
grestore
gsave
/o {
gsave
newpath
translate
0.7 setlinewidth
1 setlinejoin
0 setlinecap
0 0 m
0 -3 l

gsave
0.000 setgray
fill
grestore
stroke
grestore
} bind def
55.2 259.2 o
grestore
gsave
/o {
gsave
newpath
translate
0.7 setlinewidth
1 setlinejoin
0 setlinecap
0 0 m
0 3 l

gsave
0.000 setgray
fill
grestore
stroke
grestore
} bind def
67.2 43.2 o
grestore
gsave
/o {
gsave
newpath
translate
0.7 setlinewidth
1 setlinejoin
0 setlinecap
0 0 m
0 -3 l

gsave
0.000 setgray
fill
grestore
stroke
grestore
} bind def
67.2 259.2 o
grestore
gsave
/o {
gsave
newpath
translate
0.7 setlinewidth
1 setlinejoin
0 setlinecap
0 0 m
0 3 l

gsave
0.000 setgray
fill
grestore
stroke
grestore
} bind def
79.2 43.2 o
grestore
gsave
/o {
gsave
newpath
translate
0.7 setlinewidth
1 setlinejoin
0 setlinecap
0 0 m
0 -3 l

gsave
0.000 setgray
fill
grestore
stroke
grestore
} bind def
79.2 259.2 o
grestore
gsave
/o {
gsave
newpath
translate
0.7 setlinewidth
1 setlinejoin
0 setlinecap
0 0 m
0 3 l

gsave
0.000 setgray
fill
grestore
stroke
grestore
} bind def
103.2 43.2 o
grestore
gsave
/o {
gsave
newpath
translate
0.7 setlinewidth
1 setlinejoin
0 setlinecap
0 0 m
0 -3 l

gsave
0.000 setgray
fill
grestore
stroke
grestore
} bind def
103.2 259.2 o
grestore
gsave
/o {
gsave
newpath
translate
0.7 setlinewidth
1 setlinejoin
0 setlinecap
0 0 m
0 3 l

gsave
0.000 setgray
fill
grestore
stroke
grestore
} bind def
115.2 43.2 o
grestore
gsave
/o {
gsave
newpath
translate
0.7 setlinewidth
1 setlinejoin
0 setlinecap
0 0 m
0 -3 l

gsave
0.000 setgray
fill
grestore
stroke
grestore
} bind def
115.2 259.2 o
grestore
gsave
/o {
gsave
newpath
translate
0.7 setlinewidth
1 setlinejoin
0 setlinecap
0 0 m
0 3 l

gsave
0.000 setgray
fill
grestore
stroke
grestore
} bind def
127.2 43.2 o
grestore
gsave
/o {
gsave
newpath
translate
0.7 setlinewidth
1 setlinejoin
0 setlinecap
0 0 m
0 -3 l

gsave
0.000 setgray
fill
grestore
stroke
grestore
} bind def
127.2 259.2 o
grestore
gsave
/o {
gsave
newpath
translate
0.7 setlinewidth
1 setlinejoin
0 setlinecap
0 0 m
0 3 l

gsave
0.000 setgray
fill
grestore
stroke
grestore
} bind def
139.2 43.2 o
grestore
gsave
/o {
gsave
newpath
translate
0.7 setlinewidth
1 setlinejoin
0 setlinecap
0 0 m
0 -3 l

gsave
0.000 setgray
fill
grestore
stroke
grestore
} bind def
139.2 259.2 o
grestore
gsave
/o {
gsave
newpath
translate
0.7 setlinewidth
1 setlinejoin
0 setlinecap
0 0 m
0 3 l

gsave
0.000 setgray
fill
grestore
stroke
grestore
} bind def
163.2 43.2 o
grestore
gsave
/o {
gsave
newpath
translate
0.7 setlinewidth
1 setlinejoin
0 setlinecap
0 0 m
0 -3 l

gsave
0.000 setgray
fill
grestore
stroke
grestore
} bind def
163.2 259.2 o
grestore
gsave
/o {
gsave
newpath
translate
0.7 setlinewidth
1 setlinejoin
0 setlinecap
0 0 m
0 3 l

gsave
0.000 setgray
fill
grestore
stroke
grestore
} bind def
175.2 43.2 o
grestore
gsave
/o {
gsave
newpath
translate
0.7 setlinewidth
1 setlinejoin
0 setlinecap
0 0 m
0 -3 l

gsave
0.000 setgray
fill
grestore
stroke
grestore
} bind def
175.2 259.2 o
grestore
gsave
/o {
gsave
newpath
translate
0.7 setlinewidth
1 setlinejoin
0 setlinecap
0 0 m
0 3 l

gsave
0.000 setgray
fill
grestore
stroke
grestore
} bind def
187.2 43.2 o
grestore
gsave
/o {
gsave
newpath
translate
0.7 setlinewidth
1 setlinejoin
0 setlinecap
0 0 m
0 -3 l

gsave
0.000 setgray
fill
grestore
stroke
grestore
} bind def
187.2 259.2 o
grestore
gsave
/o {
gsave
newpath
translate
0.7 setlinewidth
1 setlinejoin
0 setlinecap
0 0 m
0 3 l

gsave
0.000 setgray
fill
grestore
stroke
grestore
} bind def
199.2 43.2 o
grestore
gsave
/o {
gsave
newpath
translate
0.7 setlinewidth
1 setlinejoin
0 setlinecap
0 0 m
0 -3 l

gsave
0.000 setgray
fill
grestore
stroke
grestore
} bind def
199.2 259.2 o
grestore
gsave
/o {
gsave
newpath
translate
0.7 setlinewidth
1 setlinejoin
0 setlinecap
0 0 m
0 3 l

gsave
0.000 setgray
fill
grestore
stroke
grestore
} bind def
223.2 43.2 o
grestore
gsave
/o {
gsave
newpath
translate
0.7 setlinewidth
1 setlinejoin
0 setlinecap
0 0 m
0 -3 l

gsave
0.000 setgray
fill
grestore
stroke
grestore
} bind def
223.2 259.2 o
grestore
gsave
/o {
gsave
newpath
translate
0.7 setlinewidth
1 setlinejoin
0 setlinecap
0 0 m
0 3 l

gsave
0.000 setgray
fill
grestore
stroke
grestore
} bind def
235.2 43.2 o
grestore
gsave
/o {
gsave
newpath
translate
0.7 setlinewidth
1 setlinejoin
0 setlinecap
0 0 m
0 -3 l

gsave
0.000 setgray
fill
grestore
stroke
grestore
} bind def
235.2 259.2 o
grestore
gsave
/o {
gsave
newpath
translate
0.7 setlinewidth
1 setlinejoin
0 setlinecap
0 0 m
0 3 l

gsave
0.000 setgray
fill
grestore
stroke
grestore
} bind def
247.2 43.2 o
grestore
gsave
/o {
gsave
newpath
translate
0.7 setlinewidth
1 setlinejoin
0 setlinecap
0 0 m
0 -3 l

gsave
0.000 setgray
fill
grestore
stroke
grestore
} bind def
247.2 259.2 o
grestore
gsave
/o {
gsave
newpath
translate
0.7 setlinewidth
1 setlinejoin
0 setlinecap
0 0 m
0 3 l

gsave
0.000 setgray
fill
grestore
stroke
grestore
} bind def
259.2 43.2 o
grestore
gsave
/o {
gsave
newpath
translate
0.7 setlinewidth
1 setlinejoin
0 setlinecap
0 0 m
0 -3 l

gsave
0.000 setgray
fill
grestore
stroke
grestore
} bind def
259.2 259.2 o
grestore
gsave
132.200000 19.028125 translate
0.000000 rotate
/DejaVuSans-Oblique findfont
14.0 scalefont
setfont
0.000000 0.359375 moveto
/t glyphshow

/DejaVuSerif findfont
14.0 scalefont
setfont
5.489258 0.359375 moveto
/space glyphshow

9.939453 0.359375 moveto
/parenleft glyphshow

15.401367 0.359375 moveto
/p glyphshow

24.363281 0.359375 moveto
/s glyphshow

31.547852 0.359375 moveto
/parenright glyphshow


grestore
0.800 setlinewidth
2 setlinecap
0.690 setgray
gsave
216 216 43.2 43.2 clipbox
43.2 43.2 m
259.2 43.2 l
stroke
grestore
1.000 setlinewidth
0 setlinecap
0.000 setgray
gsave
/o {
gsave
newpath
translate
1.0 setlinewidth
1 setlinejoin
0 setlinecap
0 0 m
5 0 l

gsave
0.000 setgray
fill
grestore
stroke
grestore
} bind def
43.2 43.2 o
grestore
gsave
/o {
gsave
newpath
translate
1.0 setlinewidth
1 setlinejoin
0 setlinecap
0 0 m
-5 0 l

gsave
0.000 setgray
fill
grestore
stroke
grestore
} bind def
259.2 43.2 o
grestore
gsave
33.340625 39.403125 translate
0.000000 rotate
0.000000 0.000000 m /zero glyphshow
grestore
0.800 setlinewidth
2 setlinecap
0.690 setgray
gsave
216 216 43.2 43.2 clipbox
43.2 70.2 m
259.2 70.2 l
stroke
grestore
1.000 setlinewidth
0 setlinecap
0.000 setgray
gsave
/o {
gsave
newpath
translate
1.0 setlinewidth
1 setlinejoin
0 setlinecap
0 0 m
5 0 l

gsave
0.000 setgray
fill
grestore
stroke
grestore
} bind def
43.2 70.2 o
grestore
gsave
/o {
gsave
newpath
translate
1.0 setlinewidth
1 setlinejoin
0 setlinecap
0 0 m
-5 0 l

gsave
0.000 setgray
fill
grestore
stroke
grestore
} bind def
259.2 70.2 o
grestore
gsave
26.981250 66.403125 translate
0.000000 rotate
0.000000 0.000000 m /two glyphshow
6.362305 0.000000 m /five glyphshow
grestore
0.800 setlinewidth
2 setlinecap
0.690 setgray
gsave
216 216 43.2 43.2 clipbox
43.2 97.2 m
259.2 97.2 l
stroke
grestore
1.000 setlinewidth
0 setlinecap
0.000 setgray
gsave
/o {
gsave
newpath
translate
1.0 setlinewidth
1 setlinejoin
0 setlinecap
0 0 m
5 0 l

gsave
0.000 setgray
fill
grestore
stroke
grestore
} bind def
43.2 97.2 o
grestore
gsave
/o {
gsave
newpath
translate
1.0 setlinewidth
1 setlinejoin
0 setlinecap
0 0 m
-5 0 l

gsave
0.000 setgray
fill
grestore
stroke
grestore
} bind def
259.2 97.2 o
grestore
gsave
26.981250 93.403125 translate
0.000000 rotate
0.000000 0.000000 m /five glyphshow
6.362305 0.000000 m /zero glyphshow
grestore
0.800 setlinewidth
2 setlinecap
0.690 setgray
gsave
216 216 43.2 43.2 clipbox
43.2 124.2 m
259.2 124.2 l
stroke
grestore
1.000 setlinewidth
0 setlinecap
0.000 setgray
gsave
/o {
gsave
newpath
translate
1.0 setlinewidth
1 setlinejoin
0 setlinecap
0 0 m
5 0 l

gsave
0.000 setgray
fill
grestore
stroke
grestore
} bind def
43.2 124.2 o
grestore
gsave
/o {
gsave
newpath
translate
1.0 setlinewidth
1 setlinejoin
0 setlinecap
0 0 m
-5 0 l

gsave
0.000 setgray
fill
grestore
stroke
grestore
} bind def
259.2 124.2 o
grestore
gsave
26.981250 120.403125 translate
0.000000 rotate
0.000000 0.000000 m /seven glyphshow
6.362305 0.000000 m /five glyphshow
grestore
0.800 setlinewidth
2 setlinecap
0.690 setgray
gsave
216 216 43.2 43.2 clipbox
43.2 151.2 m
259.2 151.2 l
stroke
grestore
1.000 setlinewidth
0 setlinecap
0.000 setgray
gsave
/o {
gsave
newpath
translate
1.0 setlinewidth
1 setlinejoin
0 setlinecap
0 0 m
5 0 l

gsave
0.000 setgray
fill
grestore
stroke
grestore
} bind def
43.2 151.2 o
grestore
gsave
/o {
gsave
newpath
translate
1.0 setlinewidth
1 setlinejoin
0 setlinecap
0 0 m
-5 0 l

gsave
0.000 setgray
fill
grestore
stroke
grestore
} bind def
259.2 151.2 o
grestore
gsave
20.621875 147.403125 translate
0.000000 rotate
0.000000 0.000000 m /one glyphshow
6.362305 0.000000 m /zero glyphshow
12.724609 0.000000 m /zero glyphshow
grestore
0.800 setlinewidth
2 setlinecap
0.690 setgray
gsave
216 216 43.2 43.2 clipbox
43.2 178.2 m
259.2 178.2 l
stroke
grestore
1.000 setlinewidth
0 setlinecap
0.000 setgray
gsave
/o {
gsave
newpath
translate
1.0 setlinewidth
1 setlinejoin
0 setlinecap
0 0 m
5 0 l

gsave
0.000 setgray
fill
grestore
stroke
grestore
} bind def
43.2 178.2 o
grestore
gsave
/o {
gsave
newpath
translate
1.0 setlinewidth
1 setlinejoin
0 setlinecap
0 0 m
-5 0 l

gsave
0.000 setgray
fill
grestore
stroke
grestore
} bind def
259.2 178.2 o
grestore
gsave
20.621875 174.403125 translate
0.000000 rotate
0.000000 0.000000 m /one glyphshow
6.362305 0.000000 m /two glyphshow
12.724609 0.000000 m /five glyphshow
grestore
0.800 setlinewidth
2 setlinecap
0.690 setgray
gsave
216 216 43.2 43.2 clipbox
43.2 205.2 m
259.2 205.2 l
stroke
grestore
1.000 setlinewidth
0 setlinecap
0.000 setgray
gsave
/o {
gsave
newpath
translate
1.0 setlinewidth
1 setlinejoin
0 setlinecap
0 0 m
5 0 l

gsave
0.000 setgray
fill
grestore
stroke
grestore
} bind def
43.2 205.2 o
grestore
gsave
/o {
gsave
newpath
translate
1.0 setlinewidth
1 setlinejoin
0 setlinecap
0 0 m
-5 0 l

gsave
0.000 setgray
fill
grestore
stroke
grestore
} bind def
259.2 205.2 o
grestore
gsave
20.621875 201.403125 translate
0.000000 rotate
0.000000 0.000000 m /one glyphshow
6.362305 0.000000 m /five glyphshow
12.724609 0.000000 m /zero glyphshow
grestore
0.800 setlinewidth
2 setlinecap
0.690 setgray
gsave
216 216 43.2 43.2 clipbox
43.2 232.2 m
259.2 232.2 l
stroke
grestore
1.000 setlinewidth
0 setlinecap
0.000 setgray
gsave
/o {
gsave
newpath
translate
1.0 setlinewidth
1 setlinejoin
0 setlinecap
0 0 m
5 0 l

gsave
0.000 setgray
fill
grestore
stroke
grestore
} bind def
43.2 232.2 o
grestore
gsave
/o {
gsave
newpath
translate
1.0 setlinewidth
1 setlinejoin
0 setlinecap
0 0 m
-5 0 l

gsave
0.000 setgray
fill
grestore
stroke
grestore
} bind def
259.2 232.2 o
grestore
gsave
20.621875 228.403125 translate
0.000000 rotate
0.000000 0.000000 m /one glyphshow
6.362305 0.000000 m /seven glyphshow
12.724609 0.000000 m /five glyphshow
grestore
0.800 setlinewidth
2 setlinecap
0.690 setgray
gsave
216 216 43.2 43.2 clipbox
43.2 259.2 m
259.2 259.2 l
stroke
grestore
1.000 setlinewidth
0 setlinecap
0.000 setgray
gsave
/o {
gsave
newpath
translate
1.0 setlinewidth
1 setlinejoin
0 setlinecap
0 0 m
5 0 l

gsave
0.000 setgray
fill
grestore
stroke
grestore
} bind def
43.2 259.2 o
grestore
gsave
/o {
gsave
newpath
translate
1.0 setlinewidth
1 setlinejoin
0 setlinecap
0 0 m
-5 0 l

gsave
0.000 setgray
fill
grestore
stroke
grestore
} bind def
259.2 259.2 o
grestore
gsave
20.621875 255.403125 translate
0.000000 rotate
0.000000 0.000000 m /two glyphshow
6.362305 0.000000 m /zero glyphshow
12.724609 0.000000 m /zero glyphshow
grestore
0.700 setlinewidth
gsave
/o {
gsave
newpath
translate
0.7 setlinewidth
1 setlinejoin
0 setlinecap
0 0 m
3 0 l

gsave
0.000 setgray
fill
grestore
stroke
grestore
} bind def
43.2 49.95 o
grestore
gsave
/o {
gsave
newpath
translate
0.7 setlinewidth
1 setlinejoin
0 setlinecap
0 0 m
-3 0 l

gsave
0.000 setgray
fill
grestore
stroke
grestore
} bind def
259.2 49.95 o
grestore
gsave
/o {
gsave
newpath
translate
0.7 setlinewidth
1 setlinejoin
0 setlinecap
0 0 m
3 0 l

gsave
0.000 setgray
fill
grestore
stroke
grestore
} bind def
43.2 56.7 o
grestore
gsave
/o {
gsave
newpath
translate
0.7 setlinewidth
1 setlinejoin
0 setlinecap
0 0 m
-3 0 l

gsave
0.000 setgray
fill
grestore
stroke
grestore
} bind def
259.2 56.7 o
grestore
gsave
/o {
gsave
newpath
translate
0.7 setlinewidth
1 setlinejoin
0 setlinecap
0 0 m
3 0 l

gsave
0.000 setgray
fill
grestore
stroke
grestore
} bind def
43.2 63.45 o
grestore
gsave
/o {
gsave
newpath
translate
0.7 setlinewidth
1 setlinejoin
0 setlinecap
0 0 m
-3 0 l

gsave
0.000 setgray
fill
grestore
stroke
grestore
} bind def
259.2 63.45 o
grestore
gsave
/o {
gsave
newpath
translate
0.7 setlinewidth
1 setlinejoin
0 setlinecap
0 0 m
3 0 l

gsave
0.000 setgray
fill
grestore
stroke
grestore
} bind def
43.2 76.95 o
grestore
gsave
/o {
gsave
newpath
translate
0.7 setlinewidth
1 setlinejoin
0 setlinecap
0 0 m
-3 0 l

gsave
0.000 setgray
fill
grestore
stroke
grestore
} bind def
259.2 76.95 o
grestore
gsave
/o {
gsave
newpath
translate
0.7 setlinewidth
1 setlinejoin
0 setlinecap
0 0 m
3 0 l

gsave
0.000 setgray
fill
grestore
stroke
grestore
} bind def
43.2 83.7 o
grestore
gsave
/o {
gsave
newpath
translate
0.7 setlinewidth
1 setlinejoin
0 setlinecap
0 0 m
-3 0 l

gsave
0.000 setgray
fill
grestore
stroke
grestore
} bind def
259.2 83.7 o
grestore
gsave
/o {
gsave
newpath
translate
0.7 setlinewidth
1 setlinejoin
0 setlinecap
0 0 m
3 0 l

gsave
0.000 setgray
fill
grestore
stroke
grestore
} bind def
43.2 90.45 o
grestore
gsave
/o {
gsave
newpath
translate
0.7 setlinewidth
1 setlinejoin
0 setlinecap
0 0 m
-3 0 l

gsave
0.000 setgray
fill
grestore
stroke
grestore
} bind def
259.2 90.45 o
grestore
gsave
/o {
gsave
newpath
translate
0.7 setlinewidth
1 setlinejoin
0 setlinecap
0 0 m
3 0 l

gsave
0.000 setgray
fill
grestore
stroke
grestore
} bind def
43.2 103.95 o
grestore
gsave
/o {
gsave
newpath
translate
0.7 setlinewidth
1 setlinejoin
0 setlinecap
0 0 m
-3 0 l

gsave
0.000 setgray
fill
grestore
stroke
grestore
} bind def
259.2 103.95 o
grestore
gsave
/o {
gsave
newpath
translate
0.7 setlinewidth
1 setlinejoin
0 setlinecap
0 0 m
3 0 l

gsave
0.000 setgray
fill
grestore
stroke
grestore
} bind def
43.2 110.7 o
grestore
gsave
/o {
gsave
newpath
translate
0.7 setlinewidth
1 setlinejoin
0 setlinecap
0 0 m
-3 0 l

gsave
0.000 setgray
fill
grestore
stroke
grestore
} bind def
259.2 110.7 o
grestore
gsave
/o {
gsave
newpath
translate
0.7 setlinewidth
1 setlinejoin
0 setlinecap
0 0 m
3 0 l

gsave
0.000 setgray
fill
grestore
stroke
grestore
} bind def
43.2 117.45 o
grestore
gsave
/o {
gsave
newpath
translate
0.7 setlinewidth
1 setlinejoin
0 setlinecap
0 0 m
-3 0 l

gsave
0.000 setgray
fill
grestore
stroke
grestore
} bind def
259.2 117.45 o
grestore
gsave
/o {
gsave
newpath
translate
0.7 setlinewidth
1 setlinejoin
0 setlinecap
0 0 m
3 0 l

gsave
0.000 setgray
fill
grestore
stroke
grestore
} bind def
43.2 130.95 o
grestore
gsave
/o {
gsave
newpath
translate
0.7 setlinewidth
1 setlinejoin
0 setlinecap
0 0 m
-3 0 l

gsave
0.000 setgray
fill
grestore
stroke
grestore
} bind def
259.2 130.95 o
grestore
gsave
/o {
gsave
newpath
translate
0.7 setlinewidth
1 setlinejoin
0 setlinecap
0 0 m
3 0 l

gsave
0.000 setgray
fill
grestore
stroke
grestore
} bind def
43.2 137.7 o
grestore
gsave
/o {
gsave
newpath
translate
0.7 setlinewidth
1 setlinejoin
0 setlinecap
0 0 m
-3 0 l

gsave
0.000 setgray
fill
grestore
stroke
grestore
} bind def
259.2 137.7 o
grestore
gsave
/o {
gsave
newpath
translate
0.7 setlinewidth
1 setlinejoin
0 setlinecap
0 0 m
3 0 l

gsave
0.000 setgray
fill
grestore
stroke
grestore
} bind def
43.2 144.45 o
grestore
gsave
/o {
gsave
newpath
translate
0.7 setlinewidth
1 setlinejoin
0 setlinecap
0 0 m
-3 0 l

gsave
0.000 setgray
fill
grestore
stroke
grestore
} bind def
259.2 144.45 o
grestore
gsave
/o {
gsave
newpath
translate
0.7 setlinewidth
1 setlinejoin
0 setlinecap
0 0 m
3 0 l

gsave
0.000 setgray
fill
grestore
stroke
grestore
} bind def
43.2 157.95 o
grestore
gsave
/o {
gsave
newpath
translate
0.7 setlinewidth
1 setlinejoin
0 setlinecap
0 0 m
-3 0 l

gsave
0.000 setgray
fill
grestore
stroke
grestore
} bind def
259.2 157.95 o
grestore
gsave
/o {
gsave
newpath
translate
0.7 setlinewidth
1 setlinejoin
0 setlinecap
0 0 m
3 0 l

gsave
0.000 setgray
fill
grestore
stroke
grestore
} bind def
43.2 164.7 o
grestore
gsave
/o {
gsave
newpath
translate
0.7 setlinewidth
1 setlinejoin
0 setlinecap
0 0 m
-3 0 l

gsave
0.000 setgray
fill
grestore
stroke
grestore
} bind def
259.2 164.7 o
grestore
gsave
/o {
gsave
newpath
translate
0.7 setlinewidth
1 setlinejoin
0 setlinecap
0 0 m
3 0 l

gsave
0.000 setgray
fill
grestore
stroke
grestore
} bind def
43.2 171.45 o
grestore
gsave
/o {
gsave
newpath
translate
0.7 setlinewidth
1 setlinejoin
0 setlinecap
0 0 m
-3 0 l

gsave
0.000 setgray
fill
grestore
stroke
grestore
} bind def
259.2 171.45 o
grestore
gsave
/o {
gsave
newpath
translate
0.7 setlinewidth
1 setlinejoin
0 setlinecap
0 0 m
3 0 l

gsave
0.000 setgray
fill
grestore
stroke
grestore
} bind def
43.2 184.95 o
grestore
gsave
/o {
gsave
newpath
translate
0.7 setlinewidth
1 setlinejoin
0 setlinecap
0 0 m
-3 0 l

gsave
0.000 setgray
fill
grestore
stroke
grestore
} bind def
259.2 184.95 o
grestore
gsave
/o {
gsave
newpath
translate
0.7 setlinewidth
1 setlinejoin
0 setlinecap
0 0 m
3 0 l

gsave
0.000 setgray
fill
grestore
stroke
grestore
} bind def
43.2 191.7 o
grestore
gsave
/o {
gsave
newpath
translate
0.7 setlinewidth
1 setlinejoin
0 setlinecap
0 0 m
-3 0 l

gsave
0.000 setgray
fill
grestore
stroke
grestore
} bind def
259.2 191.7 o
grestore
gsave
/o {
gsave
newpath
translate
0.7 setlinewidth
1 setlinejoin
0 setlinecap
0 0 m
3 0 l

gsave
0.000 setgray
fill
grestore
stroke
grestore
} bind def
43.2 198.45 o
grestore
gsave
/o {
gsave
newpath
translate
0.7 setlinewidth
1 setlinejoin
0 setlinecap
0 0 m
-3 0 l

gsave
0.000 setgray
fill
grestore
stroke
grestore
} bind def
259.2 198.45 o
grestore
gsave
/o {
gsave
newpath
translate
0.7 setlinewidth
1 setlinejoin
0 setlinecap
0 0 m
3 0 l

gsave
0.000 setgray
fill
grestore
stroke
grestore
} bind def
43.2 211.95 o
grestore
gsave
/o {
gsave
newpath
translate
0.7 setlinewidth
1 setlinejoin
0 setlinecap
0 0 m
-3 0 l

gsave
0.000 setgray
fill
grestore
stroke
grestore
} bind def
259.2 211.95 o
grestore
gsave
/o {
gsave
newpath
translate
0.7 setlinewidth
1 setlinejoin
0 setlinecap
0 0 m
3 0 l

gsave
0.000 setgray
fill
grestore
stroke
grestore
} bind def
43.2 218.7 o
grestore
gsave
/o {
gsave
newpath
translate
0.7 setlinewidth
1 setlinejoin
0 setlinecap
0 0 m
-3 0 l

gsave
0.000 setgray
fill
grestore
stroke
grestore
} bind def
259.2 218.7 o
grestore
gsave
/o {
gsave
newpath
translate
0.7 setlinewidth
1 setlinejoin
0 setlinecap
0 0 m
3 0 l

gsave
0.000 setgray
fill
grestore
stroke
grestore
} bind def
43.2 225.45 o
grestore
gsave
/o {
gsave
newpath
translate
0.7 setlinewidth
1 setlinejoin
0 setlinecap
0 0 m
-3 0 l

gsave
0.000 setgray
fill
grestore
stroke
grestore
} bind def
259.2 225.45 o
grestore
gsave
/o {
gsave
newpath
translate
0.7 setlinewidth
1 setlinejoin
0 setlinecap
0 0 m
3 0 l

gsave
0.000 setgray
fill
grestore
stroke
grestore
} bind def
43.2 238.95 o
grestore
gsave
/o {
gsave
newpath
translate
0.7 setlinewidth
1 setlinejoin
0 setlinecap
0 0 m
-3 0 l

gsave
0.000 setgray
fill
grestore
stroke
grestore
} bind def
259.2 238.95 o
grestore
gsave
/o {
gsave
newpath
translate
0.7 setlinewidth
1 setlinejoin
0 setlinecap
0 0 m
3 0 l

gsave
0.000 setgray
fill
grestore
stroke
grestore
} bind def
43.2 245.7 o
grestore
gsave
/o {
gsave
newpath
translate
0.7 setlinewidth
1 setlinejoin
0 setlinecap
0 0 m
-3 0 l

gsave
0.000 setgray
fill
grestore
stroke
grestore
} bind def
259.2 245.7 o
grestore
gsave
/o {
gsave
newpath
translate
0.7 setlinewidth
1 setlinejoin
0 setlinecap
0 0 m
3 0 l

gsave
0.000 setgray
fill
grestore
stroke
grestore
} bind def
43.2 252.45 o
grestore
gsave
/o {
gsave
newpath
translate
0.7 setlinewidth
1 setlinejoin
0 setlinecap
0 0 m
-3 0 l

gsave
0.000 setgray
fill
grestore
stroke
grestore
} bind def
259.2 252.45 o
grestore
gsave
17.621875 136.200000 translate
90.000000 rotate
/DejaVuSans-Oblique findfont
14.0 scalefont
setfont
0.000000 0.359375 moveto
/I glyphshow

/DejaVuSerif findfont
14.0 scalefont
setfont
4.128906 0.359375 moveto
/space glyphshow

8.579102 0.359375 moveto
/parenleft glyphshow

14.041016 0.359375 moveto
/A glyphshow

24.151367 0.359375 moveto
/parenright glyphshow


grestore
0.800 setlinewidth
0 setlinejoin
2 setlinecap
[] 0 setdash
gsave
43.2 43.2 m
43.2 259.2 l
stroke
grestore
gsave
259.2 43.2 m
259.2 259.2 l
stroke
grestore
gsave
43.2 43.2 m
259.2 43.2 l
stroke
grestore
gsave
43.2 259.2 m
259.2 259.2 l
stroke
grestore

end
showpage
