%!PS-Adobe-3.0 EPSF-3.0
%%Title: beam-size-with-quads@2500pC(a).eps
%%Creator: matplotlib version 2.2.2, http://matplotlib.org/
%%CreationDate: Wed Jul 31 21:57:27 2019
%%Orientation: portrait
%%BoundingBox: 36 306 576 486
%%EndComments
%%BeginProlog
/mpldict 9 dict def
mpldict begin
/m { moveto } bind def
/l { lineto } bind def
/r { rlineto } bind def
/c { curveto } bind def
/cl { closepath } bind def
/box {
m
1 index 0 r
0 exch r
neg 0 r
cl
} bind def
/clipbox {
box
clip
newpath
} bind def
%!PS-Adobe-3.0 Resource-Font
%%Title: DejaVu Serif
%%Copyright: Copyright (c) 2003 by Bitstream, Inc. All Rights Reserved. DejaVu changes are in public domain 
%%Creator: Converted from TrueType to type 3 by PPR
25 dict begin
/_d{bind def}bind def
/_m{moveto}_d
/_l{lineto}_d
/_cl{closepath eofill}_d
/_c{curveto}_d
/_sc{7 -1 roll{setcachedevice}{pop pop pop pop pop pop}ifelse}_d
/_e{exec}_d
/FontName /DejaVuSerif def
/PaintType 0 def
/FontMatrix[.001 0 0 .001 0 0]def
/FontBBox[-770 -347 2105 1109]def
/FontType 3 def
/Encoding [ /space /parenleft /parenright /period /zero /one /two /three /four /five /six /m /o /r ] def
/FontInfo 10 dict dup begin
/FamilyName (DejaVu Serif) def
/FullName (DejaVu Serif) def
/Notice (Copyright (c) 2003 by Bitstream, Inc. All Rights Reserved. DejaVu changes are in public domain ) def
/Weight (Book) def
/Version (Version 2.35) def
/ItalicAngle 0.0 def
/isFixedPitch false def
/UnderlinePosition -130 def
/UnderlineThickness 90 def
end readonly def
/CharStrings 15 dict dup begin
/.notdef 0 def
/space{318 0 0 0 0 0 _sc
}_d
/parenleft{390 0 79 -155 319 760 _sc
319 -155 _m
239 -119 179 -63 139 13 _c
99 89 79 186 79 302 _c
79 418 99 514 139 591 _c
179 668 239 724 319 760 _c
319 712 _l
269 677 233 628 211 566 _c
189 503 178 415 178 302 _c
178 188 189 100 211 38 _c
233 -24 269 -72 319 -107 _c
319 -155 _l
_cl}_d
/parenright{390 0 71 -155 311 760 _sc
71 -155 _m
71 -107 _l
121 -72 157 -24 179 38 _c
201 100 212 188 212 302 _c
212 415 201 503 179 566 _c
157 628 121 677 71 712 _c
71 760 _l
150 724 210 668 250 591 _c
290 514 311 418 311 302 _c
311 186 290 89 250 13 _c
210 -63 150 -119 71 -155 _c
_cl}_d
/period{318 0 94 -13 224 116 _sc
94 51 _m
94 69 100 84 112 97 _c
124 109 140 116 159 116 _c
177 116 192 109 205 97 _c
217 84 224 69 224 51 _c
224 33 217 17 205 5 _c
192 -7 177 -13 159 -13 _c
140 -13 124 -7 112 5 _c
100 17 94 32 94 51 _c
_cl}_d
/zero{636 0 66 -13 570 742 _sc
318 34 _m
368 34 405 61 430 116 _c
454 170 467 253 467 364 _c
467 474 454 557 430 612 _c
405 666 368 694 318 694 _c
268 694 230 666 206 612 _c
181 557 169 474 169 364 _c
169 253 181 170 206 116 _c
230 61 268 34 318 34 _c
318 -13 _m
238 -13 176 20 132 86 _c
88 152 66 244 66 364 _c
66 483 88 576 132 642 _c
176 708 238 742 318 742 _c
397 742 459 708 503 642 _c
547 576 570 483 570 364 _c
570 244 547 152 503 86 _c
459 20 397 -13 318 -13 _c
_cl}_d
/one{636 0 122 0 494 742 _sc
142 0 _m
142 52 _l
269 52 _l
269 658 _l
122 563 _l
122 627 _l
300 742 _l
367 742 _l
367 52 _l
494 52 _l
494 0 _l
142 0 _l
_cl}_d
/two{{636 0 68 0 538 742 _sc
128 555 _m
73 555 _l
73 685 _l
107 703 142 717 178 727 _c
213 737 248 742 282 742 _c
358 742 418 723 462 687 _c
506 650 528 600 528 537 _c
528 465 478 380 378 281 _c
370 273 365 268 361 264 _c
177 80 _l
481 80 _l
481 170 _l
538 170 _l
538 0 _l
68 0 _l
68 53 _l
289 274 _l
337 322 372 367 393 408 _c
414 449 425 492 425 537 _c
}_e{425 586 412 624 386 652 _c
360 680 325 694 281 694 _c
234 694 198 682 173 659 _c
147 636 132 601 128 555 _c
_cl}_e}_d
/three{{636 0 76 -13 562 742 _sc
97 698 _m
135 712 171 723 206 731 _c
241 738 274 742 305 742 _c
376 742 432 726 472 696 _c
512 665 532 622 532 568 _c
532 524 518 487 490 458 _c
462 428 423 408 373 398 _c
433 389 479 367 512 332 _c
545 297 562 252 562 197 _c
562 129 539 77 493 41 _c
447 5 382 -13 296 -13 _c
258 -13 220 -9 184 -1 _c
148 6 112 18 76 35 _c
76 177 _l
}_e{131 177 _l
134 129 150 94 178 70 _c
206 46 246 34 298 34 _c
348 34 387 48 416 77 _c
444 106 459 146 459 196 _c
459 253 444 296 414 326 _c
384 355 341 370 284 370 _c
238 370 _l
238 420 _l
262 420 _l
319 420 362 431 390 455 _c
418 479 433 514 433 562 _c
433 604 421 637 398 660 _c
374 682 341 694 297 694 _c
253 694 218 683 194 662 _c
170 641 156 610 152 570 _c
}_e{97 570 _l
97 698 _l
_cl}_e}_d
/four{636 0 31 0 586 742 _sc
349 247 _m
349 635 _l
100 247 _l
349 247 _l
564 0 _m
232 0 _l
232 52 _l
349 52 _l
349 195 _l
31 195 _l
31 248 _l
350 742 _l
447 742 _l
447 247 _l
586 247 _l
586 195 _l
447 195 _l
447 52 _l
564 52 _l
564 0 _l
_cl}_d
/five{{636 0 85 -13 559 729 _sc
503 729 _m
503 649 _l
169 649 _l
169 440 _l
185 452 205 460 228 466 _c
250 472 276 475 304 475 _c
382 475 444 453 490 409 _c
536 365 559 306 559 231 _c
559 153 536 93 490 51 _c
444 8 379 -13 296 -13 _c
262 -13 228 -9 193 -1 _c
157 6 121 18 85 35 _c
85 177 _l
140 177 _l
143 130 158 94 184 70 _c
210 46 248 34 296 34 _c
}_e{347 34 386 51 414 85 _c
442 119 456 167 456 231 _c
456 294 442 342 415 376 _c
387 410 348 427 296 427 _c
266 427 240 421 218 411 _c
196 401 176 385 159 363 _c
117 363 _l
117 729 _l
503 729 _l
_cl}_e}_d
/six{{636 0 67 -13 573 742 _sc
327 34 _m
373 34 408 50 433 84 _c
457 118 470 166 470 230 _c
470 293 457 341 433 375 _c
408 409 373 426 327 426 _c
280 426 244 409 220 377 _c
196 344 184 297 184 236 _c
184 171 196 121 221 86 _c
245 51 281 34 327 34 _c
168 401 _m
190 425 215 444 243 456 _c
271 468 302 474 338 474 _c
410 474 468 452 510 408 _c
552 364 573 305 573 230 _c
}_e{573 156 550 97 505 53 _c
459 9 399 -13 323 -13 _c
241 -13 177 17 133 78 _c
89 139 67 227 67 341 _c
67 468 93 567 145 637 _c
197 707 271 742 367 742 _c
393 742 420 739 448 735 _c
476 730 505 723 535 713 _c
535 593 _l
480 593 _l
476 625 463 650 442 668 _c
421 685 393 694 357 694 _c
293 694 246 670 215 622 _c
184 574 168 500 168 401 _c
_cl}_e}_d
/m{{948 0 36 0 921 533 _sc
518 418 _m
535 456 557 484 584 504 _c
611 523 642 533 678 533 _c
732 533 773 516 800 482 _c
826 448 840 398 840 330 _c
840 52 _l
921 52 _l
921 0 _l
672 0 _l
672 52 _l
750 52 _l
750 320 _l
750 372 742 410 726 433 _c
710 455 685 467 649 467 _c
609 467 578 451 557 421 _c
536 391 526 347 526 289 _c
526 52 _l
604 52 _l
604 0 _l
358 0 _l
}_e{358 52 _l
436 52 _l
436 323 _l
436 375 428 412 412 434 _c
396 456 371 467 335 467 _c
295 467 264 451 243 421 _c
222 391 212 347 212 289 _c
212 52 _l
290 52 _l
290 0 _l
41 0 _l
41 52 _l
122 52 _l
122 468 _l
36 468 _l
36 519 _l
212 519 _l
212 427 _l
228 461 249 488 275 506 _c
301 524 330 533 363 533 _c
403 533 436 523 463 503 _c
}_e{490 483 508 454 518 418 _c
_cl}_e}_d
/o{602 0 50 -13 552 533 _sc
301 34 _m
349 34 385 53 410 91 _c
434 129 447 185 447 260 _c
447 334 434 390 410 428 _c
385 466 349 485 301 485 _c
253 485 216 466 192 428 _c
167 390 155 334 155 260 _c
155 185 167 129 192 91 _c
216 53 253 34 301 34 _c
301 -13 _m
225 -13 165 11 119 61 _c
73 111 50 177 50 260 _c
50 342 72 408 118 458 _c
164 508 225 533 301 533 _c
377 533 437 508 483 458 _c
529 408 552 342 552 260 _c
552 177 529 111 483 61 _c
437 11 377 -13 301 -13 _c
_cl}_d
/r{478 0 36 0 478 533 _sc
478 520 _m
478 390 _l
426 390 _l
424 416 417 435 405 448 _c
392 460 373 467 349 467 _c
305 467 271 451 247 421 _c
223 390 212 346 212 289 _c
212 52 _l
316 52 _l
316 0 _l
41 0 _l
41 52 _l
122 52 _l
122 468 _l
36 468 _l
36 519 _l
212 519 _l
212 427 _l
229 463 251 489 279 507 _c
307 524 341 533 381 533 _c
395 533 411 531 427 529 _c
443 527 460 524 478 520 _c
_cl}_d
end readonly def

/BuildGlyph
 {exch begin
 CharStrings exch
 2 copy known not{pop /.notdef}if
 true 3 1 roll get exec
 end}_d

/BuildChar {
 1 index /Encoding get exch get
 1 index /BuildGlyph get exec
}_d

FontName currentdict end definefont pop
%!PS-Adobe-3.0 Resource-Font
%%Title: DejaVu Sans Oblique
%%Copyright: Copyright (c) 2003 by Bitstream, Inc. All Rights Reserved. Copyright (c) 2006 by Tavmjong Bah. All Rights Reserved. DejaVu changes are in public domain 
%%Creator: Converted from TrueType to type 3 by PPR
25 dict begin
/_d{bind def}bind def
/_m{moveto}_d
/_l{lineto}_d
/_cl{closepath eofill}_d
/_c{curveto}_d
/_sc{7 -1 roll{setcachedevice}{pop pop pop pop pop pop}ifelse}_d
/_e{exec}_d
/FontName /DejaVuSans-Oblique def
/PaintType 0 def
/FontMatrix[.001 0 0 .001 0 0]def
/FontBBox[-1016 -350 1659 1068]def
/FontType 3 def
/Encoding [ /a /x /y /z /sigma ] def
/FontInfo 10 dict dup begin
/FamilyName (DejaVu Sans) def
/FullName (DejaVu Sans Oblique) def
/Notice (Copyright (c) 2003 by Bitstream, Inc. All Rights Reserved. Copyright (c) 2006 by Tavmjong Bah. All Rights Reserved. DejaVu changes are in public domain ) def
/Weight (Oblique) def
/Version (Version 2.35) def
/ItalicAngle -11.0 def
/isFixedPitch false def
/UnderlinePosition -130 def
/UnderlineThickness 90 def
end readonly def
/CharStrings 6 dict dup begin
/.notdef 0 def
/a{{613 0 41 -13 547 560 _sc
537 312 _m
476 0 _l
386 0 _l
403 83 _l
376 50 346 26 312 10 _c
278 -5 241 -13 200 -13 _c
153 -13 115 1 85 29 _c
55 57 41 93 41 138 _c
41 202 66 252 117 289 _c
168 326 238 345 328 345 _c
453 345 _l
458 369 _l
458 371 459 374 459 377 _c
459 380 460 385 460 392 _c
460 421 448 444 424 460 _c
400 476 367 484 325 484 _c
}_e{295 484 265 480 235 472 _c
204 464 172 453 140 439 _c
156 522 _l
190 534 223 544 255 550 _c
287 556 319 560 349 560 _c
413 560 462 546 496 518 _c
530 490 547 449 547 396 _c
547 385 546 372 544 358 _c
542 343 540 328 537 312 _c
440 275 _m
350 275 _l
276 275 222 265 187 245 _c
151 225 134 195 134 154 _c
134 125 143 102 161 86 _c
179 70 204 62 236 62 _c
}_e{284 62 327 79 363 114 _c
399 149 424 196 436 255 _c
440 275 _l
_cl}_e}_d
/x{592 0 -25 0 600 547 _sc
600 547 _m
349 279 _l
503 0 _l
400 0 _l
284 217 _l
83 0 _l
-25 0 _l
243 288 _l
100 547 _l
203 547 _l
308 349 _l
491 547 _l
600 547 _l
_cl}_d
/y{592 0 -24 -207 603 547 _sc
248 -50 _m
206 -120 172 -163 146 -181 _c
120 -198 86 -207 46 -207 _c
-24 -207 _l
-9 -132 _l
42 -132 _l
67 -132 88 -125 106 -111 _c
123 -97 143 -71 165 -31 _c
193 20 _l
72 547 _l
167 547 _l
258 128 _l
509 547 _l
603 547 _l
248 -50 _l
_cl}_d
/z{525 0 -2 0 543 547 _sc
116 547 _m
543 547 _l
527 465 _l
115 72 _l
455 72 _l
441 0 _l
-2 0 _l
13 82 _l
425 475 _l
102 475 _l
116 547 _l
_cl}_d
/sigma{{634 0 57 -13 659 547 _sc
347 476 _m
297 476 255 458 222 422 _c
186 384 163 335 151 273 _c
138 207 142 156 163 118 _c
183 80 218 62 267 62 _c
314 62 355 81 391 119 _c
426 156 450 207 463 273 _c
474 332 470 382 450 422 _c
431 458 397 476 347 476 _c
361 547 _m
659 547 _l
642 457 _l
541 457 _l
566 406 572 345 559 273 _c
541 183 505 113 451 63 _c
396 12 329 -13 251 -13 _c
}_e{173 -13 116 12 82 63 _c
47 113 39 183 57 273 _c
74 363 110 433 164 484 _c
209 526 275 547 361 547 _c
_cl}_e}_d
end readonly def

/BuildGlyph
 {exch begin
 CharStrings exch
 2 copy known not{pop /.notdef}if
 true 3 1 roll get exec
 end}_d

/BuildChar {
 1 index /Encoding get exch get
 1 index /BuildGlyph get exec
}_d

FontName currentdict end definefont pop
end
%%EndProlog
mpldict begin
36 306 translate
540 180 0 0 clipbox
gsave
0 0 m
540 0 l
540 180 l
0 180 l
cl
1.000 setgray
fill
grestore
gsave
54 27 m
486 27 l
486 162 l
54 162 l
cl
1.000 setgray
fill
grestore
0.800 setlinewidth
1 setlinejoin
2 setlinecap
[] 0 setdash
0.690 setgray
gsave
432 135 54 27 clipbox
54 27 m
54 162 l
stroke
grestore
1.000 setlinewidth
0 setlinecap
0.000 setgray
gsave
/o {
gsave
newpath
translate
1.0 setlinewidth
1 setlinejoin
0 setlinecap
0 0 m
0 5 l

gsave
0.000 setgray
fill
grestore
stroke
grestore
} bind def
54 27 o
grestore
gsave
/o {
gsave
newpath
translate
1.0 setlinewidth
1 setlinejoin
0 setlinecap
0 0 m
0 -5 l

gsave
0.000 setgray
fill
grestore
stroke
grestore
} bind def
54 162 o
grestore
0.800 setlinewidth
2 setlinecap
0.690 setgray
gsave
432 135 54 27 clipbox
121.5 27 m
121.5 162 l
stroke
grestore
1.000 setlinewidth
0 setlinecap
0.000 setgray
gsave
/o {
gsave
newpath
translate
1.0 setlinewidth
1 setlinejoin
0 setlinecap
0 0 m
0 5 l

gsave
0.000 setgray
fill
grestore
stroke
grestore
} bind def
121.5 27 o
grestore
gsave
/o {
gsave
newpath
translate
1.0 setlinewidth
1 setlinejoin
0 setlinecap
0 0 m
0 -5 l

gsave
0.000 setgray
fill
grestore
stroke
grestore
} bind def
121.5 162 o
grestore
0.800 setlinewidth
2 setlinecap
0.690 setgray
gsave
432 135 54 27 clipbox
189 27 m
189 162 l
stroke
grestore
1.000 setlinewidth
0 setlinecap
0.000 setgray
gsave
/o {
gsave
newpath
translate
1.0 setlinewidth
1 setlinejoin
0 setlinecap
0 0 m
0 5 l

gsave
0.000 setgray
fill
grestore
stroke
grestore
} bind def
189 27 o
grestore
gsave
/o {
gsave
newpath
translate
1.0 setlinewidth
1 setlinejoin
0 setlinecap
0 0 m
0 -5 l

gsave
0.000 setgray
fill
grestore
stroke
grestore
} bind def
189 162 o
grestore
0.800 setlinewidth
2 setlinecap
0.690 setgray
gsave
432 135 54 27 clipbox
256.5 27 m
256.5 162 l
stroke
grestore
1.000 setlinewidth
0 setlinecap
0.000 setgray
gsave
/o {
gsave
newpath
translate
1.0 setlinewidth
1 setlinejoin
0 setlinecap
0 0 m
0 5 l

gsave
0.000 setgray
fill
grestore
stroke
grestore
} bind def
256.5 27 o
grestore
gsave
/o {
gsave
newpath
translate
1.0 setlinewidth
1 setlinejoin
0 setlinecap
0 0 m
0 -5 l

gsave
0.000 setgray
fill
grestore
stroke
grestore
} bind def
256.5 162 o
grestore
0.800 setlinewidth
2 setlinecap
0.690 setgray
gsave
432 135 54 27 clipbox
324 27 m
324 162 l
stroke
grestore
1.000 setlinewidth
0 setlinecap
0.000 setgray
gsave
/o {
gsave
newpath
translate
1.0 setlinewidth
1 setlinejoin
0 setlinecap
0 0 m
0 5 l

gsave
0.000 setgray
fill
grestore
stroke
grestore
} bind def
324 27 o
grestore
gsave
/o {
gsave
newpath
translate
1.0 setlinewidth
1 setlinejoin
0 setlinecap
0 0 m
0 -5 l

gsave
0.000 setgray
fill
grestore
stroke
grestore
} bind def
324 162 o
grestore
0.800 setlinewidth
2 setlinecap
0.690 setgray
gsave
432 135 54 27 clipbox
391.5 27 m
391.5 162 l
stroke
grestore
1.000 setlinewidth
0 setlinecap
0.000 setgray
gsave
/o {
gsave
newpath
translate
1.0 setlinewidth
1 setlinejoin
0 setlinecap
0 0 m
0 5 l

gsave
0.000 setgray
fill
grestore
stroke
grestore
} bind def
391.5 27 o
grestore
gsave
/o {
gsave
newpath
translate
1.0 setlinewidth
1 setlinejoin
0 setlinecap
0 0 m
0 -5 l

gsave
0.000 setgray
fill
grestore
stroke
grestore
} bind def
391.5 162 o
grestore
0.800 setlinewidth
2 setlinecap
0.690 setgray
gsave
432 135 54 27 clipbox
459 27 m
459 162 l
stroke
grestore
1.000 setlinewidth
0 setlinecap
0.000 setgray
gsave
/o {
gsave
newpath
translate
1.0 setlinewidth
1 setlinejoin
0 setlinecap
0 0 m
0 5 l

gsave
0.000 setgray
fill
grestore
stroke
grestore
} bind def
459 27 o
grestore
gsave
/o {
gsave
newpath
translate
1.0 setlinewidth
1 setlinejoin
0 setlinecap
0 0 m
0 -5 l

gsave
0.000 setgray
fill
grestore
stroke
grestore
} bind def
459 162 o
grestore
0.700 setlinewidth
gsave
/o {
gsave
newpath
translate
0.7 setlinewidth
1 setlinejoin
0 setlinecap
0 0 m
0 3 l

gsave
0.000 setgray
fill
grestore
stroke
grestore
} bind def
67.5 27 o
grestore
gsave
/o {
gsave
newpath
translate
0.7 setlinewidth
1 setlinejoin
0 setlinecap
0 0 m
0 -3 l

gsave
0.000 setgray
fill
grestore
stroke
grestore
} bind def
67.5 162 o
grestore
gsave
/o {
gsave
newpath
translate
0.7 setlinewidth
1 setlinejoin
0 setlinecap
0 0 m
0 3 l

gsave
0.000 setgray
fill
grestore
stroke
grestore
} bind def
81 27 o
grestore
gsave
/o {
gsave
newpath
translate
0.7 setlinewidth
1 setlinejoin
0 setlinecap
0 0 m
0 -3 l

gsave
0.000 setgray
fill
grestore
stroke
grestore
} bind def
81 162 o
grestore
gsave
/o {
gsave
newpath
translate
0.7 setlinewidth
1 setlinejoin
0 setlinecap
0 0 m
0 3 l

gsave
0.000 setgray
fill
grestore
stroke
grestore
} bind def
94.5 27 o
grestore
gsave
/o {
gsave
newpath
translate
0.7 setlinewidth
1 setlinejoin
0 setlinecap
0 0 m
0 -3 l

gsave
0.000 setgray
fill
grestore
stroke
grestore
} bind def
94.5 162 o
grestore
gsave
/o {
gsave
newpath
translate
0.7 setlinewidth
1 setlinejoin
0 setlinecap
0 0 m
0 3 l

gsave
0.000 setgray
fill
grestore
stroke
grestore
} bind def
108 27 o
grestore
gsave
/o {
gsave
newpath
translate
0.7 setlinewidth
1 setlinejoin
0 setlinecap
0 0 m
0 -3 l

gsave
0.000 setgray
fill
grestore
stroke
grestore
} bind def
108 162 o
grestore
gsave
/o {
gsave
newpath
translate
0.7 setlinewidth
1 setlinejoin
0 setlinecap
0 0 m
0 3 l

gsave
0.000 setgray
fill
grestore
stroke
grestore
} bind def
135 27 o
grestore
gsave
/o {
gsave
newpath
translate
0.7 setlinewidth
1 setlinejoin
0 setlinecap
0 0 m
0 -3 l

gsave
0.000 setgray
fill
grestore
stroke
grestore
} bind def
135 162 o
grestore
gsave
/o {
gsave
newpath
translate
0.7 setlinewidth
1 setlinejoin
0 setlinecap
0 0 m
0 3 l

gsave
0.000 setgray
fill
grestore
stroke
grestore
} bind def
148.5 27 o
grestore
gsave
/o {
gsave
newpath
translate
0.7 setlinewidth
1 setlinejoin
0 setlinecap
0 0 m
0 -3 l

gsave
0.000 setgray
fill
grestore
stroke
grestore
} bind def
148.5 162 o
grestore
gsave
/o {
gsave
newpath
translate
0.7 setlinewidth
1 setlinejoin
0 setlinecap
0 0 m
0 3 l

gsave
0.000 setgray
fill
grestore
stroke
grestore
} bind def
162 27 o
grestore
gsave
/o {
gsave
newpath
translate
0.7 setlinewidth
1 setlinejoin
0 setlinecap
0 0 m
0 -3 l

gsave
0.000 setgray
fill
grestore
stroke
grestore
} bind def
162 162 o
grestore
gsave
/o {
gsave
newpath
translate
0.7 setlinewidth
1 setlinejoin
0 setlinecap
0 0 m
0 3 l

gsave
0.000 setgray
fill
grestore
stroke
grestore
} bind def
175.5 27 o
grestore
gsave
/o {
gsave
newpath
translate
0.7 setlinewidth
1 setlinejoin
0 setlinecap
0 0 m
0 -3 l

gsave
0.000 setgray
fill
grestore
stroke
grestore
} bind def
175.5 162 o
grestore
gsave
/o {
gsave
newpath
translate
0.7 setlinewidth
1 setlinejoin
0 setlinecap
0 0 m
0 3 l

gsave
0.000 setgray
fill
grestore
stroke
grestore
} bind def
202.5 27 o
grestore
gsave
/o {
gsave
newpath
translate
0.7 setlinewidth
1 setlinejoin
0 setlinecap
0 0 m
0 -3 l

gsave
0.000 setgray
fill
grestore
stroke
grestore
} bind def
202.5 162 o
grestore
gsave
/o {
gsave
newpath
translate
0.7 setlinewidth
1 setlinejoin
0 setlinecap
0 0 m
0 3 l

gsave
0.000 setgray
fill
grestore
stroke
grestore
} bind def
216 27 o
grestore
gsave
/o {
gsave
newpath
translate
0.7 setlinewidth
1 setlinejoin
0 setlinecap
0 0 m
0 -3 l

gsave
0.000 setgray
fill
grestore
stroke
grestore
} bind def
216 162 o
grestore
gsave
/o {
gsave
newpath
translate
0.7 setlinewidth
1 setlinejoin
0 setlinecap
0 0 m
0 3 l

gsave
0.000 setgray
fill
grestore
stroke
grestore
} bind def
229.5 27 o
grestore
gsave
/o {
gsave
newpath
translate
0.7 setlinewidth
1 setlinejoin
0 setlinecap
0 0 m
0 -3 l

gsave
0.000 setgray
fill
grestore
stroke
grestore
} bind def
229.5 162 o
grestore
gsave
/o {
gsave
newpath
translate
0.7 setlinewidth
1 setlinejoin
0 setlinecap
0 0 m
0 3 l

gsave
0.000 setgray
fill
grestore
stroke
grestore
} bind def
243 27 o
grestore
gsave
/o {
gsave
newpath
translate
0.7 setlinewidth
1 setlinejoin
0 setlinecap
0 0 m
0 -3 l

gsave
0.000 setgray
fill
grestore
stroke
grestore
} bind def
243 162 o
grestore
gsave
/o {
gsave
newpath
translate
0.7 setlinewidth
1 setlinejoin
0 setlinecap
0 0 m
0 3 l

gsave
0.000 setgray
fill
grestore
stroke
grestore
} bind def
270 27 o
grestore
gsave
/o {
gsave
newpath
translate
0.7 setlinewidth
1 setlinejoin
0 setlinecap
0 0 m
0 -3 l

gsave
0.000 setgray
fill
grestore
stroke
grestore
} bind def
270 162 o
grestore
gsave
/o {
gsave
newpath
translate
0.7 setlinewidth
1 setlinejoin
0 setlinecap
0 0 m
0 3 l

gsave
0.000 setgray
fill
grestore
stroke
grestore
} bind def
283.5 27 o
grestore
gsave
/o {
gsave
newpath
translate
0.7 setlinewidth
1 setlinejoin
0 setlinecap
0 0 m
0 -3 l

gsave
0.000 setgray
fill
grestore
stroke
grestore
} bind def
283.5 162 o
grestore
gsave
/o {
gsave
newpath
translate
0.7 setlinewidth
1 setlinejoin
0 setlinecap
0 0 m
0 3 l

gsave
0.000 setgray
fill
grestore
stroke
grestore
} bind def
297 27 o
grestore
gsave
/o {
gsave
newpath
translate
0.7 setlinewidth
1 setlinejoin
0 setlinecap
0 0 m
0 -3 l

gsave
0.000 setgray
fill
grestore
stroke
grestore
} bind def
297 162 o
grestore
gsave
/o {
gsave
newpath
translate
0.7 setlinewidth
1 setlinejoin
0 setlinecap
0 0 m
0 3 l

gsave
0.000 setgray
fill
grestore
stroke
grestore
} bind def
310.5 27 o
grestore
gsave
/o {
gsave
newpath
translate
0.7 setlinewidth
1 setlinejoin
0 setlinecap
0 0 m
0 -3 l

gsave
0.000 setgray
fill
grestore
stroke
grestore
} bind def
310.5 162 o
grestore
gsave
/o {
gsave
newpath
translate
0.7 setlinewidth
1 setlinejoin
0 setlinecap
0 0 m
0 3 l

gsave
0.000 setgray
fill
grestore
stroke
grestore
} bind def
337.5 27 o
grestore
gsave
/o {
gsave
newpath
translate
0.7 setlinewidth
1 setlinejoin
0 setlinecap
0 0 m
0 -3 l

gsave
0.000 setgray
fill
grestore
stroke
grestore
} bind def
337.5 162 o
grestore
gsave
/o {
gsave
newpath
translate
0.7 setlinewidth
1 setlinejoin
0 setlinecap
0 0 m
0 3 l

gsave
0.000 setgray
fill
grestore
stroke
grestore
} bind def
351 27 o
grestore
gsave
/o {
gsave
newpath
translate
0.7 setlinewidth
1 setlinejoin
0 setlinecap
0 0 m
0 -3 l

gsave
0.000 setgray
fill
grestore
stroke
grestore
} bind def
351 162 o
grestore
gsave
/o {
gsave
newpath
translate
0.7 setlinewidth
1 setlinejoin
0 setlinecap
0 0 m
0 3 l

gsave
0.000 setgray
fill
grestore
stroke
grestore
} bind def
364.5 27 o
grestore
gsave
/o {
gsave
newpath
translate
0.7 setlinewidth
1 setlinejoin
0 setlinecap
0 0 m
0 -3 l

gsave
0.000 setgray
fill
grestore
stroke
grestore
} bind def
364.5 162 o
grestore
gsave
/o {
gsave
newpath
translate
0.7 setlinewidth
1 setlinejoin
0 setlinecap
0 0 m
0 3 l

gsave
0.000 setgray
fill
grestore
stroke
grestore
} bind def
378 27 o
grestore
gsave
/o {
gsave
newpath
translate
0.7 setlinewidth
1 setlinejoin
0 setlinecap
0 0 m
0 -3 l

gsave
0.000 setgray
fill
grestore
stroke
grestore
} bind def
378 162 o
grestore
gsave
/o {
gsave
newpath
translate
0.7 setlinewidth
1 setlinejoin
0 setlinecap
0 0 m
0 3 l

gsave
0.000 setgray
fill
grestore
stroke
grestore
} bind def
405 27 o
grestore
gsave
/o {
gsave
newpath
translate
0.7 setlinewidth
1 setlinejoin
0 setlinecap
0 0 m
0 -3 l

gsave
0.000 setgray
fill
grestore
stroke
grestore
} bind def
405 162 o
grestore
gsave
/o {
gsave
newpath
translate
0.7 setlinewidth
1 setlinejoin
0 setlinecap
0 0 m
0 3 l

gsave
0.000 setgray
fill
grestore
stroke
grestore
} bind def
418.5 27 o
grestore
gsave
/o {
gsave
newpath
translate
0.7 setlinewidth
1 setlinejoin
0 setlinecap
0 0 m
0 -3 l

gsave
0.000 setgray
fill
grestore
stroke
grestore
} bind def
418.5 162 o
grestore
gsave
/o {
gsave
newpath
translate
0.7 setlinewidth
1 setlinejoin
0 setlinecap
0 0 m
0 3 l

gsave
0.000 setgray
fill
grestore
stroke
grestore
} bind def
432 27 o
grestore
gsave
/o {
gsave
newpath
translate
0.7 setlinewidth
1 setlinejoin
0 setlinecap
0 0 m
0 -3 l

gsave
0.000 setgray
fill
grestore
stroke
grestore
} bind def
432 162 o
grestore
gsave
/o {
gsave
newpath
translate
0.7 setlinewidth
1 setlinejoin
0 setlinecap
0 0 m
0 3 l

gsave
0.000 setgray
fill
grestore
stroke
grestore
} bind def
445.5 27 o
grestore
gsave
/o {
gsave
newpath
translate
0.7 setlinewidth
1 setlinejoin
0 setlinecap
0 0 m
0 -3 l

gsave
0.000 setgray
fill
grestore
stroke
grestore
} bind def
445.5 162 o
grestore
gsave
/o {
gsave
newpath
translate
0.7 setlinewidth
1 setlinejoin
0 setlinecap
0 0 m
0 3 l

gsave
0.000 setgray
fill
grestore
stroke
grestore
} bind def
472.5 27 o
grestore
gsave
/o {
gsave
newpath
translate
0.7 setlinewidth
1 setlinejoin
0 setlinecap
0 0 m
0 -3 l

gsave
0.000 setgray
fill
grestore
stroke
grestore
} bind def
472.5 162 o
grestore
gsave
/o {
gsave
newpath
translate
0.7 setlinewidth
1 setlinejoin
0 setlinecap
0 0 m
0 3 l

gsave
0.000 setgray
fill
grestore
stroke
grestore
} bind def
486 27 o
grestore
gsave
/o {
gsave
newpath
translate
0.7 setlinewidth
1 setlinejoin
0 setlinecap
0 0 m
0 -3 l

gsave
0.000 setgray
fill
grestore
stroke
grestore
} bind def
486 162 o
grestore
0.800 setlinewidth
2 setlinecap
0.690 setgray
gsave
432 135 54 27 clipbox
54 27 m
486 27 l
stroke
grestore
1.000 setlinewidth
0 setlinecap
0.000 setgray
gsave
/o {
gsave
newpath
translate
1.0 setlinewidth
1 setlinejoin
0 setlinecap
0 0 m
5 0 l

gsave
0.000 setgray
fill
grestore
stroke
grestore
} bind def
54 27 o
grestore
/DejaVuSerif findfont
10.000 scalefont
setfont
gsave
44.140625 23.203125 translate
0.000000 rotate
0.000000 0.000000 m /zero glyphshow
grestore
0.800 setlinewidth
2 setlinecap
0.690 setgray
gsave
432 135 54 27 clipbox
54 54 m
486 54 l
stroke
grestore
1.000 setlinewidth
0 setlinecap
0.000 setgray
gsave
/o {
gsave
newpath
translate
1.0 setlinewidth
1 setlinejoin
0 setlinecap
0 0 m
5 0 l

gsave
0.000 setgray
fill
grestore
stroke
grestore
} bind def
54 54 o
grestore
gsave
44.140625 50.203125 translate
0.000000 rotate
0.000000 0.000000 m /one glyphshow
grestore
0.800 setlinewidth
2 setlinecap
0.690 setgray
gsave
432 135 54 27 clipbox
54 81 m
486 81 l
stroke
grestore
1.000 setlinewidth
0 setlinecap
0.000 setgray
gsave
/o {
gsave
newpath
translate
1.0 setlinewidth
1 setlinejoin
0 setlinecap
0 0 m
5 0 l

gsave
0.000 setgray
fill
grestore
stroke
grestore
} bind def
54 81 o
grestore
gsave
44.140625 77.203125 translate
0.000000 rotate
0.000000 0.000000 m /two glyphshow
grestore
0.800 setlinewidth
2 setlinecap
0.690 setgray
gsave
432 135 54 27 clipbox
54 108 m
486 108 l
stroke
grestore
1.000 setlinewidth
0 setlinecap
0.000 setgray
gsave
/o {
gsave
newpath
translate
1.0 setlinewidth
1 setlinejoin
0 setlinecap
0 0 m
5 0 l

gsave
0.000 setgray
fill
grestore
stroke
grestore
} bind def
54 108 o
grestore
gsave
44.140625 104.203125 translate
0.000000 rotate
0.000000 0.000000 m /three glyphshow
grestore
0.800 setlinewidth
2 setlinecap
0.690 setgray
gsave
432 135 54 27 clipbox
54 135 m
486 135 l
stroke
grestore
1.000 setlinewidth
0 setlinecap
0.000 setgray
gsave
/o {
gsave
newpath
translate
1.0 setlinewidth
1 setlinejoin
0 setlinecap
0 0 m
5 0 l

gsave
0.000 setgray
fill
grestore
stroke
grestore
} bind def
54 135 o
grestore
gsave
44.140625 131.203125 translate
0.000000 rotate
0.000000 0.000000 m /four glyphshow
grestore
0.800 setlinewidth
2 setlinecap
0.690 setgray
gsave
432 135 54 27 clipbox
54 162 m
486 162 l
stroke
grestore
1.000 setlinewidth
0 setlinecap
0.000 setgray
gsave
/o {
gsave
newpath
translate
1.0 setlinewidth
1 setlinejoin
0 setlinecap
0 0 m
5 0 l

gsave
0.000 setgray
fill
grestore
stroke
grestore
} bind def
54 162 o
grestore
gsave
44.140625 158.203125 translate
0.000000 rotate
0.000000 0.000000 m /five glyphshow
grestore
0.700 setlinewidth
gsave
/o {
gsave
newpath
translate
0.7 setlinewidth
1 setlinejoin
0 setlinecap
0 0 m
3 0 l

gsave
0.000 setgray
fill
grestore
stroke
grestore
} bind def
54 32.4 o
grestore
gsave
/o {
gsave
newpath
translate
0.7 setlinewidth
1 setlinejoin
0 setlinecap
0 0 m
3 0 l

gsave
0.000 setgray
fill
grestore
stroke
grestore
} bind def
54 37.8 o
grestore
gsave
/o {
gsave
newpath
translate
0.7 setlinewidth
1 setlinejoin
0 setlinecap
0 0 m
3 0 l

gsave
0.000 setgray
fill
grestore
stroke
grestore
} bind def
54 43.2 o
grestore
gsave
/o {
gsave
newpath
translate
0.7 setlinewidth
1 setlinejoin
0 setlinecap
0 0 m
3 0 l

gsave
0.000 setgray
fill
grestore
stroke
grestore
} bind def
54 48.6 o
grestore
gsave
/o {
gsave
newpath
translate
0.7 setlinewidth
1 setlinejoin
0 setlinecap
0 0 m
3 0 l

gsave
0.000 setgray
fill
grestore
stroke
grestore
} bind def
54 59.4 o
grestore
gsave
/o {
gsave
newpath
translate
0.7 setlinewidth
1 setlinejoin
0 setlinecap
0 0 m
3 0 l

gsave
0.000 setgray
fill
grestore
stroke
grestore
} bind def
54 64.8 o
grestore
gsave
/o {
gsave
newpath
translate
0.7 setlinewidth
1 setlinejoin
0 setlinecap
0 0 m
3 0 l

gsave
0.000 setgray
fill
grestore
stroke
grestore
} bind def
54 70.2 o
grestore
gsave
/o {
gsave
newpath
translate
0.7 setlinewidth
1 setlinejoin
0 setlinecap
0 0 m
3 0 l

gsave
0.000 setgray
fill
grestore
stroke
grestore
} bind def
54 75.6 o
grestore
gsave
/o {
gsave
newpath
translate
0.7 setlinewidth
1 setlinejoin
0 setlinecap
0 0 m
3 0 l

gsave
0.000 setgray
fill
grestore
stroke
grestore
} bind def
54 86.4 o
grestore
gsave
/o {
gsave
newpath
translate
0.7 setlinewidth
1 setlinejoin
0 setlinecap
0 0 m
3 0 l

gsave
0.000 setgray
fill
grestore
stroke
grestore
} bind def
54 91.8 o
grestore
gsave
/o {
gsave
newpath
translate
0.7 setlinewidth
1 setlinejoin
0 setlinecap
0 0 m
3 0 l

gsave
0.000 setgray
fill
grestore
stroke
grestore
} bind def
54 97.2 o
grestore
gsave
/o {
gsave
newpath
translate
0.7 setlinewidth
1 setlinejoin
0 setlinecap
0 0 m
3 0 l

gsave
0.000 setgray
fill
grestore
stroke
grestore
} bind def
54 102.6 o
grestore
gsave
/o {
gsave
newpath
translate
0.7 setlinewidth
1 setlinejoin
0 setlinecap
0 0 m
3 0 l

gsave
0.000 setgray
fill
grestore
stroke
grestore
} bind def
54 113.4 o
grestore
gsave
/o {
gsave
newpath
translate
0.7 setlinewidth
1 setlinejoin
0 setlinecap
0 0 m
3 0 l

gsave
0.000 setgray
fill
grestore
stroke
grestore
} bind def
54 118.8 o
grestore
gsave
/o {
gsave
newpath
translate
0.7 setlinewidth
1 setlinejoin
0 setlinecap
0 0 m
3 0 l

gsave
0.000 setgray
fill
grestore
stroke
grestore
} bind def
54 124.2 o
grestore
gsave
/o {
gsave
newpath
translate
0.7 setlinewidth
1 setlinejoin
0 setlinecap
0 0 m
3 0 l

gsave
0.000 setgray
fill
grestore
stroke
grestore
} bind def
54 129.6 o
grestore
gsave
/o {
gsave
newpath
translate
0.7 setlinewidth
1 setlinejoin
0 setlinecap
0 0 m
3 0 l

gsave
0.000 setgray
fill
grestore
stroke
grestore
} bind def
54 140.4 o
grestore
gsave
/o {
gsave
newpath
translate
0.7 setlinewidth
1 setlinejoin
0 setlinecap
0 0 m
3 0 l

gsave
0.000 setgray
fill
grestore
stroke
grestore
} bind def
54 145.8 o
grestore
gsave
/o {
gsave
newpath
translate
0.7 setlinewidth
1 setlinejoin
0 setlinecap
0 0 m
3 0 l

gsave
0.000 setgray
fill
grestore
stroke
grestore
} bind def
54 151.2 o
grestore
gsave
/o {
gsave
newpath
translate
0.7 setlinewidth
1 setlinejoin
0 setlinecap
0 0 m
3 0 l

gsave
0.000 setgray
fill
grestore
stroke
grestore
} bind def
54 156.6 o
grestore
gsave
29.140625 46.000000 translate
90.000000 rotate
/DejaVuSans-Oblique findfont
14.0 scalefont
setfont
0.000000 0.359375 moveto
/sigma glyphshow

/DejaVuSans-Oblique findfont
9.8 scalefont
setfont
8.873047 -1.937500 moveto
/x glyphshow

/DejaVuSerif findfont
14.0 scalefont
setfont
15.055469 0.359375 moveto
/space glyphshow

19.505664 0.359375 moveto
/o glyphshow

27.934375 0.359375 moveto
/r glyphshow

34.626758 0.359375 moveto
/space glyphshow

/DejaVuSans-Oblique findfont
14.0 scalefont
setfont
39.076953 0.359375 moveto
/sigma glyphshow

/DejaVuSans-Oblique findfont
9.8 scalefont
setfont
47.950000 -1.937500 moveto
/y glyphshow

/DejaVuSerif findfont
14.0 scalefont
setfont
54.132422 0.359375 moveto
/space glyphshow

58.582617 0.359375 moveto
/parenleft glyphshow

64.044531 0.359375 moveto
/m glyphshow

77.319922 0.359375 moveto
/m glyphshow

90.595313 0.359375 moveto
/parenright glyphshow


grestore
2.000 setlinewidth
2 setlinecap
1.000 0.000 0.000 setrgbcolor
gsave
432 135 54 27 clipbox
54.675 75.951 m
55.35 104.1822 l
56.025 106.6743 l
56.7 118.1034 l
57.375 132.3783 l
58.05 140.7564 l
58.725 143.2998 l
59.4 142.857 l
60.075 141.534 l
60.75 140.0166 l
61.425 138.4695 l
62.1 136.9332 l
62.775 135.4212 l
63.45 133.9389 l
64.125 132.4836 l
64.8 131.0607 l
65.475 129.6702 l
66.15 128.3094 l
66.825 126.981 l
67.5 125.6877 l
68.175 124.4241 l
68.85 123.1983 l
69.525 122.0049 l
70.2 120.8439 l
70.875 119.7207 l
71.55 118.6326 l
72.225 117.5796 l
72.9 116.5617 l
73.575 115.5816 l
74.25 114.6366 l
74.925 113.7321 l
75.6 112.8627 l
76.275 112.0311 l
76.95 111.2373 l
77.625 110.484 l
78.3 109.7685 l
78.975 109.0908 l
79.65 108.4536 l
80.325 107.8542 l
81 107.2953 l
81.675 106.7769 l
82.35 106.2963 l
83.025 105.8589 l
83.7 105.4593 l
84.375 105.1002 l
85.05 104.7816 l
85.725 104.5035 l
86.4 104.2659 l
87.075 104.0688 l
87.75 103.9122 l
88.425 103.7961 l
89.1 103.7178 l
89.775 103.68 l
90.45 103.6854 l
91.125 103.8285 l
91.8 101.8737 l
92.475 99.7785 l
93.15 98.9955 l
93.825 96.3495 l
94.5 96.0957 l
95.175 93.6657 l
95.85 93.1338 l
96.525 91.4976 l
97.2 90.2637 l
97.875 89.451 l
98.55 87.7068 l
99.225 87.3774 l
99.9 85.5603 l
100.575 85.2363 l
101.25 83.8404 l
101.925 83.0655 l
102.6 82.2609 l
103.275 81.054 l
103.95 80.6733 l
104.625 79.2774 l
105.3 79.0263 l
105.975 77.8275 l
106.65 77.3253 l
107.325 76.5423 l
108 75.6837 l
108.675 75.2679 l
109.35 74.1879 l
110.025 73.953 l
110.7 72.9216 l
111.375 72.5814 l
112.05 71.8335 l
112.725 71.1963 l
113.4 71.0019 l
114.075 70.8102 l
114.75 70.6266 l
115.425 70.4457 l
116.1 70.2702 l
116.775 70.0974 l
117.45 69.93 l
118.125 69.768 l
118.8 69.6087 l
119.475 69.4548 l
120.15 69.3063 l
120.825 69.1632 l
121.5 69.0228 l
122.175 68.8878 l
122.85 68.7582 l
123.525 68.634 l
124.2 68.5125 l
124.875 68.3964 l
125.2395 68.337 l
125.55 68.2857 l
126.225 68.1804 l
126.9 68.0778 l
127.575 67.9806 l
128.25 67.8888 l
128.925 67.8024 l
129.6 67.7187 l
130.275 67.6431 l
130.95 67.5702 l
131.625 67.5027 l
132.3 67.4406 l
132.975 67.3812 l
133.65 67.3272 l
134.325 67.2813 l
135 67.2381 l
135.675 67.1976 l
136.35 67.1652 l
137.025 67.1355 l
137.7 67.1139 l
stroke
grestore
0 setlinecap
[7.4 3.2] 0 setdash
0.000 0.000 1.000 setrgbcolor
gsave
432 135 54 27 clipbox
54.675 75.9888 m
55.35 104.2443 l
56.025 106.731 l
56.7 118.152 l
57.375 132.3945 l
58.05 140.7213 l
58.725 143.2188 l
59.4 142.7571 l
60.075 141.426 l
60.75 139.9032 l
61.425 138.3534 l
62.1 136.8171 l
62.775 135.3051 l
63.45 133.8201 l
64.125 132.3648 l
64.8 130.9419 l
65.475 129.5487 l
66.15 128.1879 l
66.825 126.8595 l
67.5 125.5635 l
68.175 124.3026 l
68.85 123.0741 l
69.525 121.878 l
70.2 120.7197 l
70.875 119.5938 l
71.55 118.5057 l
72.225 117.45 l
72.9 116.4321 l
73.575 115.452 l
74.25 114.507 l
74.925 113.5998 l
75.6 112.7304 l
76.275 111.8988 l
76.95 111.105 l
77.625 110.349 l
78.3 109.6308 l
78.975 108.9531 l
79.65 108.3159 l
80.325 107.7165 l
81 107.1576 l
81.675 106.6365 l
82.35 106.1559 l
83.025 105.7158 l
83.7 105.3162 l
84.375 104.9571 l
85.05 104.6385 l
85.725 104.3577 l
86.4 104.1201 l
87.075 103.923 l
87.75 103.7637 l
88.425 103.6449 l
89.1 103.5666 l
89.775 103.5288 l
90.45 103.5315 l
91.125 103.6746 l
91.8 101.7225 l
92.475 99.63 l
93.15 98.8497 l
93.825 96.2064 l
94.5 95.9526 l
95.175 93.528 l
95.85 92.9961 l
96.525 91.3626 l
97.2 90.1314 l
97.875 89.3187 l
98.55 87.5799 l
99.225 87.2505 l
99.9 85.4361 l
100.575 85.1121 l
101.25 83.7189 l
101.925 82.9467 l
102.6 82.1421 l
103.275 80.9379 l
103.95 80.5572 l
104.625 79.1667 l
105.3 78.9156 l
105.975 77.7195 l
106.65 77.2173 l
107.325 76.4343 l
108 75.5784 l
108.675 75.1653 l
109.35 74.088 l
110.025 73.8531 l
110.7 72.8217 l
111.375 72.4842 l
112.05 71.7363 l
112.725 71.1018 l
113.4 70.9074 l
114.075 70.7184 l
114.75 70.5321 l
115.425 70.3539 l
116.1 70.1784 l
116.775 70.0056 l
117.45 69.8409 l
118.125 69.6789 l
118.8 69.5196 l
119.475 69.3684 l
120.15 69.2199 l
120.825 69.0768 l
121.5 68.9364 l
122.175 68.8041 l
122.85 68.6745 l
123.525 68.5503 l
124.2 68.4288 l
124.875 68.3154 l
125.2395 68.256 l
125.55 68.2047 l
126.225 68.0994 l
126.9 67.9995 l
127.575 67.9023 l
128.25 67.8105 l
128.925 67.7268 l
129.6 67.6431 l
130.275 67.5675 l
130.95 67.4973 l
131.625 67.4298 l
132.3 67.3677 l
132.975 67.311 l
133.65 67.2597 l
134.325 67.2111 l
135 67.1706 l
135.675 67.1328 l
136.35 67.1004 l
137.025 67.0734 l
137.7 67.0491 l
stroke
grestore
[12.8 3.2 2 3.2] 0 setdash
0.000 0.500 0.000 setrgbcolor
gsave
432 135 54 27 clipbox

stroke
grestore
2 setlinecap
[] 0 setdash
1.000 0.000 0.000 setrgbcolor
gsave
432 135 54 27 clipbox
138.375 67.095 m
143.23095 67.1031 l
147.01635 67.1922 l
147.5577 66.8493 l
155.1285 60.9984 l
159.45525 57.9231 l
164.052 54.8775 l
168.3774 52.22799 l
170.81145 50.93091 l
171.35145 51.05997 l
174.32685 52.43724 l
178.9236 54.783 l
183.79035 57.5289 l
188.3871 60.3639 l
191.9025 62.5266 l
192.7125 62.3484 l
198.126 60.9363 l
202.446 60.0507 l
206.5095 59.4243 l
211.3695 58.9437 l
216.243 58.7601 l
220.05 58.8249 l
224.1 59.0949 l
227.34 59.3892 l
227.88 59.0544 l
237.33 50.8842 l
241.65 47.54403 l
242.73 46.82799 l
243.27 46.89117 l
245.43 47.92797 l
249.48 50.10255 l
253.53 52.5312 l
258.39 55.5498 l
259.47 55.1718 l
263.25 53.80857 l
266.76 52.76556 l
270.27 51.95259 l
273.78 51.381 l
277.02 51.07563 l
280.26 50.98815 l
283.5 51.11991 l
286.74 51.46875 l
289.98 52.02954 l
293.49 52.86816 l
297 53.9352 l
301.05 55.4283 l
304.695 57.0024 l
308.745 58.9842 l
313.2 61.425 l
316.575 63.4392 l
318.33 64.4193 l
318.6 64.3248 l
319.41 63.5256 l
326.43 56.241 l
331.83 50.99328 l
336.96 46.3104 l
341.55 42.40836 l
345.195 39.57822 l
345.735 39.31983 l
346.68 39.33117 l
349.515 39.62709 l
352.62 40.17951 l
355.725 40.95117 l
359.1 42.01686 l
362.745 43.40952 l
364.635 44.08371 l
365.04 43.80588 l
367.605 41.0778 l
371.115 37.56159 l
373.68 35.27415 l
375.705 33.75216 l
377.19 32.89302 l
378.405 32.42538 l
379.485 32.2353 l
380.565 32.28255 l
381.645 32.56551 l
382.86 33.13116 l
384.345 34.10154 l
386.1 35.52876 l
388.395 37.69794 l
391.365 40.83642 l
395.01 45.03519 l
399.195 50.20029 l
404.055 56.5596 l
409.725 63.9927 l
409.995 63.6984 l
410.805 62.1 l
414.855 53.89713 l
415.125 53.74836 l
415.395 54.1539 l
416.205 56.4192 l
420.39 68.7609 l
420.66 68.9877 l
420.93 68.8068 l
422.01 67.4541 l
427.275 60.7824 l
431.19 56.2491 l
433.89 53.4438 l
436.725 50.8302 l
439.29 48.7998 l
441.18 47.5227 l
443.475 46.25451 l
445.23 45.55278 l
446.85 45.12564 l
448.605 44.8686 l
451.44 44.84322 l
454.68 45.34056 l
456.03 45.73449 l
457.11 46.07793 l
458.055 46.45998 l
459.135 46.8882 l
459.81 47.20545 l
460.755 47.64366 l
461.43 47.99817 l
462.375 48.48498 l
463.05 48.87432 l
463.995 49.40379 l
464.67 49.82391 l
465.615 50.39118 l
466.29 50.83884 l
467.235 51.43959 l
467.775 51.83568 l
468.855 52.53282 l
469.395 52.94268 l
470.475 53.66682 l
471.015 54.0891 l
471.96 54.7614 l
476.145 57.9096 l
480.195 61.1172 l
486 65.9232 l
486 65.9232 l
stroke
grestore
0 setlinecap
[7.4 3.2] 0 setdash
0.000 0.000 1.000 setrgbcolor
gsave
432 135 54 27 clipbox
138.375 67.0329 m
142.96095 67.041 l
146.74635 67.2408 l
147.28635 67.5027 l
149.17905 69.3144 l
154.58715 74.7846 l
159.72525 80.2494 l
165.67335 86.8968 l
170.0001 91.9269 l
171.6228 91.7001 l
181.62765 76.7907 l
187.57575 68.4099 l
191.6325 62.9829 l
192.1725 62.6103 l
194.3325 61.9218 l
198.666 60.777 l
202.176 60.0345 l
206.5095 59.3622 l
210.5595 58.9815 l
214.6095 58.8411 l
218.673 58.9437 l
222.75 59.2893 l
226.8 59.8752 l
227.34 60.0345 l
227.88 60.5475 l
230.85 64.395 l
235.98 71.3394 l
241.92 79.7715 l
243.54 79.8903 l
252.99 64.0386 l
257.85 56.3598 l
258.39 55.7442 l
259.47 55.2609 l
262.98 53.99757 l
266.76 52.87248 l
270.27 52.05708 l
273.78 51.47415 l
277.02 51.15069 l
280.26 51.03864 l
283.5 51.14016 l
286.74 51.4539 l
290.25 52.02927 l
293.76 52.84143 l
297.27 53.88012 l
301.05 55.2312 l
305.505 57.1266 l
309.555 59.1057 l
314.01 61.5411 l
318.06 64.0035 l
318.465 64.4517 l
319.005 65.583 l
323.19 75.5703 l
329.67 91.4031 l
338.85 114.4665 l
345.465 131.1174 l
345.6 131.1255 l
345.87 130.5855 l
346.68 127.6398 l
361.665 70.8318 l
364.635 60.183 l
365.04 59.6106 l
365.985 59.0004 l
369.36 57.1698 l
371.925 55.9575 l
374.895 54.7695 l
377.595 53.90658 l
380.295 53.26587 l
382.995 52.85385 l
385.695 52.66809 l
388.395 52.69968 l
391.365 52.96887 l
394.47 53.49051 l
397.71 54.27 l
401.355 55.404 l
404.73 56.6649 l
408.51 58.2957 l
409.455 58.8249 l
409.725 59.1948 l
410.13 60.3504 l
412.425 68.5233 l
414.855 77.031 l
414.99 77.2659 l
415.125 77.2659 l
415.395 76.4613 l
416.205 72.1575 l
420.66 47.7225 l
421.875 43.5915 l
425.655 31.47606 l
426.6 29.021031 l
426.87 28.562328 l
427.005 28.533303 l
427.275 28.902204 l
427.95 30.31884 l
428.22 30.57696 l
428.49 30.54348 l
428.76 30.24324 l
429.3 29.067687 l
429.57 28.543887 l
429.705 28.462131 l
429.975 28.780542 l
430.785 30.45357 l
431.055 30.62205 l
431.325 30.48759 l
431.595 30.08691 l
432.405 28.420686 l
432.54 28.466802 l
432.81 28.976346 l
433.485 30.42927 l
433.755 30.62772 l
434.025 30.54132 l
434.295 30.17844 l
435.24 28.396926 l
435.51 28.862865 l
436.185 30.38067 l
436.455 30.62772 l
436.725 30.58668 l
436.995 30.24351 l
437.4 29.330451 l
437.805 28.430163 l
437.94 28.365633 l
438.21 28.75365 l
439.02 30.50001 l
439.29 30.64932 l
439.56 30.50595 l
439.965 29.77965 l
440.64 28.358478 l
440.775 28.428084 l
441.045 28.97748 l
441.72 30.44061 l
441.99 30.64095 l
442.26 30.53754 l
442.53 30.16089 l
443.475 28.387125 l
443.745 28.853037 l
444.42 30.37419 l
444.69 30.61908 l
444.96 30.57588 l
445.23 30.25188 l
445.77 28.997487 l
446.04 28.453086 l
446.175 28.378161 l
446.445 28.751949 l
447.255 30.47517 l
447.525 30.62583 l
447.795 30.49002 l
448.2 29.7972 l
448.875 28.42155 l
449.01 28.468125 l
449.28 28.982367 l
449.955 30.4128 l
450.225 30.61395 l
450.495 30.53241 l
450.9 29.90871 l
451.575 28.501065 l
451.71 28.495476 l
451.98 28.917648 l
452.655 30.36393 l
452.925 30.61044 l
453.195 30.56157 l
453.465 30.2454 l
454.41 28.566432 l
454.68 28.9062 l
455.49 30.50757 l
455.76 30.65823 l
456.03 30.52485 l
456.3 30.14685 l
457.11 28.738476 l
457.245 28.79577 l
457.515 29.243349 l
458.19 30.55779 l
458.46 30.73761 l
458.73 30.65526 l
459.135 30.08718 l
459.81 28.992492 l
459.945 29.009772 l
460.215 29.373516 l
461.025 30.78162 l
461.295 30.86775 l
461.565 30.70602 l
461.97 30.0861 l
462.51 29.29122 l
462.78 29.38005 l
463.185 30.06882 l
463.725 30.915 l
463.995 31.03758 l
464.265 30.92499 l
464.67 30.38256 l
465.21 29.63061 l
465.48 29.661633 l
465.885 30.25269 l
466.425 31.08483 l
466.695 31.24359 l
466.965 31.16178 l
467.37 30.69036 l
467.91 29.98998 l
468.18 29.97621 l
468.45 30.26376 l
469.26 31.40073 l
469.53 31.47984 l
469.8 31.33458 l
470.34 30.65337 l
470.745 30.3048 l
471.015 30.4047 l
471.42 30.96306 l
471.96 32.076 l
472.905 34.6707 l
475.065 41.44905 l
481.005 61.0227 l
486 77.6925 l
486 77.6925 l
stroke
grestore
0.800 setlinewidth
0 setlinejoin
2 setlinecap
[] 0 setdash
0.000 setgray
gsave
54 27 m
54 162 l
stroke
grestore
gsave
486 27 m
486 162 l
stroke
grestore
gsave
54 27 m
486 27 l
stroke
grestore
gsave
54 162 m
486 162 l
stroke
grestore
gsave
465.200000 151.250000 translate
0.000000 rotate
/DejaVuSerif findfont
14.0 scalefont
setfont
0.000000 0.359375 moveto
/parenleft glyphshow

/DejaVuSans-Oblique findfont
14.0 scalefont
setfont
5.461914 0.359375 moveto
/a glyphshow

/DejaVuSerif findfont
14.0 scalefont
setfont
14.041016 0.359375 moveto
/parenright glyphshow


grestore
2.000 setlinewidth
1 setlinejoin
[] 0 setdash
1.000 0.000 0.000 setrgbcolor
gsave
64.8 45 m
90 45 l
stroke
grestore
0.000 setgray
gsave
94.800000 40.800000 translate
0.000000 rotate
/DejaVuSans-Oblique findfont
12.0 scalefont
setfont
0.000000 0.437500 moveto
/x glyphshow


grestore
0 setlinecap
[7.4 3.2] 0 setdash
0.000 0.000 1.000 setrgbcolor
gsave
126.8 45 m
152 45 l
stroke
grestore
0.000 setgray
gsave
156.800000 40.800000 translate
0.000000 rotate
/DejaVuSans-Oblique findfont
12.0 scalefont
setfont
0.000000 0.437500 moveto
/y glyphshow


grestore
[12.8 3.2 2 3.2] 0 setdash
0.000 0.500 0.000 setrgbcolor
gsave
188.8 45 m
214 45 l
stroke
grestore
0.000 setgray
gsave
218.800000 40.800000 translate
0.000000 rotate
/DejaVuSans-Oblique findfont
12.0 scalefont
setfont
0.000000 0.437500 moveto
/z glyphshow


grestore
1.000 setlinewidth
[] 0 setdash
gsave
/o {
gsave
newpath
translate
1.0 setlinewidth
1 setlinejoin
0 setlinecap
0 0 m
-5 0 l

gsave
0.000 setgray
fill
grestore
stroke
grestore
} bind def
486 27 o
grestore
gsave
489.500000 23.203125 translate
0.000000 rotate
0.000000 0.000000 m /one glyphshow
6.362305 0.000000 m /period glyphshow
9.541016 0.000000 m /three glyphshow
grestore
gsave
/o {
gsave
newpath
translate
1.0 setlinewidth
1 setlinejoin
0 setlinecap
0 0 m
-5 0 l

gsave
0.000 setgray
fill
grestore
stroke
grestore
} bind def
486 72 o
grestore
gsave
489.500000 68.203125 translate
0.000000 rotate
0.000000 0.000000 m /one glyphshow
6.362305 0.000000 m /period glyphshow
9.541016 0.000000 m /four glyphshow
grestore
gsave
/o {
gsave
newpath
translate
1.0 setlinewidth
1 setlinejoin
0 setlinecap
0 0 m
-5 0 l

gsave
0.000 setgray
fill
grestore
stroke
grestore
} bind def
486 117 o
grestore
gsave
489.500000 113.203125 translate
0.000000 rotate
0.000000 0.000000 m /one glyphshow
6.362305 0.000000 m /period glyphshow
9.541016 0.000000 m /five glyphshow
grestore
gsave
/o {
gsave
newpath
translate
1.0 setlinewidth
1 setlinejoin
0 setlinecap
0 0 m
-5 0 l

gsave
0.000 setgray
fill
grestore
stroke
grestore
} bind def
486 162 o
grestore
gsave
489.500000 158.203125 translate
0.000000 rotate
0.000000 0.000000 m /one glyphshow
6.362305 0.000000 m /period glyphshow
9.541016 0.000000 m /six glyphshow
grestore
0.700 setlinewidth
gsave
/o {
gsave
newpath
translate
0.7 setlinewidth
1 setlinejoin
0 setlinecap
0 0 m
-3 0 l

gsave
0.000 setgray
fill
grestore
stroke
grestore
} bind def
486 36 o
grestore
gsave
/o {
gsave
newpath
translate
0.7 setlinewidth
1 setlinejoin
0 setlinecap
0 0 m
-3 0 l

gsave
0.000 setgray
fill
grestore
stroke
grestore
} bind def
486 45 o
grestore
gsave
/o {
gsave
newpath
translate
0.7 setlinewidth
1 setlinejoin
0 setlinecap
0 0 m
-3 0 l

gsave
0.000 setgray
fill
grestore
stroke
grestore
} bind def
486 54 o
grestore
gsave
/o {
gsave
newpath
translate
0.7 setlinewidth
1 setlinejoin
0 setlinecap
0 0 m
-3 0 l

gsave
0.000 setgray
fill
grestore
stroke
grestore
} bind def
486 63 o
grestore
gsave
/o {
gsave
newpath
translate
0.7 setlinewidth
1 setlinejoin
0 setlinecap
0 0 m
-3 0 l

gsave
0.000 setgray
fill
grestore
stroke
grestore
} bind def
486 81 o
grestore
gsave
/o {
gsave
newpath
translate
0.7 setlinewidth
1 setlinejoin
0 setlinecap
0 0 m
-3 0 l

gsave
0.000 setgray
fill
grestore
stroke
grestore
} bind def
486 90 o
grestore
gsave
/o {
gsave
newpath
translate
0.7 setlinewidth
1 setlinejoin
0 setlinecap
0 0 m
-3 0 l

gsave
0.000 setgray
fill
grestore
stroke
grestore
} bind def
486 99 o
grestore
gsave
/o {
gsave
newpath
translate
0.7 setlinewidth
1 setlinejoin
0 setlinecap
0 0 m
-3 0 l

gsave
0.000 setgray
fill
grestore
stroke
grestore
} bind def
486 108 o
grestore
gsave
/o {
gsave
newpath
translate
0.7 setlinewidth
1 setlinejoin
0 setlinecap
0 0 m
-3 0 l

gsave
0.000 setgray
fill
grestore
stroke
grestore
} bind def
486 126 o
grestore
gsave
/o {
gsave
newpath
translate
0.7 setlinewidth
1 setlinejoin
0 setlinecap
0 0 m
-3 0 l

gsave
0.000 setgray
fill
grestore
stroke
grestore
} bind def
486 135 o
grestore
gsave
/o {
gsave
newpath
translate
0.7 setlinewidth
1 setlinejoin
0 setlinecap
0 0 m
-3 0 l

gsave
0.000 setgray
fill
grestore
stroke
grestore
} bind def
486 144 o
grestore
gsave
/o {
gsave
newpath
translate
0.7 setlinewidth
1 setlinejoin
0 setlinecap
0 0 m
-3 0 l

gsave
0.000 setgray
fill
grestore
stroke
grestore
} bind def
486 153 o
grestore
gsave
516.406250 66.000000 translate
90.000000 rotate
/DejaVuSans-Oblique findfont
14.0 scalefont
setfont
0.000000 0.359375 moveto
/sigma glyphshow

/DejaVuSans-Oblique findfont
9.8 scalefont
setfont
8.873047 -1.937500 moveto
/z glyphshow

/DejaVuSerif findfont
14.0 scalefont
setfont
14.399902 0.359375 moveto
/space glyphshow

18.850098 0.359375 moveto
/parenleft glyphshow

24.312012 0.359375 moveto
/m glyphshow

37.587402 0.359375 moveto
/m glyphshow

50.862793 0.359375 moveto
/parenright glyphshow


grestore
2.000 setlinewidth
[12.8 3.2 2 3.2] 0 setdash
0.000 0.500 0.000 setrgbcolor
gsave
432 135 54 27 clipbox
54.675 28.665 m
55.35 40.095 l
56.025 44.64 l
56.7 45.72 l
57.375 46.845 l
58.05 48.195 l
58.725 49.635 l
59.4 50.895 l
60.075 52.11 l
60.75 53.325 l
61.425 54.54 l
62.1 55.755 l
62.775 57.015 l
63.45 58.32 l
64.125 59.625 l
64.8 60.93 l
65.475 62.28 l
66.15 63.675 l
66.825 65.07 l
67.5 66.51 l
68.175 67.95 l
68.85 69.435 l
69.525 70.92 l
70.2 72.45 l
70.875 73.98 l
71.55 75.555 l
72.225 77.175 l
72.9 78.795 l
73.575 80.415 l
74.25 82.08 l
74.925 83.79 l
75.6 85.545 l
76.275 87.255 l
76.95 89.055 l
77.625 90.855 l
78.3 92.655 l
78.975 94.545 l
79.65 96.39 l
80.325 98.28 l
81 100.215 l
81.675 102.195 l
82.35 104.175 l
83.025 106.155 l
83.7 108.18 l
84.375 110.25 l
85.05 112.32 l
85.725 114.435 l
86.4 116.55 l
87.075 118.71 l
87.75 120.915 l
88.425 123.12 l
89.1 125.325 l
89.775 127.62 l
90.45 129.87 l
91.125 132.165 l
91.8 134.37 l
92.475 135.99 l
93.15 137.385 l
93.825 138.51 l
94.5 139.32 l
95.175 140.085 l
95.85 140.625 l
96.525 141.075 l
97.2 141.39 l
97.875 141.66 l
98.55 141.84 l
99.225 141.93 l
99.9 142.02 l
100.575 142.02 l
101.25 142.02 l
101.925 141.975 l
102.6 141.93 l
103.275 141.84 l
103.95 141.705 l
104.625 141.57 l
105.3 141.435 l
105.975 141.3 l
106.65 141.12 l
107.325 140.94 l
108 140.76 l
108.675 140.58 l
109.35 140.4 l
110.025 140.22 l
110.7 139.995 l
111.375 139.815 l
112.05 139.635 l
112.725 139.41 l
113.4 139.23 l
114.075 139.005 l
114.75 138.825 l
115.425 138.6 l
116.1 138.42 l
116.775 138.195 l
117.45 138.015 l
118.125 137.79 l
118.8 137.61 l
119.475 137.385 l
120.15 137.205 l
120.825 137.025 l
121.5 136.8 l
122.175 136.62 l
122.85 136.395 l
123.525 136.215 l
124.2 136.035 l
124.875 135.81 l
125.2395 135.72 l
125.55 135.63 l
126.225 135.45 l
126.9 135.225 l
127.575 135.045 l
128.25 134.865 l
128.925 134.64 l
129.6 134.46 l
130.275 134.28 l
130.95 134.055 l
131.625 133.875 l
132.3 133.695 l
132.975 133.515 l
133.65 133.29 l
134.325 133.11 l
135 132.93 l
135.675 132.75 l
136.35 132.525 l
137.025 132.345 l
137.7 132.165 l
stroke
grestore
gsave
432 135 54 27 clipbox
138.375 131.985 m
140.2569 131.445 l
141.33825 131.175 l
143.50095 130.545 l
144.5823 130.275 l
146.475 129.735 l
147.5577 129.465 l
149.4504 128.925 l
150.53175 128.655 l
152.15445 128.205 l
153.2358 127.935 l
154.8585 127.485 l
155.93985 127.215 l
157.5612 126.765 l
158.6439 126.495 l
159.99525 126.135 l
161.0766 125.865 l
162.4293 125.505 l
163.51065 125.235 l
164.862 124.875 l
166.2147 124.56 l
167.8374 124.11 l
169.18875 123.795 l
170.54145 123.435 l
171.8928 123.12 l
173.24415 122.76 l
174.59685 122.445 l
175.9482 122.085 l
177.3009 121.77 l
178.65225 121.41 l
180.27495 121.05 l
181.62765 120.69 l
183.249 120.33 l
184.6017 119.97 l
186.2244 119.61 l
187.30575 119.34 l
188.92845 118.98 l
190.0125 118.71 l
191.6325 118.35 l
192.7125 118.08 l
194.6025 117.675 l
195.6825 117.405 l
197.586 117 l
198.666 116.73 l
200.826 116.28 l
201.906 116.01 l
204.066 115.56 l
204.876 115.38 l
206.7795 114.975 l
207.5895 114.795 l
209.7495 114.345 l
210.5595 114.165 l
212.9895 113.67 l
213.7995 113.49 l
216.243 112.995 l
217.053 112.815 l
219.78 112.275 l
220.59 112.095 l
224.1 111.42 l
224.91 111.24 l
229.23 110.43 l
230.04 110.25 l
236.25 109.125 l
237.06 108.945 l
271.62 103.275 l
272.43 103.185 l
277.29 102.465 l
278.1 102.375 l
281.88 101.835 l
282.69 101.745 l
285.66 101.34 l
286.47 101.25 l
289.17 100.89 l
289.98 100.8 l
292.41 100.485 l
293.49 100.395 l
296.19 100.035 l
297.27 99.945 l
299.7 99.63 l
300.78 99.54 l
301.32 99.45 l
302.4 99.36 l
302.94 99.27 l
304.02 99.18 l
304.56 99.09 l
305.64 99 l
306.18 98.91 l
307.395 98.82 l
307.935 98.73 l
309.015 98.64 l
309.42 98.595 l
310.365 98.505 l
310.905 98.415 l
312.12 98.325 l
312.66 98.235 l
314.01 98.145 l
314.55 98.055 l
315.765 97.965 l
316.17 97.92 l
317.25 97.83 l
317.79 97.74 l
319.005 97.65 l
319.41 97.605 l
320.49 97.515 l
321.03 97.425 l
322.38 97.335 l
322.92 97.245 l
324.27 97.155 l
324.81 97.065 l
326.16 96.975 l
326.565 96.93 l
327.645 96.84 l
328.05 96.795 l
329.13 96.705 l
329.535 96.66 l
330.75 96.57 l
331.155 96.525 l
332.235 96.435 l
332.64 96.39 l
333.855 96.3 l
334.26 96.255 l
335.475 96.165 l
335.88 96.12 l
337.095 96.03 l
337.5 95.985 l
338.85 95.895 l
339.255 95.85 l
340.605 95.76 l
341.01 95.715 l
342.36 95.625 l
342.765 95.58 l
344.115 95.49 l
344.52 95.445 l
346.005 95.355 l
346.41 95.31 l
347.76 95.22 l
348.165 95.175 l
349.515 95.085 l
349.92 95.04 l
351.27 94.95 l
351.675 94.905 l
353.025 94.815 l
353.43 94.77 l
354.915 94.68 l
355.32 94.635 l
356.94 94.545 l
357.345 94.5 l
358.83 94.41 l
359.235 94.365 l
360.99 94.275 l
361.395 94.23 l
363.15 94.14 l
363.555 94.095 l
365.58 94.005 l
365.985 93.96 l
368.415 93.87 l
368.82 93.825 l
371.52 93.735 l
371.925 93.69 l
375.03 93.6 l
375.435 93.555 l
379.08 93.465 l
379.485 93.42 l
383.805 93.33 l
384.21 93.285 l
390.285 93.195 l
390.69 93.15 l
423.63 93.24 l
424.035 93.285 l
426.06 93.195 l
426.195 93.105 l
426.33 91.53 l
426.465 92.835 l
426.6 89.775 l
426.735 92.655 l
426.87 92.745 l
427.005 90.27 l
427.14 92.52 l
427.275 92.7 l
427.41 90.09 l
427.545 92.565 l
427.68 92.7 l
427.815 90.18 l
427.95 92.7 l
428.085 92.88 l
428.22 90.225 l
428.355 92.835 l
428.49 92.97 l
428.625 90.36 l
428.76 92.925 l
428.895 93.105 l
429.03 90.495 l
429.165 92.97 l
429.3 93.195 l
429.435 90.585 l
429.57 93.105 l
429.705 93.285 l
429.84 90.675 l
429.975 93.195 l
430.11 93.33 l
430.245 90.855 l
430.38 93.24 l
430.515 93.42 l
430.65 91.035 l
430.785 93.285 l
430.92 93.555 l
431.055 91.035 l
431.19 93.465 l
431.325 93.645 l
431.46 91.215 l
431.595 93.6 l
431.73 93.78 l
431.865 91.35 l
432 93.735 l
432.135 93.96 l
432.27 91.44 l
432.405 93.87 l
432.54 94.005 l
432.675 91.575 l
432.81 93.96 l
432.945 94.14 l
433.08 91.665 l
433.215 94.095 l
433.35 94.275 l
433.485 91.755 l
433.62 94.23 l
433.755 94.41 l
433.89 91.89 l
434.025 94.365 l
434.16 94.545 l
434.295 92.025 l
434.43 94.545 l
434.565 94.725 l
434.7 92.16 l
434.835 94.725 l
434.97 94.815 l
435.105 92.34 l
435.24 94.86 l
435.375 95.04 l
435.51 92.385 l
435.645 94.95 l
435.78 95.085 l
435.915 92.565 l
436.05 95.085 l
436.185 95.22 l
436.32 92.7 l
436.455 95.265 l
436.59 95.445 l
436.725 92.79 l
436.86 95.49 l
436.995 95.625 l
437.13 93.015 l
437.265 95.58 l
437.4 95.76 l
437.535 93.24 l
437.67 95.715 l
437.805 95.895 l
437.94 93.33 l
438.075 95.94 l
438.21 96.075 l
438.345 93.51 l
438.48 96.075 l
438.615 96.255 l
438.75 93.69 l
438.885 96.21 l
439.02 96.39 l
439.155 93.87 l
439.29 96.39 l
439.425 96.57 l
439.56 94.05 l
439.695 96.57 l
439.83 96.75 l
439.965 94.275 l
440.1 96.75 l
440.235 96.93 l
440.37 94.545 l
440.505 96.93 l
440.64 97.11 l
440.775 94.635 l
440.91 97.11 l
441.045 97.245 l
441.18 94.77 l
441.315 97.335 l
441.45 97.47 l
441.585 94.995 l
441.72 97.515 l
441.855 97.65 l
441.99 95.22 l
442.125 97.74 l
442.26 97.83 l
442.395 95.355 l
442.53 97.965 l
442.665 98.1 l
442.8 95.535 l
442.935 98.19 l
443.07 98.28 l
443.205 95.715 l
443.34 98.415 l
443.475 98.46 l
443.61 95.985 l
443.745 98.595 l
443.88 98.685 l
444.015 96.21 l
444.15 98.73 l
444.285 98.865 l
444.42 96.48 l
444.555 98.955 l
444.69 99.09 l
444.825 96.615 l
444.96 99.225 l
445.095 99.315 l
445.23 96.84 l
445.365 99.45 l
445.5 99.585 l
445.635 97.155 l
445.77 99.675 l
445.905 99.765 l
446.04 97.38 l
446.175 99.9 l
446.31 100.035 l
446.445 97.515 l
446.58 100.125 l
446.715 100.215 l
446.85 97.785 l
446.985 100.395 l
447.12 100.485 l
447.255 98.1 l
447.39 100.575 l
447.525 100.755 l
447.66 98.28 l
447.795 100.845 l
447.93 100.98 l
448.065 98.505 l
448.2 101.16 l
448.335 101.295 l
448.47 98.685 l
448.605 101.43 l
448.74 101.52 l
448.875 99 l
449.01 101.655 l
449.145 101.79 l
449.28 99.18 l
449.415 101.925 l
449.55 102.015 l
449.685 99.495 l
449.82 102.15 l
449.955 102.24 l
450.09 99.81 l
450.225 102.42 l
450.36 102.465 l
450.495 100.125 l
450.63 102.645 l
450.765 102.78 l
450.9 100.35 l
451.035 102.915 l
451.17 103.05 l
451.305 100.53 l
451.44 103.23 l
451.575 103.32 l
451.71 100.89 l
451.845 103.455 l
451.98 103.545 l
452.115 101.16 l
452.25 103.725 l
452.385 103.86 l
452.52 101.385 l
452.655 103.995 l
452.79 104.13 l
452.925 101.61 l
453.06 104.265 l
453.195 104.355 l
453.33 102.015 l
453.465 104.535 l
453.6 104.67 l
453.735 102.24 l
453.87 104.85 l
454.005 104.985 l
454.14 102.465 l
454.275 105.12 l
454.41 105.255 l
454.545 102.69 l
454.68 105.435 l
454.815 105.525 l
454.95 102.96 l
455.085 105.705 l
455.22 105.795 l
455.355 103.32 l
455.49 105.975 l
455.625 106.065 l
455.76 103.68 l
455.895 106.245 l
456.03 106.335 l
456.165 103.905 l
456.3 106.56 l
456.435 106.65 l
456.57 104.175 l
456.705 106.83 l
456.84 106.875 l
456.975 104.535 l
457.11 107.145 l
457.245 107.145 l
457.38 104.85 l
457.515 107.415 l
457.65 107.46 l
457.785 105.12 l
457.92 107.73 l
458.055 107.775 l
458.19 105.345 l
458.325 108.045 l
458.46 108.09 l
458.595 105.66 l
458.73 108.36 l
458.865 108.36 l
459 105.93 l
459.135 108.675 l
459.27 108.72 l
459.405 106.2 l
459.54 108.99 l
459.675 109.035 l
459.81 106.515 l
459.945 109.215 l
460.08 109.26 l
460.215 106.83 l
460.35 109.575 l
460.485 109.575 l
460.62 107.1 l
460.755 109.89 l
460.89 109.935 l
461.025 107.325 l
461.16 110.205 l
461.295 110.205 l
461.43 107.73 l
461.565 110.43 l
461.7 110.52 l
461.835 108.09 l
461.97 110.79 l
462.105 110.835 l
462.24 108.315 l
462.375 111.15 l
462.51 111.15 l
462.645 108.675 l
462.78 111.33 l
462.915 111.42 l
463.05 108.945 l
463.185 111.69 l
463.32 111.735 l
463.455 109.305 l
463.59 112.005 l
463.725 112.005 l
463.86 109.62 l
463.995 112.32 l
464.13 112.365 l
464.265 109.935 l
464.4 112.635 l
464.535 112.68 l
464.67 110.295 l
464.805 112.95 l
464.94 112.95 l
465.075 110.61 l
465.21 113.22 l
465.345 113.265 l
465.48 110.88 l
465.615 113.58 l
465.75 113.58 l
465.885 111.24 l
466.02 113.85 l
466.155 113.85 l
466.29 111.555 l
466.425 114.165 l
466.56 114.21 l
466.695 111.825 l
466.83 114.57 l
466.965 114.525 l
467.1 112.275 l
467.235 114.84 l
467.37 114.84 l
467.505 112.5 l
467.64 115.2 l
467.775 115.2 l
467.91 112.77 l
468.045 115.515 l
468.18 115.56 l
468.315 113.04 l
468.45 115.83 l
468.585 115.83 l
468.72 113.4 l
468.855 116.19 l
468.99 116.19 l
469.125 113.67 l
469.26 116.55 l
469.395 116.595 l
469.53 113.985 l
469.665 116.865 l
469.8 116.91 l
469.935 114.345 l
470.07 117.135 l
470.205 117.18 l
470.34 114.705 l
470.475 117.495 l
470.61 117.495 l
470.745 115.245 l
470.88 117.9 l
471.015 117.99 l
471.15 115.11 l
471.285 118.44 l
471.42 117.225 l
471.555 118.935 l
471.96 119.205 l
472.5 119.295 l
473.445 119.385 l
473.985 119.475 l
474.93 119.565 l
475.47 119.655 l
476.415 119.745 l
476.955 119.835 l
477.765 119.925 l
480.195 120.24 l
481.005 120.33 l
483.705 120.69 l
484.515 120.78 l
486 120.96 l
486 120.96 l
stroke
grestore
0.800 setlinewidth
0 setlinejoin
2 setlinecap
[] 0 setdash
0.000 setgray
gsave
54 27 m
54 162 l
stroke
grestore
gsave
486 27 m
486 162 l
stroke
grestore
gsave
54 27 m
486 27 l
stroke
grestore
gsave
54 162 m
486 162 l
stroke
grestore

end
showpage
