%!PS-Adobe-3.0 EPSF-3.0
%%Title: charge-density-z.eps
%%Creator: matplotlib version 2.2.2, http://matplotlib.org/
%%CreationDate: Sun Aug  4 20:48:24 2019
%%Orientation: portrait
%%BoundingBox: 162 252 450 540
%%EndComments
%%BeginProlog
/mpldict 9 dict def
mpldict begin
/m { moveto } bind def
/l { lineto } bind def
/r { rlineto } bind def
/c { curveto } bind def
/cl { closepath } bind def
/box {
m
1 index 0 r
0 exch r
neg 0 r
cl
} bind def
/clipbox {
box
clip
newpath
} bind def
%!PS-Adobe-3.0 Resource-Font
%%Title: DejaVu Serif
%%Copyright: Copyright (c) 2003 by Bitstream, Inc. All Rights Reserved. DejaVu changes are in public domain 
%%Creator: Converted from TrueType to type 3 by PPR
25 dict begin
/_d{bind def}bind def
/_m{moveto}_d
/_l{lineto}_d
/_cl{closepath eofill}_d
/_c{curveto}_d
/_sc{7 -1 roll{setcachedevice}{pop pop pop pop pop pop}ifelse}_d
/_e{exec}_d
/FontName /DejaVuSerif def
/PaintType 0 def
/FontMatrix[.001 0 0 .001 0 0]def
/FontBBox[-770 -347 2105 1109]def
/FontType 3 def
/Encoding [ /space /numbersign /parenleft /parenright /period /zero /one /two /three /four /six /eight /a /b /c /e /i /l /m /n /r /s /t /u /minus ] def
/FontInfo 10 dict dup begin
/FamilyName (DejaVu Serif) def
/FullName (DejaVu Serif) def
/Notice (Copyright (c) 2003 by Bitstream, Inc. All Rights Reserved. DejaVu changes are in public domain ) def
/Weight (Book) def
/Version (Version 2.35) def
/ItalicAngle 0.0 def
/isFixedPitch false def
/UnderlinePosition -130 def
/UnderlineThickness 90 def
end readonly def
/CharStrings 26 dict dup begin
/.notdef 0 def
/space{318 0 0 0 0 0 _sc
}_d
/numbersign{{838 0 77 0 761 718 _sc
509 440 _m
371 440 _l
330 277 _l
469 277 _l
509 440 _l
440 718 _m
390 515 _l
528 515 _l
578 718 _l
662 718 _l
611 515 _l
761 515 _l
761 440 _l
592 440 _l
552 277 _l
705 277 _l
705 202 _l
533 202 _l
483 0 _l
399 0 _l
450 202 _l
312 202 _l
261 0 _l
178 0 _l
228 202 _l
77 202 _l
77 277 _l
247 277 _l
287 440 _l
133 440 _l
}_e{133 515 _l
306 515 _l
357 718 _l
440 718 _l
_cl}_e}_d
/parenleft{390 0 79 -155 319 760 _sc
319 -155 _m
239 -119 179 -63 139 13 _c
99 89 79 186 79 302 _c
79 418 99 514 139 591 _c
179 668 239 724 319 760 _c
319 712 _l
269 677 233 628 211 566 _c
189 503 178 415 178 302 _c
178 188 189 100 211 38 _c
233 -24 269 -72 319 -107 _c
319 -155 _l
_cl}_d
/parenright{390 0 71 -155 311 760 _sc
71 -155 _m
71 -107 _l
121 -72 157 -24 179 38 _c
201 100 212 188 212 302 _c
212 415 201 503 179 566 _c
157 628 121 677 71 712 _c
71 760 _l
150 724 210 668 250 591 _c
290 514 311 418 311 302 _c
311 186 290 89 250 13 _c
210 -63 150 -119 71 -155 _c
_cl}_d
/period{318 0 94 -13 224 116 _sc
94 51 _m
94 69 100 84 112 97 _c
124 109 140 116 159 116 _c
177 116 192 109 205 97 _c
217 84 224 69 224 51 _c
224 33 217 17 205 5 _c
192 -7 177 -13 159 -13 _c
140 -13 124 -7 112 5 _c
100 17 94 32 94 51 _c
_cl}_d
/zero{636 0 66 -13 570 742 _sc
318 34 _m
368 34 405 61 430 116 _c
454 170 467 253 467 364 _c
467 474 454 557 430 612 _c
405 666 368 694 318 694 _c
268 694 230 666 206 612 _c
181 557 169 474 169 364 _c
169 253 181 170 206 116 _c
230 61 268 34 318 34 _c
318 -13 _m
238 -13 176 20 132 86 _c
88 152 66 244 66 364 _c
66 483 88 576 132 642 _c
176 708 238 742 318 742 _c
397 742 459 708 503 642 _c
547 576 570 483 570 364 _c
570 244 547 152 503 86 _c
459 20 397 -13 318 -13 _c
_cl}_d
/one{636 0 122 0 494 742 _sc
142 0 _m
142 52 _l
269 52 _l
269 658 _l
122 563 _l
122 627 _l
300 742 _l
367 742 _l
367 52 _l
494 52 _l
494 0 _l
142 0 _l
_cl}_d
/two{{636 0 68 0 538 742 _sc
128 555 _m
73 555 _l
73 685 _l
107 703 142 717 178 727 _c
213 737 248 742 282 742 _c
358 742 418 723 462 687 _c
506 650 528 600 528 537 _c
528 465 478 380 378 281 _c
370 273 365 268 361 264 _c
177 80 _l
481 80 _l
481 170 _l
538 170 _l
538 0 _l
68 0 _l
68 53 _l
289 274 _l
337 322 372 367 393 408 _c
414 449 425 492 425 537 _c
}_e{425 586 412 624 386 652 _c
360 680 325 694 281 694 _c
234 694 198 682 173 659 _c
147 636 132 601 128 555 _c
_cl}_e}_d
/three{{636 0 76 -13 562 742 _sc
97 698 _m
135 712 171 723 206 731 _c
241 738 274 742 305 742 _c
376 742 432 726 472 696 _c
512 665 532 622 532 568 _c
532 524 518 487 490 458 _c
462 428 423 408 373 398 _c
433 389 479 367 512 332 _c
545 297 562 252 562 197 _c
562 129 539 77 493 41 _c
447 5 382 -13 296 -13 _c
258 -13 220 -9 184 -1 _c
148 6 112 18 76 35 _c
76 177 _l
}_e{131 177 _l
134 129 150 94 178 70 _c
206 46 246 34 298 34 _c
348 34 387 48 416 77 _c
444 106 459 146 459 196 _c
459 253 444 296 414 326 _c
384 355 341 370 284 370 _c
238 370 _l
238 420 _l
262 420 _l
319 420 362 431 390 455 _c
418 479 433 514 433 562 _c
433 604 421 637 398 660 _c
374 682 341 694 297 694 _c
253 694 218 683 194 662 _c
170 641 156 610 152 570 _c
}_e{97 570 _l
97 698 _l
_cl}_e}_d
/four{636 0 31 0 586 742 _sc
349 247 _m
349 635 _l
100 247 _l
349 247 _l
564 0 _m
232 0 _l
232 52 _l
349 52 _l
349 195 _l
31 195 _l
31 248 _l
350 742 _l
447 742 _l
447 247 _l
586 247 _l
586 195 _l
447 195 _l
447 52 _l
564 52 _l
564 0 _l
_cl}_d
/six{{636 0 67 -13 573 742 _sc
327 34 _m
373 34 408 50 433 84 _c
457 118 470 166 470 230 _c
470 293 457 341 433 375 _c
408 409 373 426 327 426 _c
280 426 244 409 220 377 _c
196 344 184 297 184 236 _c
184 171 196 121 221 86 _c
245 51 281 34 327 34 _c
168 401 _m
190 425 215 444 243 456 _c
271 468 302 474 338 474 _c
410 474 468 452 510 408 _c
552 364 573 305 573 230 _c
}_e{573 156 550 97 505 53 _c
459 9 399 -13 323 -13 _c
241 -13 177 17 133 78 _c
89 139 67 227 67 341 _c
67 468 93 567 145 637 _c
197 707 271 742 367 742 _c
393 742 420 739 448 735 _c
476 730 505 723 535 713 _c
535 593 _l
480 593 _l
476 625 463 650 442 668 _c
421 685 393 694 357 694 _c
293 694 246 670 215 622 _c
184 574 168 500 168 401 _c
_cl}_e}_d
/eight{{636 0 67 -13 569 742 _sc
466 199 _m
466 251 453 291 427 320 _c
401 349 364 364 318 364 _c
271 364 235 349 209 320 _c
183 291 170 251 170 199 _c
170 147 183 106 209 77 _c
235 48 271 34 318 34 _c
364 34 401 48 427 77 _c
453 106 466 147 466 199 _c
446 553 _m
446 597 434 632 412 657 _c
389 681 358 694 318 694 _c
278 694 246 681 224 657 _c
201 632 190 597 190 553 _c
}_e{190 508 201 473 224 449 _c
246 424 278 412 318 412 _c
358 412 389 424 412 449 _c
434 473 446 508 446 553 _c
393 388 _m
448 380 491 360 522 327 _c
553 293 569 251 569 199 _c
569 131 547 78 504 42 _c
460 5 398 -13 318 -13 _c
237 -13 175 5 132 42 _c
88 78 67 131 67 199 _c
67 251 82 293 113 327 _c
144 360 187 380 243 388 _c
193 396 156 415 130 444 _c
}_e{104 472 91 509 91 553 _c
91 611 111 657 151 691 _c
191 725 247 742 318 742 _c
388 742 444 725 484 691 _c
524 657 545 611 545 553 _c
545 509 531 472 505 444 _c
479 415 441 396 393 388 _c
_cl}_e}_d
/a{{596 0 50 -13 568 533 _sc
398 163 _m
398 273 _l
282 273 _l
237 273 204 263 182 244 _c
160 224 150 195 150 156 _c
150 120 161 91 183 70 _c
205 48 235 38 273 38 _c
310 38 340 49 363 72 _c
386 95 398 125 398 163 _c
488 324 _m
488 52 _l
568 52 _l
568 0 _l
398 0 _l
398 56 _l
378 32 355 14 329 3 _c
303 -7 272 -13 238 -13 _c
180 -13 134 2 100 32 _c
}_e{66 62 50 104 50 156 _c
50 209 69 250 108 280 _c
146 310 201 325 272 325 _c
398 325 _l
398 361 _l
398 400 386 430 362 452 _c
338 474 304 485 261 485 _c
225 485 197 476 176 460 _c
154 444 141 420 136 388 _c
90 388 _l
90 493 _l
121 506 151 516 181 523 _c
210 529 239 533 267 533 _c
339 533 393 515 431 479 _c
469 443 488 392 488 324 _c
_cl}_e}_d
/b{{640 0 29 -13 590 760 _sc
115 52 _m
115 708 _l
29 708 _l
29 760 _l
205 760 _l
205 438 _l
222 470 244 494 272 510 _c
299 525 333 533 373 533 _c
437 533 489 507 529 457 _c
569 407 590 341 590 260 _c
590 178 569 112 529 62 _c
489 12 437 -13 373 -13 _c
333 -13 299 -5 272 9 _c
244 24 222 48 205 81 _c
205 0 _l
29 0 _l
29 52 _l
115 52 _l
205 234 _m
}_e{205 171 217 123 241 91 _c
265 58 299 42 345 42 _c
391 42 425 60 449 97 _c
473 133 485 188 485 260 _c
485 332 473 386 449 422 _c
425 458 391 477 345 477 _c
299 477 265 460 241 427 _c
217 394 205 347 205 285 _c
205 234 _l
_cl}_e}_d
/c{{560 0 50 -13 514 533 _sc
514 156 _m
501 100 477 58 441 30 _c
405 1 358 -13 301 -13 _c
225 -13 165 11 119 61 _c
73 111 50 177 50 260 _c
50 342 73 408 119 458 _c
165 508 225 533 301 533 _c
333 533 366 529 399 521 _c
431 513 464 502 497 487 _c
497 354 _l
445 354 _l
438 399 423 432 400 453 _c
377 474 344 485 302 485 _c
253 485 216 466 192 428 _c
}_e{167 390 155 334 155 260 _c
155 184 167 128 192 90 _c
216 52 253 34 302 34 _c
340 34 371 44 394 64 _c
417 84 433 115 442 156 _c
514 156 _l
_cl}_e}_d
/e{{592 0 50 -13 542 533 _sc
542 250 _m
155 250 _l
155 246 _l
155 176 168 123 194 87 _c
220 51 259 34 311 34 _c
350 34 382 44 408 65 _c
433 85 451 116 461 157 _c
533 157 _l
519 100 492 57 454 29 _c
415 1 364 -13 302 -13 _c
226 -13 165 11 119 61 _c
73 111 50 177 50 260 _c
50 342 72 408 118 458 _c
163 508 222 533 296 533 _c
374 533 435 508 477 460 _c
}_e{519 412 540 342 542 250 _c
436 302 _m
434 362 421 408 397 439 _c
373 469 340 485 296 485 _c
254 485 222 469 198 438 _c
174 407 160 362 155 302 _c
436 302 _l
_cl}_e}_d
/i{320 0 36 0 297 736 _sc
97 680 _m
97 695 102 708 113 719 _c
124 730 137 736 153 736 _c
167 736 180 730 191 719 _c
202 708 208 695 208 680 _c
208 664 202 651 192 641 _c
181 630 168 625 153 625 _c
137 625 124 630 113 641 _c
102 651 97 664 97 680 _c
212 52 _m
297 52 _l
297 0 _l
36 0 _l
36 52 _l
122 52 _l
122 467 _l
36 467 _l
36 519 _l
212 519 _l
212 52 _l
_cl}_d
/l{320 0 29 0 290 760 _sc
205 52 _m
290 52 _l
290 0 _l
29 0 _l
29 52 _l
115 52 _l
115 708 _l
29 708 _l
29 760 _l
205 760 _l
205 52 _l
_cl}_d
/m{{948 0 36 0 921 533 _sc
518 418 _m
535 456 557 484 584 504 _c
611 523 642 533 678 533 _c
732 533 773 516 800 482 _c
826 448 840 398 840 330 _c
840 52 _l
921 52 _l
921 0 _l
672 0 _l
672 52 _l
750 52 _l
750 320 _l
750 372 742 410 726 433 _c
710 455 685 467 649 467 _c
609 467 578 451 557 421 _c
536 391 526 347 526 289 _c
526 52 _l
604 52 _l
604 0 _l
358 0 _l
}_e{358 52 _l
436 52 _l
436 323 _l
436 375 428 412 412 434 _c
396 456 371 467 335 467 _c
295 467 264 451 243 421 _c
222 391 212 347 212 289 _c
212 52 _l
290 52 _l
290 0 _l
41 0 _l
41 52 _l
122 52 _l
122 468 _l
36 468 _l
36 519 _l
212 519 _l
212 427 _l
228 461 249 488 275 506 _c
301 524 330 533 363 533 _c
403 533 436 523 463 503 _c
}_e{490 483 508 454 518 418 _c
_cl}_e}_d
/n{{644 0 36 0 616 533 _sc
41 0 _m
41 52 _l
122 52 _l
122 467 _l
36 467 _l
36 519 _l
212 519 _l
212 427 _l
228 461 250 488 276 506 _c
302 524 333 533 369 533 _c
426 533 468 516 495 484 _c
522 451 536 400 536 330 _c
536 52 _l
616 52 _l
616 0 _l
368 0 _l
368 52 _l
446 52 _l
446 302 _l
446 365 438 408 422 432 _c
406 456 379 468 340 468 _c
}_e{298 468 266 452 244 422 _c
222 391 212 347 212 289 _c
212 52 _l
290 52 _l
290 0 _l
41 0 _l
_cl}_e}_d
/r{478 0 36 0 478 533 _sc
478 520 _m
478 390 _l
426 390 _l
424 416 417 435 405 448 _c
392 460 373 467 349 467 _c
305 467 271 451 247 421 _c
223 390 212 346 212 289 _c
212 52 _l
316 52 _l
316 0 _l
41 0 _l
41 52 _l
122 52 _l
122 468 _l
36 468 _l
36 519 _l
212 519 _l
212 427 _l
229 463 251 489 279 507 _c
307 524 341 533 381 533 _c
395 533 411 531 427 529 _c
443 527 460 524 478 520 _c
_cl}_d
/s{{513 0 56 -13 462 533 _sc
56 29 _m
56 150 _l
108 150 _l
109 111 121 82 144 63 _c
167 43 201 34 246 34 _c
286 34 317 41 338 57 _c
359 72 370 94 370 123 _c
370 145 362 164 347 178 _c
331 192 299 207 249 223 _c
184 245 _l
139 259 107 277 87 299 _c
67 320 57 347 57 381 _c
57 428 74 465 109 492 _c
144 519 192 533 254 533 _c
281 533 310 529 340 522 _c
}_e{370 515 402 505 434 491 _c
434 378 _l
382 378 _l
380 411 369 437 347 456 _c
325 475 295 485 257 485 _c
219 485 190 478 171 465 _c
151 451 142 431 142 405 _c
142 383 149 365 164 352 _c
178 339 208 326 252 312 _c
323 290 _l
372 274 407 255 429 232 _c
451 209 462 180 462 144 _c
462 94 443 56 405 28 _c
367 0 316 -13 250 -13 _c
216 -13 184 -9 152 -3 _c
}_e{120 3 88 14 56 29 _c
_cl}_e}_d
/t{402 0 29 -13 394 680 _sc
108 467 _m
29 467 _l
29 519 _l
108 519 _l
108 680 _l
198 680 _l
198 519 _l
367 519 _l
367 467 _l
198 467 _l
198 137 _l
198 93 202 64 211 52 _c
219 40 235 34 258 34 _c
281 34 298 41 309 55 _c
319 69 325 91 326 122 _c
394 122 _l
391 74 378 40 355 19 _c
332 -2 297 -13 250 -13 _c
198 -13 161 -1 140 21 _c
118 43 108 82 108 137 _c
108 467 _l
_cl}_d
/u{{644 0 27 -13 607 519 _sc
354 519 _m
522 519 _l
522 52 _l
607 52 _l
607 0 _l
432 0 _l
432 92 _l
415 57 393 31 367 13 _c
341 -4 310 -13 276 -13 _c
218 -13 175 3 148 35 _c
121 67 108 119 108 189 _c
108 467 _l
27 467 _l
27 519 _l
198 519 _l
198 217 _l
198 153 205 110 221 87 _c
237 63 264 52 304 52 _c
346 52 377 67 399 98 _c
421 128 432 173 432 231 _c
}_e{432 467 _l
354 467 _l
354 519 _l
_cl}_e}_d
/minus{838 0 106 274 732 353 _sc
106 353 _m
732 353 _l
732 274 _l
106 274 _l
106 353 _l
_cl}_d
end readonly def

/BuildGlyph
 {exch begin
 CharStrings exch
 2 copy known not{pop /.notdef}if
 true 3 1 roll get exec
 end}_d

/BuildChar {
 1 index /Encoding get exch get
 1 index /BuildGlyph get exec
}_d

FontName currentdict end definefont pop
%!PS-Adobe-3.0 Resource-Font
%%Title: DejaVu Sans Oblique
%%Copyright: Copyright (c) 2003 by Bitstream, Inc. All Rights Reserved. Copyright (c) 2006 by Tavmjong Bah. All Rights Reserved. DejaVu changes are in public domain 
%%Creator: Converted from TrueType to type 3 by PPR
25 dict begin
/_d{bind def}bind def
/_m{moveto}_d
/_l{lineto}_d
/_cl{closepath eofill}_d
/_c{curveto}_d
/_sc{7 -1 roll{setcachedevice}{pop pop pop pop pop pop}ifelse}_d
/_e{exec}_d
/FontName /DejaVuSans-Oblique def
/PaintType 0 def
/FontMatrix[.001 0 0 .001 0 0]def
/FontBBox[-1016 -350 1659 1068]def
/FontType 3 def
/Encoding [ /z /rho ] def
/FontInfo 10 dict dup begin
/FamilyName (DejaVu Sans) def
/FullName (DejaVu Sans Oblique) def
/Notice (Copyright (c) 2003 by Bitstream, Inc. All Rights Reserved. Copyright (c) 2006 by Tavmjong Bah. All Rights Reserved. DejaVu changes are in public domain ) def
/Weight (Oblique) def
/Version (Version 2.35) def
/ItalicAngle -11.0 def
/isFixedPitch false def
/UnderlinePosition -130 def
/UnderlineThickness 90 def
end readonly def
/CharStrings 3 dict dup begin
/.notdef 0 def
/z{525 0 -2 0 543 547 _sc
116 547 _m
543 547 _l
527 465 _l
115 72 _l
455 72 _l
441 0 _l
-2 0 _l
13 82 _l
425 475 _l
102 475 _l
116 547 _l
_cl}_d
/rho{{635 0 16 -207 599 560 _sc
188 449 _m
214 482 254 513 310 543 _c
331 554 371 560 431 560 _c
497 560 545 533 577 481 _c
608 428 615 359 599 273 _c
582 187 548 117 496 65 _c
444 13 385 -13 319 -13 _c
279 -13 246 -5 220 10 _c
194 25 175 49 163 82 _c
106 -207 _l
16 -207 _l
109 268 _l
123 343 150 403 188 449 _c
506 273 _m
518 339 515 391 495 429 _c
475 466 441 485 394 485 _c
}_e{346 485 305 466 271 429 _c
236 391 212 339 200 273 _c
187 207 190 155 210 117 _c
230 79 263 61 311 61 _c
359 61 400 79 435 117 _c
469 155 492 207 506 273 _c
_cl}_e}_d
end readonly def

/BuildGlyph
 {exch begin
 CharStrings exch
 2 copy known not{pop /.notdef}if
 true 3 1 roll get exec
 end}_d

/BuildChar {
 1 index /Encoding get exch get
 1 index /BuildGlyph get exec
}_d

FontName currentdict end definefont pop
end
%%EndProlog
mpldict begin
162 252 translate
288 288 0 0 clipbox
gsave
0 0 m
288 0 l
288 288 l
0 288 l
cl
1.000 setgray
fill
grestore
gsave
43.2 43.2 m
259.2 43.2 l
259.2 259.2 l
43.2 259.2 l
cl
1.000 setgray
fill
grestore
0.800 setlinewidth
1 setlinejoin
2 setlinecap
[] 0 setdash
0.690 setgray
gsave
216 216 43.2 43.2 clipbox
78.459941 43.2 m
78.459941 259.2 l
stroke
grestore
1.000 setlinewidth
0 setlinecap
0.000 setgray
gsave
/o {
gsave
newpath
translate
1.0 setlinewidth
1 setlinejoin
0 setlinecap
0 0 m
0 5 l

gsave
0.000 setgray
fill
grestore
stroke
grestore
} bind def
78.4599 43.2 o
grestore
gsave
/o {
gsave
newpath
translate
1.0 setlinewidth
1 setlinejoin
0 setlinecap
0 0 m
0 -5 l

gsave
0.000 setgray
fill
grestore
stroke
grestore
} bind def
78.4599 259.2 o
grestore
/DejaVuSerif findfont
10.000 scalefont
setfont
gsave
63.139629 32.106250 translate
0.000000 rotate
0.000000 0.000000 m /minus glyphshow
8.378906 0.000000 m /zero glyphshow
14.741211 0.000000 m /period glyphshow
17.919922 0.000000 m /zero glyphshow
24.282227 0.000000 m /four glyphshow
grestore
0.800 setlinewidth
2 setlinecap
0.690 setgray
gsave
216 216 43.2 43.2 clipbox
114.829971 43.2 m
114.829971 259.2 l
stroke
grestore
1.000 setlinewidth
0 setlinecap
0.000 setgray
gsave
/o {
gsave
newpath
translate
1.0 setlinewidth
1 setlinejoin
0 setlinecap
0 0 m
0 5 l

gsave
0.000 setgray
fill
grestore
stroke
grestore
} bind def
114.83 43.2 o
grestore
gsave
/o {
gsave
newpath
translate
1.0 setlinewidth
1 setlinejoin
0 setlinecap
0 0 m
0 -5 l

gsave
0.000 setgray
fill
grestore
stroke
grestore
} bind def
114.83 259.2 o
grestore
gsave
99.509658 32.106250 translate
0.000000 rotate
0.000000 0.000000 m /minus glyphshow
8.378906 0.000000 m /zero glyphshow
14.741211 0.000000 m /period glyphshow
17.919922 0.000000 m /zero glyphshow
24.282227 0.000000 m /two glyphshow
grestore
0.800 setlinewidth
2 setlinecap
0.690 setgray
gsave
216 216 43.2 43.2 clipbox
151.2 43.2 m
151.2 259.2 l
stroke
grestore
1.000 setlinewidth
0 setlinecap
0.000 setgray
gsave
/o {
gsave
newpath
translate
1.0 setlinewidth
1 setlinejoin
0 setlinecap
0 0 m
0 5 l

gsave
0.000 setgray
fill
grestore
stroke
grestore
} bind def
151.2 43.2 o
grestore
gsave
/o {
gsave
newpath
translate
1.0 setlinewidth
1 setlinejoin
0 setlinecap
0 0 m
0 -5 l

gsave
0.000 setgray
fill
grestore
stroke
grestore
} bind def
151.2 259.2 o
grestore
gsave
140.067187 32.106250 translate
0.000000 rotate
0.000000 0.000000 m /zero glyphshow
6.362305 0.000000 m /period glyphshow
9.541016 0.000000 m /zero glyphshow
15.903320 0.000000 m /zero glyphshow
grestore
0.800 setlinewidth
2 setlinecap
0.690 setgray
gsave
216 216 43.2 43.2 clipbox
187.570029 43.2 m
187.570029 259.2 l
stroke
grestore
1.000 setlinewidth
0 setlinecap
0.000 setgray
gsave
/o {
gsave
newpath
translate
1.0 setlinewidth
1 setlinejoin
0 setlinecap
0 0 m
0 5 l

gsave
0.000 setgray
fill
grestore
stroke
grestore
} bind def
187.57 43.2 o
grestore
gsave
/o {
gsave
newpath
translate
1.0 setlinewidth
1 setlinejoin
0 setlinecap
0 0 m
0 -5 l

gsave
0.000 setgray
fill
grestore
stroke
grestore
} bind def
187.57 259.2 o
grestore
gsave
176.437217 32.106250 translate
0.000000 rotate
0.000000 0.000000 m /zero glyphshow
6.362305 0.000000 m /period glyphshow
9.541016 0.000000 m /zero glyphshow
15.903320 0.000000 m /two glyphshow
grestore
0.800 setlinewidth
2 setlinecap
0.690 setgray
gsave
216 216 43.2 43.2 clipbox
223.940059 43.2 m
223.940059 259.2 l
stroke
grestore
1.000 setlinewidth
0 setlinecap
0.000 setgray
gsave
/o {
gsave
newpath
translate
1.0 setlinewidth
1 setlinejoin
0 setlinecap
0 0 m
0 5 l

gsave
0.000 setgray
fill
grestore
stroke
grestore
} bind def
223.94 43.2 o
grestore
gsave
/o {
gsave
newpath
translate
1.0 setlinewidth
1 setlinejoin
0 setlinecap
0 0 m
0 -5 l

gsave
0.000 setgray
fill
grestore
stroke
grestore
} bind def
223.94 259.2 o
grestore
gsave
212.807246 32.106250 translate
0.000000 rotate
0.000000 0.000000 m /zero glyphshow
6.362305 0.000000 m /period glyphshow
9.541016 0.000000 m /zero glyphshow
15.903320 0.000000 m /four glyphshow
grestore
0.700 setlinewidth
gsave
/o {
gsave
newpath
translate
0.7 setlinewidth
1 setlinejoin
0 setlinecap
0 0 m
0 3 l

gsave
0.000 setgray
fill
grestore
stroke
grestore
} bind def
51.1824 43.2 o
grestore
gsave
/o {
gsave
newpath
translate
0.7 setlinewidth
1 setlinejoin
0 setlinecap
0 0 m
0 -3 l

gsave
0.000 setgray
fill
grestore
stroke
grestore
} bind def
51.1824 259.2 o
grestore
gsave
/o {
gsave
newpath
translate
0.7 setlinewidth
1 setlinejoin
0 setlinecap
0 0 m
0 3 l

gsave
0.000 setgray
fill
grestore
stroke
grestore
} bind def
60.2749 43.2 o
grestore
gsave
/o {
gsave
newpath
translate
0.7 setlinewidth
1 setlinejoin
0 setlinecap
0 0 m
0 -3 l

gsave
0.000 setgray
fill
grestore
stroke
grestore
} bind def
60.2749 259.2 o
grestore
gsave
/o {
gsave
newpath
translate
0.7 setlinewidth
1 setlinejoin
0 setlinecap
0 0 m
0 3 l

gsave
0.000 setgray
fill
grestore
stroke
grestore
} bind def
69.3674 43.2 o
grestore
gsave
/o {
gsave
newpath
translate
0.7 setlinewidth
1 setlinejoin
0 setlinecap
0 0 m
0 -3 l

gsave
0.000 setgray
fill
grestore
stroke
grestore
} bind def
69.3674 259.2 o
grestore
gsave
/o {
gsave
newpath
translate
0.7 setlinewidth
1 setlinejoin
0 setlinecap
0 0 m
0 3 l

gsave
0.000 setgray
fill
grestore
stroke
grestore
} bind def
87.5524 43.2 o
grestore
gsave
/o {
gsave
newpath
translate
0.7 setlinewidth
1 setlinejoin
0 setlinecap
0 0 m
0 -3 l

gsave
0.000 setgray
fill
grestore
stroke
grestore
} bind def
87.5524 259.2 o
grestore
gsave
/o {
gsave
newpath
translate
0.7 setlinewidth
1 setlinejoin
0 setlinecap
0 0 m
0 3 l

gsave
0.000 setgray
fill
grestore
stroke
grestore
} bind def
96.645 43.2 o
grestore
gsave
/o {
gsave
newpath
translate
0.7 setlinewidth
1 setlinejoin
0 setlinecap
0 0 m
0 -3 l

gsave
0.000 setgray
fill
grestore
stroke
grestore
} bind def
96.645 259.2 o
grestore
gsave
/o {
gsave
newpath
translate
0.7 setlinewidth
1 setlinejoin
0 setlinecap
0 0 m
0 3 l

gsave
0.000 setgray
fill
grestore
stroke
grestore
} bind def
105.737 43.2 o
grestore
gsave
/o {
gsave
newpath
translate
0.7 setlinewidth
1 setlinejoin
0 setlinecap
0 0 m
0 -3 l

gsave
0.000 setgray
fill
grestore
stroke
grestore
} bind def
105.737 259.2 o
grestore
gsave
/o {
gsave
newpath
translate
0.7 setlinewidth
1 setlinejoin
0 setlinecap
0 0 m
0 3 l

gsave
0.000 setgray
fill
grestore
stroke
grestore
} bind def
123.922 43.2 o
grestore
gsave
/o {
gsave
newpath
translate
0.7 setlinewidth
1 setlinejoin
0 setlinecap
0 0 m
0 -3 l

gsave
0.000 setgray
fill
grestore
stroke
grestore
} bind def
123.922 259.2 o
grestore
gsave
/o {
gsave
newpath
translate
0.7 setlinewidth
1 setlinejoin
0 setlinecap
0 0 m
0 3 l

gsave
0.000 setgray
fill
grestore
stroke
grestore
} bind def
133.015 43.2 o
grestore
gsave
/o {
gsave
newpath
translate
0.7 setlinewidth
1 setlinejoin
0 setlinecap
0 0 m
0 -3 l

gsave
0.000 setgray
fill
grestore
stroke
grestore
} bind def
133.015 259.2 o
grestore
gsave
/o {
gsave
newpath
translate
0.7 setlinewidth
1 setlinejoin
0 setlinecap
0 0 m
0 3 l

gsave
0.000 setgray
fill
grestore
stroke
grestore
} bind def
142.107 43.2 o
grestore
gsave
/o {
gsave
newpath
translate
0.7 setlinewidth
1 setlinejoin
0 setlinecap
0 0 m
0 -3 l

gsave
0.000 setgray
fill
grestore
stroke
grestore
} bind def
142.107 259.2 o
grestore
gsave
/o {
gsave
newpath
translate
0.7 setlinewidth
1 setlinejoin
0 setlinecap
0 0 m
0 3 l

gsave
0.000 setgray
fill
grestore
stroke
grestore
} bind def
160.293 43.2 o
grestore
gsave
/o {
gsave
newpath
translate
0.7 setlinewidth
1 setlinejoin
0 setlinecap
0 0 m
0 -3 l

gsave
0.000 setgray
fill
grestore
stroke
grestore
} bind def
160.293 259.2 o
grestore
gsave
/o {
gsave
newpath
translate
0.7 setlinewidth
1 setlinejoin
0 setlinecap
0 0 m
0 3 l

gsave
0.000 setgray
fill
grestore
stroke
grestore
} bind def
169.385 43.2 o
grestore
gsave
/o {
gsave
newpath
translate
0.7 setlinewidth
1 setlinejoin
0 setlinecap
0 0 m
0 -3 l

gsave
0.000 setgray
fill
grestore
stroke
grestore
} bind def
169.385 259.2 o
grestore
gsave
/o {
gsave
newpath
translate
0.7 setlinewidth
1 setlinejoin
0 setlinecap
0 0 m
0 3 l

gsave
0.000 setgray
fill
grestore
stroke
grestore
} bind def
178.478 43.2 o
grestore
gsave
/o {
gsave
newpath
translate
0.7 setlinewidth
1 setlinejoin
0 setlinecap
0 0 m
0 -3 l

gsave
0.000 setgray
fill
grestore
stroke
grestore
} bind def
178.478 259.2 o
grestore
gsave
/o {
gsave
newpath
translate
0.7 setlinewidth
1 setlinejoin
0 setlinecap
0 0 m
0 3 l

gsave
0.000 setgray
fill
grestore
stroke
grestore
} bind def
196.663 43.2 o
grestore
gsave
/o {
gsave
newpath
translate
0.7 setlinewidth
1 setlinejoin
0 setlinecap
0 0 m
0 -3 l

gsave
0.000 setgray
fill
grestore
stroke
grestore
} bind def
196.663 259.2 o
grestore
gsave
/o {
gsave
newpath
translate
0.7 setlinewidth
1 setlinejoin
0 setlinecap
0 0 m
0 3 l

gsave
0.000 setgray
fill
grestore
stroke
grestore
} bind def
205.755 43.2 o
grestore
gsave
/o {
gsave
newpath
translate
0.7 setlinewidth
1 setlinejoin
0 setlinecap
0 0 m
0 -3 l

gsave
0.000 setgray
fill
grestore
stroke
grestore
} bind def
205.755 259.2 o
grestore
gsave
/o {
gsave
newpath
translate
0.7 setlinewidth
1 setlinejoin
0 setlinecap
0 0 m
0 3 l

gsave
0.000 setgray
fill
grestore
stroke
grestore
} bind def
214.848 43.2 o
grestore
gsave
/o {
gsave
newpath
translate
0.7 setlinewidth
1 setlinejoin
0 setlinecap
0 0 m
0 -3 l

gsave
0.000 setgray
fill
grestore
stroke
grestore
} bind def
214.848 259.2 o
grestore
gsave
/o {
gsave
newpath
translate
0.7 setlinewidth
1 setlinejoin
0 setlinecap
0 0 m
0 3 l

gsave
0.000 setgray
fill
grestore
stroke
grestore
} bind def
233.033 43.2 o
grestore
gsave
/o {
gsave
newpath
translate
0.7 setlinewidth
1 setlinejoin
0 setlinecap
0 0 m
0 -3 l

gsave
0.000 setgray
fill
grestore
stroke
grestore
} bind def
233.033 259.2 o
grestore
gsave
/o {
gsave
newpath
translate
0.7 setlinewidth
1 setlinejoin
0 setlinecap
0 0 m
0 3 l

gsave
0.000 setgray
fill
grestore
stroke
grestore
} bind def
242.125 43.2 o
grestore
gsave
/o {
gsave
newpath
translate
0.7 setlinewidth
1 setlinejoin
0 setlinecap
0 0 m
0 -3 l

gsave
0.000 setgray
fill
grestore
stroke
grestore
} bind def
242.125 259.2 o
grestore
gsave
/o {
gsave
newpath
translate
0.7 setlinewidth
1 setlinejoin
0 setlinecap
0 0 m
0 3 l

gsave
0.000 setgray
fill
grestore
stroke
grestore
} bind def
251.218 43.2 o
grestore
gsave
/o {
gsave
newpath
translate
0.7 setlinewidth
1 setlinejoin
0 setlinecap
0 0 m
0 -3 l

gsave
0.000 setgray
fill
grestore
stroke
grestore
} bind def
251.218 259.2 o
grestore
gsave
126.200000 19.028125 translate
0.000000 rotate
/DejaVuSans-Oblique findfont
14.0 scalefont
setfont
0.000000 0.359375 moveto
/z glyphshow

/DejaVuSerif findfont
14.0 scalefont
setfont
7.348633 0.359375 moveto
/space glyphshow

11.798828 0.359375 moveto
/parenleft glyphshow

17.260742 0.359375 moveto
/m glyphshow

30.536133 0.359375 moveto
/m glyphshow

43.811523 0.359375 moveto
/parenright glyphshow


grestore
0.800 setlinewidth
2 setlinecap
0.690 setgray
gsave
216 216 43.2 43.2 clipbox
43.2 53.018182 m
259.2 53.018182 l
stroke
grestore
1.000 setlinewidth
0 setlinecap
0.000 setgray
gsave
/o {
gsave
newpath
translate
1.0 setlinewidth
1 setlinejoin
0 setlinecap
0 0 m
5 0 l

gsave
0.000 setgray
fill
grestore
stroke
grestore
} bind def
43.2 53.0182 o
grestore
gsave
/o {
gsave
newpath
translate
1.0 setlinewidth
1 setlinejoin
0 setlinecap
0 0 m
-5 0 l

gsave
0.000 setgray
fill
grestore
stroke
grestore
} bind def
259.2 53.0182 o
grestore
gsave
33.340625 49.221307 translate
0.000000 rotate
0.000000 0.000000 m /zero glyphshow
grestore
0.800 setlinewidth
2 setlinecap
0.690 setgray
gsave
216 216 43.2 43.2 clipbox
43.2 83.807732 m
259.2 83.807732 l
stroke
grestore
1.000 setlinewidth
0 setlinecap
0.000 setgray
gsave
/o {
gsave
newpath
translate
1.0 setlinewidth
1 setlinejoin
0 setlinecap
0 0 m
5 0 l

gsave
0.000 setgray
fill
grestore
stroke
grestore
} bind def
43.2 83.8077 o
grestore
gsave
/o {
gsave
newpath
translate
1.0 setlinewidth
1 setlinejoin
0 setlinecap
0 0 m
-5 0 l

gsave
0.000 setgray
fill
grestore
stroke
grestore
} bind def
259.2 83.8077 o
grestore
gsave
20.621875 80.010857 translate
0.000000 rotate
0.000000 0.000000 m /two glyphshow
6.362305 0.000000 m /zero glyphshow
12.724609 0.000000 m /zero glyphshow
grestore
0.800 setlinewidth
2 setlinecap
0.690 setgray
gsave
216 216 43.2 43.2 clipbox
43.2 114.597283 m
259.2 114.597283 l
stroke
grestore
1.000 setlinewidth
0 setlinecap
0.000 setgray
gsave
/o {
gsave
newpath
translate
1.0 setlinewidth
1 setlinejoin
0 setlinecap
0 0 m
5 0 l

gsave
0.000 setgray
fill
grestore
stroke
grestore
} bind def
43.2 114.597 o
grestore
gsave
/o {
gsave
newpath
translate
1.0 setlinewidth
1 setlinejoin
0 setlinecap
0 0 m
-5 0 l

gsave
0.000 setgray
fill
grestore
stroke
grestore
} bind def
259.2 114.597 o
grestore
gsave
20.621875 110.800408 translate
0.000000 rotate
0.000000 0.000000 m /four glyphshow
6.362305 0.000000 m /zero glyphshow
12.724609 0.000000 m /zero glyphshow
grestore
0.800 setlinewidth
2 setlinecap
0.690 setgray
gsave
216 216 43.2 43.2 clipbox
43.2 145.386834 m
259.2 145.386834 l
stroke
grestore
1.000 setlinewidth
0 setlinecap
0.000 setgray
gsave
/o {
gsave
newpath
translate
1.0 setlinewidth
1 setlinejoin
0 setlinecap
0 0 m
5 0 l

gsave
0.000 setgray
fill
grestore
stroke
grestore
} bind def
43.2 145.387 o
grestore
gsave
/o {
gsave
newpath
translate
1.0 setlinewidth
1 setlinejoin
0 setlinecap
0 0 m
-5 0 l

gsave
0.000 setgray
fill
grestore
stroke
grestore
} bind def
259.2 145.387 o
grestore
gsave
20.621875 141.589959 translate
0.000000 rotate
0.000000 0.000000 m /six glyphshow
6.362305 0.000000 m /zero glyphshow
12.724609 0.000000 m /zero glyphshow
grestore
0.800 setlinewidth
2 setlinecap
0.690 setgray
gsave
216 216 43.2 43.2 clipbox
43.2 176.176384 m
259.2 176.176384 l
stroke
grestore
1.000 setlinewidth
0 setlinecap
0.000 setgray
gsave
/o {
gsave
newpath
translate
1.0 setlinewidth
1 setlinejoin
0 setlinecap
0 0 m
5 0 l

gsave
0.000 setgray
fill
grestore
stroke
grestore
} bind def
43.2 176.176 o
grestore
gsave
/o {
gsave
newpath
translate
1.0 setlinewidth
1 setlinejoin
0 setlinecap
0 0 m
-5 0 l

gsave
0.000 setgray
fill
grestore
stroke
grestore
} bind def
259.2 176.176 o
grestore
gsave
20.621875 172.379509 translate
0.000000 rotate
0.000000 0.000000 m /eight glyphshow
6.362305 0.000000 m /zero glyphshow
12.724609 0.000000 m /zero glyphshow
grestore
0.800 setlinewidth
2 setlinecap
0.690 setgray
gsave
216 216 43.2 43.2 clipbox
43.2 206.965935 m
259.2 206.965935 l
stroke
grestore
1.000 setlinewidth
0 setlinecap
0.000 setgray
gsave
/o {
gsave
newpath
translate
1.0 setlinewidth
1 setlinejoin
0 setlinecap
0 0 m
5 0 l

gsave
0.000 setgray
fill
grestore
stroke
grestore
} bind def
43.2 206.966 o
grestore
gsave
/o {
gsave
newpath
translate
1.0 setlinewidth
1 setlinejoin
0 setlinecap
0 0 m
-5 0 l

gsave
0.000 setgray
fill
grestore
stroke
grestore
} bind def
259.2 206.966 o
grestore
gsave
14.262500 203.169060 translate
0.000000 rotate
0.000000 0.000000 m /one glyphshow
6.362305 0.000000 m /zero glyphshow
12.724609 0.000000 m /zero glyphshow
19.086914 0.000000 m /zero glyphshow
grestore
0.800 setlinewidth
2 setlinecap
0.690 setgray
gsave
216 216 43.2 43.2 clipbox
43.2 237.755485 m
259.2 237.755485 l
stroke
grestore
1.000 setlinewidth
0 setlinecap
0.000 setgray
gsave
/o {
gsave
newpath
translate
1.0 setlinewidth
1 setlinejoin
0 setlinecap
0 0 m
5 0 l

gsave
0.000 setgray
fill
grestore
stroke
grestore
} bind def
43.2 237.755 o
grestore
gsave
/o {
gsave
newpath
translate
1.0 setlinewidth
1 setlinejoin
0 setlinecap
0 0 m
-5 0 l

gsave
0.000 setgray
fill
grestore
stroke
grestore
} bind def
259.2 237.755 o
grestore
gsave
14.262500 233.958610 translate
0.000000 rotate
0.000000 0.000000 m /one glyphshow
6.362305 0.000000 m /two glyphshow
12.724609 0.000000 m /zero glyphshow
19.086914 0.000000 m /zero glyphshow
grestore
0.700 setlinewidth
gsave
/o {
gsave
newpath
translate
0.7 setlinewidth
1 setlinejoin
0 setlinecap
0 0 m
3 0 l

gsave
0.000 setgray
fill
grestore
stroke
grestore
} bind def
43.2 45.3208 o
grestore
gsave
/o {
gsave
newpath
translate
0.7 setlinewidth
1 setlinejoin
0 setlinecap
0 0 m
-3 0 l

gsave
0.000 setgray
fill
grestore
stroke
grestore
} bind def
259.2 45.3208 o
grestore
gsave
/o {
gsave
newpath
translate
0.7 setlinewidth
1 setlinejoin
0 setlinecap
0 0 m
3 0 l

gsave
0.000 setgray
fill
grestore
stroke
grestore
} bind def
43.2 60.7156 o
grestore
gsave
/o {
gsave
newpath
translate
0.7 setlinewidth
1 setlinejoin
0 setlinecap
0 0 m
-3 0 l

gsave
0.000 setgray
fill
grestore
stroke
grestore
} bind def
259.2 60.7156 o
grestore
gsave
/o {
gsave
newpath
translate
0.7 setlinewidth
1 setlinejoin
0 setlinecap
0 0 m
3 0 l

gsave
0.000 setgray
fill
grestore
stroke
grestore
} bind def
43.2 68.413 o
grestore
gsave
/o {
gsave
newpath
translate
0.7 setlinewidth
1 setlinejoin
0 setlinecap
0 0 m
-3 0 l

gsave
0.000 setgray
fill
grestore
stroke
grestore
} bind def
259.2 68.413 o
grestore
gsave
/o {
gsave
newpath
translate
0.7 setlinewidth
1 setlinejoin
0 setlinecap
0 0 m
3 0 l

gsave
0.000 setgray
fill
grestore
stroke
grestore
} bind def
43.2 76.1103 o
grestore
gsave
/o {
gsave
newpath
translate
0.7 setlinewidth
1 setlinejoin
0 setlinecap
0 0 m
-3 0 l

gsave
0.000 setgray
fill
grestore
stroke
grestore
} bind def
259.2 76.1103 o
grestore
gsave
/o {
gsave
newpath
translate
0.7 setlinewidth
1 setlinejoin
0 setlinecap
0 0 m
3 0 l

gsave
0.000 setgray
fill
grestore
stroke
grestore
} bind def
43.2 91.5051 o
grestore
gsave
/o {
gsave
newpath
translate
0.7 setlinewidth
1 setlinejoin
0 setlinecap
0 0 m
-3 0 l

gsave
0.000 setgray
fill
grestore
stroke
grestore
} bind def
259.2 91.5051 o
grestore
gsave
/o {
gsave
newpath
translate
0.7 setlinewidth
1 setlinejoin
0 setlinecap
0 0 m
3 0 l

gsave
0.000 setgray
fill
grestore
stroke
grestore
} bind def
43.2 99.2025 o
grestore
gsave
/o {
gsave
newpath
translate
0.7 setlinewidth
1 setlinejoin
0 setlinecap
0 0 m
-3 0 l

gsave
0.000 setgray
fill
grestore
stroke
grestore
} bind def
259.2 99.2025 o
grestore
gsave
/o {
gsave
newpath
translate
0.7 setlinewidth
1 setlinejoin
0 setlinecap
0 0 m
3 0 l

gsave
0.000 setgray
fill
grestore
stroke
grestore
} bind def
43.2 106.9 o
grestore
gsave
/o {
gsave
newpath
translate
0.7 setlinewidth
1 setlinejoin
0 setlinecap
0 0 m
-3 0 l

gsave
0.000 setgray
fill
grestore
stroke
grestore
} bind def
259.2 106.9 o
grestore
gsave
/o {
gsave
newpath
translate
0.7 setlinewidth
1 setlinejoin
0 setlinecap
0 0 m
3 0 l

gsave
0.000 setgray
fill
grestore
stroke
grestore
} bind def
43.2 122.295 o
grestore
gsave
/o {
gsave
newpath
translate
0.7 setlinewidth
1 setlinejoin
0 setlinecap
0 0 m
-3 0 l

gsave
0.000 setgray
fill
grestore
stroke
grestore
} bind def
259.2 122.295 o
grestore
gsave
/o {
gsave
newpath
translate
0.7 setlinewidth
1 setlinejoin
0 setlinecap
0 0 m
3 0 l

gsave
0.000 setgray
fill
grestore
stroke
grestore
} bind def
43.2 129.992 o
grestore
gsave
/o {
gsave
newpath
translate
0.7 setlinewidth
1 setlinejoin
0 setlinecap
0 0 m
-3 0 l

gsave
0.000 setgray
fill
grestore
stroke
grestore
} bind def
259.2 129.992 o
grestore
gsave
/o {
gsave
newpath
translate
0.7 setlinewidth
1 setlinejoin
0 setlinecap
0 0 m
3 0 l

gsave
0.000 setgray
fill
grestore
stroke
grestore
} bind def
43.2 137.689 o
grestore
gsave
/o {
gsave
newpath
translate
0.7 setlinewidth
1 setlinejoin
0 setlinecap
0 0 m
-3 0 l

gsave
0.000 setgray
fill
grestore
stroke
grestore
} bind def
259.2 137.689 o
grestore
gsave
/o {
gsave
newpath
translate
0.7 setlinewidth
1 setlinejoin
0 setlinecap
0 0 m
3 0 l

gsave
0.000 setgray
fill
grestore
stroke
grestore
} bind def
43.2 153.084 o
grestore
gsave
/o {
gsave
newpath
translate
0.7 setlinewidth
1 setlinejoin
0 setlinecap
0 0 m
-3 0 l

gsave
0.000 setgray
fill
grestore
stroke
grestore
} bind def
259.2 153.084 o
grestore
gsave
/o {
gsave
newpath
translate
0.7 setlinewidth
1 setlinejoin
0 setlinecap
0 0 m
3 0 l

gsave
0.000 setgray
fill
grestore
stroke
grestore
} bind def
43.2 160.782 o
grestore
gsave
/o {
gsave
newpath
translate
0.7 setlinewidth
1 setlinejoin
0 setlinecap
0 0 m
-3 0 l

gsave
0.000 setgray
fill
grestore
stroke
grestore
} bind def
259.2 160.782 o
grestore
gsave
/o {
gsave
newpath
translate
0.7 setlinewidth
1 setlinejoin
0 setlinecap
0 0 m
3 0 l

gsave
0.000 setgray
fill
grestore
stroke
grestore
} bind def
43.2 168.479 o
grestore
gsave
/o {
gsave
newpath
translate
0.7 setlinewidth
1 setlinejoin
0 setlinecap
0 0 m
-3 0 l

gsave
0.000 setgray
fill
grestore
stroke
grestore
} bind def
259.2 168.479 o
grestore
gsave
/o {
gsave
newpath
translate
0.7 setlinewidth
1 setlinejoin
0 setlinecap
0 0 m
3 0 l

gsave
0.000 setgray
fill
grestore
stroke
grestore
} bind def
43.2 183.874 o
grestore
gsave
/o {
gsave
newpath
translate
0.7 setlinewidth
1 setlinejoin
0 setlinecap
0 0 m
-3 0 l

gsave
0.000 setgray
fill
grestore
stroke
grestore
} bind def
259.2 183.874 o
grestore
gsave
/o {
gsave
newpath
translate
0.7 setlinewidth
1 setlinejoin
0 setlinecap
0 0 m
3 0 l

gsave
0.000 setgray
fill
grestore
stroke
grestore
} bind def
43.2 191.571 o
grestore
gsave
/o {
gsave
newpath
translate
0.7 setlinewidth
1 setlinejoin
0 setlinecap
0 0 m
-3 0 l

gsave
0.000 setgray
fill
grestore
stroke
grestore
} bind def
259.2 191.571 o
grestore
gsave
/o {
gsave
newpath
translate
0.7 setlinewidth
1 setlinejoin
0 setlinecap
0 0 m
3 0 l

gsave
0.000 setgray
fill
grestore
stroke
grestore
} bind def
43.2 199.269 o
grestore
gsave
/o {
gsave
newpath
translate
0.7 setlinewidth
1 setlinejoin
0 setlinecap
0 0 m
-3 0 l

gsave
0.000 setgray
fill
grestore
stroke
grestore
} bind def
259.2 199.269 o
grestore
gsave
/o {
gsave
newpath
translate
0.7 setlinewidth
1 setlinejoin
0 setlinecap
0 0 m
3 0 l

gsave
0.000 setgray
fill
grestore
stroke
grestore
} bind def
43.2 214.663 o
grestore
gsave
/o {
gsave
newpath
translate
0.7 setlinewidth
1 setlinejoin
0 setlinecap
0 0 m
-3 0 l

gsave
0.000 setgray
fill
grestore
stroke
grestore
} bind def
259.2 214.663 o
grestore
gsave
/o {
gsave
newpath
translate
0.7 setlinewidth
1 setlinejoin
0 setlinecap
0 0 m
3 0 l

gsave
0.000 setgray
fill
grestore
stroke
grestore
} bind def
43.2 222.361 o
grestore
gsave
/o {
gsave
newpath
translate
0.7 setlinewidth
1 setlinejoin
0 setlinecap
0 0 m
-3 0 l

gsave
0.000 setgray
fill
grestore
stroke
grestore
} bind def
259.2 222.361 o
grestore
gsave
/o {
gsave
newpath
translate
0.7 setlinewidth
1 setlinejoin
0 setlinecap
0 0 m
3 0 l

gsave
0.000 setgray
fill
grestore
stroke
grestore
} bind def
43.2 230.058 o
grestore
gsave
/o {
gsave
newpath
translate
0.7 setlinewidth
1 setlinejoin
0 setlinecap
0 0 m
-3 0 l

gsave
0.000 setgray
fill
grestore
stroke
grestore
} bind def
259.2 230.058 o
grestore
gsave
/o {
gsave
newpath
translate
0.7 setlinewidth
1 setlinejoin
0 setlinecap
0 0 m
3 0 l

gsave
0.000 setgray
fill
grestore
stroke
grestore
} bind def
43.2 245.453 o
grestore
gsave
/o {
gsave
newpath
translate
0.7 setlinewidth
1 setlinejoin
0 setlinecap
0 0 m
-3 0 l

gsave
0.000 setgray
fill
grestore
stroke
grestore
} bind def
259.2 245.453 o
grestore
gsave
/o {
gsave
newpath
translate
0.7 setlinewidth
1 setlinejoin
0 setlinecap
0 0 m
3 0 l

gsave
0.000 setgray
fill
grestore
stroke
grestore
} bind def
43.2 253.15 o
grestore
gsave
/o {
gsave
newpath
translate
0.7 setlinewidth
1 setlinejoin
0 setlinecap
0 0 m
-3 0 l

gsave
0.000 setgray
fill
grestore
stroke
grestore
} bind def
259.2 253.15 o
grestore
gsave
11.262500 108.200000 translate
90.000000 rotate
/DejaVuSans-Oblique findfont
14.0 scalefont
setfont
0.000000 0.359375 moveto
/rho glyphshow

/DejaVuSerif findfont
14.0 scalefont
setfont
8.886719 0.359375 moveto
/space glyphshow

13.336914 0.359375 moveto
/parenleft glyphshow

18.798828 0.359375 moveto
/a glyphshow

27.145508 0.359375 moveto
/r glyphshow

33.837891 0.359375 moveto
/b glyphshow

42.799805 0.359375 moveto
/period glyphshow

47.250000 0.359375 moveto
/space glyphshow

51.700195 0.359375 moveto
/u glyphshow

60.716797 0.359375 moveto
/n glyphshow

69.733398 0.359375 moveto
/i glyphshow

74.210938 0.359375 moveto
/t glyphshow

79.836914 0.359375 moveto
/parenright glyphshow


grestore
2.000 setlinewidth
2 setlinecap
1.000 0.000 0.000 setrgbcolor
gsave
216 216 43.2 43.2 clipbox
53.018182 53.018182 m
56.086364 198.940527 l
59.154545 53.018182 l
62.222727 53.018182 l
65.290909 53.018182 l
68.359091 53.018182 l
71.427273 53.018182 l
74.495455 53.018182 l
77.563636 53.018182 l
80.631818 53.018182 l
83.7 53.018182 l
86.768182 53.018182 l
89.836364 53.018182 l
92.904545 53.018182 l
95.972727 53.018182 l
99.040909 53.018182 l
102.109091 53.018182 l
105.177273 53.018182 l
108.245455 53.018182 l
111.313636 53.018182 l
114.381818 53.018182 l
117.45 53.018182 l
120.518182 53.018182 l
123.586364 53.018182 l
126.654545 53.018182 l
129.722727 53.018182 l
132.790909 53.018182 l
135.859091 53.018182 l
138.927273 53.018182 l
141.995455 53.018182 l
145.063636 53.018182 l
148.131818 53.018182 l
151.2 53.018182 l
154.268182 53.018182 l
157.336364 53.018182 l
160.404545 53.018182 l
163.472727 53.018182 l
166.540909 53.018182 l
169.609091 53.018182 l
172.677273 53.018182 l
175.745455 53.018182 l
178.813636 53.018182 l
181.881818 53.018182 l
184.95 53.018182 l
188.018182 53.018182 l
191.086364 53.018182 l
194.154545 53.018182 l
197.222727 53.018182 l
200.290909 53.018182 l
203.359091 53.018182 l
206.427273 53.018182 l
209.495455 53.018182 l
212.563636 53.018182 l
215.631818 53.018182 l
218.7 53.018182 l
221.768182 53.018182 l
224.836364 53.018182 l
227.904545 53.018182 l
230.972727 53.018182 l
234.040909 53.018182 l
237.109091 53.018182 l
240.177273 53.018182 l
243.245455 53.018182 l
246.313636 53.018182 l
249.381818 53.018182 l
stroke
grestore
1.000 setlinewidth
0 setlinecap
gsave
216 216 43.2 43.2 clipbox
/o {
gsave
newpath
translate
1.0 setlinewidth
1 setlinejoin
0 setlinecap
0 -3 m
0.795609 -3 1.55874 -2.683901 2.12132 -2.12132 c
2.683901 -1.55874 3 -0.795609 3 0 c
3 0.795609 2.683901 1.55874 2.12132 2.12132 c
1.55874 2.683901 0.795609 3 0 3 c
-0.795609 3 -1.55874 2.683901 -2.12132 2.12132 c
-2.683901 1.55874 -3 0.795609 -3 0 c
-3 -0.795609 -2.683901 -1.55874 -2.12132 -2.12132 c
-1.55874 -2.683901 -0.795609 -3 0 -3 c
cl

gsave
1.000 0.000 0.000 setrgbcolor
fill
grestore
stroke
grestore
} bind def
53.0182 53.0182 o
56.0864 198.941 o
59.1545 53.0182 o
62.2227 53.0182 o
65.2909 53.0182 o
68.3591 53.0182 o
71.4273 53.0182 o
74.4955 53.0182 o
77.5636 53.0182 o
80.6318 53.0182 o
83.7 53.0182 o
86.7682 53.0182 o
89.8364 53.0182 o
92.9045 53.0182 o
95.9727 53.0182 o
99.0409 53.0182 o
102.109 53.0182 o
105.177 53.0182 o
108.245 53.0182 o
111.314 53.0182 o
114.382 53.0182 o
117.45 53.0182 o
120.518 53.0182 o
123.586 53.0182 o
126.655 53.0182 o
129.723 53.0182 o
132.791 53.0182 o
135.859 53.0182 o
138.927 53.0182 o
141.995 53.0182 o
145.064 53.0182 o
148.132 53.0182 o
151.2 53.0182 o
154.268 53.0182 o
157.336 53.0182 o
160.405 53.0182 o
163.473 53.0182 o
166.541 53.0182 o
169.609 53.0182 o
172.677 53.0182 o
175.745 53.0182 o
178.814 53.0182 o
181.882 53.0182 o
184.95 53.0182 o
188.018 53.0182 o
191.086 53.0182 o
194.155 53.0182 o
197.223 53.0182 o
200.291 53.0182 o
203.359 53.0182 o
206.427 53.0182 o
209.495 53.0182 o
212.564 53.0182 o
215.632 53.0182 o
218.7 53.0182 o
221.768 53.0182 o
224.836 53.0182 o
227.905 53.0182 o
230.973 53.0182 o
234.041 53.0182 o
237.109 53.0182 o
240.177 53.0182 o
243.245 53.0182 o
246.314 53.0182 o
249.382 53.0182 o
grestore
2.000 setlinewidth
[7.4 3.2] 0 setdash
0.000 0.000 1.000 setrgbcolor
gsave
216 216 43.2 43.2 clipbox
53.018182 53.018182 m
56.086364 103.459473 l
59.154545 199.339856 l
62.222727 146.221336 l
65.290909 123.087088 l
68.359091 109.390819 l
71.427273 81.479433 l
74.495455 53.018182 l
77.563636 53.018182 l
80.631818 53.018182 l
83.7 53.018182 l
86.768182 53.018182 l
89.836364 53.018182 l
92.904545 53.018182 l
95.972727 53.018182 l
99.040909 53.018182 l
102.109091 53.018182 l
105.177273 53.018182 l
108.245455 53.018182 l
111.313636 53.018182 l
114.381818 53.018182 l
117.45 53.018182 l
120.518182 53.018182 l
123.586364 53.018182 l
126.654545 53.018182 l
129.722727 53.018182 l
132.790909 53.018182 l
135.859091 53.018182 l
138.927273 53.018182 l
141.995455 53.018182 l
145.063636 53.018182 l
148.131818 53.018182 l
151.2 53.018182 l
154.268182 53.018182 l
157.336364 53.018182 l
160.404545 53.018182 l
163.472727 53.018182 l
166.540909 53.018182 l
169.609091 53.018182 l
172.677273 53.018182 l
175.745455 53.018182 l
178.813636 53.018182 l
181.881818 53.018182 l
184.95 53.018182 l
188.018182 53.018182 l
191.086364 53.018182 l
194.154545 53.018182 l
197.222727 53.018182 l
200.290909 53.018182 l
203.359091 53.018182 l
206.427273 53.018182 l
209.495455 53.018182 l
212.563636 53.018182 l
215.631818 53.018182 l
218.7 53.018182 l
221.768182 53.018182 l
224.836364 53.018182 l
227.904545 53.018182 l
230.972727 53.018182 l
234.040909 53.018182 l
237.109091 53.018182 l
240.177273 53.018182 l
243.245455 53.018182 l
246.313636 53.018182 l
249.381818 53.018182 l
stroke
grestore
1.000 setlinewidth
0 setlinejoin
[] 0 setdash
gsave
216 216 43.2 43.2 clipbox
/o {
gsave
newpath
translate
1.0 setlinewidth
0 setlinejoin
0 setlinecap
-0 -4.242641 m
2.545584 0 l
0 4.242641 l
-2.545584 0 l
cl

gsave
0.000 0.000 1.000 setrgbcolor
fill
grestore
stroke
grestore
} bind def
53.0182 53.0182 o
56.0864 103.459 o
59.1545 199.34 o
62.2227 146.221 o
65.2909 123.087 o
68.3591 109.391 o
71.4273 81.4794 o
74.4955 53.0182 o
77.5636 53.0182 o
80.6318 53.0182 o
83.7 53.0182 o
86.7682 53.0182 o
89.8364 53.0182 o
92.9045 53.0182 o
95.9727 53.0182 o
99.0409 53.0182 o
102.109 53.0182 o
105.177 53.0182 o
108.245 53.0182 o
111.314 53.0182 o
114.382 53.0182 o
117.45 53.0182 o
120.518 53.0182 o
123.586 53.0182 o
126.655 53.0182 o
129.723 53.0182 o
132.791 53.0182 o
135.859 53.0182 o
138.927 53.0182 o
141.995 53.0182 o
145.064 53.0182 o
148.132 53.0182 o
151.2 53.0182 o
154.268 53.0182 o
157.336 53.0182 o
160.405 53.0182 o
163.473 53.0182 o
166.541 53.0182 o
169.609 53.0182 o
172.677 53.0182 o
175.745 53.0182 o
178.814 53.0182 o
181.882 53.0182 o
184.95 53.0182 o
188.018 53.0182 o
191.086 53.0182 o
194.155 53.0182 o
197.223 53.0182 o
200.291 53.0182 o
203.359 53.0182 o
206.427 53.0182 o
209.495 53.0182 o
212.564 53.0182 o
215.632 53.0182 o
218.7 53.0182 o
221.768 53.0182 o
224.836 53.0182 o
227.905 53.0182 o
230.973 53.0182 o
234.041 53.0182 o
237.109 53.0182 o
240.177 53.0182 o
243.245 53.0182 o
246.314 53.0182 o
249.382 53.0182 o
grestore
2.000 setlinewidth
1 setlinejoin
[12.8 3.2 2 3.2] 0 setdash
0.000 0.500 0.000 setrgbcolor
gsave
216 216 43.2 43.2 clipbox
53.018182 53.018182 m
56.086364 53.018182 l
59.154545 53.018182 l
62.222727 53.018182 l
65.290909 53.018182 l
68.359091 53.018182 l
71.427273 71.540624 l
74.495455 92.794701 l
77.563636 87.574707 l
80.631818 83.136496 l
83.7 79.41047 l
86.768182 76.747767 l
89.836364 74.019894 l
92.904545 71.880866 l
95.972727 70.129942 l
99.040909 68.603544 l
102.109091 61.213209 l
105.177273 53.018182 l
108.245455 53.018182 l
111.313636 53.018182 l
114.381818 53.018182 l
117.45 53.018182 l
120.518182 53.018182 l
123.586364 53.018182 l
126.654545 53.018182 l
129.722727 53.018182 l
132.790909 53.018182 l
135.859091 53.018182 l
138.927273 53.018182 l
141.995455 53.018182 l
145.063636 53.018182 l
148.131818 53.018182 l
151.2 53.018182 l
154.268182 53.018182 l
157.336364 53.018182 l
160.404545 53.018182 l
163.472727 53.018182 l
166.540909 53.018182 l
169.609091 53.018182 l
172.677273 53.018182 l
175.745455 53.018182 l
178.813636 53.018182 l
181.881818 53.018182 l
184.95 53.018182 l
188.018182 53.018182 l
191.086364 53.018182 l
194.154545 53.018182 l
197.222727 53.018182 l
200.290909 53.018182 l
203.359091 53.018182 l
206.427273 53.018182 l
209.495455 53.018182 l
212.563636 53.018182 l
215.631818 53.018182 l
218.7 53.018182 l
221.768182 53.018182 l
224.836364 53.018182 l
227.904545 53.018182 l
230.972727 53.018182 l
234.040909 53.018182 l
237.109091 53.018182 l
240.177273 53.018182 l
243.245455 53.018182 l
246.313636 53.018182 l
249.381818 53.018182 l
stroke
grestore
1.000 setlinewidth
0 setlinejoin
[] 0 setdash
gsave
216 216 43.2 43.2 clipbox
/o {
gsave
newpath
translate
1.0 setlinewidth
0 setlinejoin
0 setlinecap
-0 -3 m
3 3 l
-3 3 l
cl

gsave
0.000 0.500 0.000 setrgbcolor
fill
grestore
stroke
grestore
} bind def
53.0182 53.0182 o
56.0864 53.0182 o
59.1545 53.0182 o
62.2227 53.0182 o
65.2909 53.0182 o
68.3591 53.0182 o
71.4273 71.5406 o
74.4955 92.7947 o
77.5636 87.5747 o
80.6318 83.1365 o
83.7 79.4105 o
86.7682 76.7478 o
89.8364 74.0199 o
92.9045 71.8809 o
95.9727 70.1299 o
99.0409 68.6035 o
102.109 61.2132 o
105.177 53.0182 o
108.245 53.0182 o
111.314 53.0182 o
114.382 53.0182 o
117.45 53.0182 o
120.518 53.0182 o
123.586 53.0182 o
126.655 53.0182 o
129.723 53.0182 o
132.791 53.0182 o
135.859 53.0182 o
138.927 53.0182 o
141.995 53.0182 o
145.064 53.0182 o
148.132 53.0182 o
151.2 53.0182 o
154.268 53.0182 o
157.336 53.0182 o
160.405 53.0182 o
163.473 53.0182 o
166.541 53.0182 o
169.609 53.0182 o
172.677 53.0182 o
175.745 53.0182 o
178.814 53.0182 o
181.882 53.0182 o
184.95 53.0182 o
188.018 53.0182 o
191.086 53.0182 o
194.155 53.0182 o
197.223 53.0182 o
200.291 53.0182 o
203.359 53.0182 o
206.427 53.0182 o
209.495 53.0182 o
212.564 53.0182 o
215.632 53.0182 o
218.7 53.0182 o
221.768 53.0182 o
224.836 53.0182 o
227.905 53.0182 o
230.973 53.0182 o
234.041 53.0182 o
237.109 53.0182 o
240.177 53.0182 o
243.245 53.0182 o
246.314 53.0182 o
249.382 53.0182 o
grestore
2.000 setlinewidth
1 setlinejoin
[2 3.3] 0 setdash
0.000 0.750 0.750 setrgbcolor
gsave
216 216 43.2 43.2 clipbox
53.018182 53.018182 m
56.086364 53.018182 l
59.154545 53.018182 l
62.222727 53.018182 l
65.290909 53.018182 l
68.359091 53.018182 l
71.427273 53.018182 l
74.495455 53.018182 l
77.563636 53.018182 l
80.631818 53.018182 l
83.7 53.018182 l
86.768182 53.018182 l
89.836364 53.018182 l
92.904545 53.018182 l
95.972727 53.018182 l
99.040909 53.018182 l
102.109091 58.829255 l
105.177273 65.520986 l
108.245455 64.804064 l
111.313636 63.515027 l
114.381818 62.580453 l
117.45 61.82534 l
120.518182 61.191742 l
123.586364 60.355855 l
126.654545 59.89023 l
129.722727 59.244087 l
132.790909 58.911252 l
135.859091 58.299466 l
138.927273 57.810312 l
141.995455 57.573241 l
145.063636 57.135446 l
148.131818 56.821316 l
151.2 56.676847 l
154.268182 56.29543 l
157.336364 56.015599 l
160.404545 55.80631 l
163.472727 55.583768 l
166.540909 55.354085 l
169.609091 55.253464 l
172.677273 55.100494 l
175.745455 54.936118 l
178.813636 54.716895 l
181.881818 54.658254 l
184.95 54.541597 l
188.018182 54.356966 l
191.086364 54.270592 l
194.154545 54.38988 l
197.222727 54.09414 l
200.290909 54.009873 l
203.359091 53.947515 l
206.427273 53.860307 l
209.495455 53.807782 l
212.563636 53.807352 l
215.631818 53.717386 l
218.7 53.618617 l
221.768182 53.664405 l
224.836364 53.565394 l
227.904545 53.548762 l
230.972727 53.451887 l
234.040909 53.518629 l
237.109091 53.453337 l
240.177273 53.419854 l
243.245455 53.36422 l
246.313636 53.319667 l
249.381818 53.274607 l
stroke
grestore
1.000 setlinewidth
0 setlinejoin
[] 0 setdash
gsave
216 216 43.2 43.2 clipbox
/o {
gsave
newpath
translate
1.0 setlinewidth
0 setlinejoin
0 setlinecap
0 3 m
-3 -3 l
3 -3 l
cl

gsave
0.000 0.750 0.750 setrgbcolor
fill
grestore
stroke
grestore
} bind def
53.0182 53.0182 o
56.0864 53.0182 o
59.1545 53.0182 o
62.2227 53.0182 o
65.2909 53.0182 o
68.3591 53.0182 o
71.4273 53.0182 o
74.4955 53.0182 o
77.5636 53.0182 o
80.6318 53.0182 o
83.7 53.0182 o
86.7682 53.0182 o
89.8364 53.0182 o
92.9045 53.0182 o
95.9727 53.0182 o
99.0409 53.0182 o
102.109 58.8293 o
105.177 65.521 o
108.245 64.8041 o
111.314 63.515 o
114.382 62.5805 o
117.45 61.8253 o
120.518 61.1917 o
123.586 60.3559 o
126.655 59.8902 o
129.723 59.2441 o
132.791 58.9113 o
135.859 58.2995 o
138.927 57.8103 o
141.995 57.5732 o
145.064 57.1354 o
148.132 56.8213 o
151.2 56.6768 o
154.268 56.2954 o
157.336 56.0156 o
160.405 55.8063 o
163.473 55.5838 o
166.541 55.3541 o
169.609 55.2535 o
172.677 55.1005 o
175.745 54.9361 o
178.814 54.7169 o
181.882 54.6583 o
184.95 54.5416 o
188.018 54.357 o
191.086 54.2706 o
194.155 54.3899 o
197.223 54.0941 o
200.291 54.0099 o
203.359 53.9475 o
206.427 53.8603 o
209.495 53.8078 o
212.564 53.8074 o
215.632 53.7174 o
218.7 53.6186 o
221.768 53.6644 o
224.836 53.5654 o
227.905 53.5488 o
230.973 53.4519 o
234.041 53.5186 o
237.109 53.4533 o
240.177 53.4199 o
243.245 53.3642 o
246.314 53.3197 o
249.382 53.2746 o
grestore
2.000 setlinewidth
1 setlinejoin
[7.4 3.2] 0 setdash
0.750 0.000 0.750 setrgbcolor
gsave
216 216 43.2 43.2 clipbox
53.018182 53.018182 m
56.086364 249.381818 l
59.154545 199.339856 l
62.222727 146.221336 l
65.290909 123.087088 l
68.359091 109.390819 l
71.427273 100.001875 l
74.495455 92.794701 l
77.563636 87.574707 l
80.631818 83.136496 l
83.7 79.41047 l
86.768182 76.747767 l
89.836364 74.019894 l
92.904545 71.880866 l
95.972727 70.129942 l
99.040909 68.603544 l
102.109091 67.024282 l
105.177273 65.520986 l
108.245455 64.804064 l
111.313636 63.515027 l
114.381818 62.580453 l
117.45 61.82534 l
120.518182 61.191742 l
123.586364 60.355855 l
126.654545 59.89023 l
129.722727 59.244087 l
132.790909 58.911252 l
135.859091 58.299466 l
138.927273 57.810312 l
141.995455 57.573241 l
145.063636 57.135446 l
148.131818 56.821316 l
151.2 56.676847 l
154.268182 56.29543 l
157.336364 56.015599 l
160.404545 55.80631 l
163.472727 55.583768 l
166.540909 55.354085 l
169.609091 55.253464 l
172.677273 55.100494 l
175.745455 54.936118 l
178.813636 54.716895 l
181.881818 54.658254 l
184.95 54.541597 l
188.018182 54.356966 l
191.086364 54.270592 l
194.154545 54.38988 l
197.222727 54.09414 l
200.290909 54.009873 l
203.359091 53.947515 l
206.427273 53.860307 l
209.495455 53.807782 l
212.563636 53.807352 l
215.631818 53.717386 l
218.7 53.618617 l
221.768182 53.664405 l
224.836364 53.565394 l
227.904545 53.548762 l
230.972727 53.451887 l
234.040909 53.518629 l
237.109091 53.453337 l
240.177273 53.419854 l
243.245455 53.36422 l
246.313636 53.319667 l
249.381818 53.274607 l
stroke
grestore
0.800 setlinewidth
0 setlinejoin
2 setlinecap
[] 0 setdash
0.000 setgray
gsave
43.2 43.2 m
43.2 259.2 l
stroke
grestore
gsave
259.2 43.2 m
259.2 259.2 l
stroke
grestore
gsave
43.2 43.2 m
259.2 43.2 l
stroke
grestore
gsave
43.2 259.2 m
259.2 259.2 l
stroke
grestore
2.000 setlinewidth
1 setlinejoin
[] 0 setdash
1.000 0.000 0.000 setrgbcolor
gsave
169.2125 243.475 m
194.4125 243.475 l
stroke
grestore
1.000 setlinewidth
0 setlinecap
gsave
/o {
gsave
newpath
translate
1.0 setlinewidth
1 setlinejoin
0 setlinecap
0 -3 m
0.795609 -3 1.55874 -2.683901 2.12132 -2.12132 c
2.683901 -1.55874 3 -0.795609 3 0 c
3 0.795609 2.683901 1.55874 2.12132 2.12132 c
1.55874 2.683901 0.795609 3 0 3 c
-0.795609 3 -1.55874 2.683901 -2.12132 2.12132 c
-2.683901 1.55874 -3 0.795609 -3 0 c
-3 -0.795609 -2.683901 -1.55874 -2.12132 -2.12132 c
-1.55874 -2.683901 -0.795609 -3 0 -3 c
cl

gsave
1.000 0.000 0.000 setrgbcolor
fill
grestore
stroke
grestore
} bind def
181.812 243.475 o
grestore
0.000 setgray
/DejaVuSerif findfont
12.000 scalefont
setfont
gsave
199.212500 239.275000 translate
0.000000 rotate
0.000000 0.000000 m /s glyphshow
6.158203 0.000000 m /l glyphshow
9.996094 0.000000 m /i glyphshow
13.833984 0.000000 m /c glyphshow
20.554688 0.000000 m /e glyphshow
27.656250 0.000000 m /space glyphshow
31.470703 0.000000 m /numbersign glyphshow
41.525391 0.000000 m /one glyphshow
grestore
2.000 setlinewidth
[7.4 3.2] 0 setdash
0.000 0.000 1.000 setrgbcolor
gsave
169.2125 231.25 m
194.4125 231.25 l
stroke
grestore
1.000 setlinewidth
0 setlinejoin
[] 0 setdash
gsave
/o {
gsave
newpath
translate
1.0 setlinewidth
0 setlinejoin
0 setlinecap
-0 -4.242641 m
2.545584 0 l
0 4.242641 l
-2.545584 0 l
cl

gsave
0.000 0.000 1.000 setrgbcolor
fill
grestore
stroke
grestore
} bind def
181.812 231.25 o
grestore
0.000 setgray
gsave
199.212500 227.050000 translate
0.000000 rotate
0.000000 0.000000 m /s glyphshow
6.158203 0.000000 m /l glyphshow
9.996094 0.000000 m /i glyphshow
13.833984 0.000000 m /c glyphshow
20.554688 0.000000 m /e glyphshow
27.656250 0.000000 m /space glyphshow
31.470703 0.000000 m /numbersign glyphshow
41.525391 0.000000 m /two glyphshow
grestore
2.000 setlinewidth
1 setlinejoin
[12.8 3.2 2 3.2] 0 setdash
0.000 0.500 0.000 setrgbcolor
gsave
169.2125 219.025 m
194.4125 219.025 l
stroke
grestore
1.000 setlinewidth
0 setlinejoin
[] 0 setdash
gsave
/o {
gsave
newpath
translate
1.0 setlinewidth
0 setlinejoin
0 setlinecap
-0 -3 m
3 3 l
-3 3 l
cl

gsave
0.000 0.500 0.000 setrgbcolor
fill
grestore
stroke
grestore
} bind def
181.812 219.025 o
grestore
0.000 setgray
gsave
199.212500 214.825000 translate
0.000000 rotate
0.000000 0.000000 m /s glyphshow
6.158203 0.000000 m /l glyphshow
9.996094 0.000000 m /i glyphshow
13.833984 0.000000 m /c glyphshow
20.554688 0.000000 m /e glyphshow
27.656250 0.000000 m /space glyphshow
31.470703 0.000000 m /numbersign glyphshow
41.525391 0.000000 m /three glyphshow
grestore
2.000 setlinewidth
1 setlinejoin
[2 3.3] 0 setdash
0.000 0.750 0.750 setrgbcolor
gsave
169.2125 206.8 m
194.4125 206.8 l
stroke
grestore
1.000 setlinewidth
0 setlinejoin
[] 0 setdash
gsave
/o {
gsave
newpath
translate
1.0 setlinewidth
0 setlinejoin
0 setlinecap
0 3 m
-3 -3 l
3 -3 l
cl

gsave
0.000 0.750 0.750 setrgbcolor
fill
grestore
stroke
grestore
} bind def
181.812 206.8 o
grestore
0.000 setgray
gsave
199.212500 202.600000 translate
0.000000 rotate
0.000000 0.000000 m /s glyphshow
6.158203 0.000000 m /l glyphshow
9.996094 0.000000 m /i glyphshow
13.833984 0.000000 m /c glyphshow
20.554688 0.000000 m /e glyphshow
27.656250 0.000000 m /space glyphshow
31.470703 0.000000 m /numbersign glyphshow
41.525391 0.000000 m /four glyphshow
grestore
2.000 setlinewidth
1 setlinejoin
[7.4 3.2] 0 setdash
0.750 0.000 0.750 setrgbcolor
gsave
169.2125 194.575 m
194.4125 194.575 l
stroke
grestore
0.000 setgray
gsave
199.212500 190.375000 translate
0.000000 rotate
0.000000 0.000000 m /a glyphshow
7.154297 0.000000 m /l glyphshow
10.992188 0.000000 m /l glyphshow
grestore

end
showpage
