\relax 
\citation{krasilnikov2012experimentally}
\citation{astra}
\citation{chen2018modeling}
\citation{qiang2006three}
\citation{qiang2006three}
\citation{hockney1988}
\citation{qiang2006three}
\babel@aux{USenglish}{}
\@writefile{toc}{\contentsline {section}{INTRODUCTION}{1}}
\@writefile{toc}{\contentsline {section}{3D space charge solver}{1}}
\newlabel{eq:poissons-equation}{{1}{1}}
\@writefile{toc}{\contentsline {section}{Effects of energy spread on space charge calculation}{1}}
\citation{krasilnikov2012experimentally}
\citation{krasilnikov2019pitz}
\citation{krasilnikov2016investigations}
\@writefile{lof}{\contentsline {figure}{\numberline {1}{\ignorespaces Longitudinal phase space grouped by momentum (a) and charge density profile of each group (b).\relax }}{2}}
\providecommand*\caption@xref[2]{\@setref\relax\@undefined{#1}}
\newlabel{fig:binned-by-energy}{{1}{2}}
\newlabel{eq:lorentz-transformation}{{3}{2}}
\@writefile{toc}{\contentsline {section}{Experimental study on emission}{2}}
\@writefile{lof}{\contentsline {figure}{\numberline {2}{\ignorespaces Vertical magnetic field (a) and effective focusing field (b) along the bunch in the laboratory frame.\relax }}{2}}
\newlabel{fig:focusing-field}{{2}{2}}
\@writefile{lof}{\contentsline {figure}{\numberline {3}{\ignorespaces Axial electric and solenoid field profiles in the gun.\relax }}{2}}
\newlabel{fig:fields-in-gun}{{3}{2}}
\bibcite{krasilnikov2012experimentally}{1}
\@writefile{lof}{\contentsline {figure}{\numberline {4}{\ignorespaces Measured laser transverse profile (a) and core-halo fit (b).\relax }}{3}}
\newlabel{fig:laser-profile}{{4}{3}}
\@writefile{lof}{\contentsline {figure}{\numberline {5}{\ignorespaces Measurements and simulations on emission curves at various BSA diameters: (a) measurement; (b)-(d) simulations for BSA diameter of 0.5, 0.9 and 1.3 mm.\relax }}{3}}
\newlabel{fig:emission-curve}{{5}{3}}
\@writefile{toc}{\contentsline {section}{Simulations on emission curves}{3}}
\@writefile{lof}{\contentsline {figure}{\numberline {6}{\ignorespaces Comparison of simulated RMS emittance in the gun with input charge of 20 pC (a) and 100 pC (b).\relax }}{3}}
\newlabel{fig:benchmark}{{6}{3}}
\@writefile{toc}{\contentsline {section}{CONCLUSION}{3}}
\bibcite{astra}{2}
\bibcite{chen2018modeling}{3}
\bibcite{qiang2006three}{4}
\bibcite{hockney1988}{5}
\bibcite{krasilnikov2019pitz}{6}
\bibcite{krasilnikov2016investigations}{7}
