O    1.691250    0.000000    0.000000    0.000000    0
Q    0.067500   -0.092721   -0.750000    0.000000    1
O    1.000000    0.000000    0.000000    0.000000    0
Q    0.067500    0.538487    0.000000    0.750000    1
O    1.000000    0.000000    0.000000    0.000000    0
Q    0.067500   -0.363418   -0.750000    0.000000    1
O    3.444250    0.000000    0.000000    0.000000    0
Q    0.067500    0.205529    0.000000    1.000000    1
O    0.312500    0.000000    0.000000    0.000000    0
Q    0.067500   -1.389630   -1.500000    0.000000    1
O    0.312500    0.000000    0.000000    0.000000    0
Q    0.067500    1.190960    0.000000    1.500000    1
O    0.572500    0.000000    0.000000    0.000000    0
