%!PS-Adobe-3.0 EPSF-3.0
%%Title: fields.eps
%%Creator: matplotlib version 2.2.2, http://matplotlib.org/
%%CreationDate: Thu Dec 13 10:13:22 2018
%%Orientation: portrait
%%BoundingBox: 90 252 522 540
%%EndComments
%%BeginProlog
/mpldict 9 dict def
mpldict begin
/m { moveto } bind def
/l { lineto } bind def
/r { rlineto } bind def
/c { curveto } bind def
/cl { closepath } bind def
/box {
m
1 index 0 r
0 exch r
neg 0 r
cl
} bind def
/clipbox {
box
clip
newpath
} bind def
%!PS-Adobe-3.0 Resource-Font
%%Title: DejaVu Serif
%%Copyright: Copyright (c) 2003 by Bitstream, Inc. All Rights Reserved. DejaVu changes are in public domain 
%%Creator: Converted from TrueType to type 3 by PPR
25 dict begin
/_d{bind def}bind def
/_m{moveto}_d
/_l{lineto}_d
/_cl{closepath eofill}_d
/_c{curveto}_d
/_sc{7 -1 roll{setcachedevice}{pop pop pop pop pop pop}ifelse}_d
/_e{exec}_d
/FontName /DejaVuSerif def
/PaintType 0 def
/FontMatrix[.001 0 0 .001 0 0]def
/FontBBox[-770 -347 2105 1109]def
/FontType 3 def
/Encoding [ /space /parenleft /parenright /period /zero /one /two /three /four /five /a /b /i /m /n /o /r /t /u /minus ] def
/FontInfo 10 dict dup begin
/FamilyName (DejaVu Serif) def
/FullName (DejaVu Serif) def
/Notice (Copyright (c) 2003 by Bitstream, Inc. All Rights Reserved. DejaVu changes are in public domain ) def
/Weight (Book) def
/Version (Version 2.35) def
/ItalicAngle 0.0 def
/isFixedPitch false def
/UnderlinePosition -130 def
/UnderlineThickness 90 def
end readonly def
/CharStrings 21 dict dup begin
/.notdef 0 def
/space{318 0 0 0 0 0 _sc
}_d
/parenleft{390 0 79 -155 319 760 _sc
319 -155 _m
239 -119 179 -63 139 13 _c
99 89 79 186 79 302 _c
79 418 99 514 139 591 _c
179 668 239 724 319 760 _c
319 712 _l
269 677 233 628 211 566 _c
189 503 178 415 178 302 _c
178 188 189 100 211 38 _c
233 -24 269 -72 319 -107 _c
319 -155 _l
_cl}_d
/parenright{390 0 71 -155 311 760 _sc
71 -155 _m
71 -107 _l
121 -72 157 -24 179 38 _c
201 100 212 188 212 302 _c
212 415 201 503 179 566 _c
157 628 121 677 71 712 _c
71 760 _l
150 724 210 668 250 591 _c
290 514 311 418 311 302 _c
311 186 290 89 250 13 _c
210 -63 150 -119 71 -155 _c
_cl}_d
/period{318 0 94 -13 224 116 _sc
94 51 _m
94 69 100 84 112 97 _c
124 109 140 116 159 116 _c
177 116 192 109 205 97 _c
217 84 224 69 224 51 _c
224 33 217 17 205 5 _c
192 -7 177 -13 159 -13 _c
140 -13 124 -7 112 5 _c
100 17 94 32 94 51 _c
_cl}_d
/zero{636 0 66 -13 570 742 _sc
318 34 _m
368 34 405 61 430 116 _c
454 170 467 253 467 364 _c
467 474 454 557 430 612 _c
405 666 368 694 318 694 _c
268 694 230 666 206 612 _c
181 557 169 474 169 364 _c
169 253 181 170 206 116 _c
230 61 268 34 318 34 _c
318 -13 _m
238 -13 176 20 132 86 _c
88 152 66 244 66 364 _c
66 483 88 576 132 642 _c
176 708 238 742 318 742 _c
397 742 459 708 503 642 _c
547 576 570 483 570 364 _c
570 244 547 152 503 86 _c
459 20 397 -13 318 -13 _c
_cl}_d
/one{636 0 122 0 494 742 _sc
142 0 _m
142 52 _l
269 52 _l
269 658 _l
122 563 _l
122 627 _l
300 742 _l
367 742 _l
367 52 _l
494 52 _l
494 0 _l
142 0 _l
_cl}_d
/two{{636 0 68 0 538 742 _sc
128 555 _m
73 555 _l
73 685 _l
107 703 142 717 178 727 _c
213 737 248 742 282 742 _c
358 742 418 723 462 687 _c
506 650 528 600 528 537 _c
528 465 478 380 378 281 _c
370 273 365 268 361 264 _c
177 80 _l
481 80 _l
481 170 _l
538 170 _l
538 0 _l
68 0 _l
68 53 _l
289 274 _l
337 322 372 367 393 408 _c
414 449 425 492 425 537 _c
}_e{425 586 412 624 386 652 _c
360 680 325 694 281 694 _c
234 694 198 682 173 659 _c
147 636 132 601 128 555 _c
_cl}_e}_d
/three{{636 0 76 -13 562 742 _sc
97 698 _m
135 712 171 723 206 731 _c
241 738 274 742 305 742 _c
376 742 432 726 472 696 _c
512 665 532 622 532 568 _c
532 524 518 487 490 458 _c
462 428 423 408 373 398 _c
433 389 479 367 512 332 _c
545 297 562 252 562 197 _c
562 129 539 77 493 41 _c
447 5 382 -13 296 -13 _c
258 -13 220 -9 184 -1 _c
148 6 112 18 76 35 _c
76 177 _l
}_e{131 177 _l
134 129 150 94 178 70 _c
206 46 246 34 298 34 _c
348 34 387 48 416 77 _c
444 106 459 146 459 196 _c
459 253 444 296 414 326 _c
384 355 341 370 284 370 _c
238 370 _l
238 420 _l
262 420 _l
319 420 362 431 390 455 _c
418 479 433 514 433 562 _c
433 604 421 637 398 660 _c
374 682 341 694 297 694 _c
253 694 218 683 194 662 _c
170 641 156 610 152 570 _c
}_e{97 570 _l
97 698 _l
_cl}_e}_d
/four{636 0 31 0 586 742 _sc
349 247 _m
349 635 _l
100 247 _l
349 247 _l
564 0 _m
232 0 _l
232 52 _l
349 52 _l
349 195 _l
31 195 _l
31 248 _l
350 742 _l
447 742 _l
447 247 _l
586 247 _l
586 195 _l
447 195 _l
447 52 _l
564 52 _l
564 0 _l
_cl}_d
/five{{636 0 85 -13 559 729 _sc
503 729 _m
503 649 _l
169 649 _l
169 440 _l
185 452 205 460 228 466 _c
250 472 276 475 304 475 _c
382 475 444 453 490 409 _c
536 365 559 306 559 231 _c
559 153 536 93 490 51 _c
444 8 379 -13 296 -13 _c
262 -13 228 -9 193 -1 _c
157 6 121 18 85 35 _c
85 177 _l
140 177 _l
143 130 158 94 184 70 _c
210 46 248 34 296 34 _c
}_e{347 34 386 51 414 85 _c
442 119 456 167 456 231 _c
456 294 442 342 415 376 _c
387 410 348 427 296 427 _c
266 427 240 421 218 411 _c
196 401 176 385 159 363 _c
117 363 _l
117 729 _l
503 729 _l
_cl}_e}_d
/a{{596 0 50 -13 568 533 _sc
398 163 _m
398 273 _l
282 273 _l
237 273 204 263 182 244 _c
160 224 150 195 150 156 _c
150 120 161 91 183 70 _c
205 48 235 38 273 38 _c
310 38 340 49 363 72 _c
386 95 398 125 398 163 _c
488 324 _m
488 52 _l
568 52 _l
568 0 _l
398 0 _l
398 56 _l
378 32 355 14 329 3 _c
303 -7 272 -13 238 -13 _c
180 -13 134 2 100 32 _c
}_e{66 62 50 104 50 156 _c
50 209 69 250 108 280 _c
146 310 201 325 272 325 _c
398 325 _l
398 361 _l
398 400 386 430 362 452 _c
338 474 304 485 261 485 _c
225 485 197 476 176 460 _c
154 444 141 420 136 388 _c
90 388 _l
90 493 _l
121 506 151 516 181 523 _c
210 529 239 533 267 533 _c
339 533 393 515 431 479 _c
469 443 488 392 488 324 _c
_cl}_e}_d
/b{{640 0 29 -13 590 760 _sc
115 52 _m
115 708 _l
29 708 _l
29 760 _l
205 760 _l
205 438 _l
222 470 244 494 272 510 _c
299 525 333 533 373 533 _c
437 533 489 507 529 457 _c
569 407 590 341 590 260 _c
590 178 569 112 529 62 _c
489 12 437 -13 373 -13 _c
333 -13 299 -5 272 9 _c
244 24 222 48 205 81 _c
205 0 _l
29 0 _l
29 52 _l
115 52 _l
205 234 _m
}_e{205 171 217 123 241 91 _c
265 58 299 42 345 42 _c
391 42 425 60 449 97 _c
473 133 485 188 485 260 _c
485 332 473 386 449 422 _c
425 458 391 477 345 477 _c
299 477 265 460 241 427 _c
217 394 205 347 205 285 _c
205 234 _l
_cl}_e}_d
/i{320 0 36 0 297 736 _sc
97 680 _m
97 695 102 708 113 719 _c
124 730 137 736 153 736 _c
167 736 180 730 191 719 _c
202 708 208 695 208 680 _c
208 664 202 651 192 641 _c
181 630 168 625 153 625 _c
137 625 124 630 113 641 _c
102 651 97 664 97 680 _c
212 52 _m
297 52 _l
297 0 _l
36 0 _l
36 52 _l
122 52 _l
122 467 _l
36 467 _l
36 519 _l
212 519 _l
212 52 _l
_cl}_d
/m{{948 0 36 0 921 533 _sc
518 418 _m
535 456 557 484 584 504 _c
611 523 642 533 678 533 _c
732 533 773 516 800 482 _c
826 448 840 398 840 330 _c
840 52 _l
921 52 _l
921 0 _l
672 0 _l
672 52 _l
750 52 _l
750 320 _l
750 372 742 410 726 433 _c
710 455 685 467 649 467 _c
609 467 578 451 557 421 _c
536 391 526 347 526 289 _c
526 52 _l
604 52 _l
604 0 _l
358 0 _l
}_e{358 52 _l
436 52 _l
436 323 _l
436 375 428 412 412 434 _c
396 456 371 467 335 467 _c
295 467 264 451 243 421 _c
222 391 212 347 212 289 _c
212 52 _l
290 52 _l
290 0 _l
41 0 _l
41 52 _l
122 52 _l
122 468 _l
36 468 _l
36 519 _l
212 519 _l
212 427 _l
228 461 249 488 275 506 _c
301 524 330 533 363 533 _c
403 533 436 523 463 503 _c
}_e{490 483 508 454 518 418 _c
_cl}_e}_d
/n{{644 0 36 0 616 533 _sc
41 0 _m
41 52 _l
122 52 _l
122 467 _l
36 467 _l
36 519 _l
212 519 _l
212 427 _l
228 461 250 488 276 506 _c
302 524 333 533 369 533 _c
426 533 468 516 495 484 _c
522 451 536 400 536 330 _c
536 52 _l
616 52 _l
616 0 _l
368 0 _l
368 52 _l
446 52 _l
446 302 _l
446 365 438 408 422 432 _c
406 456 379 468 340 468 _c
}_e{298 468 266 452 244 422 _c
222 391 212 347 212 289 _c
212 52 _l
290 52 _l
290 0 _l
41 0 _l
_cl}_e}_d
/o{602 0 50 -13 552 533 _sc
301 34 _m
349 34 385 53 410 91 _c
434 129 447 185 447 260 _c
447 334 434 390 410 428 _c
385 466 349 485 301 485 _c
253 485 216 466 192 428 _c
167 390 155 334 155 260 _c
155 185 167 129 192 91 _c
216 53 253 34 301 34 _c
301 -13 _m
225 -13 165 11 119 61 _c
73 111 50 177 50 260 _c
50 342 72 408 118 458 _c
164 508 225 533 301 533 _c
377 533 437 508 483 458 _c
529 408 552 342 552 260 _c
552 177 529 111 483 61 _c
437 11 377 -13 301 -13 _c
_cl}_d
/r{478 0 36 0 478 533 _sc
478 520 _m
478 390 _l
426 390 _l
424 416 417 435 405 448 _c
392 460 373 467 349 467 _c
305 467 271 451 247 421 _c
223 390 212 346 212 289 _c
212 52 _l
316 52 _l
316 0 _l
41 0 _l
41 52 _l
122 52 _l
122 468 _l
36 468 _l
36 519 _l
212 519 _l
212 427 _l
229 463 251 489 279 507 _c
307 524 341 533 381 533 _c
395 533 411 531 427 529 _c
443 527 460 524 478 520 _c
_cl}_d
/t{402 0 29 -13 394 680 _sc
108 467 _m
29 467 _l
29 519 _l
108 519 _l
108 680 _l
198 680 _l
198 519 _l
367 519 _l
367 467 _l
198 467 _l
198 137 _l
198 93 202 64 211 52 _c
219 40 235 34 258 34 _c
281 34 298 41 309 55 _c
319 69 325 91 326 122 _c
394 122 _l
391 74 378 40 355 19 _c
332 -2 297 -13 250 -13 _c
198 -13 161 -1 140 21 _c
118 43 108 82 108 137 _c
108 467 _l
_cl}_d
/u{{644 0 27 -13 607 519 _sc
354 519 _m
522 519 _l
522 52 _l
607 52 _l
607 0 _l
432 0 _l
432 92 _l
415 57 393 31 367 13 _c
341 -4 310 -13 276 -13 _c
218 -13 175 3 148 35 _c
121 67 108 119 108 189 _c
108 467 _l
27 467 _l
27 519 _l
198 519 _l
198 217 _l
198 153 205 110 221 87 _c
237 63 264 52 304 52 _c
346 52 377 67 399 98 _c
421 128 432 173 432 231 _c
}_e{432 467 _l
354 467 _l
354 519 _l
_cl}_e}_d
/minus{838 0 106 274 732 353 _sc
106 353 _m
732 353 _l
732 274 _l
106 274 _l
106 353 _l
_cl}_d
end readonly def

/BuildGlyph
 {exch begin
 CharStrings exch
 2 copy known not{pop /.notdef}if
 true 3 1 roll get exec
 end}_d

/BuildChar {
 1 index /Encoding get exch get
 1 index /BuildGlyph get exec
}_d

FontName currentdict end definefont pop
%!PS-Adobe-3.0 Resource-Font
%%Title: DejaVu Sans Oblique
%%Copyright: Copyright (c) 2003 by Bitstream, Inc. All Rights Reserved. Copyright (c) 2006 by Tavmjong Bah. All Rights Reserved. DejaVu changes are in public domain 
%%Creator: Converted from TrueType to type 3 by PPR
25 dict begin
/_d{bind def}bind def
/_m{moveto}_d
/_l{lineto}_d
/_cl{closepath eofill}_d
/_c{curveto}_d
/_sc{7 -1 roll{setcachedevice}{pop pop pop pop pop pop}ifelse}_d
/_e{exec}_d
/FontName /DejaVuSans-Oblique def
/PaintType 0 def
/FontMatrix[.001 0 0 .001 0 0]def
/FontBBox[-1016 -350 1659 1068]def
/FontType 3 def
/Encoding [ /B /E /z ] def
/FontInfo 10 dict dup begin
/FamilyName (DejaVu Sans) def
/FullName (DejaVu Sans Oblique) def
/Notice (Copyright (c) 2003 by Bitstream, Inc. All Rights Reserved. Copyright (c) 2006 by Tavmjong Bah. All Rights Reserved. DejaVu changes are in public domain ) def
/Weight (Oblique) def
/Version (Version 2.35) def
/ItalicAngle -11.0 def
/isFixedPitch false def
/UnderlinePosition -130 def
/UnderlineThickness 90 def
end readonly def
/CharStrings 4 dict dup begin
/.notdef 0 def
/B{{686 0 27 0 625 729 _sc
169 729 _m
421 729 _l
489 729 540 716 574 691 _c
608 665 625 627 625 576 _c
625 529 610 489 581 455 _c
552 421 514 400 467 393 _c
507 383 537 366 557 340 _c
577 314 588 280 588 238 _c
588 164 560 106 506 64 _c
452 21 378 0 284 0 _c
27 0 _l
169 729 _l
193 348 _m
141 81 _l
300 81 _l
359 81 405 94 437 122 _c
469 149 486 188 486 238 _c
}_e{486 276 475 303 454 321 _c
432 339 398 348 351 348 _c
193 348 _l
251 648 _m
208 428 _l
355 428 _l
407 428 448 439 478 462 _c
507 485 522 517 522 557 _c
522 588 512 611 492 626 _c
472 640 440 648 397 648 _c
251 648 _l
_cl}_e}_d
/E{632 0 27 0 630 729 _sc
169 729 _m
630 729 _l
614 646 _l
251 646 _l
209 430 _l
557 430 _l
541 347 _l
193 347 _l
142 83 _l
513 83 _l
497 0 _l
27 0 _l
169 729 _l
_cl}_d
/z{525 0 -2 0 543 547 _sc
116 547 _m
543 547 _l
527 465 _l
115 72 _l
455 72 _l
441 0 _l
-2 0 _l
13 82 _l
425 475 _l
102 475 _l
116 547 _l
_cl}_d
end readonly def

/BuildGlyph
 {exch begin
 CharStrings exch
 2 copy known not{pop /.notdef}if
 true 3 1 roll get exec
 end}_d

/BuildChar {
 1 index /Encoding get exch get
 1 index /BuildGlyph get exec
}_d

FontName currentdict end definefont pop
end
%%EndProlog
mpldict begin
90 252 translate
432 288 0 0 clipbox
gsave
0 0 m
432 0 l
432 288 l
0 288 l
cl
1.000 setgray
fill
grestore
gsave
64.8 43.2 m
388.8 43.2 l
388.8 259.2 l
64.8 259.2 l
cl
1.000 setgray
fill
grestore
0.800 setlinewidth
1 setlinejoin
2 setlinecap
[] 0 setdash
0.690 setgray
gsave
324 216 64.8 43.2 clipbox
92.340923 43.2 m
92.340923 259.2 l
stroke
grestore
1.000 setlinewidth
0 setlinecap
0.000 setgray
gsave
/o {
gsave
newpath
translate
1.0 setlinewidth
1 setlinejoin
0 setlinecap
0 0 m
0 5 l

gsave
0.000 setgray
fill
grestore
stroke
grestore
} bind def
92.3409 43.2 o
grestore
gsave
/o {
gsave
newpath
translate
1.0 setlinewidth
1 setlinejoin
0 setlinecap
0 0 m
0 -5 l

gsave
0.000 setgray
fill
grestore
stroke
grestore
} bind def
92.3409 259.2 o
grestore
/DejaVuSerif findfont
10.000 scalefont
setfont
gsave
89.161235 32.106250 translate
0.000000 rotate
0.000000 0.000000 m /zero glyphshow
grestore
0.800 setlinewidth
2 setlinecap
0.690 setgray
gsave
324 216 64.8 43.2 clipbox
156.409174 43.2 m
156.409174 259.2 l
stroke
grestore
1.000 setlinewidth
0 setlinecap
0.000 setgray
gsave
/o {
gsave
newpath
translate
1.0 setlinewidth
1 setlinejoin
0 setlinecap
0 0 m
0 5 l

gsave
0.000 setgray
fill
grestore
stroke
grestore
} bind def
156.409 43.2 o
grestore
gsave
/o {
gsave
newpath
translate
1.0 setlinewidth
1 setlinejoin
0 setlinecap
0 0 m
0 -5 l

gsave
0.000 setgray
fill
grestore
stroke
grestore
} bind def
156.409 259.2 o
grestore
gsave
153.229486 32.106250 translate
0.000000 rotate
0.000000 0.000000 m /one glyphshow
grestore
0.800 setlinewidth
2 setlinecap
0.690 setgray
gsave
324 216 64.8 43.2 clipbox
220.477425 43.2 m
220.477425 259.2 l
stroke
grestore
1.000 setlinewidth
0 setlinecap
0.000 setgray
gsave
/o {
gsave
newpath
translate
1.0 setlinewidth
1 setlinejoin
0 setlinecap
0 0 m
0 5 l

gsave
0.000 setgray
fill
grestore
stroke
grestore
} bind def
220.477 43.2 o
grestore
gsave
/o {
gsave
newpath
translate
1.0 setlinewidth
1 setlinejoin
0 setlinecap
0 0 m
0 -5 l

gsave
0.000 setgray
fill
grestore
stroke
grestore
} bind def
220.477 259.2 o
grestore
gsave
217.297737 32.106250 translate
0.000000 rotate
0.000000 0.000000 m /two glyphshow
grestore
0.800 setlinewidth
2 setlinecap
0.690 setgray
gsave
324 216 64.8 43.2 clipbox
284.545676 43.2 m
284.545676 259.2 l
stroke
grestore
1.000 setlinewidth
0 setlinecap
0.000 setgray
gsave
/o {
gsave
newpath
translate
1.0 setlinewidth
1 setlinejoin
0 setlinecap
0 0 m
0 5 l

gsave
0.000 setgray
fill
grestore
stroke
grestore
} bind def
284.546 43.2 o
grestore
gsave
/o {
gsave
newpath
translate
1.0 setlinewidth
1 setlinejoin
0 setlinecap
0 0 m
0 -5 l

gsave
0.000 setgray
fill
grestore
stroke
grestore
} bind def
284.546 259.2 o
grestore
gsave
281.365988 32.106250 translate
0.000000 rotate
0.000000 0.000000 m /three glyphshow
grestore
0.800 setlinewidth
2 setlinecap
0.690 setgray
gsave
324 216 64.8 43.2 clipbox
348.613926 43.2 m
348.613926 259.2 l
stroke
grestore
1.000 setlinewidth
0 setlinecap
0.000 setgray
gsave
/o {
gsave
newpath
translate
1.0 setlinewidth
1 setlinejoin
0 setlinecap
0 0 m
0 5 l

gsave
0.000 setgray
fill
grestore
stroke
grestore
} bind def
348.614 43.2 o
grestore
gsave
/o {
gsave
newpath
translate
1.0 setlinewidth
1 setlinejoin
0 setlinecap
0 0 m
0 -5 l

gsave
0.000 setgray
fill
grestore
stroke
grestore
} bind def
348.614 259.2 o
grestore
gsave
345.434239 32.106250 translate
0.000000 rotate
0.000000 0.000000 m /four glyphshow
grestore
0.700 setlinewidth
gsave
/o {
gsave
newpath
translate
0.7 setlinewidth
1 setlinejoin
0 setlinecap
0 0 m
0 3 l

gsave
0.000 setgray
fill
grestore
stroke
grestore
} bind def
66.7136 43.2 o
grestore
gsave
/o {
gsave
newpath
translate
0.7 setlinewidth
1 setlinejoin
0 setlinecap
0 0 m
0 -3 l

gsave
0.000 setgray
fill
grestore
stroke
grestore
} bind def
66.7136 259.2 o
grestore
gsave
/o {
gsave
newpath
translate
0.7 setlinewidth
1 setlinejoin
0 setlinecap
0 0 m
0 3 l

gsave
0.000 setgray
fill
grestore
stroke
grestore
} bind def
79.5273 43.2 o
grestore
gsave
/o {
gsave
newpath
translate
0.7 setlinewidth
1 setlinejoin
0 setlinecap
0 0 m
0 -3 l

gsave
0.000 setgray
fill
grestore
stroke
grestore
} bind def
79.5273 259.2 o
grestore
gsave
/o {
gsave
newpath
translate
0.7 setlinewidth
1 setlinejoin
0 setlinecap
0 0 m
0 3 l

gsave
0.000 setgray
fill
grestore
stroke
grestore
} bind def
105.155 43.2 o
grestore
gsave
/o {
gsave
newpath
translate
0.7 setlinewidth
1 setlinejoin
0 setlinecap
0 0 m
0 -3 l

gsave
0.000 setgray
fill
grestore
stroke
grestore
} bind def
105.155 259.2 o
grestore
gsave
/o {
gsave
newpath
translate
0.7 setlinewidth
1 setlinejoin
0 setlinecap
0 0 m
0 3 l

gsave
0.000 setgray
fill
grestore
stroke
grestore
} bind def
117.968 43.2 o
grestore
gsave
/o {
gsave
newpath
translate
0.7 setlinewidth
1 setlinejoin
0 setlinecap
0 0 m
0 -3 l

gsave
0.000 setgray
fill
grestore
stroke
grestore
} bind def
117.968 259.2 o
grestore
gsave
/o {
gsave
newpath
translate
0.7 setlinewidth
1 setlinejoin
0 setlinecap
0 0 m
0 3 l

gsave
0.000 setgray
fill
grestore
stroke
grestore
} bind def
130.782 43.2 o
grestore
gsave
/o {
gsave
newpath
translate
0.7 setlinewidth
1 setlinejoin
0 setlinecap
0 0 m
0 -3 l

gsave
0.000 setgray
fill
grestore
stroke
grestore
} bind def
130.782 259.2 o
grestore
gsave
/o {
gsave
newpath
translate
0.7 setlinewidth
1 setlinejoin
0 setlinecap
0 0 m
0 3 l

gsave
0.000 setgray
fill
grestore
stroke
grestore
} bind def
143.596 43.2 o
grestore
gsave
/o {
gsave
newpath
translate
0.7 setlinewidth
1 setlinejoin
0 setlinecap
0 0 m
0 -3 l

gsave
0.000 setgray
fill
grestore
stroke
grestore
} bind def
143.596 259.2 o
grestore
gsave
/o {
gsave
newpath
translate
0.7 setlinewidth
1 setlinejoin
0 setlinecap
0 0 m
0 3 l

gsave
0.000 setgray
fill
grestore
stroke
grestore
} bind def
156.409 43.2 o
grestore
gsave
/o {
gsave
newpath
translate
0.7 setlinewidth
1 setlinejoin
0 setlinecap
0 0 m
0 -3 l

gsave
0.000 setgray
fill
grestore
stroke
grestore
} bind def
156.409 259.2 o
grestore
gsave
/o {
gsave
newpath
translate
0.7 setlinewidth
1 setlinejoin
0 setlinecap
0 0 m
0 3 l

gsave
0.000 setgray
fill
grestore
stroke
grestore
} bind def
169.223 43.2 o
grestore
gsave
/o {
gsave
newpath
translate
0.7 setlinewidth
1 setlinejoin
0 setlinecap
0 0 m
0 -3 l

gsave
0.000 setgray
fill
grestore
stroke
grestore
} bind def
169.223 259.2 o
grestore
gsave
/o {
gsave
newpath
translate
0.7 setlinewidth
1 setlinejoin
0 setlinecap
0 0 m
0 3 l

gsave
0.000 setgray
fill
grestore
stroke
grestore
} bind def
182.036 43.2 o
grestore
gsave
/o {
gsave
newpath
translate
0.7 setlinewidth
1 setlinejoin
0 setlinecap
0 0 m
0 -3 l

gsave
0.000 setgray
fill
grestore
stroke
grestore
} bind def
182.036 259.2 o
grestore
gsave
/o {
gsave
newpath
translate
0.7 setlinewidth
1 setlinejoin
0 setlinecap
0 0 m
0 3 l

gsave
0.000 setgray
fill
grestore
stroke
grestore
} bind def
194.85 43.2 o
grestore
gsave
/o {
gsave
newpath
translate
0.7 setlinewidth
1 setlinejoin
0 setlinecap
0 0 m
0 -3 l

gsave
0.000 setgray
fill
grestore
stroke
grestore
} bind def
194.85 259.2 o
grestore
gsave
/o {
gsave
newpath
translate
0.7 setlinewidth
1 setlinejoin
0 setlinecap
0 0 m
0 3 l

gsave
0.000 setgray
fill
grestore
stroke
grestore
} bind def
207.664 43.2 o
grestore
gsave
/o {
gsave
newpath
translate
0.7 setlinewidth
1 setlinejoin
0 setlinecap
0 0 m
0 -3 l

gsave
0.000 setgray
fill
grestore
stroke
grestore
} bind def
207.664 259.2 o
grestore
gsave
/o {
gsave
newpath
translate
0.7 setlinewidth
1 setlinejoin
0 setlinecap
0 0 m
0 3 l

gsave
0.000 setgray
fill
grestore
stroke
grestore
} bind def
220.477 43.2 o
grestore
gsave
/o {
gsave
newpath
translate
0.7 setlinewidth
1 setlinejoin
0 setlinecap
0 0 m
0 -3 l

gsave
0.000 setgray
fill
grestore
stroke
grestore
} bind def
220.477 259.2 o
grestore
gsave
/o {
gsave
newpath
translate
0.7 setlinewidth
1 setlinejoin
0 setlinecap
0 0 m
0 3 l

gsave
0.000 setgray
fill
grestore
stroke
grestore
} bind def
233.291 43.2 o
grestore
gsave
/o {
gsave
newpath
translate
0.7 setlinewidth
1 setlinejoin
0 setlinecap
0 0 m
0 -3 l

gsave
0.000 setgray
fill
grestore
stroke
grestore
} bind def
233.291 259.2 o
grestore
gsave
/o {
gsave
newpath
translate
0.7 setlinewidth
1 setlinejoin
0 setlinecap
0 0 m
0 3 l

gsave
0.000 setgray
fill
grestore
stroke
grestore
} bind def
246.105 43.2 o
grestore
gsave
/o {
gsave
newpath
translate
0.7 setlinewidth
1 setlinejoin
0 setlinecap
0 0 m
0 -3 l

gsave
0.000 setgray
fill
grestore
stroke
grestore
} bind def
246.105 259.2 o
grestore
gsave
/o {
gsave
newpath
translate
0.7 setlinewidth
1 setlinejoin
0 setlinecap
0 0 m
0 3 l

gsave
0.000 setgray
fill
grestore
stroke
grestore
} bind def
258.918 43.2 o
grestore
gsave
/o {
gsave
newpath
translate
0.7 setlinewidth
1 setlinejoin
0 setlinecap
0 0 m
0 -3 l

gsave
0.000 setgray
fill
grestore
stroke
grestore
} bind def
258.918 259.2 o
grestore
gsave
/o {
gsave
newpath
translate
0.7 setlinewidth
1 setlinejoin
0 setlinecap
0 0 m
0 3 l

gsave
0.000 setgray
fill
grestore
stroke
grestore
} bind def
271.732 43.2 o
grestore
gsave
/o {
gsave
newpath
translate
0.7 setlinewidth
1 setlinejoin
0 setlinecap
0 0 m
0 -3 l

gsave
0.000 setgray
fill
grestore
stroke
grestore
} bind def
271.732 259.2 o
grestore
gsave
/o {
gsave
newpath
translate
0.7 setlinewidth
1 setlinejoin
0 setlinecap
0 0 m
0 3 l

gsave
0.000 setgray
fill
grestore
stroke
grestore
} bind def
284.546 43.2 o
grestore
gsave
/o {
gsave
newpath
translate
0.7 setlinewidth
1 setlinejoin
0 setlinecap
0 0 m
0 -3 l

gsave
0.000 setgray
fill
grestore
stroke
grestore
} bind def
284.546 259.2 o
grestore
gsave
/o {
gsave
newpath
translate
0.7 setlinewidth
1 setlinejoin
0 setlinecap
0 0 m
0 3 l

gsave
0.000 setgray
fill
grestore
stroke
grestore
} bind def
297.359 43.2 o
grestore
gsave
/o {
gsave
newpath
translate
0.7 setlinewidth
1 setlinejoin
0 setlinecap
0 0 m
0 -3 l

gsave
0.000 setgray
fill
grestore
stroke
grestore
} bind def
297.359 259.2 o
grestore
gsave
/o {
gsave
newpath
translate
0.7 setlinewidth
1 setlinejoin
0 setlinecap
0 0 m
0 3 l

gsave
0.000 setgray
fill
grestore
stroke
grestore
} bind def
310.173 43.2 o
grestore
gsave
/o {
gsave
newpath
translate
0.7 setlinewidth
1 setlinejoin
0 setlinecap
0 0 m
0 -3 l

gsave
0.000 setgray
fill
grestore
stroke
grestore
} bind def
310.173 259.2 o
grestore
gsave
/o {
gsave
newpath
translate
0.7 setlinewidth
1 setlinejoin
0 setlinecap
0 0 m
0 3 l

gsave
0.000 setgray
fill
grestore
stroke
grestore
} bind def
322.987 43.2 o
grestore
gsave
/o {
gsave
newpath
translate
0.7 setlinewidth
1 setlinejoin
0 setlinecap
0 0 m
0 -3 l

gsave
0.000 setgray
fill
grestore
stroke
grestore
} bind def
322.987 259.2 o
grestore
gsave
/o {
gsave
newpath
translate
0.7 setlinewidth
1 setlinejoin
0 setlinecap
0 0 m
0 3 l

gsave
0.000 setgray
fill
grestore
stroke
grestore
} bind def
335.8 43.2 o
grestore
gsave
/o {
gsave
newpath
translate
0.7 setlinewidth
1 setlinejoin
0 setlinecap
0 0 m
0 -3 l

gsave
0.000 setgray
fill
grestore
stroke
grestore
} bind def
335.8 259.2 o
grestore
gsave
/o {
gsave
newpath
translate
0.7 setlinewidth
1 setlinejoin
0 setlinecap
0 0 m
0 3 l

gsave
0.000 setgray
fill
grestore
stroke
grestore
} bind def
348.614 43.2 o
grestore
gsave
/o {
gsave
newpath
translate
0.7 setlinewidth
1 setlinejoin
0 setlinecap
0 0 m
0 -3 l

gsave
0.000 setgray
fill
grestore
stroke
grestore
} bind def
348.614 259.2 o
grestore
gsave
/o {
gsave
newpath
translate
0.7 setlinewidth
1 setlinejoin
0 setlinecap
0 0 m
0 3 l

gsave
0.000 setgray
fill
grestore
stroke
grestore
} bind def
361.428 43.2 o
grestore
gsave
/o {
gsave
newpath
translate
0.7 setlinewidth
1 setlinejoin
0 setlinecap
0 0 m
0 -3 l

gsave
0.000 setgray
fill
grestore
stroke
grestore
} bind def
361.428 259.2 o
grestore
gsave
/o {
gsave
newpath
translate
0.7 setlinewidth
1 setlinejoin
0 setlinecap
0 0 m
0 3 l

gsave
0.000 setgray
fill
grestore
stroke
grestore
} bind def
374.241 43.2 o
grestore
gsave
/o {
gsave
newpath
translate
0.7 setlinewidth
1 setlinejoin
0 setlinecap
0 0 m
0 -3 l

gsave
0.000 setgray
fill
grestore
stroke
grestore
} bind def
374.241 259.2 o
grestore
gsave
/o {
gsave
newpath
translate
0.7 setlinewidth
1 setlinejoin
0 setlinecap
0 0 m
0 3 l

gsave
0.000 setgray
fill
grestore
stroke
grestore
} bind def
387.055 43.2 o
grestore
gsave
/o {
gsave
newpath
translate
0.7 setlinewidth
1 setlinejoin
0 setlinecap
0 0 m
0 -3 l

gsave
0.000 setgray
fill
grestore
stroke
grestore
} bind def
387.055 259.2 o
grestore
gsave
208.800000 19.028125 translate
0.000000 rotate
/DejaVuSans-Oblique findfont
14.0 scalefont
setfont
0.000000 0.359375 moveto
/z glyphshow

/DejaVuSerif findfont
14.0 scalefont
setfont
7.348633 0.359375 moveto
/space glyphshow

11.798828 0.359375 moveto
/parenleft glyphshow

17.260742 0.359375 moveto
/m glyphshow

30.536133 0.359375 moveto
/parenright glyphshow


grestore
0.800 setlinewidth
2 setlinecap
0.690 setgray
gsave
324 216 64.8 43.2 clipbox
64.8 61.2 m
388.8 61.2 l
stroke
grestore
1.000 setlinewidth
0 setlinecap
0.000 setgray
gsave
/o {
gsave
newpath
translate
1.0 setlinewidth
1 setlinejoin
0 setlinecap
0 0 m
5 0 l

gsave
0.000 setgray
fill
grestore
stroke
grestore
} bind def
64.8 61.2 o
grestore
gsave
/o {
gsave
newpath
translate
1.0 setlinewidth
1 setlinejoin
0 setlinecap
0 0 m
-5 0 l

gsave
0.000 setgray
fill
grestore
stroke
grestore
} bind def
388.8 61.2 o
grestore
gsave
37.018750 57.403125 translate
0.000000 rotate
0.000000 0.000000 m /minus glyphshow
8.378906 0.000000 m /one glyphshow
14.741211 0.000000 m /period glyphshow
17.919922 0.000000 m /zero glyphshow
grestore
0.800 setlinewidth
2 setlinecap
0.690 setgray
gsave
324 216 64.8 43.2 clipbox
64.8 106.2 m
388.8 106.2 l
stroke
grestore
1.000 setlinewidth
0 setlinecap
0.000 setgray
gsave
/o {
gsave
newpath
translate
1.0 setlinewidth
1 setlinejoin
0 setlinecap
0 0 m
5 0 l

gsave
0.000 setgray
fill
grestore
stroke
grestore
} bind def
64.8 106.2 o
grestore
gsave
/o {
gsave
newpath
translate
1.0 setlinewidth
1 setlinejoin
0 setlinecap
0 0 m
-5 0 l

gsave
0.000 setgray
fill
grestore
stroke
grestore
} bind def
388.8 106.2 o
grestore
gsave
37.018750 102.403125 translate
0.000000 rotate
0.000000 0.000000 m /minus glyphshow
8.378906 0.000000 m /zero glyphshow
14.741211 0.000000 m /period glyphshow
17.919922 0.000000 m /five glyphshow
grestore
0.800 setlinewidth
2 setlinecap
0.690 setgray
gsave
324 216 64.8 43.2 clipbox
64.8 151.2 m
388.8 151.2 l
stroke
grestore
1.000 setlinewidth
0 setlinecap
0.000 setgray
gsave
/o {
gsave
newpath
translate
1.0 setlinewidth
1 setlinejoin
0 setlinecap
0 0 m
5 0 l

gsave
0.000 setgray
fill
grestore
stroke
grestore
} bind def
64.8 151.2 o
grestore
gsave
/o {
gsave
newpath
translate
1.0 setlinewidth
1 setlinejoin
0 setlinecap
0 0 m
-5 0 l

gsave
0.000 setgray
fill
grestore
stroke
grestore
} bind def
388.8 151.2 o
grestore
gsave
45.393750 147.403125 translate
0.000000 rotate
0.000000 0.000000 m /zero glyphshow
6.362305 0.000000 m /period glyphshow
9.541016 0.000000 m /zero glyphshow
grestore
0.800 setlinewidth
2 setlinecap
0.690 setgray
gsave
324 216 64.8 43.2 clipbox
64.8 196.2 m
388.8 196.2 l
stroke
grestore
1.000 setlinewidth
0 setlinecap
0.000 setgray
gsave
/o {
gsave
newpath
translate
1.0 setlinewidth
1 setlinejoin
0 setlinecap
0 0 m
5 0 l

gsave
0.000 setgray
fill
grestore
stroke
grestore
} bind def
64.8 196.2 o
grestore
gsave
/o {
gsave
newpath
translate
1.0 setlinewidth
1 setlinejoin
0 setlinecap
0 0 m
-5 0 l

gsave
0.000 setgray
fill
grestore
stroke
grestore
} bind def
388.8 196.2 o
grestore
gsave
45.393750 192.403125 translate
0.000000 rotate
0.000000 0.000000 m /zero glyphshow
6.362305 0.000000 m /period glyphshow
9.541016 0.000000 m /five glyphshow
grestore
0.800 setlinewidth
2 setlinecap
0.690 setgray
gsave
324 216 64.8 43.2 clipbox
64.8 241.2 m
388.8 241.2 l
stroke
grestore
1.000 setlinewidth
0 setlinecap
0.000 setgray
gsave
/o {
gsave
newpath
translate
1.0 setlinewidth
1 setlinejoin
0 setlinecap
0 0 m
5 0 l

gsave
0.000 setgray
fill
grestore
stroke
grestore
} bind def
64.8 241.2 o
grestore
gsave
/o {
gsave
newpath
translate
1.0 setlinewidth
1 setlinejoin
0 setlinecap
0 0 m
-5 0 l

gsave
0.000 setgray
fill
grestore
stroke
grestore
} bind def
388.8 241.2 o
grestore
gsave
45.393750 237.403125 translate
0.000000 rotate
0.000000 0.000000 m /one glyphshow
6.362305 0.000000 m /period glyphshow
9.541016 0.000000 m /zero glyphshow
grestore
0.700 setlinewidth
gsave
/o {
gsave
newpath
translate
0.7 setlinewidth
1 setlinejoin
0 setlinecap
0 0 m
3 0 l

gsave
0.000 setgray
fill
grestore
stroke
grestore
} bind def
64.8 52.2 o
grestore
gsave
/o {
gsave
newpath
translate
0.7 setlinewidth
1 setlinejoin
0 setlinecap
0 0 m
-3 0 l

gsave
0.000 setgray
fill
grestore
stroke
grestore
} bind def
388.8 52.2 o
grestore
gsave
/o {
gsave
newpath
translate
0.7 setlinewidth
1 setlinejoin
0 setlinecap
0 0 m
3 0 l

gsave
0.000 setgray
fill
grestore
stroke
grestore
} bind def
64.8 70.2 o
grestore
gsave
/o {
gsave
newpath
translate
0.7 setlinewidth
1 setlinejoin
0 setlinecap
0 0 m
-3 0 l

gsave
0.000 setgray
fill
grestore
stroke
grestore
} bind def
388.8 70.2 o
grestore
gsave
/o {
gsave
newpath
translate
0.7 setlinewidth
1 setlinejoin
0 setlinecap
0 0 m
3 0 l

gsave
0.000 setgray
fill
grestore
stroke
grestore
} bind def
64.8 79.2 o
grestore
gsave
/o {
gsave
newpath
translate
0.7 setlinewidth
1 setlinejoin
0 setlinecap
0 0 m
-3 0 l

gsave
0.000 setgray
fill
grestore
stroke
grestore
} bind def
388.8 79.2 o
grestore
gsave
/o {
gsave
newpath
translate
0.7 setlinewidth
1 setlinejoin
0 setlinecap
0 0 m
3 0 l

gsave
0.000 setgray
fill
grestore
stroke
grestore
} bind def
64.8 88.2 o
grestore
gsave
/o {
gsave
newpath
translate
0.7 setlinewidth
1 setlinejoin
0 setlinecap
0 0 m
-3 0 l

gsave
0.000 setgray
fill
grestore
stroke
grestore
} bind def
388.8 88.2 o
grestore
gsave
/o {
gsave
newpath
translate
0.7 setlinewidth
1 setlinejoin
0 setlinecap
0 0 m
3 0 l

gsave
0.000 setgray
fill
grestore
stroke
grestore
} bind def
64.8 97.2 o
grestore
gsave
/o {
gsave
newpath
translate
0.7 setlinewidth
1 setlinejoin
0 setlinecap
0 0 m
-3 0 l

gsave
0.000 setgray
fill
grestore
stroke
grestore
} bind def
388.8 97.2 o
grestore
gsave
/o {
gsave
newpath
translate
0.7 setlinewidth
1 setlinejoin
0 setlinecap
0 0 m
3 0 l

gsave
0.000 setgray
fill
grestore
stroke
grestore
} bind def
64.8 106.2 o
grestore
gsave
/o {
gsave
newpath
translate
0.7 setlinewidth
1 setlinejoin
0 setlinecap
0 0 m
-3 0 l

gsave
0.000 setgray
fill
grestore
stroke
grestore
} bind def
388.8 106.2 o
grestore
gsave
/o {
gsave
newpath
translate
0.7 setlinewidth
1 setlinejoin
0 setlinecap
0 0 m
3 0 l

gsave
0.000 setgray
fill
grestore
stroke
grestore
} bind def
64.8 115.2 o
grestore
gsave
/o {
gsave
newpath
translate
0.7 setlinewidth
1 setlinejoin
0 setlinecap
0 0 m
-3 0 l

gsave
0.000 setgray
fill
grestore
stroke
grestore
} bind def
388.8 115.2 o
grestore
gsave
/o {
gsave
newpath
translate
0.7 setlinewidth
1 setlinejoin
0 setlinecap
0 0 m
3 0 l

gsave
0.000 setgray
fill
grestore
stroke
grestore
} bind def
64.8 124.2 o
grestore
gsave
/o {
gsave
newpath
translate
0.7 setlinewidth
1 setlinejoin
0 setlinecap
0 0 m
-3 0 l

gsave
0.000 setgray
fill
grestore
stroke
grestore
} bind def
388.8 124.2 o
grestore
gsave
/o {
gsave
newpath
translate
0.7 setlinewidth
1 setlinejoin
0 setlinecap
0 0 m
3 0 l

gsave
0.000 setgray
fill
grestore
stroke
grestore
} bind def
64.8 133.2 o
grestore
gsave
/o {
gsave
newpath
translate
0.7 setlinewidth
1 setlinejoin
0 setlinecap
0 0 m
-3 0 l

gsave
0.000 setgray
fill
grestore
stroke
grestore
} bind def
388.8 133.2 o
grestore
gsave
/o {
gsave
newpath
translate
0.7 setlinewidth
1 setlinejoin
0 setlinecap
0 0 m
3 0 l

gsave
0.000 setgray
fill
grestore
stroke
grestore
} bind def
64.8 142.2 o
grestore
gsave
/o {
gsave
newpath
translate
0.7 setlinewidth
1 setlinejoin
0 setlinecap
0 0 m
-3 0 l

gsave
0.000 setgray
fill
grestore
stroke
grestore
} bind def
388.8 142.2 o
grestore
gsave
/o {
gsave
newpath
translate
0.7 setlinewidth
1 setlinejoin
0 setlinecap
0 0 m
3 0 l

gsave
0.000 setgray
fill
grestore
stroke
grestore
} bind def
64.8 151.2 o
grestore
gsave
/o {
gsave
newpath
translate
0.7 setlinewidth
1 setlinejoin
0 setlinecap
0 0 m
-3 0 l

gsave
0.000 setgray
fill
grestore
stroke
grestore
} bind def
388.8 151.2 o
grestore
gsave
/o {
gsave
newpath
translate
0.7 setlinewidth
1 setlinejoin
0 setlinecap
0 0 m
3 0 l

gsave
0.000 setgray
fill
grestore
stroke
grestore
} bind def
64.8 160.2 o
grestore
gsave
/o {
gsave
newpath
translate
0.7 setlinewidth
1 setlinejoin
0 setlinecap
0 0 m
-3 0 l

gsave
0.000 setgray
fill
grestore
stroke
grestore
} bind def
388.8 160.2 o
grestore
gsave
/o {
gsave
newpath
translate
0.7 setlinewidth
1 setlinejoin
0 setlinecap
0 0 m
3 0 l

gsave
0.000 setgray
fill
grestore
stroke
grestore
} bind def
64.8 169.2 o
grestore
gsave
/o {
gsave
newpath
translate
0.7 setlinewidth
1 setlinejoin
0 setlinecap
0 0 m
-3 0 l

gsave
0.000 setgray
fill
grestore
stroke
grestore
} bind def
388.8 169.2 o
grestore
gsave
/o {
gsave
newpath
translate
0.7 setlinewidth
1 setlinejoin
0 setlinecap
0 0 m
3 0 l

gsave
0.000 setgray
fill
grestore
stroke
grestore
} bind def
64.8 178.2 o
grestore
gsave
/o {
gsave
newpath
translate
0.7 setlinewidth
1 setlinejoin
0 setlinecap
0 0 m
-3 0 l

gsave
0.000 setgray
fill
grestore
stroke
grestore
} bind def
388.8 178.2 o
grestore
gsave
/o {
gsave
newpath
translate
0.7 setlinewidth
1 setlinejoin
0 setlinecap
0 0 m
3 0 l

gsave
0.000 setgray
fill
grestore
stroke
grestore
} bind def
64.8 187.2 o
grestore
gsave
/o {
gsave
newpath
translate
0.7 setlinewidth
1 setlinejoin
0 setlinecap
0 0 m
-3 0 l

gsave
0.000 setgray
fill
grestore
stroke
grestore
} bind def
388.8 187.2 o
grestore
gsave
/o {
gsave
newpath
translate
0.7 setlinewidth
1 setlinejoin
0 setlinecap
0 0 m
3 0 l

gsave
0.000 setgray
fill
grestore
stroke
grestore
} bind def
64.8 196.2 o
grestore
gsave
/o {
gsave
newpath
translate
0.7 setlinewidth
1 setlinejoin
0 setlinecap
0 0 m
-3 0 l

gsave
0.000 setgray
fill
grestore
stroke
grestore
} bind def
388.8 196.2 o
grestore
gsave
/o {
gsave
newpath
translate
0.7 setlinewidth
1 setlinejoin
0 setlinecap
0 0 m
3 0 l

gsave
0.000 setgray
fill
grestore
stroke
grestore
} bind def
64.8 205.2 o
grestore
gsave
/o {
gsave
newpath
translate
0.7 setlinewidth
1 setlinejoin
0 setlinecap
0 0 m
-3 0 l

gsave
0.000 setgray
fill
grestore
stroke
grestore
} bind def
388.8 205.2 o
grestore
gsave
/o {
gsave
newpath
translate
0.7 setlinewidth
1 setlinejoin
0 setlinecap
0 0 m
3 0 l

gsave
0.000 setgray
fill
grestore
stroke
grestore
} bind def
64.8 214.2 o
grestore
gsave
/o {
gsave
newpath
translate
0.7 setlinewidth
1 setlinejoin
0 setlinecap
0 0 m
-3 0 l

gsave
0.000 setgray
fill
grestore
stroke
grestore
} bind def
388.8 214.2 o
grestore
gsave
/o {
gsave
newpath
translate
0.7 setlinewidth
1 setlinejoin
0 setlinecap
0 0 m
3 0 l

gsave
0.000 setgray
fill
grestore
stroke
grestore
} bind def
64.8 223.2 o
grestore
gsave
/o {
gsave
newpath
translate
0.7 setlinewidth
1 setlinejoin
0 setlinecap
0 0 m
-3 0 l

gsave
0.000 setgray
fill
grestore
stroke
grestore
} bind def
388.8 223.2 o
grestore
gsave
/o {
gsave
newpath
translate
0.7 setlinewidth
1 setlinejoin
0 setlinecap
0 0 m
3 0 l

gsave
0.000 setgray
fill
grestore
stroke
grestore
} bind def
64.8 232.2 o
grestore
gsave
/o {
gsave
newpath
translate
0.7 setlinewidth
1 setlinejoin
0 setlinecap
0 0 m
-3 0 l

gsave
0.000 setgray
fill
grestore
stroke
grestore
} bind def
388.8 232.2 o
grestore
gsave
/o {
gsave
newpath
translate
0.7 setlinewidth
1 setlinejoin
0 setlinecap
0 0 m
3 0 l

gsave
0.000 setgray
fill
grestore
stroke
grestore
} bind def
64.8 241.2 o
grestore
gsave
/o {
gsave
newpath
translate
0.7 setlinewidth
1 setlinejoin
0 setlinecap
0 0 m
-3 0 l

gsave
0.000 setgray
fill
grestore
stroke
grestore
} bind def
388.8 241.2 o
grestore
gsave
/o {
gsave
newpath
translate
0.7 setlinewidth
1 setlinejoin
0 setlinecap
0 0 m
3 0 l

gsave
0.000 setgray
fill
grestore
stroke
grestore
} bind def
64.8 250.2 o
grestore
gsave
/o {
gsave
newpath
translate
0.7 setlinewidth
1 setlinejoin
0 setlinecap
0 0 m
-3 0 l

gsave
0.000 setgray
fill
grestore
stroke
grestore
} bind def
388.8 250.2 o
grestore
gsave
/o {
gsave
newpath
translate
0.7 setlinewidth
1 setlinejoin
0 setlinecap
0 0 m
3 0 l

gsave
0.000 setgray
fill
grestore
stroke
grestore
} bind def
64.8 259.2 o
grestore
gsave
/o {
gsave
newpath
translate
0.7 setlinewidth
1 setlinejoin
0 setlinecap
0 0 m
-3 0 l

gsave
0.000 setgray
fill
grestore
stroke
grestore
} bind def
388.8 259.2 o
grestore
gsave
34.018750 86.200000 translate
90.000000 rotate
/DejaVuSans-Oblique findfont
14.0 scalefont
setfont
0.000000 0.359375 moveto
/E glyphshow

/DejaVuSans-Oblique findfont
9.8 scalefont
setfont
8.845703 -1.937500 moveto
/z glyphshow

/DejaVuSerif findfont
14.0 scalefont
setfont
14.372559 0.359375 moveto
/space glyphshow

18.822754 0.359375 moveto
/o glyphshow

27.251465 0.359375 moveto
/r glyphshow

33.943848 0.359375 moveto
/space glyphshow

/DejaVuSans-Oblique findfont
14.0 scalefont
setfont
38.394043 0.359375 moveto
/B glyphshow

/DejaVuSans-Oblique findfont
9.8 scalefont
setfont
47.998535 -1.937500 moveto
/z glyphshow

/DejaVuSerif findfont
14.0 scalefont
setfont
53.525391 0.359375 moveto
/space glyphshow

57.975586 0.359375 moveto
/parenleft glyphshow

63.437500 0.359375 moveto
/a glyphshow

71.784180 0.359375 moveto
/r glyphshow

78.476562 0.359375 moveto
/b glyphshow

87.438477 0.359375 moveto
/period glyphshow

91.888672 0.359375 moveto
/space glyphshow

96.338867 0.359375 moveto
/u glyphshow

105.355469 0.359375 moveto
/n glyphshow

114.372070 0.359375 moveto
/i glyphshow

118.849609 0.359375 moveto
/t glyphshow

124.475586 0.359375 moveto
/parenright glyphshow


grestore
2.000 setlinewidth
2 setlinecap
1.000 0.000 0.000 setrgbcolor
gsave
324 216 64.8 43.2 clipbox
92.340923 254.147238 m
92.565448 253.876374 l
92.789972 253.391292 l
93.014499 252.674424 l
93.239026 251.694981 l
93.463547 250.405272 l
93.688074 248.736285 l
93.912601 246.593934 l
94.137122 243.854037 l
94.361649 240.358491 l
94.586176 235.915034 l
94.810697 230.302575 l
95.035224 223.293344 l
95.259751 214.689565 l
95.484272 204.380422 l
95.708799 192.407089 l
95.933326 179.013357 l
96.157847 164.651498 l
96.382374 149.930864 l
96.606902 135.523832 l
96.831422 122.045875 l
97.05595 109.961986 l
97.280477 99.533768 l
97.504998 90.822516 l
97.729525 83.732476 l
97.954052 78.075281 l
98.178579 73.625892 l
98.4031 70.163433 l
98.62764 67.491901 l
98.852135 65.450537 l
99.076694 63.912488 l
99.301189 62.781477 l
99.525749 61.986406 l
99.750244 61.47742 l
99.974803 61.221532 l
100.199298 61.2 l
100.423857 61.406339 l
100.648353 61.845464 l
100.872848 62.533164 l
101.097407 63.496321 l
101.321902 64.773203 l
101.546461 66.413942 l
101.770956 68.479484 l
101.995516 71.039399 l
102.220011 74.166151 l
102.44457 77.925455 l
102.669065 82.359592 l
102.893624 87.46737 l
103.11812 93.182592 l
103.342679 99.358543 l
103.567174 105.770653 l
103.791733 112.141312 l
104.016228 118.185772 l
104.240723 123.662668 l
104.465283 128.414136 l
104.689778 132.378252 l
104.914337 135.579226 l
105.138832 138.104736 l
105.363391 140.084808 l
105.587887 141.675477 l
105.812446 143.047296 l
106.036941 144.357886 l
106.2615 145.696926 l
106.485995 147.033193 l
106.710554 148.243017 l
106.93505 149.214717 l
107.159609 149.918823 l
107.384104 150.393529 l
107.608599 150.699594 l
107.833158 150.891898 l
108.057654 151.011131 l
108.282213 151.08448 l
108.506708 151.129426 l
108.731267 151.156911 l
108.955762 151.173695 l
109.180321 151.183947 l
109.404817 151.190204 l
109.629376 151.194023 l
109.853871 151.196352 l
110.07843 151.197774 l
110.302925 151.198642 l
110.527485 151.199171 l
110.75198 151.199494 l
110.976539 151.199691 l
111.201034 151.199812 l
111.425529 151.199885 l
111.650088 151.19993 l
111.874584 151.199957 l
112.099143 151.199974 l
112.323638 151.199984 l
112.548197 151.19999 l
112.772692 151.199994 l
112.997252 151.199996 l
113.221747 151.199998 l
113.446306 151.199999 l
113.670801 151.199999 l
113.89536 151.199999 l
114.119855 151.2 l
114.344415 151.2 l
114.56891 151.2 l
stroke
grestore
0.000 0.000 1.000 setrgbcolor
gsave
324 216 64.8 43.2 clipbox
92.340923 245.792493 m
92.543379 245.723832 l
92.745834 245.514906 l
92.94829 245.156859 l
93.150746 244.634193 l
93.353201 243.923904 l
93.555657 242.993808 l
93.758113 241.800606 l
93.960568 240.287451 l
94.163024 238.381031 l
94.36548 235.988575 l
94.567935 232.995832 l
94.770391 229.266845 l
94.972847 224.647418 l
95.175302 218.976242 l
95.377758 212.103836 l
95.580214 203.922883 l
95.782669 194.404364 l
95.985125 183.632702 l
96.187581 171.826165 l
96.390036 159.330706 l
96.592492 146.585712 l
96.794948 134.065064 l
96.997403 122.211748 l
97.199859 111.379447 l
97.402315 101.795299 l
97.60477 93.553124 l
97.807226 86.631758 l
98.009682 80.929485 l
98.212137 76.299847 l
98.414593 72.582641 l
98.617049 69.624022 l
98.819504 67.287406 l
99.02196 65.458353 l
99.224416 64.044322 l
99.426871 62.972589 l
99.629327 62.187675 l
99.831783 61.648449 l
100.034238 61.325628 l
100.236694 61.2 l
100.43915 61.260901 l
100.641605 61.505424 l
100.844061 61.937786 l
101.046517 62.56923 l
101.248973 63.418128 l
101.451428 64.510182 l
101.653884 65.878728 l
101.85634 67.56454 l
102.058795 69.615091 l
102.261251 72.082658 l
102.463707 75.020071 l
102.666162 78.474208 l
102.868618 82.476256 l
103.071074 87.029312 l
103.273529 92.095414 l
103.475985 97.585456 l
103.678441 103.356834 l
103.880896 109.222917 l
104.083352 114.975489 l
104.285808 120.414694 l
104.488263 125.378221 l
104.690719 129.761097 l
104.893175 133.520717 l
105.09563 136.669582 l
105.298086 139.260385 l
105.500542 141.370606 l
105.702997 143.089727 l
105.905453 144.510742 l
106.107909 145.722267 l
106.310364 146.795568 l
106.51282 147.767536 l
106.715276 148.632663 l
106.917731 149.361003 l
107.120187 149.931343 l
107.322643 150.349037 l
107.525098 150.639807 l
107.727554 150.83546 l
107.93001 150.964405 l
108.132465 151.04833 l
108.334921 151.102579 l
108.537377 151.137502 l
108.739832 151.159932 l
108.942288 151.174323 l
109.144744 151.183549 l
109.347199 151.189461 l
109.549655 151.193249 l
109.752111 151.195675 l
109.954566 151.19723 l
110.157022 151.198225 l
110.359478 151.198863 l
110.561933 151.199272 l
110.764389 151.199533 l
110.966845 151.199701 l
111.1693 151.199808 l
111.371756 151.199877 l
111.574212 151.199921 l
111.776667 151.199948 l
111.979123 151.199966 l
112.181579 151.199976 l
112.384035 151.199981 l
112.58649 151.199983 l
stroke
grestore
0.000 0.500 0.000 setrgbcolor
gsave
324 216 64.8 43.2 clipbox
92.340923 248.371569 m
92.543379 248.301333 l
92.745834 248.087592 l
92.94829 247.72131 l
93.150746 247.186683 l
93.353201 246.460122 l
93.555657 245.508822 l
93.758113 244.288521 l
93.960568 242.741151 l
94.163024 240.79194 l
94.36548 238.346196 l
94.567935 235.287512 l
94.770391 231.477431 l
94.972847 226.759242 l
95.175302 220.96938 l
95.377758 213.957068 l
95.580214 205.615335 l
95.782669 195.91789 l
95.985125 184.954788 l
96.187581 172.952354 l
96.390036 160.265961 l
96.592492 147.34393 l
96.794948 134.666873 l
96.997403 122.681285 l
97.199859 111.741242 l
97.402315 102.071904 l
97.60477 93.763762 l
97.807226 86.792011 l
98.009682 81.051496 l
98.212137 76.392852 l
98.414593 72.653592 l
98.617049 69.678049 l
98.819504 67.328353 l
99.02196 65.489063 l
99.224416 64.06694 l
99.426871 62.988706 l
99.629327 62.198554 l
99.831783 61.655022 l
100.034238 61.32862 l
100.236694 61.2 l
100.43915 61.258396 l
100.641605 61.500768 l
100.844061 61.931276 l
101.046517 62.561137 l
101.248973 63.408652 l
101.451428 64.4995 l
101.653884 65.86698 l
101.85634 67.551842 l
102.058795 69.601556 l
102.261251 72.068321 l
102.463707 75.004961 l
102.666162 78.458293 l
102.868618 82.459478 l
103.071074 87.011527 l
103.273529 92.076413 l
103.475985 97.564896 l
103.678441 103.334332 l
103.880896 109.197939 l
104.083352 114.947459 l
104.285808 120.383016 l
104.488263 125.342355 l
104.690719 129.720641 l
104.893175 133.475657 l
105.09563 136.620613 l
105.298086 139.209477 l
105.500542 141.321855 l
105.702997 143.050253 l
105.905453 144.490868 l
106.107909 145.733262 l
106.310364 146.843733 l
106.51282 147.847522 l
106.715276 148.72758 l
106.917731 149.451758 l
107.120187 150.00602 l
107.322643 150.404638 l
107.525098 150.678681 l
107.727554 150.861635 l
107.93001 150.981649 l
108.132465 151.059551 l
108.334921 151.10983 l
108.537377 151.142169 l
108.739832 151.162929 l
108.942288 151.176246 l
109.144744 151.184781 l
109.347199 151.19025 l
109.549655 151.193755 l
109.752111 151.196 l
109.954566 151.197437 l
110.157022 151.198359 l
110.359478 151.198948 l
110.561933 151.199326 l
110.764389 151.199568 l
110.966845 151.199723 l
111.1693 151.199823 l
111.371756 151.199886 l
111.574212 151.199927 l
111.776667 151.199952 l
111.979123 151.199968 l
112.181579 151.199978 l
112.384035 151.199983 l
112.58649 151.199984 l
stroke
grestore
0.000 0.750 0.750 setrgbcolor
gsave
324 216 64.8 43.2 clipbox
263.723494 151.201073 m
265.85318 151.304152 l
266.326446 151.53391 l
266.641957 151.925496 l
266.957467 152.772849 l
267.272978 154.590354 l
267.588482 158.396184 l
267.903992 165.89511 l
268.298384 182.88324 l
269.244909 229.26906 l
269.639294 236.86272 l
269.954804 239.48307 l
270.270308 240.60519 l
270.585844 241.03791 l
270.980184 241.19244 l
271.453457 241.12512 l
271.768993 240.85296 l
272.005597 240.36498 l
272.242265 239.39055 l
272.478869 237.55023 l
272.794405 232.7157 l
273.109877 223.48044 l
273.504281 204.2901 l
274.29309 163.70658 l
274.766298 151.330481 l
275.23957 139.10247 l
275.633974 121.72437 l
276.580518 73.99242 l
276.974858 65.90214 l
277.290395 63.07794 l
277.605931 61.85916 l
277.921403 61.38486 l
278.315807 61.20999 l
278.789079 61.26444 l
279.104551 61.51257 l
279.341219 61.96365 l
279.577823 62.86869 l
279.814491 64.59057 l
280.129964 69.14907 l
280.4455 77.95701 l
280.839904 96.63741 l
281.707516 140.45094 l
282.259656 153.978615 l
282.65406 165.15999 l
283.048465 183.59091 l
283.916077 227.62017 l
284.310481 236.15433 l
284.626017 239.16654 l
284.941489 240.47604 l
285.257025 240.99138 l
285.651429 241.18569 l
286.124638 241.14645 l
286.440174 240.92064 l
286.676778 240.50304 l
286.913446 239.66199 l
287.15005 238.05252 l
287.465586 233.75952 l
287.781058 225.36648 l
288.175462 207.21393 l
289.043139 162.78921 l
289.516411 150.738898 l
289.989683 138.1653 l
290.384023 120.24378 l
291.251699 75.6027 l
291.646104 66.61026 l
291.961576 63.39861 l
292.277112 61.99281 l
292.592584 61.43301 l
292.986988 61.21845 l
293.46026 61.24491 l
293.775796 61.4511 l
294.0124 61.83468 l
294.249004 62.61777 l
294.485672 64.12032 l
294.722277 66.85551 l
295.037813 73.67877 l
295.353285 85.69656 l
296.694233 147.582414 l
297.404109 166.16979 l
297.798514 185.1246 l
298.587258 225.93591 l
298.981662 235.40193 l
299.297198 238.82265 l
299.61267 240.33429 l
299.928206 240.93891 l
300.32261 241.17525 l
300.795819 241.16382 l
301.111355 240.97653 l
301.348023 240.62139 l
301.584627 239.89563 l
301.821231 238.49352 l
302.057899 235.92402 l
302.373371 229.45617 l
302.688907 217.90287 l
303.319915 182.67111 l
303.793188 161.90658 l
304.345328 148.391136 l
304.739732 137.19132 l
305.134072 118.73448 l
306.001748 74.73843 l
306.396153 66.22749 l
306.711625 63.22518 l
307.027161 61.92054 l
307.342697 61.40736 l
307.737037 61.21404 l
308.210309 61.25409 l
308.525845 61.48089 l
308.762449 61.90029 l
308.999117 62.74449 l
309.235721 64.35945 l
309.551258 68.66586 l
309.86673 77.08023 l
310.261134 95.26041 l
311.12881 139.65489 l
311.602018 151.690135 l
312.07529 164.28159 l
312.469695 182.22957 l
313.337371 226.84068 l
313.731711 235.80909 l
314.047247 239.01021 l
314.362783 240.41088 l
314.678255 240.96843 l
315.072659 241.18182 l
315.545932 241.15473 l
315.861404 240.94755 l
316.098072 240.56235 l
316.334676 239.7762 l
316.571344 238.26825 l
316.807948 235.52433 l
317.123484 228.68235 l
317.438956 216.64071 l
318.779905 154.786545 l
319.410913 139.0122 l
319.805317 121.58037 l
320.751797 73.9134 l
321.146201 65.86785 l
321.461738 63.06255 l
321.77721 61.85286 l
322.092746 61.38234 l
322.48715 61.20954 l
322.960358 61.26552 l
323.275894 61.51608 l
323.512498 61.97085 l
323.749166 62.88264 l
323.98577 64.61667 l
324.301307 69.20298 l
324.616779 78.05439 l
325.011183 96.78816 l
325.878859 140.5359 l
326.430999 154.039122 l
326.825403 165.25737 l
327.219744 183.74013 l
328.0871 227.70297 l
328.48176 236.1906 l
328.797616 239.1831 l
329.112832 240.48279 l
329.428048 240.99381 l
329.822708 241.18614 l
330.296173 241.14537 l
330.611389 240.91758 l
330.848441 240.49629 l
331.084853 239.64894 l
331.321265 238.02849 l
331.637121 233.70858 l
331.952337 225.27297 l
332.346998 207.06525 l
333.214482 162.7011 l
333.687946 150.680829 l
334.16077 138.07143 l
334.55543 120.09699 l
335.422914 75.51603 l
335.817575 66.57156 l
336.13279 63.38097 l
336.448647 61.98552 l
336.763863 61.43013 l
337.158523 61.218 l
337.631347 61.24572 l
337.947203 61.45389 l
338.183615 61.84062 l
338.420027 62.62992 l
338.65708 64.14318 l
338.893491 66.89592 l
339.209348 73.75662 l
339.524564 85.8222 l
340.865512 147.64446 l
341.496584 163.43316 l
341.891245 180.89163 l
342.837533 228.52593 l
343.231553 236.54925 l
343.547409 239.3451 l
343.862625 240.5502 l
344.178481 241.01892 l
344.572501 241.19064 l
345.045966 241.13394 l
345.361822 240.88212 l
345.598234 240.42546 l
345.834646 239.51034 l
346.071698 237.77028 l
346.386914 233.17002 l
346.70277 224.29674 l
347.09679 205.53633 l
347.88547 164.47005 l
348.358935 151.806313 l
348.832399 139.83039 l
349.226419 122.89437 l
350.252152 72.38511 l
350.646171 65.21517 l
350.962028 62.77086 l
351.277244 61.73577 l
351.5931 61.3404 l
351.98712 61.20342 l
352.460584 61.29018 l
352.7758 61.5924 l
353.012853 62.12916 l
353.249264 63.19224 l
353.485676 65.18538 l
353.801533 70.37091 l
354.116748 80.13231 l
354.590213 104.55615 l
355.221285 136.99602 l
355.69475 150.028677 l
356.246377 164.37564 l
356.641038 182.37645 l
357.508522 226.92717 l
357.903182 235.84761 l
358.218398 239.02776 l
358.534254 240.41817 l
358.84947 240.97122 l
359.244131 241.18227 l
359.716954 241.15383 l
360.032811 240.94467 l
360.269223 240.55632 l
360.506275 239.76405 l
360.742687 238.2453 l
360.979099 235.48374 l
361.294955 228.60432 l
361.610171 216.51489 l
362.95112 154.724571 l
363.582192 138.92148 l
363.976852 121.43619 l
364.92314 73.83483 l
365.317801 65.83374 l
365.633017 63.04734 l
365.948232 61.84674 l
366.264089 61.37991 l
366.658749 61.20909 l
367.131573 61.2666 l
367.447429 61.51626 l
367.683841 61.97229 l
367.920253 62.88687 l
368.157306 64.62126 l
368.472521 69.21279 l
368.788378 78.05781 l
369.182398 96.68889 l
369.971078 136.38429 l
370.365738 145.175085 l
370.680954 148.377951 l
370.996811 149.894271 l
371.39083 150.704692 l
371.785491 151.012499 l
372.416563 151.160408 l
374.072727 151.198902 l
374.072727 151.198902 l
stroke
grestore
0.750 0.000 0.750 setrgbcolor
gsave
324 216 64.8 43.2 clipbox
79.527273 151.510169 m
81.782475 151.261528 l
83.422622 150.885646 l
84.652733 150.395998 l
85.677825 149.757281 l
86.907935 148.665119 l
88.343064 147.384344 l
88.958119 147.146024 l
89.368156 147.170707 l
89.778193 147.357672 l
90.393248 147.929398 l
91.213322 149.123811 l
92.648451 151.798501 l
96.5438 159.59595 l
97.773911 162.67204 l
98.799003 165.828324 l
99.824095 169.743131 l
100.849187 174.634048 l
101.874279 180.705082 l
102.899371 188.095371 l
104.129481 198.676222 l
108.024831 234.476661 l
108.639886 237.994325 l
109.254941 240.281185 l
109.664978 241.051066 l
109.869996 241.2 l
110.075015 241.18985 l
110.280033 241.020727 l
110.69007 240.211572 l
111.100107 238.794434 l
111.715162 235.616781 l
112.535236 229.721296 l
113.560328 220.505733 l
116.840622 189.568024 l
118.070732 180.622776 l
119.095824 174.642884 l
120.120916 169.869642 l
121.146008 166.112921 l
122.171101 163.176867 l
123.196193 160.886279 l
124.221285 159.095784 l
125.246377 157.689915 l
126.476487 156.386228 l
127.706597 155.393494 l
129.141726 154.519328 l
130.781873 153.785183 l
132.832057 153.135571 l
135.292278 152.608084 l
138.572573 152.159056 l
142.877959 151.810679 l
149.23353 151.537347 l
159.48445 151.34273 l
178.961198 151.229663 l
235.546277 151.200013 l
284.545676 151.2 l
284.545676 151.2 l
stroke
grestore
0.800 setlinewidth
0 setlinejoin
[] 0 setdash
0.000 setgray
gsave
64.8 43.2 m
64.8 259.2 l
stroke
grestore
gsave
388.8 43.2 m
388.8 259.2 l
stroke
grestore
gsave
64.8 43.2 m
388.8 43.2 l
stroke
grestore
gsave
64.8 259.2 m
388.8 259.2 l
stroke
grestore

end
showpage
