0.000000000000	1.079684100000
0.003160000000	1.078903700000
0.006320000000	1.076528800000
0.009480000000	1.072459000000
0.012640000000	1.066518700000
0.015800000000	1.058445800000
0.018960000000	1.047875800000
0.022120000000	1.034316900000
0.025280000000	1.017123900000
0.028440000000	0.995466000000
0.031600000000	0.968291070000
0.034760000000	0.934305690000
0.037920000000	0.891971460000
0.041080000000	0.839547130000
0.044240000000	0.775215330000
0.047400000000	0.697300760000
0.050560000000	0.604614830000
0.053720000000	0.496865450000
0.056880000000	0.375053200000
0.060040000000	0.241692820000
0.063200000000	0.100732900000
0.066360000000	-0.042845225000
0.069520000000	-0.183701410000
0.072680000000	-0.316874610000
0.075840000000	-0.438430650000
0.079000000000	-0.545867730000
0.082160000000	-0.638180420000
0.085320000000	-0.715644320000
0.088480000000	-0.779427820000
0.091640000000	-0.831190530000
0.094800000000	-0.872737870000
0.097960000000	-0.905799450000
0.101120000000	-0.931907190000
0.104280000000	-0.952343740000
0.107440000000	-0.968145110000
0.110600000000	-0.980125490000
0.113760000000	-0.988904950000
0.116920000000	-0.994944200000
0.120080000000	-0.998570890000
0.123240000000	-1.000000000000
0.126400000000	-0.999351150000
0.129560000000	-0.996658130000
0.132720000000	-0.991874710000
0.135880000000	-0.984876260000
0.139040000000	-0.975459420000
0.142200000000	-0.963338890000
0.145360000000	-0.948144670000
0.148520000000	-0.929423980000
0.151680000000	-0.906649380000
0.154840000000	-0.879240880000
0.158000000000	-0.846611540000
0.161160000000	-0.808241190000
0.164320000000	-0.763783580000
0.167480000000	-0.713205250000
0.170640000000	-0.656928750000
0.173800000000	-0.595945600000
0.176960000000	-0.531840750000
0.180120000000	-0.466689570000
0.183280000000	-0.402806010000
0.186440000000	-0.342410930000
0.189600000000	-0.287307170000
0.192760000000	-0.238659540000
0.195920000000	-0.196937140000
0.199080000000	-0.161993190000
0.202240000000	-0.133228030000
0.205400000000	-0.109757170000
0.208560000000	-0.090552740000
0.211720000000	-0.074545909000
0.214880000000	-0.060741534000
0.218040000000	-0.048402964000
0.221200000000	-0.037249758000
0.224360000000	-0.027471334000
0.227520000000	-0.019424913000
0.230680000000	-0.013266446000
0.233840000000	-0.008837359300
0.237000000000	-0.005792433800
0.240160000000	-0.003759606800
0.243320000000	-0.002426121000
0.246480000000	-0.001560547300
0.249640000000	-0.001001893800
0.252800000000	-0.000642567970
0.255960000000	-0.000411895840
0.259120000000	-0.000263935610
0.262280000000	-0.000169095580
0.265440000000	-0.000108328830
0.268600000000	-0.000069392575
0.271760000000	-0.000044449754
0.274920000000	-0.000028473457
0.278080000000	-0.000018238562
0.281240000000	-0.000011683334
0.284400000000	-0.000007484146
0.287560000000	-0.000004794761
0.290720000000	-0.000003072785
0.293880000000	-0.000001970482
0.297040000000	-0.000001265697
0.300200000000	-0.000000816286
0.303360000000	-0.000000531492
0.306520000000	-0.000000353920
0.309680000000	-0.000000247757
0.312840000000	-0.000000191563
0.316000000000	-0.000000174022
