%!PS-Adobe-3.0 EPSF-3.0
%%Creator: (MATLAB, The Mathworks, Inc. Version 9.2.0.556344 \(R2017a\). Operating System: Windows 8)
%%Title: ./THzOnly.eps
%%CreationDate: 2019-03-01T11:21:19
%%Pages: (atend)
%%BoundingBox:    -5     6   808   253
%%LanguageLevel: 3
%%EndComments
%%BeginProlog
%%BeginResource: procset (Apache XML Graphics Std ProcSet) 1.2 0
%%Version: 1.2 0
%%Copyright: (Copyright 2001-2003,2010 The Apache Software Foundation. License terms: http://www.apache.org/licenses/LICENSE-2.0)
/bd{bind def}bind def
/ld{load def}bd
/GR/grestore ld
/M/moveto ld
/LJ/setlinejoin ld
/C/curveto ld
/f/fill ld
/LW/setlinewidth ld
/GC/setgray ld
/t/show ld
/N/newpath ld
/CT/concat ld
/cp/closepath ld
/S/stroke ld
/L/lineto ld
/CC/setcmykcolor ld
/A/ashow ld
/GS/gsave ld
/RC/setrgbcolor ld
/RM/rmoveto ld
/ML/setmiterlimit ld
/re {4 2 roll M
1 index 0 rlineto
0 exch rlineto
neg 0 rlineto
cp } bd
/_ctm matrix def
/_tm matrix def
/BT { _ctm currentmatrix pop matrix _tm copy pop 0 0 moveto } bd
/ET { _ctm setmatrix } bd
/iTm { _ctm setmatrix _tm concat } bd
/Tm { _tm astore pop iTm 0 0 moveto } bd
/ux 0.0 def
/uy 0.0 def
/F {
  /Tp exch def
  /Tf exch def
  Tf findfont Tp scalefont setfont
  /cf Tf def  /cs Tp def
} bd
/ULS {currentpoint /uy exch def /ux exch def} bd
/ULE {
  /Tcx currentpoint pop def
  gsave
  newpath
  cf findfont cs scalefont dup
  /FontMatrix get 0 get /Ts exch def /FontInfo get dup
  /UnderlinePosition get Ts mul /To exch def
  /UnderlineThickness get Ts mul /Tt exch def
  ux uy To add moveto  Tcx uy To add lineto
  Tt setlinewidth stroke
  grestore
} bd
/OLE {
  /Tcx currentpoint pop def
  gsave
  newpath
  cf findfont cs scalefont dup
  /FontMatrix get 0 get /Ts exch def /FontInfo get dup
  /UnderlinePosition get Ts mul /To exch def
  /UnderlineThickness get Ts mul /Tt exch def
  ux uy To add cs add moveto Tcx uy To add cs add lineto
  Tt setlinewidth stroke
  grestore
} bd
/SOE {
  /Tcx currentpoint pop def
  gsave
  newpath
  cf findfont cs scalefont dup
  /FontMatrix get 0 get /Ts exch def /FontInfo get dup
  /UnderlinePosition get Ts mul /To exch def
  /UnderlineThickness get Ts mul /Tt exch def
  ux uy To add cs 10 mul 26 idiv add moveto Tcx uy To add cs 10 mul 26 idiv add lineto
  Tt setlinewidth stroke
  grestore
} bd
/QT {
/Y22 exch store
/X22 exch store
/Y21 exch store
/X21 exch store
currentpoint
/Y21 load 2 mul add 3 div exch
/X21 load 2 mul add 3 div exch
/X21 load 2 mul /X22 load add 3 div
/Y21 load 2 mul /Y22 load add 3 div
/X22 load /Y22 load curveto
} bd
/SSPD {
dup length /d exch dict def
{
/v exch def
/k exch def
currentpagedevice k known {
/cpdv currentpagedevice k get def
v cpdv ne {
/upd false def
/nullv v type /nulltype eq def
/nullcpdv cpdv type /nulltype eq def
nullv nullcpdv or
{
/upd true def
} {
/sametype v type cpdv type eq def
sametype {
v type /arraytype eq {
/vlen v length def
/cpdvlen cpdv length def
vlen cpdvlen eq {
0 1 vlen 1 sub {
/i exch def
/obj v i get def
/cpdobj cpdv i get def
obj cpdobj ne {
/upd true def
exit
} if
} for
} {
/upd true def
} ifelse
} {
v type /dicttype eq {
v {
/dv exch def
/dk exch def
/cpddv cpdv dk get def
dv cpddv ne {
/upd true def
exit
} if
} forall
} {
/upd true def
} ifelse
} ifelse
} if
} ifelse
upd true eq {
d k v put
} if
} if
} if
} forall
d length 0 gt {
d setpagedevice
} if
} bd
/RE { % /NewFontName [NewEncodingArray] /FontName RE -
  findfont dup length dict begin
  {
    1 index /FID ne
    {def} {pop pop} ifelse
  } forall
  /Encoding exch def
  /FontName 1 index def
  currentdict definefont pop
  end
} bind def
%%EndResource
%%BeginResource: procset (Apache XML Graphics EPS ProcSet) 1.0 0
%%Version: 1.0 0
%%Copyright: (Copyright 2002-2003 The Apache Software Foundation. License terms: http://www.apache.org/licenses/LICENSE-2.0)
/BeginEPSF { %def
/b4_Inc_state save def         % Save state for cleanup
/dict_count countdictstack def % Count objects on dict stack
/op_count count 1 sub def      % Count objects on operand stack
userdict begin                 % Push userdict on dict stack
/showpage { } def              % Redefine showpage, { } = null proc
0 setgray 0 setlinecap         % Prepare graphics state
1 setlinewidth 0 setlinejoin
10 setmiterlimit [ ] 0 setdash newpath
/languagelevel where           % If level not equal to 1 then
{pop languagelevel             % set strokeadjust and
1 ne                           % overprint to their defaults.
{false setstrokeadjust false setoverprint
} if
} if
} bd
/EndEPSF { %def
count op_count sub {pop} repeat            % Clean up stacks
countdictstack dict_count sub {end} repeat
b4_Inc_state restore
} bd
%%EndResource
%FOPBeginFontDict
%%IncludeResource: font Courier-Bold
%%IncludeResource: font Helvetica
%%IncludeResource: font Courier-BoldOblique
%%IncludeResource: font Courier-Oblique
%%IncludeResource: font Times-Roman
%%IncludeResource: font Helvetica-BoldOblique
%%IncludeResource: font Helvetica-Bold
%%IncludeResource: font Helvetica-Oblique
%%IncludeResource: font Times-BoldItalic
%%IncludeResource: font Courier
%%IncludeResource: font Times-Italic
%%IncludeResource: font Times-Bold
%%IncludeResource: font Symbol
%%IncludeResource: font ZapfDingbats
%FOPEndFontDict
%%BeginResource: encoding WinAnsiEncoding
/WinAnsiEncoding [
/.notdef /.notdef /.notdef /.notdef /.notdef
/.notdef /.notdef /.notdef /.notdef /.notdef
/.notdef /.notdef /.notdef /.notdef /.notdef
/.notdef /.notdef /.notdef /.notdef /.notdef
/.notdef /.notdef /.notdef /.notdef /.notdef
/.notdef /.notdef /.notdef /.notdef /.notdef
/.notdef /.notdef /space /exclam /quotedbl
/numbersign /dollar /percent /ampersand /quotesingle
/parenleft /parenright /asterisk /plus /comma
/hyphen /period /slash /zero /one
/two /three /four /five /six
/seven /eight /nine /colon /semicolon
/less /equal /greater /question /at
/A /B /C /D /E
/F /G /H /I /J
/K /L /M /N /O
/P /Q /R /S /T
/U /V /W /X /Y
/Z /bracketleft /backslash /bracketright /asciicircum
/underscore /quoteleft /a /b /c
/d /e /f /g /h
/i /j /k /l /m
/n /o /p /q /r
/s /t /u /v /w
/x /y /z /braceleft /bar
/braceright /asciitilde /bullet /Euro /bullet
/quotesinglbase /florin /quotedblbase /ellipsis /dagger
/daggerdbl /circumflex /perthousand /Scaron /guilsinglleft
/OE /bullet /Zcaron /bullet /bullet
/quoteleft /quoteright /quotedblleft /quotedblright /bullet
/endash /emdash /asciitilde /trademark /scaron
/guilsinglright /oe /bullet /zcaron /Ydieresis
/space /exclamdown /cent /sterling /currency
/yen /brokenbar /section /dieresis /copyright
/ordfeminine /guillemotleft /logicalnot /sfthyphen /registered
/macron /degree /plusminus /twosuperior /threesuperior
/acute /mu /paragraph /middot /cedilla
/onesuperior /ordmasculine /guillemotright /onequarter /onehalf
/threequarters /questiondown /Agrave /Aacute /Acircumflex
/Atilde /Adieresis /Aring /AE /Ccedilla
/Egrave /Eacute /Ecircumflex /Edieresis /Igrave
/Iacute /Icircumflex /Idieresis /Eth /Ntilde
/Ograve /Oacute /Ocircumflex /Otilde /Odieresis
/multiply /Oslash /Ugrave /Uacute /Ucircumflex
/Udieresis /Yacute /Thorn /germandbls /agrave
/aacute /acircumflex /atilde /adieresis /aring
/ae /ccedilla /egrave /eacute /ecircumflex
/edieresis /igrave /iacute /icircumflex /idieresis
/eth /ntilde /ograve /oacute /ocircumflex
/otilde /odieresis /divide /oslash /ugrave
/uacute /ucircumflex /udieresis /yacute /thorn
/ydieresis
] def
%%EndResource
%FOPBeginFontReencode
/Courier-Bold findfont
dup length dict begin
  {1 index /FID ne {def} {pop pop} ifelse} forall
  /Encoding WinAnsiEncoding def
  currentdict
end
/Courier-Bold exch definefont pop
/Helvetica findfont
dup length dict begin
  {1 index /FID ne {def} {pop pop} ifelse} forall
  /Encoding WinAnsiEncoding def
  currentdict
end
/Helvetica exch definefont pop
/Courier-BoldOblique findfont
dup length dict begin
  {1 index /FID ne {def} {pop pop} ifelse} forall
  /Encoding WinAnsiEncoding def
  currentdict
end
/Courier-BoldOblique exch definefont pop
/Courier-Oblique findfont
dup length dict begin
  {1 index /FID ne {def} {pop pop} ifelse} forall
  /Encoding WinAnsiEncoding def
  currentdict
end
/Courier-Oblique exch definefont pop
/Times-Roman findfont
dup length dict begin
  {1 index /FID ne {def} {pop pop} ifelse} forall
  /Encoding WinAnsiEncoding def
  currentdict
end
/Times-Roman exch definefont pop
/Helvetica-BoldOblique findfont
dup length dict begin
  {1 index /FID ne {def} {pop pop} ifelse} forall
  /Encoding WinAnsiEncoding def
  currentdict
end
/Helvetica-BoldOblique exch definefont pop
/Helvetica-Bold findfont
dup length dict begin
  {1 index /FID ne {def} {pop pop} ifelse} forall
  /Encoding WinAnsiEncoding def
  currentdict
end
/Helvetica-Bold exch definefont pop
/Helvetica-Oblique findfont
dup length dict begin
  {1 index /FID ne {def} {pop pop} ifelse} forall
  /Encoding WinAnsiEncoding def
  currentdict
end
/Helvetica-Oblique exch definefont pop
/Times-BoldItalic findfont
dup length dict begin
  {1 index /FID ne {def} {pop pop} ifelse} forall
  /Encoding WinAnsiEncoding def
  currentdict
end
/Times-BoldItalic exch definefont pop
/Courier findfont
dup length dict begin
  {1 index /FID ne {def} {pop pop} ifelse} forall
  /Encoding WinAnsiEncoding def
  currentdict
end
/Courier exch definefont pop
/Times-Italic findfont
dup length dict begin
  {1 index /FID ne {def} {pop pop} ifelse} forall
  /Encoding WinAnsiEncoding def
  currentdict
end
/Times-Italic exch definefont pop
/Times-Bold findfont
dup length dict begin
  {1 index /FID ne {def} {pop pop} ifelse} forall
  /Encoding WinAnsiEncoding def
  currentdict
end
/Times-Bold exch definefont pop
%FOPEndFontReencode
%%EndProlog
%%Page: 1 1
%%PageBoundingBox: 0 0 842 249
%%BeginPageSetup
[1 0 0 -1 0 249] CT
%%EndPageSetup
GS
[0.75 0 0 0.75 0 0] CT
1 GC
N
0 0 1123 332 re
f
GR
GS
[0.75 0 0 0.75 0 0] CT
1 GC
N
0 0 1123 332 re
f
GR
GS
[0.75 0 0 0.75 0 0] CT
1 GC
N
51 281 M
1071 281 L
1071 26 L
51 26 L
cp
f
GR
GS
[0.75 0 0 0.75 0 0] CT
0.149 GC
2 setlinecap
1 LJ
0.667 LW
N
51 281 M
1071 281 L
S
GR
GS
[0.75 0 0 0.75 0 0] CT
0.149 GC
2 setlinecap
1 LJ
0.667 LW
N
51 281 M
51 270.8 L
S
GR
GS
[0.75 0 0 0.75 0 0] CT
0.149 GC
2 setlinecap
1 LJ
0.667 LW
N
97.364 281 M
97.364 270.8 L
S
GR
GS
[0.75 0 0 0.75 0 0] CT
0.149 GC
2 setlinecap
1 LJ
0.667 LW
N
143.727 281 M
143.727 270.8 L
S
GR
GS
[0.75 0 0 0.75 0 0] CT
0.149 GC
2 setlinecap
1 LJ
0.667 LW
N
190.091 281 M
190.091 270.8 L
S
GR
GS
[0.75 0 0 0.75 0 0] CT
0.149 GC
2 setlinecap
1 LJ
0.667 LW
N
236.455 281 M
236.455 270.8 L
S
GR
GS
[0.75 0 0 0.75 0 0] CT
0.149 GC
2 setlinecap
1 LJ
0.667 LW
N
282.818 281 M
282.818 270.8 L
S
GR
GS
[0.75 0 0 0.75 0 0] CT
0.149 GC
2 setlinecap
1 LJ
0.667 LW
N
329.182 281 M
329.182 270.8 L
S
GR
GS
[0.75 0 0 0.75 0 0] CT
0.149 GC
2 setlinecap
1 LJ
0.667 LW
N
375.545 281 M
375.545 270.8 L
S
GR
GS
[0.75 0 0 0.75 0 0] CT
0.149 GC
2 setlinecap
1 LJ
0.667 LW
N
421.909 281 M
421.909 270.8 L
S
GR
GS
[0.75 0 0 0.75 0 0] CT
0.149 GC
2 setlinecap
1 LJ
0.667 LW
N
468.273 281 M
468.273 270.8 L
S
GR
GS
[0.75 0 0 0.75 0 0] CT
0.149 GC
2 setlinecap
1 LJ
0.667 LW
N
514.636 281 M
514.636 270.8 L
S
GR
GS
[0.75 0 0 0.75 0 0] CT
0.149 GC
2 setlinecap
1 LJ
0.667 LW
N
561 281 M
561 270.8 L
S
GR
GS
[0.75 0 0 0.75 0 0] CT
0.149 GC
2 setlinecap
1 LJ
0.667 LW
N
607.364 281 M
607.364 270.8 L
S
GR
GS
[0.75 0 0 0.75 0 0] CT
0.149 GC
2 setlinecap
1 LJ
0.667 LW
N
653.727 281 M
653.727 270.8 L
S
GR
GS
[0.75 0 0 0.75 0 0] CT
0.149 GC
2 setlinecap
1 LJ
0.667 LW
N
700.091 281 M
700.091 270.8 L
S
GR
GS
[0.75 0 0 0.75 0 0] CT
0.149 GC
2 setlinecap
1 LJ
0.667 LW
N
746.455 281 M
746.455 270.8 L
S
GR
GS
[0.75 0 0 0.75 0 0] CT
0.149 GC
2 setlinecap
1 LJ
0.667 LW
N
792.818 281 M
792.818 270.8 L
S
GR
GS
[0.75 0 0 0.75 0 0] CT
0.149 GC
2 setlinecap
1 LJ
0.667 LW
N
839.182 281 M
839.182 270.8 L
S
GR
GS
[0.75 0 0 0.75 0 0] CT
0.149 GC
2 setlinecap
1 LJ
0.667 LW
N
885.545 281 M
885.545 270.8 L
S
GR
GS
[0.75 0 0 0.75 0 0] CT
0.149 GC
2 setlinecap
1 LJ
0.667 LW
N
931.909 281 M
931.909 270.8 L
S
GR
GS
[0.75 0 0 0.75 0 0] CT
0.149 GC
2 setlinecap
1 LJ
0.667 LW
N
978.273 281 M
978.273 270.8 L
S
GR
GS
[0.75 0 0 0.75 0 0] CT
0.149 GC
2 setlinecap
1 LJ
0.667 LW
N
1024.636 281 M
1024.636 270.8 L
S
GR
GS
[0.75 0 0 0.75 0 0] CT
0.149 GC
2 setlinecap
1 LJ
0.667 LW
N
1071 281 M
1071 270.8 L
S
GR
GS
[0.75 0 0 0.75 0 0] CT
0.149 GC
2 setlinecap
1 LJ
0.667 LW
N
60.273 281 M
60.273 275.9 L
S
GR
GS
[0.75 0 0 0.75 0 0] CT
0.149 GC
2 setlinecap
1 LJ
0.667 LW
N
69.545 281 M
69.545 275.9 L
S
GR
GS
[0.75 0 0 0.75 0 0] CT
0.149 GC
2 setlinecap
1 LJ
0.667 LW
N
78.818 281 M
78.818 275.9 L
S
GR
GS
[0.75 0 0 0.75 0 0] CT
0.149 GC
2 setlinecap
1 LJ
0.667 LW
N
88.091 281 M
88.091 275.9 L
S
GR
GS
[0.75 0 0 0.75 0 0] CT
0.149 GC
2 setlinecap
1 LJ
0.667 LW
N
106.636 281 M
106.636 275.9 L
S
GR
GS
[0.75 0 0 0.75 0 0] CT
0.149 GC
2 setlinecap
1 LJ
0.667 LW
N
115.909 281 M
115.909 275.9 L
S
GR
GS
[0.75 0 0 0.75 0 0] CT
0.149 GC
2 setlinecap
1 LJ
0.667 LW
N
125.182 281 M
125.182 275.9 L
S
GR
GS
[0.75 0 0 0.75 0 0] CT
0.149 GC
2 setlinecap
1 LJ
0.667 LW
N
134.455 281 M
134.455 275.9 L
S
GR
GS
[0.75 0 0 0.75 0 0] CT
0.149 GC
2 setlinecap
1 LJ
0.667 LW
N
153 281 M
153 275.9 L
S
GR
GS
[0.75 0 0 0.75 0 0] CT
0.149 GC
2 setlinecap
1 LJ
0.667 LW
N
162.273 281 M
162.273 275.9 L
S
GR
GS
[0.75 0 0 0.75 0 0] CT
0.149 GC
2 setlinecap
1 LJ
0.667 LW
N
171.545 281 M
171.545 275.9 L
S
GR
GS
[0.75 0 0 0.75 0 0] CT
0.149 GC
2 setlinecap
1 LJ
0.667 LW
N
180.818 281 M
180.818 275.9 L
S
GR
GS
[0.75 0 0 0.75 0 0] CT
0.149 GC
2 setlinecap
1 LJ
0.667 LW
N
199.364 281 M
199.364 275.9 L
S
GR
GS
[0.75 0 0 0.75 0 0] CT
0.149 GC
2 setlinecap
1 LJ
0.667 LW
N
208.636 281 M
208.636 275.9 L
S
GR
GS
[0.75 0 0 0.75 0 0] CT
0.149 GC
2 setlinecap
1 LJ
0.667 LW
N
217.909 281 M
217.909 275.9 L
S
GR
GS
[0.75 0 0 0.75 0 0] CT
0.149 GC
2 setlinecap
1 LJ
0.667 LW
N
227.182 281 M
227.182 275.9 L
S
GR
GS
[0.75 0 0 0.75 0 0] CT
0.149 GC
2 setlinecap
1 LJ
0.667 LW
N
245.727 281 M
245.727 275.9 L
S
GR
GS
[0.75 0 0 0.75 0 0] CT
0.149 GC
2 setlinecap
1 LJ
0.667 LW
N
255 281 M
255 275.9 L
S
GR
GS
[0.75 0 0 0.75 0 0] CT
0.149 GC
2 setlinecap
1 LJ
0.667 LW
N
264.273 281 M
264.273 275.9 L
S
GR
GS
[0.75 0 0 0.75 0 0] CT
0.149 GC
2 setlinecap
1 LJ
0.667 LW
N
273.545 281 M
273.545 275.9 L
S
GR
GS
[0.75 0 0 0.75 0 0] CT
0.149 GC
2 setlinecap
1 LJ
0.667 LW
N
292.091 281 M
292.091 275.9 L
S
GR
GS
[0.75 0 0 0.75 0 0] CT
0.149 GC
2 setlinecap
1 LJ
0.667 LW
N
301.364 281 M
301.364 275.9 L
S
GR
GS
[0.75 0 0 0.75 0 0] CT
0.149 GC
2 setlinecap
1 LJ
0.667 LW
N
310.636 281 M
310.636 275.9 L
S
GR
GS
[0.75 0 0 0.75 0 0] CT
0.149 GC
2 setlinecap
1 LJ
0.667 LW
N
319.909 281 M
319.909 275.9 L
S
GR
GS
[0.75 0 0 0.75 0 0] CT
0.149 GC
2 setlinecap
1 LJ
0.667 LW
N
338.455 281 M
338.455 275.9 L
S
GR
GS
[0.75 0 0 0.75 0 0] CT
0.149 GC
2 setlinecap
1 LJ
0.667 LW
N
347.727 281 M
347.727 275.9 L
S
GR
GS
[0.75 0 0 0.75 0 0] CT
0.149 GC
2 setlinecap
1 LJ
0.667 LW
N
357 281 M
357 275.9 L
S
GR
GS
[0.75 0 0 0.75 0 0] CT
0.149 GC
2 setlinecap
1 LJ
0.667 LW
N
366.273 281 M
366.273 275.9 L
S
GR
GS
[0.75 0 0 0.75 0 0] CT
0.149 GC
2 setlinecap
1 LJ
0.667 LW
N
384.818 281 M
384.818 275.9 L
S
GR
GS
[0.75 0 0 0.75 0 0] CT
0.149 GC
2 setlinecap
1 LJ
0.667 LW
N
394.091 281 M
394.091 275.9 L
S
GR
GS
[0.75 0 0 0.75 0 0] CT
0.149 GC
2 setlinecap
1 LJ
0.667 LW
N
403.364 281 M
403.364 275.9 L
S
GR
GS
[0.75 0 0 0.75 0 0] CT
0.149 GC
2 setlinecap
1 LJ
0.667 LW
N
412.636 281 M
412.636 275.9 L
S
GR
GS
[0.75 0 0 0.75 0 0] CT
0.149 GC
2 setlinecap
1 LJ
0.667 LW
N
431.182 281 M
431.182 275.9 L
S
GR
GS
[0.75 0 0 0.75 0 0] CT
0.149 GC
2 setlinecap
1 LJ
0.667 LW
N
440.455 281 M
440.455 275.9 L
S
GR
GS
[0.75 0 0 0.75 0 0] CT
0.149 GC
2 setlinecap
1 LJ
0.667 LW
N
449.727 281 M
449.727 275.9 L
S
GR
GS
[0.75 0 0 0.75 0 0] CT
0.149 GC
2 setlinecap
1 LJ
0.667 LW
N
459 281 M
459 275.9 L
S
GR
GS
[0.75 0 0 0.75 0 0] CT
0.149 GC
2 setlinecap
1 LJ
0.667 LW
N
477.546 281 M
477.546 275.9 L
S
GR
GS
[0.75 0 0 0.75 0 0] CT
0.149 GC
2 setlinecap
1 LJ
0.667 LW
N
486.818 281 M
486.818 275.9 L
S
GR
GS
[0.75 0 0 0.75 0 0] CT
0.149 GC
2 setlinecap
1 LJ
0.667 LW
N
496.091 281 M
496.091 275.9 L
S
GR
GS
[0.75 0 0 0.75 0 0] CT
0.149 GC
2 setlinecap
1 LJ
0.667 LW
N
505.364 281 M
505.364 275.9 L
S
GR
GS
[0.75 0 0 0.75 0 0] CT
0.149 GC
2 setlinecap
1 LJ
0.667 LW
N
523.909 281 M
523.909 275.9 L
S
GR
GS
[0.75 0 0 0.75 0 0] CT
0.149 GC
2 setlinecap
1 LJ
0.667 LW
N
533.182 281 M
533.182 275.9 L
S
GR
GS
[0.75 0 0 0.75 0 0] CT
0.149 GC
2 setlinecap
1 LJ
0.667 LW
N
542.455 281 M
542.455 275.9 L
S
GR
GS
[0.75 0 0 0.75 0 0] CT
0.149 GC
2 setlinecap
1 LJ
0.667 LW
N
551.727 281 M
551.727 275.9 L
S
GR
GS
[0.75 0 0 0.75 0 0] CT
0.149 GC
2 setlinecap
1 LJ
0.667 LW
N
570.273 281 M
570.273 275.9 L
S
GR
GS
[0.75 0 0 0.75 0 0] CT
0.149 GC
2 setlinecap
1 LJ
0.667 LW
N
579.545 281 M
579.545 275.9 L
S
GR
GS
[0.75 0 0 0.75 0 0] CT
0.149 GC
2 setlinecap
1 LJ
0.667 LW
N
588.818 281 M
588.818 275.9 L
S
GR
GS
[0.75 0 0 0.75 0 0] CT
0.149 GC
2 setlinecap
1 LJ
0.667 LW
N
598.091 281 M
598.091 275.9 L
S
GR
GS
[0.75 0 0 0.75 0 0] CT
0.149 GC
2 setlinecap
1 LJ
0.667 LW
N
616.636 281 M
616.636 275.9 L
S
GR
GS
[0.75 0 0 0.75 0 0] CT
0.149 GC
2 setlinecap
1 LJ
0.667 LW
N
625.909 281 M
625.909 275.9 L
S
GR
GS
[0.75 0 0 0.75 0 0] CT
0.149 GC
2 setlinecap
1 LJ
0.667 LW
N
635.182 281 M
635.182 275.9 L
S
GR
GS
[0.75 0 0 0.75 0 0] CT
0.149 GC
2 setlinecap
1 LJ
0.667 LW
N
644.455 281 M
644.455 275.9 L
S
GR
GS
[0.75 0 0 0.75 0 0] CT
0.149 GC
2 setlinecap
1 LJ
0.667 LW
N
663 281 M
663 275.9 L
S
GR
GS
[0.75 0 0 0.75 0 0] CT
0.149 GC
2 setlinecap
1 LJ
0.667 LW
N
672.273 281 M
672.273 275.9 L
S
GR
GS
[0.75 0 0 0.75 0 0] CT
0.149 GC
2 setlinecap
1 LJ
0.667 LW
N
681.545 281 M
681.545 275.9 L
S
GR
GS
[0.75 0 0 0.75 0 0] CT
0.149 GC
2 setlinecap
1 LJ
0.667 LW
N
690.818 281 M
690.818 275.9 L
S
GR
GS
[0.75 0 0 0.75 0 0] CT
0.149 GC
2 setlinecap
1 LJ
0.667 LW
N
709.364 281 M
709.364 275.9 L
S
GR
GS
[0.75 0 0 0.75 0 0] CT
0.149 GC
2 setlinecap
1 LJ
0.667 LW
N
718.636 281 M
718.636 275.9 L
S
GR
GS
[0.75 0 0 0.75 0 0] CT
0.149 GC
2 setlinecap
1 LJ
0.667 LW
N
727.909 281 M
727.909 275.9 L
S
GR
GS
[0.75 0 0 0.75 0 0] CT
0.149 GC
2 setlinecap
1 LJ
0.667 LW
N
737.182 281 M
737.182 275.9 L
S
GR
GS
[0.75 0 0 0.75 0 0] CT
0.149 GC
2 setlinecap
1 LJ
0.667 LW
N
755.727 281 M
755.727 275.9 L
S
GR
GS
[0.75 0 0 0.75 0 0] CT
0.149 GC
2 setlinecap
1 LJ
0.667 LW
N
765 281 M
765 275.9 L
S
GR
GS
[0.75 0 0 0.75 0 0] CT
0.149 GC
2 setlinecap
1 LJ
0.667 LW
N
774.273 281 M
774.273 275.9 L
S
GR
GS
[0.75 0 0 0.75 0 0] CT
0.149 GC
2 setlinecap
1 LJ
0.667 LW
N
783.545 281 M
783.545 275.9 L
S
GR
GS
[0.75 0 0 0.75 0 0] CT
0.149 GC
2 setlinecap
1 LJ
0.667 LW
N
802.091 281 M
802.091 275.9 L
S
GR
GS
[0.75 0 0 0.75 0 0] CT
0.149 GC
2 setlinecap
1 LJ
0.667 LW
N
811.364 281 M
811.364 275.9 L
S
GR
GS
[0.75 0 0 0.75 0 0] CT
0.149 GC
2 setlinecap
1 LJ
0.667 LW
N
820.636 281 M
820.636 275.9 L
S
GR
GS
[0.75 0 0 0.75 0 0] CT
0.149 GC
2 setlinecap
1 LJ
0.667 LW
N
829.909 281 M
829.909 275.9 L
S
GR
GS
[0.75 0 0 0.75 0 0] CT
0.149 GC
2 setlinecap
1 LJ
0.667 LW
N
848.455 281 M
848.455 275.9 L
S
GR
GS
[0.75 0 0 0.75 0 0] CT
0.149 GC
2 setlinecap
1 LJ
0.667 LW
N
857.727 281 M
857.727 275.9 L
S
GR
GS
[0.75 0 0 0.75 0 0] CT
0.149 GC
2 setlinecap
1 LJ
0.667 LW
N
867 281 M
867 275.9 L
S
GR
GS
[0.75 0 0 0.75 0 0] CT
0.149 GC
2 setlinecap
1 LJ
0.667 LW
N
876.273 281 M
876.273 275.9 L
S
GR
GS
[0.75 0 0 0.75 0 0] CT
0.149 GC
2 setlinecap
1 LJ
0.667 LW
N
894.818 281 M
894.818 275.9 L
S
GR
GS
[0.75 0 0 0.75 0 0] CT
0.149 GC
2 setlinecap
1 LJ
0.667 LW
N
904.091 281 M
904.091 275.9 L
S
GR
GS
[0.75 0 0 0.75 0 0] CT
0.149 GC
2 setlinecap
1 LJ
0.667 LW
N
913.364 281 M
913.364 275.9 L
S
GR
GS
[0.75 0 0 0.75 0 0] CT
0.149 GC
2 setlinecap
1 LJ
0.667 LW
N
922.636 281 M
922.636 275.9 L
S
GR
GS
[0.75 0 0 0.75 0 0] CT
0.149 GC
2 setlinecap
1 LJ
0.667 LW
N
941.182 281 M
941.182 275.9 L
S
GR
GS
[0.75 0 0 0.75 0 0] CT
0.149 GC
2 setlinecap
1 LJ
0.667 LW
N
950.455 281 M
950.455 275.9 L
S
GR
GS
[0.75 0 0 0.75 0 0] CT
0.149 GC
2 setlinecap
1 LJ
0.667 LW
N
959.727 281 M
959.727 275.9 L
S
GR
GS
[0.75 0 0 0.75 0 0] CT
0.149 GC
2 setlinecap
1 LJ
0.667 LW
N
969 281 M
969 275.9 L
S
GR
GS
[0.75 0 0 0.75 0 0] CT
0.149 GC
2 setlinecap
1 LJ
0.667 LW
N
987.545 281 M
987.545 275.9 L
S
GR
GS
[0.75 0 0 0.75 0 0] CT
0.149 GC
2 setlinecap
1 LJ
0.667 LW
N
996.818 281 M
996.818 275.9 L
S
GR
GS
[0.75 0 0 0.75 0 0] CT
0.149 GC
2 setlinecap
1 LJ
0.667 LW
N
1006.091 281 M
1006.091 275.9 L
S
GR
GS
[0.75 0 0 0.75 0 0] CT
0.149 GC
2 setlinecap
1 LJ
0.667 LW
N
1015.364 281 M
1015.364 275.9 L
S
GR
GS
[0.75 0 0 0.75 0 0] CT
0.149 GC
2 setlinecap
1 LJ
0.667 LW
N
1033.909 281 M
1033.909 275.9 L
S
GR
GS
[0.75 0 0 0.75 0 0] CT
0.149 GC
2 setlinecap
1 LJ
0.667 LW
N
1043.182 281 M
1043.182 275.9 L
S
GR
GS
[0.75 0 0 0.75 0 0] CT
0.149 GC
2 setlinecap
1 LJ
0.667 LW
N
1052.454 281 M
1052.454 275.9 L
S
GR
GS
[0.75 0 0 0.75 0 0] CT
0.149 GC
2 setlinecap
1 LJ
0.667 LW
N
1061.727 281 M
1061.727 275.9 L
S
GR
GS
[0.75 0 0 0.75 38.25 214.75001] CT
0.149 GC
/Helvetica 13.333 F
GS
[1 0 0 1 0 0] CT
-7.5 14 moveto 
1 -1 scale
(18) t 
GR
GR
GS
[0.75 0 0 0.75 73.02273 214.75001] CT
0.149 GC
/Helvetica 13.333 F
GS
[1 0 0 1 0 0] CT
-7.5 14 moveto 
1 -1 scale
(19) t 
GR
GR
GS
[0.75 0 0 0.75 107.79546 214.75001] CT
0.149 GC
/Helvetica 13.333 F
GS
[1 0 0 1 0 0] CT
-7.5 14 moveto 
1 -1 scale
(20) t 
GR
GR
GS
[0.75 0 0 0.75 142.56818 214.75001] CT
0.149 GC
/Helvetica 13.333 F
GS
[1 0 0 1 0 0] CT
-7.5 14 moveto 
1 -1 scale
(21) t 
GR
GR
GS
[0.75 0 0 0.75 177.34091 214.75001] CT
0.149 GC
/Helvetica 13.333 F
GS
[1 0 0 1 0 0] CT
-7.5 14 moveto 
1 -1 scale
(22) t 
GR
GR
GS
[0.75 0 0 0.75 212.11363 214.75001] CT
0.149 GC
/Helvetica 13.333 F
GS
[1 0 0 1 0 0] CT
-7.5 14 moveto 
1 -1 scale
(23) t 
GR
GR
GS
[0.75 0 0 0.75 246.88637 214.75001] CT
0.149 GC
/Helvetica 13.333 F
GS
[1 0 0 1 0 0] CT
-7.5 14 moveto 
1 -1 scale
(24) t 
GR
GR
GS
[0.75 0 0 0.75 281.65908 214.75001] CT
0.149 GC
/Helvetica 13.333 F
GS
[1 0 0 1 0 0] CT
-7.5 14 moveto 
1 -1 scale
(25) t 
GR
GR
GS
[0.75 0 0 0.75 316.43182 214.75001] CT
0.149 GC
/Helvetica 13.333 F
GS
[1 0 0 1 0 0] CT
-7.5 14 moveto 
1 -1 scale
(26) t 
GR
GR
GS
[0.75 0 0 0.75 351.20455 214.75001] CT
0.149 GC
/Helvetica 13.333 F
GS
[1 0 0 1 0 0] CT
-7.5 14 moveto 
1 -1 scale
(27) t 
GR
GR
GS
[0.75 0 0 0.75 385.97726 214.75001] CT
0.149 GC
/Helvetica 13.333 F
GS
[1 0 0 1 0 0] CT
-7.5 14 moveto 
1 -1 scale
(28) t 
GR
GR
GS
[0.75 0 0 0.75 420.75 214.75001] CT
0.149 GC
/Helvetica 13.333 F
GS
[1 0 0 1 0 0] CT
-7.5 14 moveto 
1 -1 scale
(29) t 
GR
GR
GS
[0.75 0 0 0.75 455.52274 214.75001] CT
0.149 GC
/Helvetica 13.333 F
GS
[1 0 0 1 0 0] CT
-7.5 14 moveto 
1 -1 scale
(30) t 
GR
GR
GS
[0.75 0 0 0.75 490.29547 214.75001] CT
0.149 GC
/Helvetica 13.333 F
GS
[1 0 0 1 0 0] CT
-7.5 14 moveto 
1 -1 scale
(31) t 
GR
GR
GS
[0.75 0 0 0.75 525.06816 214.75001] CT
0.149 GC
/Helvetica 13.333 F
GS
[1 0 0 1 0 0] CT
-7.5 14 moveto 
1 -1 scale
(32) t 
GR
GR
GS
[0.75 0 0 0.75 559.8409 214.75001] CT
0.149 GC
/Helvetica 13.333 F
GS
[1 0 0 1 0 0] CT
-7.5 14 moveto 
1 -1 scale
(33) t 
GR
GR
GS
[0.75 0 0 0.75 594.61363 214.75001] CT
0.149 GC
/Helvetica 13.333 F
GS
[1 0 0 1 0 0] CT
-7.5 14 moveto 
1 -1 scale
(34) t 
GR
GR
GS
[0.75 0 0 0.75 629.38637 214.75001] CT
0.149 GC
/Helvetica 13.333 F
GS
[1 0 0 1 0 0] CT
-7.5 14 moveto 
1 -1 scale
(35) t 
GR
GR
GS
[0.75 0 0 0.75 664.1591 214.75001] CT
0.149 GC
/Helvetica 13.333 F
GS
[1 0 0 1 0 0] CT
-7.5 14 moveto 
1 -1 scale
(36) t 
GR
GR
GS
[0.75 0 0 0.75 698.93184 214.75001] CT
0.149 GC
/Helvetica 13.333 F
GS
[1 0 0 1 0 0] CT
-7.5 14 moveto 
1 -1 scale
(37) t 
GR
GR
GS
[0.75 0 0 0.75 733.70453 214.75001] CT
0.149 GC
/Helvetica 13.333 F
GS
[1 0 0 1 0 0] CT
-7.5 14 moveto 
1 -1 scale
(38) t 
GR
GR
GS
[0.75 0 0 0.75 768.47726 214.75001] CT
0.149 GC
/Helvetica 13.333 F
GS
[1 0 0 1 0 0] CT
-7.5 14 moveto 
1 -1 scale
(39) t 
GR
GR
GS
[0.75 0 0 0.75 803.25 214.75001] CT
0.149 GC
/Helvetica 13.333 F
GS
[1 0 0 1 0 0] CT
-7.5 14 moveto 
1 -1 scale
(40) t 
GR
GR
GS
[0.75 0 0 0.75 420.75041 228.49999] CT
0.149 GC
/Helvetica 14.667 F
GS
[1 0 0 1 0 0] CT
-17.5 16 moveto 
1 -1 scale
(z \(m\)) t 
GR
GR
GS
[0.75 0 0 0.75 0 0] CT
0.502 GC
[10 6] 0 setdash
2 LJ
0.667 LW
N
69.545 277.6 M
839.182 277.6 L
839.182 43 L
69.545 43 L
cp
S
GR
GS
[0.75 0 0 0.75 0 0] CT
0.502 GC
[10 6] 0 setdash
2 LJ
0.667 LW
N
69.545 277.6 M
839.182 277.6 L
839.182 43 L
69.545 43 L
cp
S
GR
GS
[0.75 0 0 0.75 0 0] CT
0.651 GC
N
333.215 274.2 M
402.761 274.2 L
402.761 206.2 L
333.215 206.2 L
cp
f
GR
GS
[0.75 0 0 0.75 0 0] CT
0.651 GC
10.0 ML
0.667 LW
N
333.215 274.2 M
402.761 274.2 L
402.761 206.2 L
333.215 206.2 L
cp
S
GR
GS
[0.75 0 0 0.75 275.99114 180.15] CT
/Helvetica 12 F
GS
[1 0 0 1 0 0] CT
-12 5 moveto 
1 -1 scale
(Wall) t 
GR
GR
GS
[0.75 0 0 0.75 0 0] CT
0.651 GC
N
1005.488 274.2 M
1071.122 274.2 L
1071.122 206.2 L
1005.488 206.2 L
cp
f
GR
GS
[0.75 0 0 0.75 0 0] CT
0.651 GC
10.0 ML
0.667 LW
N
1071.122 206.2 M
1005.488 206.2 L
1005.488 274.2 L
1071.122 274.2 L
S
GR
GS
[0.75 0 0 0.75 780.19574 180.15] CT
/Helvetica 12 F
GS
[1 0 0 1 0 0] CT
-12 5 moveto 
1 -1 scale
(Wall) t 
GR
GR
GS
[0.75 0 0 0.75 0 0] CT
0.651 GC
N
493.773 274.2 M
509.536 274.2 L
509.536 237.208 L
493.773 237.208 L
cp
f
GR
GS
[0.75 0 0 0.75 0 0] CT
0.651 GC
10.0 ML
0.667 LW
N
493.773 274.2 M
509.536 274.2 L
509.536 237.208 L
493.773 237.208 L
cp
S
GR
GS
[0.75 0 0 0.75 0 0] CT
1 0 1 RC
N
509.536 274.2 M
525.3 274.2 L
525.3 237.208 L
509.536 237.208 L
cp
f
GR
GS
[0.75 0 0 0.75 0 0] CT
1 0 1 RC
10.0 ML
0.667 LW
N
509.536 274.2 M
525.3 274.2 L
525.3 237.208 L
509.536 237.208 L
cp
S
GR
GS
[0.75 0 0 0.75 0 0] CT
0.651 GC
N
509.536 237.208 M
525.3 237.208 L
525.3 200.216 L
509.536 200.216 L
cp
f
GR
GS
[0.75 0 0 0.75 0 0] CT
0.651 GC
10.0 ML
0.667 LW
N
509.536 237.208 M
525.3 237.208 L
525.3 200.216 L
509.536 200.216 L
cp
S
GR
GS
[0.75 0 0 0.75 0 0] CT
1 0 1 RC
N
493.773 237.208 M
509.536 237.208 L
509.536 200.216 L
493.773 200.216 L
cp
f
GR
GS
[0.75 0 0 0.75 0 0] CT
1 0 1 RC
10.0 ML
0.667 LW
N
493.773 237.208 M
509.536 237.208 L
509.536 200.216 L
493.773 200.216 L
cp
S
GR
GS
[0.75 0 0 0.75 0 0] CT
0.651 GC
N
525.3 274.2 M
541.064 274.2 L
541.064 237.208 L
525.3 237.208 L
cp
f
GR
GS
[0.75 0 0 0.75 0 0] CT
0.651 GC
10.0 ML
0.667 LW
N
525.3 274.2 M
541.064 274.2 L
541.064 237.208 L
525.3 237.208 L
cp
S
GR
GS
[0.75 0 0 0.75 0 0] CT
1 0 1 RC
N
541.064 274.2 M
556.827 274.2 L
556.827 237.208 L
541.064 237.208 L
cp
f
GR
GS
[0.75 0 0 0.75 0 0] CT
1 0 1 RC
10.0 ML
0.667 LW
N
541.064 274.2 M
556.827 274.2 L
556.827 237.208 L
541.064 237.208 L
cp
S
GR
GS
[0.75 0 0 0.75 0 0] CT
0.651 GC
N
541.064 237.208 M
556.827 237.208 L
556.827 200.216 L
541.064 200.216 L
cp
f
GR
GS
[0.75 0 0 0.75 0 0] CT
0.651 GC
10.0 ML
0.667 LW
N
541.064 237.208 M
556.827 237.208 L
556.827 200.216 L
541.064 200.216 L
cp
S
GR
GS
[0.75 0 0 0.75 0 0] CT
1 0 1 RC
N
525.3 237.208 M
541.064 237.208 L
541.064 200.216 L
525.3 200.216 L
cp
f
GR
GS
[0.75 0 0 0.75 0 0] CT
1 0 1 RC
10.0 ML
0.667 LW
N
525.3 237.208 M
541.064 237.208 L
541.064 200.216 L
525.3 200.216 L
cp
S
GR
GS
[0.75 0 0 0.75 0 0] CT
0.651 GC
N
556.827 274.2 M
572.591 274.2 L
572.591 237.208 L
556.827 237.208 L
cp
f
GR
GS
[0.75 0 0 0.75 0 0] CT
0.651 GC
10.0 ML
0.667 LW
N
556.827 274.2 M
572.591 274.2 L
572.591 237.208 L
556.827 237.208 L
cp
S
GR
GS
[0.75 0 0 0.75 0 0] CT
1 0 1 RC
N
572.591 274.2 M
588.355 274.2 L
588.355 237.208 L
572.591 237.208 L
cp
f
GR
GS
[0.75 0 0 0.75 0 0] CT
1 0 1 RC
10.0 ML
0.667 LW
N
572.591 274.2 M
588.355 274.2 L
588.355 237.208 L
572.591 237.208 L
cp
S
GR
GS
[0.75 0 0 0.75 0 0] CT
0.651 GC
N
572.591 237.208 M
588.355 237.208 L
588.355 200.216 L
572.591 200.216 L
cp
f
GR
GS
[0.75 0 0 0.75 0 0] CT
0.651 GC
10.0 ML
0.667 LW
N
572.591 237.208 M
588.355 237.208 L
588.355 200.216 L
572.591 200.216 L
cp
S
GR
GS
[0.75 0 0 0.75 0 0] CT
1 0 1 RC
N
556.827 237.208 M
572.591 237.208 L
572.591 200.216 L
556.827 200.216 L
cp
f
GR
GS
[0.75 0 0 0.75 0 0] CT
1 0 1 RC
10.0 ML
0.667 LW
N
556.827 237.208 M
572.591 237.208 L
572.591 200.216 L
556.827 200.216 L
cp
S
GR
GS
[0.75 0 0 0.75 0 0] CT
0.651 GC
N
588.355 274.2 M
604.118 274.2 L
604.118 237.208 L
588.355 237.208 L
cp
f
GR
GS
[0.75 0 0 0.75 0 0] CT
0.651 GC
10.0 ML
0.667 LW
N
588.355 274.2 M
604.118 274.2 L
604.118 237.208 L
588.355 237.208 L
cp
S
GR
GS
[0.75 0 0 0.75 0 0] CT
1 0 1 RC
N
604.118 274.2 M
619.882 274.2 L
619.882 237.208 L
604.118 237.208 L
cp
f
GR
GS
[0.75 0 0 0.75 0 0] CT
1 0 1 RC
10.0 ML
0.667 LW
N
604.118 274.2 M
619.882 274.2 L
619.882 237.208 L
604.118 237.208 L
cp
S
GR
GS
[0.75 0 0 0.75 0 0] CT
0.651 GC
N
604.118 237.208 M
619.882 237.208 L
619.882 200.216 L
604.118 200.216 L
cp
f
GR
GS
[0.75 0 0 0.75 0 0] CT
0.651 GC
10.0 ML
0.667 LW
N
604.118 237.208 M
619.882 237.208 L
619.882 200.216 L
604.118 200.216 L
cp
S
GR
GS
[0.75 0 0 0.75 0 0] CT
1 0 1 RC
N
588.355 237.208 M
604.118 237.208 L
604.118 200.216 L
588.355 200.216 L
cp
f
GR
GS
[0.75 0 0 0.75 0 0] CT
1 0 1 RC
10.0 ML
0.667 LW
N
588.355 237.208 M
604.118 237.208 L
604.118 200.216 L
588.355 200.216 L
cp
S
GR
GS
[0.75 0 0 0.75 0 0] CT
0.651 GC
N
619.882 274.2 M
635.646 274.2 L
635.646 237.208 L
619.882 237.208 L
cp
f
GR
GS
[0.75 0 0 0.75 0 0] CT
0.651 GC
10.0 ML
0.667 LW
N
619.882 274.2 M
635.646 274.2 L
635.646 237.208 L
619.882 237.208 L
cp
S
GR
GS
[0.75 0 0 0.75 0 0] CT
1 0 1 RC
N
635.646 274.2 M
651.409 274.2 L
651.409 237.208 L
635.646 237.208 L
cp
f
GR
GS
[0.75 0 0 0.75 0 0] CT
1 0 1 RC
10.0 ML
0.667 LW
N
635.646 274.2 M
651.409 274.2 L
651.409 237.208 L
635.646 237.208 L
cp
S
GR
GS
[0.75 0 0 0.75 0 0] CT
0.651 GC
N
635.646 237.208 M
651.409 237.208 L
651.409 200.216 L
635.646 200.216 L
cp
f
GR
GS
[0.75 0 0 0.75 0 0] CT
0.651 GC
10.0 ML
0.667 LW
N
635.646 237.208 M
651.409 237.208 L
651.409 200.216 L
635.646 200.216 L
cp
S
GR
GS
[0.75 0 0 0.75 0 0] CT
1 0 1 RC
N
619.882 237.208 M
635.646 237.208 L
635.646 200.216 L
619.882 200.216 L
cp
f
GR
GS
[0.75 0 0 0.75 0 0] CT
1 0 1 RC
10.0 ML
0.667 LW
N
619.882 237.208 M
635.646 237.208 L
635.646 200.216 L
619.882 200.216 L
cp
S
GR
GS
[0.75 0 0 0.75 429.44316 129.15] CT
/Helvetica 12 F
GS
[1 0 0 1 0 0] CT
-19 5 moveto 
1 -1 scale
(LCLS-I) t 
GR
GR
GS
[0.75 0 0 0.75 0 0] CT
1 0 0 RC
N
123.119 274.2 M
126.04 274.2 L
126.04 104.2 L
123.119 104.2 L
cp
f
GR
GS
[0.75 0 0 0.75 0 0] CT
1 0 0 RC
10.0 ML
0.667 LW
N
123.119 274.2 M
126.04 274.2 L
126.04 104.2 L
123.119 104.2 L
cp
S
GR
GS
[0 -0.75 0.75 0 93.43431 78.15] CT
1 0 0 RC
/Helvetica 10.667 F
GS
[1 0 0 1 0 0] CT
0 4.5 moveto 
1 -1 scale
(HIGH2.Q3) t 
GR
GR
GS
[0.75 0 0 0.75 0 0] CT
1 0 0 RC
N
181.885 274.2 M
184.805 274.2 L
184.805 104.2 L
181.885 104.2 L
cp
f
GR
GS
[0.75 0 0 0.75 0 0] CT
1 0 0 RC
10.0 ML
0.667 LW
N
181.885 274.2 M
184.805 274.2 L
184.805 104.2 L
181.885 104.2 L
cp
S
GR
GS
[0 -0.75 0.75 0 137.50874 78.15] CT
1 0 0 RC
/Helvetica 10.667 F
GS
[1 0 0 1 0 0] CT
0 4.5 moveto 
1 -1 scale
(HIGH2.Q4) t 
GR
GR
GS
[0.75 0 0 0.75 0 0] CT
1 0 0 RC
N
240.65 274.2 M
243.571 274.2 L
243.571 104.2 L
240.65 104.2 L
cp
f
GR
GS
[0.75 0 0 0.75 0 0] CT
1 0 0 RC
10.0 ML
0.667 LW
N
240.65 274.2 M
243.571 274.2 L
243.571 104.2 L
240.65 104.2 L
cp
S
GR
GS
[0 -0.75 0.75 0 181.58318 78.15] CT
1 0 0 RC
/Helvetica 10.667 F
GS
[1 0 0 1 0 0] CT
0 4.5 moveto 
1 -1 scale
(HIGH2.Q5) t 
GR
GR
GS
[0.75 0 0 0.75 0 0] CT
1 0 0 RC
N
436.676 274.2 M
439.597 274.2 L
439.597 104.2 L
436.676 104.2 L
cp
f
GR
GS
[0.75 0 0 0.75 0 0] CT
1 0 0 RC
10.0 ML
0.667 LW
N
436.676 274.2 M
439.597 274.2 L
439.597 104.2 L
436.676 104.2 L
cp
S
GR
GS
[0 -0.75 0.75 0 328.60229 78.15] CT
1 0 0 RC
/Helvetica 10.667 F
GS
[1 0 0 1 0 0] CT
0 4.5 moveto 
1 -1 scale
(HIGH3.Q1) t 
GR
GR
GS
[0.75 0 0 0.75 0 0] CT
1 0 0 RC
N
455.221 274.2 M
458.142 274.2 L
458.142 104.2 L
455.221 104.2 L
cp
f
GR
GS
[0.75 0 0 0.75 0 0] CT
1 0 0 RC
10.0 ML
0.667 LW
N
455.221 274.2 M
458.142 274.2 L
458.142 104.2 L
455.221 104.2 L
cp
S
GR
GS
[0 -0.75 0.75 0 342.51137 78.15] CT
1 0 0 RC
/Helvetica 10.667 F
GS
[1 0 0 1 0 0] CT
0 4.5 moveto 
1 -1 scale
(HIGH3.Q2) t 
GR
GR
GS
[0.75 0 0 0.75 0 0] CT
1 0 0 RC
N
473.767 274.2 M
476.688 274.2 L
476.688 104.2 L
473.767 104.2 L
cp
f
GR
GS
[0.75 0 0 0.75 0 0] CT
1 0 0 RC
10.0 ML
0.667 LW
N
473.767 274.2 M
476.688 274.2 L
476.688 104.2 L
473.767 104.2 L
cp
S
GR
GS
[0 -0.75 0.75 0 356.42045 78.15] CT
1 0 0 RC
/Helvetica 10.667 F
GS
[1 0 0 1 0 0] CT
0 4.5 moveto 
1 -1 scale
(HIGH3.Q3) t 
GR
GR
GS
[0.75 0 0 0.75 0 0] CT
1 0 0 RC
N
687.04 274.2 M
689.96 274.2 L
689.96 104.2 L
687.04 104.2 L
cp
f
GR
GS
[0.75 0 0 0.75 0 0] CT
1 0 0 RC
10.0 ML
0.667 LW
N
687.04 274.2 M
689.96 274.2 L
689.96 104.2 L
687.04 104.2 L
cp
S
GR
GS
[0 -0.75 0.75 0 516.375 78.15] CT
1 0 0 RC
/Helvetica 10.667 F
GS
[1 0 0 1 0 0] CT
0 4.5 moveto 
1 -1 scale
(HIGH3.Q4) t 
GR
GR
GS
[0.75 0 0 0.75 0 0] CT
1 0 0 RC
N
705.585 274.2 M
708.506 274.2 L
708.506 104.2 L
705.585 104.2 L
cp
f
GR
GS
[0.75 0 0 0.75 0 0] CT
1 0 0 RC
10.0 ML
0.667 LW
N
705.585 274.2 M
708.506 274.2 L
708.506 104.2 L
705.585 104.2 L
cp
S
GR
GS
[0 -0.75 0.75 0 530.28415 78.15] CT
1 0 0 RC
/Helvetica 10.667 F
GS
[1 0 0 1 0 0] CT
0 4.5 moveto 
1 -1 scale
(HIGH3.Q5) t 
GR
GR
GS
[0.75 0 0 0.75 0 0] CT
0 0 1 RC
N
60.365 274.2 M
65.929 274.2 L
65.929 172.2 L
60.365 172.2 L
cp
f
GR
GS
[0.75 0 0 0.75 0 0] CT
0 0 1 RC
10.0 ML
0.667 LW
N
60.365 274.2 M
65.929 274.2 L
65.929 172.2 L
60.365 172.2 L
cp
S
GR
GS
[0 -0.75 0.75 0 47.36042 129.15] CT
0 0 1 RC
/Helvetica 10.667 F
GS
[1 0 0 1 0 0] CT
0 4.5 moveto 
1 -1 scale
(HIGH2.SCR2) t 
GR
GR
GS
[0.75 0 0 0.75 0 0] CT
0 0 1 RC
N
273.545 274.2 M
279.109 274.2 L
279.109 172.2 L
273.545 172.2 L
cp
f
GR
GS
[0.75 0 0 0.75 0 0] CT
0 0 1 RC
10.0 ML
0.667 LW
N
273.545 274.2 M
279.109 274.2 L
279.109 172.2 L
273.545 172.2 L
cp
S
GR
GS
[0 -0.75 0.75 0 207.24548 129.15] CT
0 0 1 RC
/Helvetica 10.667 F
GS
[1 0 0 1 0 0] CT
0 4.5 moveto 
1 -1 scale
(HIGH2.SCR3) t 
GR
GR
GS
[0.75 0 0 0.75 0 0] CT
0 0 1 RC
N
463.173 274.2 M
468.736 274.2 L
468.736 172.2 L
463.173 172.2 L
cp
f
GR
GS
[0.75 0 0 0.75 0 0] CT
0 0 1 RC
10.0 ML
0.667 LW
N
463.173 274.2 M
468.736 274.2 L
468.736 172.2 L
463.173 172.2 L
cp
S
GR
GS
[0 -0.75 0.75 0 349.46594 129.15] CT
0 0 1 RC
/Helvetica 10.667 F
GS
[1 0 0 1 0 0] CT
0 4.5 moveto 
1 -1 scale
(HIGH3.SCR1) t 
GR
GR
GS
[0.75 0 0 0.75 0 0] CT
0 0 1 RC
N
676.445 274.2 M
682.009 274.2 L
682.009 172.2 L
676.445 172.2 L
cp
f
GR
GS
[0.75 0 0 0.75 0 0] CT
0 0 1 RC
10.0 ML
0.667 LW
N
676.445 274.2 M
682.009 274.2 L
682.009 172.2 L
676.445 172.2 L
cp
S
GR
GS
[0 -0.75 0.75 0 509.42043 129.15] CT
0 0 1 RC
/Helvetica 10.667 F
GS
[1 0 0 1 0 0] CT
0 4.5 moveto 
1 -1 scale
(HIGH3.SCR2) t 
GR
GR
GS
[0 -0.75 0.75 0 -2.36452 78.15] CT
0 1 0 RC
/Helvetica 10.667 F
GS
[1 0 0 1 0 0] CT
0 4.5 moveto 
1 -1 scale
(HIGH2.ST2) t 
GR
GR
GS
[0.75 0 0 0.75 0 0] CT
0 1 0 RC
N
102.556 274.2 M
104.875 274.2 L
104.875 104.2 L
102.556 104.2 L
cp
f
GR
GS
[0.75 0 0 0.75 0 0] CT
0 1 0 RC
10.0 ML
0.667 LW
N
102.556 274.2 M
104.875 274.2 L
104.875 104.2 L
102.556 104.2 L
cp
S
GR
GS
[0 -0.75 0.75 0 77.78656 78.15] CT
0 1 0 RC
/Helvetica 10.667 F
GS
[1 0 0 1 0 0] CT
0 4.5 moveto 
1 -1 scale
(HIGH2.ST3) t 
GR
GR
GS
[0.75 0 0 0.75 0 0] CT
0 1 0 RC
N
178.477 274.2 M
180.795 274.2 L
180.795 104.2 L
178.477 104.2 L
cp
f
GR
GS
[0.75 0 0 0.75 0 0] CT
0 1 0 RC
10.0 ML
0.667 LW
N
178.477 274.2 M
180.795 274.2 L
180.795 104.2 L
178.477 104.2 L
cp
S
GR
GS
[0 -0.75 0.75 0 134.72693 78.15] CT
0 1 0 RC
/Helvetica 10.667 F
GS
[1 0 0 1 0 0] CT
0 4.5 moveto 
1 -1 scale
(HIGH2.ST4) t 
GR
GR
GS
[0.75 0 0 0.75 0 0] CT
0 1 0 RC
N
233.997 274.2 M
236.315 274.2 L
236.315 104.2 L
233.997 104.2 L
cp
f
GR
GS
[0.75 0 0 0.75 0 0] CT
0 1 0 RC
10.0 ML
0.667 LW
N
233.997 274.2 M
236.315 274.2 L
236.315 104.2 L
233.997 104.2 L
cp
S
GR
GS
[0 -0.75 0.75 0 176.36728 78.15] CT
0 1 0 RC
/Helvetica 10.667 F
GS
[1 0 0 1 0 0] CT
0 4.5 moveto 
1 -1 scale
(HIGH2.STA4) t 
GR
GR
GS
[0.75 0 0 0.75 0 0] CT
0 1 0 RC
N
432.341 274.2 M
434.659 274.2 L
434.659 104.2 L
432.341 104.2 L
cp
f
GR
GS
[0.75 0 0 0.75 0 0] CT
0 1 0 RC
10.0 ML
0.667 LW
N
432.341 274.2 M
434.659 274.2 L
434.659 104.2 L
432.341 104.2 L
cp
S
GR
GS
[0 -0.75 0.75 0 325.125 78.15] CT
0 1 0 RC
/Helvetica 10.667 F
GS
[1 0 0 1 0 0] CT
0 4.5 moveto 
1 -1 scale
(HIGH3.ST1) t 
GR
GR
GS
[0.75 0 0 0.75 0 0] CT
0 1 0 RC
N
446.25 274.2 M
448.568 274.2 L
448.568 104.2 L
446.25 104.2 L
cp
f
GR
GS
[0.75 0 0 0.75 0 0] CT
0 1 0 RC
10.0 ML
0.667 LW
N
446.25 274.2 M
448.568 274.2 L
448.568 104.2 L
446.25 104.2 L
cp
S
GR
GS
[0 -0.75 0.75 0 335.55679 78.15] CT
0 1 0 RC
/Helvetica 10.667 F
GS
[1 0 0 1 0 0] CT
0 4.5 moveto 
1 -1 scale
(HIGH3.STA1) t 
GR
GR
GS
[0.75 0 0 0.75 0 0] CT
N
173.678 274.2 M
174.142 274.2 L
174.142 172.2 L
173.678 172.2 L
cp
f
GR
GS
[0.75 0 0 0.75 0 0] CT
10.0 ML
0.667 LW
N
173.678 274.2 M
174.142 274.2 L
174.142 172.2 L
173.678 172.2 L
cp
S
GR
GS
[0 -0.75 0.75 0 130.43247 129.15] CT
/Helvetica 10.667 F
GS
[1 0 0 1 0 0] CT
0 4.5 moveto 
1 -1 scale
(HIGH2.BPM1) t 
GR
GR
GS
[0.75 0 0 0.75 0 0] CT
N
286.759 274.2 M
287.223 274.2 L
287.223 172.2 L
286.759 172.2 L
cp
f
GR
GS
[0.75 0 0 0.75 0 0] CT
10.0 ML
0.667 LW
N
286.759 274.2 M
287.223 274.2 L
287.223 172.2 L
286.759 172.2 L
cp
S
GR
GS
[0 -0.75 0.75 0 215.24318 129.15] CT
/Helvetica 10.667 F
GS
[1 0 0 1 0 0] CT
0 4.5 moveto 
1 -1 scale
(HIGH2.BPM2) t 
GR
GR
GS
[0.75 0 0 0.75 0 0] CT
N
310.868 274.2 M
311.332 274.2 L
311.332 172.2 L
310.868 172.2 L
cp
f
GR
GS
[0.75 0 0 0.75 0 0] CT
10.0 ML
0.667 LW
N
310.868 274.2 M
311.332 274.2 L
311.332 172.2 L
310.868 172.2 L
cp
S
GR
GS
[0 -0.75 0.75 0 233.32503 129.15] CT
/Helvetica 10.667 F
GS
[1 0 0 1 0 0] CT
0 4.5 moveto 
1 -1 scale
(HIGH2.BPM3) t 
GR
GR
GS
[0.75 0 0 0.75 0 0] CT
N
425.85 274.2 M
426.314 274.2 L
426.314 172.2 L
425.85 172.2 L
cp
f
GR
GS
[0.75 0 0 0.75 0 0] CT
10.0 ML
0.667 LW
N
425.85 274.2 M
426.314 274.2 L
426.314 172.2 L
425.85 172.2 L
cp
S
GR
GS
[0 -0.75 0.75 0 319.56136 129.15] CT
/Helvetica 10.667 F
GS
[1 0 0 1 0 0] CT
0 4.5 moveto 
1 -1 scale
(HIGH3.BPM1) t 
GR
GR
GS
[0.75 0 0 0.75 0 0] CT
N
479.864 274.2 M
480.327 274.2 L
480.327 172.2 L
479.864 172.2 L
cp
f
GR
GS
[0.75 0 0 0.75 0 0] CT
10.0 ML
0.667 LW
N
479.864 274.2 M
480.327 274.2 L
480.327 172.2 L
479.864 172.2 L
cp
S
GR
GS
[0 -0.75 0.75 0 360.07157 129.15] CT
/Helvetica 10.667 F
GS
[1 0 0 1 0 0] CT
0 4.5 moveto 
1 -1 scale
(HIGH3.BPM2) t 
GR
GR
GS
[0.75 0 0 0.75 0 0] CT
N
664.855 274.2 M
665.318 274.2 L
665.318 172.2 L
664.855 172.2 L
cp
f
GR
GS
[0.75 0 0 0.75 0 0] CT
10.0 ML
0.667 LW
N
664.855 274.2 M
665.318 274.2 L
665.318 172.2 L
664.855 172.2 L
cp
S
GR
GS
[0 -0.75 0.75 0 498.81482 129.15] CT
/Helvetica 10.667 F
GS
[1 0 0 1 0 0] CT
0 4.5 moveto 
1 -1 scale
(HIGH3.BPM3) t 
GR
GR
GS
[0.75 0 0 0.75 0 0] CT
0.584 0.816 0.988 RC
N
50.878 274.2 M
51.742 274.2 L
51.742 206.2 L
50.878 206.2 L
cp
f
GR
GS
[0.75 0 0 0.75 0 0] CT
0.584 0.816 0.988 RC
10.0 ML
0.667 LW
N
50.878 274.2 M
51.742 274.2 L
51.742 206.2 L
50.878 206.2 L
S
GR
GS
[0 -0.75 0.75 0 23.57588 176.325] CT
/Helvetica 12 F
GS
[1 0 0 1 0 0] CT
-27 5 moveto 
1 -1 scale
(DISP3.D1) t 
GR
GR
GS
[0.75 0 0 0.75 0 0] CT
0.584 0.816 0.988 RC
N
74.182 274.2 M
88.091 274.2 L
88.091 240.2 L
74.182 240.2 L
cp
f
GR
GS
[0.75 0 0 0.75 0 0] CT
0.584 0.816 0.988 RC
10.0 ML
0.667 LW
N
74.182 274.2 M
88.091 274.2 L
88.091 240.2 L
74.182 240.2 L
cp
S
GR
GS
[0 -0.75 0.75 0 60.85226 147] CT
/Helvetica 12 F
GS
[1 0 0 1 0 0] CT
-36.5 5 moveto 
1 -1 scale
(CHICANE.D1) t 
GR
GR
GS
[0.75 0 0 0.75 0 0] CT
0.584 0.816 0.988 RC
N
132.646 274.2 M
169.969 274.2 L
169.969 206.2 L
132.646 206.2 L
cp
f
GR
GS
[0.75 0 0 0.75 0 0] CT
0.584 0.816 0.988 RC
10.0 ML
0.667 LW
N
132.646 274.2 M
169.969 274.2 L
169.969 206.2 L
132.646 206.2 L
cp
S
GR
GS
[0 -0.75 0.75 0 113.48079 176.325] CT
/Helvetica 12 F
GS
[1 0 0 1 0 0] CT
-27 5 moveto 
1 -1 scale
(DISP3.D3) t 
GR
GR
GS
[0.75 0 0 0.75 0 0] CT
0.584 0.816 0.988 RC
N
134.455 196 M
148.364 196 L
148.364 162 L
134.455 162 L
cp
f
GR
GS
[0.75 0 0 0.75 0 0] CT
0.584 0.816 0.988 RC
10.0 ML
0.667 LW
N
134.455 196 M
148.364 196 L
148.364 162 L
134.455 162 L
cp
S
GR
GS
[0 -0.75 0.75 0 117.35794 121.5] CT
/Helvetica 12 F
GS
[1 0 0 1 0 0] CT
-36.5 5 moveto 
1 -1 scale
(CHICANE.D2) t 
GR
GR
GS
[0.75 0 0 0.75 0 0] CT
0.584 0.816 0.988 RC
N
194.727 196 M
208.636 196 L
208.636 162 L
194.727 162 L
cp
f
GR
GS
[0.75 0 0 0.75 0 0] CT
0.584 0.816 0.988 RC
10.0 ML
0.667 LW
N
194.727 196 M
208.636 196 L
208.636 162 L
194.727 162 L
cp
S
GR
GS
[0 -0.75 0.75 0 162.56252 121.5] CT
/Helvetica 12 F
GS
[1 0 0 1 0 0] CT
-36.5 5 moveto 
1 -1 scale
(CHICANE.D3) t 
GR
GR
GS
[0.75 0 0 0.75 0 0] CT
0.584 0.816 0.988 RC
N
255 274.2 M
268.909 274.2 L
268.909 240.2 L
255 240.2 L
cp
f
GR
GS
[0.75 0 0 0.75 0 0] CT
0.584 0.816 0.988 RC
10.0 ML
0.667 LW
N
255 274.2 M
268.909 274.2 L
268.909 240.2 L
255 240.2 L
cp
S
GR
GS
[0 -0.75 0.75 0 196.46587 147] CT
/Helvetica 12 F
GS
[1 0 0 1 0 0] CT
-36.5 5 moveto 
1 -1 scale
(CHICANE.D4) t 
GR
GR
GS
[0.75 0 0 0.75 0 0] CT
0.584 0.816 0.988 RC
N
405.682 274.2 M
419.591 274.2 L
419.591 206.2 L
405.682 206.2 L
cp
f
GR
GS
[0.75 0 0 0.75 0 0] CT
0.584 0.816 0.988 RC
10.0 ML
0.667 LW
N
405.682 274.2 M
419.591 274.2 L
419.591 206.2 L
405.682 206.2 L
cp
S
GR
GS
[0 -0.75 0.75 0 309.47724 176.325] CT
/Helvetica 12 F
GS
[1 0 0 1 0 0] CT
-28 5 moveto 
1 -1 scale
(HIGH3.D1) t 
GR
GR
GS
[0.75 0 0 0.75 0 0] CT
0.584 0.816 0.988 RC
N
714 274.2 M
727.909 274.2 L
727.909 206.2 L
714 206.2 L
cp
f
GR
GS
[0.75 0 0 0.75 0 0] CT
0.584 0.816 0.988 RC
10.0 ML
0.667 LW
N
714 274.2 M
727.909 274.2 L
727.909 206.2 L
714 206.2 L
cp
S
GR
GS
[0 -0.75 0.75 0 540.71594 176.325] CT
/Helvetica 12 F
GS
[1 0 0 1 0 0] CT
-28 5 moveto 
1 -1 scale
(HIGH3.D2) t 
GR
GR
GS
[0.75 0 0 0.75 0 0] CT
0.929 0.69 0.129 RC
N
294.409 274.2 M
303.682 274.2 L
303.682 269.1 L
294.409 269.1 L
cp
f
GR
GS
[0.75 0 0 0.75 0 0] CT
0.929 0.69 0.129 RC
10.0 ML
0.667 LW
N
294.409 274.2 M
303.682 274.2 L
303.682 269.1 L
294.409 269.1 L
cp
S
GR
GS
[0.75 0 0 0.75 0 0] CT
0.929 0.69 0.129 RC
N
294.409 264 M
303.682 264 L
303.682 258.9 L
294.409 258.9 L
cp
f
GR
GS
[0.75 0 0 0.75 0 0] CT
0.929 0.69 0.129 RC
10.0 ML
0.667 LW
N
294.409 264 M
303.682 264 L
303.682 258.9 L
294.409 258.9 L
cp
S
GR
GS
[0 -0.75 0.75 0 224.2841 159.75] CT
/Helvetica 12 F
GS
[1 0 0 1 0 0] CT
-39.5 5 moveto 
1 -1 scale
(COLLIMATOR) t 
GR
GR
GS
[0.75 0 0 0.75 38.25 -3] CT
N
0 4 M
0 22 L
113 22 L
113 4 L
cp
clip
0.94 GC
N
0 0 113 22 re
f
GR
GS
[0.75 0 0 0.75 38.25 -3] CT
N
0 4 M
0 22 L
113 22 L
113 4 L
cp
clip
0.94 GC
N
0 0 113 22 re
f
GR
GS
[0.75 0 0 0.75 39 0.75] CT
[1 0 0 1 0 0] CT
N
-1 -1 M
-1 17 L
112 17 L
112 -1 L
cp
clip
GS
0 0 translate
13 13 scale
%AXGBeginBitmap: java.awt.image.BufferedImage
{{
/RawData currentfile /ASCII85Decode filter def
/Data RawData /FlateDecode filter def
/DeviceRGB setcolorspace
<<
  /Decode [0 1 0 1 0 1]
  /BitsPerComponent 8
  /Width 13
  /ImageType 1
  /DataSource Data
  /ImageMatrix [13 0 0 13 0 0]
  /Height 13
>> image
} stopped {handleerror} if
  RawData flushfile
} exec
GapQJ-5QM,"K8']dA'2Q*ZdCdm(fA)U*_r`qqJSu\<J/;JQiI<(+9HQ_Q!gC%*/SZ6<%Eo61t@b-)MS;
T0cLdWZ`3%j=);X!!&r0?>]~>

%AXGEndBitmap
GR
GR
GS
[0.75 0 0 0.75 38.25 -3] CT
1 0 0 RC
/Helvetica 13.333 F
GS
N
0 4 M
113 4 L
113 22 L
0 22 L
0 4 L
cp
clip
[1 0 0 1 0 0] CT
18 16 moveto 
1 -1 scale
(Quadrupole) t 
GR
GR
GS
[0.75 0 0 0.75 123 -3] CT
N
0 4 M
0 22 L
113 22 L
113 4 L
cp
clip
0.94 GC
N
0 0 113 22 re
f
GR
GS
[0.75 0 0 0.75 123 -3] CT
N
0 4 M
0 22 L
113 22 L
113 4 L
cp
clip
0.94 GC
N
0 0 113 22 re
f
GR
GS
[0.75 0 0 0.75 123.75 0.75] CT
[1 0 0 1 0 0] CT
N
-1 -1 M
-1 17 L
112 17 L
112 -1 L
cp
clip
GS
0 0 translate
13 13 scale
%AXGBeginBitmap: java.awt.image.BufferedImage
{{
/RawData currentfile /ASCII85Decode filter def
/Data RawData /FlateDecode filter def
/DeviceRGB setcolorspace
<<
  /Decode [0 1 0 1 0 1]
  /BitsPerComponent 8
  /Width 13
  /ImageType 1
  /DataSource Data
  /ImageMatrix [13 0 0 13 0 0]
  /Height 13
>> image
} stopped {handleerror} if
  RawData flushfile
} exec
GapQJ-5QM,"K8']dA'2Q*ZdCdm(fA)U*_r`qqJSu\<J/;JQiI<(+9HQ_Q!gC%*/SZ6<%Eo61t@b-)MS;
T0cLdWZ`3%j=);X!!&r0?>]~>

%AXGEndBitmap
GR
GR
GS
[0.75 0 0 0.75 123 -3] CT
0 0 1 RC
/Helvetica 13.333 F
GS
N
0 4 M
113 4 L
113 22 L
0 22 L
0 4 L
cp
clip
[1 0 0 1 0 0] CT
18 16 moveto 
1 -1 scale
(Screen) t 
GR
GR
GS
[0.75 0 0 0.75 207.75 -3] CT
N
0 4 M
0 22 L
113 22 L
113 4 L
cp
clip
0.94 GC
N
0 0 113 22 re
f
GR
GS
[0.75 0 0 0.75 207.75 -3] CT
N
0 4 M
0 22 L
113 22 L
113 4 L
cp
clip
0.94 GC
N
0 0 113 22 re
f
GR
GS
[0.75 0 0 0.75 208.5 0.75] CT
[1 0 0 1 0 0] CT
N
-1 -1 M
-1 17 L
112 17 L
112 -1 L
cp
clip
GS
0 0 translate
13 13 scale
%AXGBeginBitmap: java.awt.image.BufferedImage
{{
/RawData currentfile /ASCII85Decode filter def
/Data RawData /FlateDecode filter def
/DeviceRGB setcolorspace
<<
  /Decode [0 1 0 1 0 1]
  /BitsPerComponent 8
  /Width 13
  /ImageType 1
  /DataSource Data
  /ImageMatrix [13 0 0 13 0 0]
  /Height 13
>> image
} stopped {handleerror} if
  RawData flushfile
} exec
GapQJ-5QM,"K8']dA'2Q*ZdCdm(fA)U*_r`qqJSu\<J/;JQiI<(+9HQ_Q!gC%*/SZ6<%Eo61t@b-)MS;
T0cLdWZ`3%j=);X!!&r0?>]~>

%AXGEndBitmap
GR
GR
GS
[0.75 0 0 0.75 207.75 -3] CT
0 1 0 RC
/Helvetica 13.333 F
GS
N
0 4 M
113 4 L
113 22 L
0 22 L
0 4 L
cp
clip
[1 0 0 1 0 0] CT
18 16 moveto 
1 -1 scale
(Steerer) t 
GR
GR
GS
[0.75 0 0 0.75 293.25 -3] CT
N
0 4 M
0 22 L
113 22 L
113 4 L
cp
clip
0.94 GC
N
0 0 113 22 re
f
GR
GS
[0.75 0 0 0.75 293.25 -3] CT
N
0 4 M
0 22 L
113 22 L
113 4 L
cp
clip
0.94 GC
N
0 0 113 22 re
f
GR
GS
[0.75 0 0 0.75 294 0.75] CT
[1 0 0 1 0 0] CT
N
-1 -1 M
-1 17 L
112 17 L
112 -1 L
cp
clip
GS
0 0 translate
13 13 scale
%AXGBeginBitmap: java.awt.image.BufferedImage
{{
/RawData currentfile /ASCII85Decode filter def
/Data RawData /FlateDecode filter def
/DeviceRGB setcolorspace
<<
  /Decode [0 1 0 1 0 1]
  /BitsPerComponent 8
  /Width 13
  /ImageType 1
  /DataSource Data
  /ImageMatrix [13 0 0 13 0 0]
  /Height 13
>> image
} stopped {handleerror} if
  RawData flushfile
} exec
GapQJ-5QM,"@eXc*bE7i!)Xel<<~>

%AXGEndBitmap
GR
GR
GS
[0.75 0 0 0.75 293.25 -3] CT
1 0 1 RC
/Helvetica 13.333 F
GS
N
0 4 M
113 4 L
113 22 L
0 22 L
0 4 L
cp
clip
[1 0 0 1 0 0] CT
18 16 moveto 
1 -1 scale
(ICT) t 
GR
GR
GS
[0.75 0 0 0.75 378 -3] CT
N
0 4 M
0 22 L
113 22 L
113 4 L
cp
clip
0.94 GC
N
0 0 113 22 re
f
GR
GS
[0.75 0 0 0.75 378 -3] CT
N
0 4 M
0 22 L
113 22 L
113 4 L
cp
clip
0.94 GC
N
0 0 113 22 re
f
GR
GS
[0.75 0 0 0.75 378.75 0.75] CT
[1 0 0 1 0 0] CT
N
-1 -1 M
-1 17 L
112 17 L
112 -1 L
cp
clip
GS
0 0 translate
13 13 scale
%AXGBeginBitmap: java.awt.image.BufferedImage
{{
/RawData currentfile /ASCII85Decode filter def
/Data RawData /FlateDecode filter def
/DeviceRGB setcolorspace
<<
  /Decode [0 1 0 1 0 1]
  /BitsPerComponent 8
  /Width 13
  /ImageType 1
  /DataSource Data
  /ImageMatrix [13 0 0 13 0 0]
  /Height 13
>> image
} stopped {handleerror} if
  RawData flushfile
} exec
GapQJ-5QM,"@eXc*bE7i!)Xel<<~>

%AXGEndBitmap
GR
GR
GS
[0.75 0 0 0.75 378 -3] CT
0 1 1 RC
/Helvetica 13.333 F
GS
N
0 4 M
113 4 L
113 22 L
0 22 L
0 4 L
cp
clip
[1 0 0 1 0 0] CT
18 16 moveto 
1 -1 scale
(Faraday Cup) t 
GR
GR
GS
[0.75 0 0 0.75 462.75 -3] CT
N
0 4 M
0 22 L
113 22 L
113 4 L
cp
clip
0.94 GC
N
0 0 113 22 re
f
GR
GS
[0.75 0 0 0.75 462.75 -3] CT
N
0 4 M
0 22 L
113 22 L
113 4 L
cp
clip
0.94 GC
N
0 0 113 22 re
f
GR
GS
[0.75 0 0 0.75 463.5 0.75] CT
[1 0 0 1 0 0] CT
N
-1 -1 M
-1 17 L
112 17 L
112 -1 L
cp
clip
GS
0 0 translate
13 13 scale
%AXGBeginBitmap: java.awt.image.BufferedImage
{{
/RawData currentfile /ASCII85Decode filter def
/Data RawData /FlateDecode filter def
/DeviceRGB setcolorspace
<<
  /Decode [0 1 0 1 0 1]
  /BitsPerComponent 8
  /Width 13
  /ImageType 1
  /DataSource Data
  /ImageMatrix [13 0 0 13 0 0]
  /Height 13
>> image
} stopped {handleerror} if
  RawData flushfile
} exec
GapQJ-5QM,"K8']dA'2Q*ZdCdm(fA)U*_r`qqJSu\<J/;JQiI<(+9HQ_Q!gC%*/SZ6<%Eo61t@b-)MS;
T0cLdWZ`3%j=);X!!&r0?>]~>

%AXGEndBitmap
GR
GR
GS
[0.75 0 0 0.75 462.75 -3] CT
/Helvetica 13.333 F
GS
N
0 4 M
113 4 L
113 22 L
0 22 L
0 4 L
cp
clip
[1 0 0 1 0 0] CT
18 16 moveto 
1 -1 scale
(BPM) t 
GR
GR
GS
[0.75 0 0 0.75 548.25 -3] CT
N
0 4 M
0 22 L
113 22 L
113 4 L
cp
clip
0.94 GC
N
0 0 113 22 re
f
GR
GS
[0.75 0 0 0.75 548.25 -3] CT
N
0 4 M
0 22 L
113 22 L
113 4 L
cp
clip
0.94 GC
N
0 0 113 22 re
f
GR
GS
[0.75 0 0 0.75 549 0.75] CT
[1 0 0 1 0 0] CT
N
-1 -1 M
-1 17 L
112 17 L
112 -1 L
cp
clip
GS
0 0 translate
13 13 scale
%AXGBeginBitmap: java.awt.image.BufferedImage
{{
/RawData currentfile /ASCII85Decode filter def
/Data RawData /FlateDecode filter def
/DeviceRGB setcolorspace
<<
  /Decode [0 1 0 1 0 1]
  /BitsPerComponent 8
  /Width 13
  /ImageType 1
  /DataSource Data
  /ImageMatrix [13 0 0 13 0 0]
  /Height 13
>> image
} stopped {handleerror} if
  RawData flushfile
} exec
GapQJ-5QM,"K8']dA'2Q*ZdCdm(fA)U*_r`qqJSu\<J/;JQiI<(+9HQ_Q!gC%*/SZ6<%Eo61t@b-)MS;
T0cLdWZ`3%j=);X!!&r0?>]~>

%AXGEndBitmap
GR
GR
GS
[0.75 0 0 0.75 548.25 -3] CT
0.584 0.816 0.988 RC
/Helvetica 13.333 F
GS
N
0 4 M
113 4 L
113 22 L
0 22 L
0 4 L
cp
clip
[1 0 0 1 0 0] CT
18 16 moveto 
1 -1 scale
(Dipole) t 
GR
GR
GS
[0.75 0 0 0.75 633 -3] CT
N
0 4 M
0 22 L
113 22 L
113 4 L
cp
clip
0.94 GC
N
0 0 113 22 re
f
GR
GS
[0.75 0 0 0.75 633 -3] CT
N
0 4 M
0 22 L
113 22 L
113 4 L
cp
clip
0.94 GC
N
0 0 113 22 re
f
GR
GS
[0.75 0 0 0.75 633.75 0.75] CT
[1 0 0 1 0 0] CT
N
-1 -1 M
-1 17 L
112 17 L
112 -1 L
cp
clip
GS
0 0 translate
13 13 scale
%AXGBeginBitmap: java.awt.image.BufferedImage
{{
/RawData currentfile /ASCII85Decode filter def
/Data RawData /FlateDecode filter def
/DeviceRGB setcolorspace
<<
  /Decode [0 1 0 1 0 1]
  /BitsPerComponent 8
  /Width 13
  /ImageType 1
  /DataSource Data
  /ImageMatrix [13 0 0 13 0 0]
  /Height 13
>> image
} stopped {handleerror} if
  RawData flushfile
} exec
GapQJ-5QM,"K8']dA'2Q*ZdCdm(fA)U*_r`qqJSu\<J/;JQiI<(+9HQ_Q!gC%*/SZ6<%Eo61t@b-)MS;
T0cLdWZ`3%j=);X!!&r0?>]~>

%AXGEndBitmap
GR
GR
GS
[0.75 0 0 0.75 633 -3] CT
0.93 0.69 0.13 RC
/Helvetica 13.333 F
GS
N
0 4 M
113 4 L
113 22 L
0 22 L
0 4 L
cp
clip
[1 0 0 1 0 0] CT
18 16 moveto 
1 -1 scale
(Collimator) t 
GR
GR
%%Trailer
%%Pages: 1
%%EOF
