O    1.291250    0.000000    0.000000    0.000000     0
Q    0.067500    0.000000   -1.500000    1.500000     1
O    1.200000    0.000000    0.000000    0.000000     0
Q    0.067500    0.000000   -1.500000    1.500000     1
O    1.200000    0.000000    0.000000    0.000000     0
Q    0.067500    0.000000   -1.500000    1.500000     1
O    4.160500    0.000000    0.000000    0.000000     0
Q    0.067500    0.000000   -1.500000    1.500000     1
O    0.332500    0.000000    0.000000    0.000000     0
Q    0.067500    0.000000   -1.500000    1.500000     1
O    0.332500    0.000000    0.000000    0.000000     0
Q    0.067500    0.000000   -1.500000    1.500000     1
O    0.266250    0.000000    0.000000    0.000000     0
