\relax 
\citation{terahertz-xfel}
\citation{tanikawa2018superradiant}
\citation{schneidmiller2013tunable}
\citation{schneidmiller2013tunable,boonpornprasert2014start,boonpornprasert2017calculations,krasilnikov2018start}
\citation{krasilnikov2012experimentally}
\citation{boonpornprasert2014start}
\citation{krasilnikov2012experimentally}
\citation{astra}
\citation{DE}
\babel@aux{USenglish}{}
\@writefile{toc}{\contentsline {section}{INTRODUCTION}{1}}
\@writefile{toc}{\contentsline {section}{SIMULATIONS}{1}}
\@writefile{toc}{\contentsline {subsection}{Start-to-end simulation}{1}}
\citation{krasilnikov2018start}
\citation{genesis}
\@writefile{lof}{\contentsline {figure}{\numberline {1}{\ignorespaces Dependence of (a) peak current on laser spot size (BSA) and (b) correlated energy spread on booster phase.\relax }}{2}}
\providecommand*\caption@xref[2]{\@setref\relax\@undefined{#1}}
\newlabel{fig:optimization}{{1}{2}}
\@writefile{lof}{\contentsline {figure}{\numberline {2}{\ignorespaces Start-to-end simulation: (a) rms beam sizes, (b) normalized emittances and (c) rms energy spread and mean momentum along the beamline.\relax }}{2}}
\newlabel{fig:beam-transport}{{2}{2}}
\@writefile{lof}{\contentsline {figure}{\numberline {3}{\ignorespaces (a) Transverse and (b) longitudinal phase spaces at the undulator entrance.\relax }}{2}}
\newlabel{fig:transverse-phase-space}{{3}{2}}
\@writefile{toc}{\contentsline {subsection}{THz radiation generation}{2}}
\@writefile{lof}{\contentsline {figure}{\numberline {4}{\ignorespaces (a) THz pulse energy along the undulator and (b) its spectrum at the exit.\relax }}{2}}
\newlabel{fig:THz-pulse}{{4}{2}}
\@writefile{toc}{\contentsline {section}{Experiments at reduced bunch charge}{2}}
\@writefile{toc}{\contentsline {subsection}{Electron beam characterization}{2}}
\bibcite{terahertz-xfel}{1}
\@writefile{lot}{\contentsline {table}{\numberline {1}{\ignorespaces Summary of THz SASE radiations\relax }}{3}}
\newlabel{tab:THz-SASE}{{1}{3}}
\@writefile{lof}{\contentsline {figure}{\numberline {5}{\ignorespaces (a) Emission curve and (b) longitudinal bunch profile.\relax }}{3}}
\newlabel{fig:emission-curve}{{5}{3}}
\@writefile{lot}{\contentsline {table}{\numberline {2}{\ignorespaces Measured and simulated beam parameters\relax }}{3}}
\newlabel{tab:measurement-simulation}{{2}{3}}
\@writefile{lof}{\contentsline {figure}{\numberline {6}{\ignorespaces The measured transverse phase spaces in (a) horizontal and (b) vertical planes: $\mitvarepsilon _{n,x} = 4.0$ mm mrad and $\mitvarepsilon _{n,x} = 3.9$ mm mrad.\relax }}{3}}
\newlabel{fig:beam-characterization}{{6}{3}}
\@writefile{toc}{\contentsline {subsection}{Electron beam matching}{3}}
\@writefile{lof}{\contentsline {figure}{\numberline {7}{\ignorespaces (a) Transport and matching of the electron beam from simulation and measurement and (b) transverse distribution at the matching screen (YAG in (a)).\relax }}{3}}
\newlabel{fig:transport-and-matching}{{7}{3}}
\@writefile{toc}{\contentsline {section}{CONCLUSION}{3}}
\bibcite{tanikawa2018superradiant}{2}
\bibcite{schneidmiller2013tunable}{3}
\bibcite{boonpornprasert2014start}{4}
\bibcite{boonpornprasert2017calculations}{5}
\bibcite{krasilnikov2018start}{6}
\bibcite{krasilnikov2012experimentally}{7}
\bibcite{astra}{8}
\bibcite{DE}{9}
\bibcite{genesis}{10}
