\relax 
\citation{palmer2019pump}
\citation{vester2019ultrafast}
\citation{terahertz-xfel}
\citation{tanikawa2018superradiant}
\citation{schneidmiller2013tunable}
\citation{schneidmiller2013tunable}
\citation{boonpornprasert2014start}
\citation{boonpornprasert2017calculations}
\citation{krasilnikov2018start}
\citation{krasilnikov2012experimentally}
\citation{boonpornprasert2014start}
\@writefile{toc}{\contentsline {section}{\numberline {1}Introduction}{1}}
\citation{krasilnikov2012experimentally}
\citation{DE}
\citation{astra}
\@writefile{toc}{\contentsline {section}{\numberline {2}Simulations}{2}}
\@writefile{toc}{\contentsline {subsection}{\numberline {2.1}Start-to-end simulation}{2}}
\newlabel{fig:optimization}{{1}{2}}
\citation{krasilnikov2018start}
\newlabel{fig:beam-transport}{{2}{3}}
\citation{genesis}
\newlabel{tab:THz-SASE}{{1}{4}}
\newlabel{fig:transverse-phase-space}{{3}{4}}
\@writefile{toc}{\contentsline {subsection}{\numberline {2.2}THz radiation generation}{4}}
\newlabel{fig:THz-pulse}{{4}{5}}
\@writefile{toc}{\contentsline {section}{\numberline {3}Experiments}{5}}
\@writefile{toc}{\contentsline {subsection}{\numberline {3.1}Electron beam characterization}{5}}
\newlabel{fig:emission-curve}{{5}{5}}
\newlabel{tab:measurement-simulation}{{2}{6}}
\newlabel{fig:beam-characterization}{{6}{6}}
\@writefile{toc}{\contentsline {subsection}{\numberline {3.2}Electron beam matching}{6}}
\@writefile{toc}{\contentsline {section}{\numberline {4}Conclusion}{6}}
\bibcite{palmer2019pump}{1}
\bibcite{vester2019ultrafast}{2}
\bibcite{terahertz-xfel}{3}
\bibcite{tanikawa2018superradiant}{4}
\bibcite{schneidmiller2013tunable}{5}
\bibcite{boonpornprasert2014start}{6}
\bibcite{boonpornprasert2017calculations}{7}
\bibcite{krasilnikov2018start}{8}
\bibcite{krasilnikov2012experimentally}{9}
\bibcite{DE}{10}
\bibcite{astra}{11}
\bibcite{genesis}{12}
\newlabel{fig:transport-and-matching}{{7}{7}}
