%!PS-Adobe-3.0 EPSF-3.0
%%Title: Cor-energy-spread-vs-boosterPhase3(b).eps
%%Creator: matplotlib version 2.2.2, http://matplotlib.org/
%%CreationDate: Fri May 10 10:10:54 2019
%%Orientation: portrait
%%BoundingBox: 162 252 450 540
%%EndComments
%%BeginProlog
/mpldict 10 dict def
mpldict begin
/m { moveto } bind def
/l { lineto } bind def
/r { rlineto } bind def
/c { curveto } bind def
/cl { closepath } bind def
/box {
m
1 index 0 r
0 exch r
neg 0 r
cl
} bind def
/clipbox {
box
clip
newpath
} bind def
%!PS-Adobe-3.0 Resource-Font
%%Title: DejaVu Serif
%%Copyright: Copyright (c) 2003 by Bitstream, Inc. All Rights Reserved. DejaVu changes are in public domain 
%%Creator: Converted from TrueType to type 3 by PPR
25 dict begin
/_d{bind def}bind def
/_m{moveto}_d
/_l{lineto}_d
/_cl{closepath eofill}_d
/_c{curveto}_d
/_sc{7 -1 roll{setcachedevice}{pop pop pop pop pop pop}ifelse}_d
/_e{exec}_d
/FontName /DejaVuSerif def
/PaintType 0 def
/FontMatrix[.001 0 0 .001 0 0]def
/FontBBox[-770 -347 2105 1109]def
/FontType 3 def
/Encoding [ /space /parenleft /parenright /zero /one /two /three /four /L /S /V /a /d /e /f /g /i /k /l /m /n /p /r /s /t /minus ] def
/FontInfo 10 dict dup begin
/FamilyName (DejaVu Serif) def
/FullName (DejaVu Serif) def
/Notice (Copyright (c) 2003 by Bitstream, Inc. All Rights Reserved. DejaVu changes are in public domain ) def
/Weight (Book) def
/Version (Version 2.35) def
/ItalicAngle 0.0 def
/isFixedPitch false def
/UnderlinePosition -130 def
/UnderlineThickness 90 def
end readonly def
/CharStrings 27 dict dup begin
/.notdef 0 def
/space{318 0 0 0 0 0 _sc
}_d
/parenleft{390 0 79 -155 319 760 _sc
319 -155 _m
239 -119 179 -63 139 13 _c
99 89 79 186 79 302 _c
79 418 99 514 139 591 _c
179 668 239 724 319 760 _c
319 712 _l
269 677 233 628 211 566 _c
189 503 178 415 178 302 _c
178 188 189 100 211 38 _c
233 -24 269 -72 319 -107 _c
319 -155 _l
_cl}_d
/parenright{390 0 71 -155 311 760 _sc
71 -155 _m
71 -107 _l
121 -72 157 -24 179 38 _c
201 100 212 188 212 302 _c
212 415 201 503 179 566 _c
157 628 121 677 71 712 _c
71 760 _l
150 724 210 668 250 591 _c
290 514 311 418 311 302 _c
311 186 290 89 250 13 _c
210 -63 150 -119 71 -155 _c
_cl}_d
/zero{636 0 66 -13 570 742 _sc
318 34 _m
368 34 405 61 430 116 _c
454 170 467 253 467 364 _c
467 474 454 557 430 612 _c
405 666 368 694 318 694 _c
268 694 230 666 206 612 _c
181 557 169 474 169 364 _c
169 253 181 170 206 116 _c
230 61 268 34 318 34 _c
318 -13 _m
238 -13 176 20 132 86 _c
88 152 66 244 66 364 _c
66 483 88 576 132 642 _c
176 708 238 742 318 742 _c
397 742 459 708 503 642 _c
547 576 570 483 570 364 _c
570 244 547 152 503 86 _c
459 20 397 -13 318 -13 _c
_cl}_d
/one{636 0 122 0 494 742 _sc
142 0 _m
142 52 _l
269 52 _l
269 658 _l
122 563 _l
122 627 _l
300 742 _l
367 742 _l
367 52 _l
494 52 _l
494 0 _l
142 0 _l
_cl}_d
/two{{636 0 68 0 538 742 _sc
128 555 _m
73 555 _l
73 685 _l
107 703 142 717 178 727 _c
213 737 248 742 282 742 _c
358 742 418 723 462 687 _c
506 650 528 600 528 537 _c
528 465 478 380 378 281 _c
370 273 365 268 361 264 _c
177 80 _l
481 80 _l
481 170 _l
538 170 _l
538 0 _l
68 0 _l
68 53 _l
289 274 _l
337 322 372 367 393 408 _c
414 449 425 492 425 537 _c
}_e{425 586 412 624 386 652 _c
360 680 325 694 281 694 _c
234 694 198 682 173 659 _c
147 636 132 601 128 555 _c
_cl}_e}_d
/three{{636 0 76 -13 562 742 _sc
97 698 _m
135 712 171 723 206 731 _c
241 738 274 742 305 742 _c
376 742 432 726 472 696 _c
512 665 532 622 532 568 _c
532 524 518 487 490 458 _c
462 428 423 408 373 398 _c
433 389 479 367 512 332 _c
545 297 562 252 562 197 _c
562 129 539 77 493 41 _c
447 5 382 -13 296 -13 _c
258 -13 220 -9 184 -1 _c
148 6 112 18 76 35 _c
76 177 _l
}_e{131 177 _l
134 129 150 94 178 70 _c
206 46 246 34 298 34 _c
348 34 387 48 416 77 _c
444 106 459 146 459 196 _c
459 253 444 296 414 326 _c
384 355 341 370 284 370 _c
238 370 _l
238 420 _l
262 420 _l
319 420 362 431 390 455 _c
418 479 433 514 433 562 _c
433 604 421 637 398 660 _c
374 682 341 694 297 694 _c
253 694 218 683 194 662 _c
170 641 156 610 152 570 _c
}_e{97 570 _l
97 698 _l
_cl}_e}_d
/four{636 0 31 0 586 742 _sc
349 247 _m
349 635 _l
100 247 _l
349 247 _l
564 0 _m
232 0 _l
232 52 _l
349 52 _l
349 195 _l
31 195 _l
31 248 _l
350 742 _l
447 742 _l
447 247 _l
586 247 _l
586 195 _l
447 195 _l
447 52 _l
564 52 _l
564 0 _l
_cl}_d
/L{664 0 55 0 640 729 _sc
55 0 _m
55 52 _l
148 52 _l
148 677 _l
55 677 _l
55 729 _l
340 729 _l
340 677 _l
247 677 _l
247 60 _l
580 60 _l
580 182 _l
640 182 _l
640 0 _l
55 0 _l
_cl}_d
/S{{685 0 84 -13 612 742 _sc
93 35 _m
93 201 _l
149 201 _l
150 145 166 104 197 78 _c
227 51 274 38 336 38 _c
394 38 438 49 468 72 _c
498 95 514 129 514 173 _c
514 208 504 235 486 254 _c
468 272 429 291 370 309 _c
274 338 _l
204 359 154 385 126 417 _c
98 448 84 491 84 547 _c
84 609 106 657 150 691 _c
194 725 255 742 335 742 _c
369 742 406 738 446 731 _c
}_e{486 723 529 713 575 699 _c
575 544 _l
520 544 _l
514 595 497 632 468 655 _c
439 678 395 690 337 690 _c
285 690 246 679 219 658 _c
192 637 179 607 179 567 _c
179 532 189 505 209 485 _c
229 465 272 445 338 426 _c
428 399 _l
494 379 541 353 569 323 _c
597 292 612 251 612 199 _c
612 128 589 75 544 40 _c
498 4 431 -13 342 -13 _c
302 -13 261 -9 219 -1 _c
}_e{177 6 135 18 93 35 _c
_cl}_e}_d
/V{722 0 -9 0 737 729 _sc
175 677 _m
390 117 _l
605 677 _l
523 677 _l
523 729 _l
737 729 _l
737 677 _l
666 677 _l
406 0 _l
322 0 _l
63 677 _l
-9 677 _l
-9 729 _l
256 729 _l
256 677 _l
175 677 _l
_cl}_d
/a{{596 0 50 -13 568 533 _sc
398 163 _m
398 273 _l
282 273 _l
237 273 204 263 182 244 _c
160 224 150 195 150 156 _c
150 120 161 91 183 70 _c
205 48 235 38 273 38 _c
310 38 340 49 363 72 _c
386 95 398 125 398 163 _c
488 324 _m
488 52 _l
568 52 _l
568 0 _l
398 0 _l
398 56 _l
378 32 355 14 329 3 _c
303 -7 272 -13 238 -13 _c
180 -13 134 2 100 32 _c
}_e{66 62 50 104 50 156 _c
50 209 69 250 108 280 _c
146 310 201 325 272 325 _c
398 325 _l
398 361 _l
398 400 386 430 362 452 _c
338 474 304 485 261 485 _c
225 485 197 476 176 460 _c
154 444 141 420 136 388 _c
90 388 _l
90 493 _l
121 506 151 516 181 523 _c
210 529 239 533 267 533 _c
339 533 393 515 431 479 _c
469 443 488 392 488 324 _c
_cl}_e}_d
/d{{640 0 50 -13 611 760 _sc
525 52 _m
611 52 _l
611 0 _l
435 0 _l
435 81 _l
417 48 395 24 368 9 _c
340 -5 307 -13 267 -13 _c
203 -13 150 12 110 62 _c
70 112 50 178 50 260 _c
50 341 70 407 110 457 _c
150 507 203 533 267 533 _c
307 533 340 525 368 510 _c
395 494 417 470 435 438 _c
435 708 _l
350 708 _l
350 760 _l
525 760 _l
525 52 _l
435 234 _m
435 285 _l
}_e{435 347 423 394 399 427 _c
375 460 340 477 295 477 _c
249 477 214 458 190 422 _c
166 386 155 332 155 260 _c
155 188 166 133 190 97 _c
214 60 249 42 295 42 _c
340 42 375 58 399 91 _c
423 123 435 171 435 234 _c
_cl}_e}_d
/e{{592 0 50 -13 542 533 _sc
542 250 _m
155 250 _l
155 246 _l
155 176 168 123 194 87 _c
220 51 259 34 311 34 _c
350 34 382 44 408 65 _c
433 85 451 116 461 157 _c
533 157 _l
519 100 492 57 454 29 _c
415 1 364 -13 302 -13 _c
226 -13 165 11 119 61 _c
73 111 50 177 50 260 _c
50 342 72 408 118 458 _c
163 508 222 533 296 533 _c
374 533 435 508 477 460 _c
}_e{519 412 540 342 542 250 _c
436 302 _m
434 362 421 408 397 439 _c
373 469 340 485 296 485 _c
254 485 222 469 198 438 _c
174 407 160 362 155 302 _c
436 302 _l
_cl}_e}_d
/f{{370 0 36 0 430 760 _sc
430 637 _m
383 637 _l
382 661 375 680 362 693 _c
348 705 329 712 303 712 _c
269 712 246 702 232 684 _c
218 666 212 633 212 586 _c
212 519 _l
357 519 _l
357 467 _l
212 467 _l
212 52 _l
327 52 _l
327 0 _l
36 0 _l
36 52 _l
122 52 _l
122 467 _l
36 467 _l
36 519 _l
122 519 _l
122 584 _l
122 642 137 685 167 715 _c
}_e{197 745 241 760 300 760 _c
322 760 343 758 365 754 _c
387 750 408 744 430 736 _c
430 637 _l
_cl}_e}_d
/g{{640 0 50 -221 611 533 _sc
525 467 _m
525 11 _l
525 -63 504 -120 463 -160 _c
422 -200 364 -221 288 -221 _c
254 -221 221 -218 190 -212 _c
158 -206 128 -196 100 -184 _c
100 -75 _l
147 -75 _l
153 -109 166 -133 188 -149 _c
210 -165 241 -173 282 -173 _c
334 -173 373 -158 398 -128 _c
422 -98 435 -51 435 11 _c
435 81 _l
417 48 395 24 368 9 _c
340 -5 307 -13 267 -13 _c
203 -13 150 12 110 62 _c
}_e{70 112 50 178 50 260 _c
50 341 70 407 110 457 _c
150 507 203 533 267 533 _c
307 533 340 525 368 510 _c
395 494 417 470 435 438 _c
435 519 _l
611 519 _l
611 467 _l
525 467 _l
435 285 _m
435 347 423 394 399 427 _c
375 460 340 477 295 477 _c
249 477 214 458 190 422 _c
166 386 155 332 155 260 _c
155 188 166 133 190 97 _c
214 60 249 42 295 42 _c
}_e{340 42 375 58 399 91 _c
423 123 435 171 435 234 _c
435 285 _l
_cl}_e}_d
/i{320 0 36 0 297 736 _sc
97 680 _m
97 695 102 708 113 719 _c
124 730 137 736 153 736 _c
167 736 180 730 191 719 _c
202 708 208 695 208 680 _c
208 664 202 651 192 641 _c
181 630 168 625 153 625 _c
137 625 124 630 113 641 _c
102 651 97 664 97 680 _c
212 52 _m
297 52 _l
297 0 _l
36 0 _l
36 52 _l
122 52 _l
122 467 _l
36 467 _l
36 519 _l
212 519 _l
212 52 _l
_cl}_d
/k{{606 0 29 0 613 760 _sc
286 0 _m
34 0 _l
34 52 _l
115 52 _l
115 708 _l
29 708 _l
29 760 _l
205 760 _l
205 265 _l
424 467 _l
349 467 _l
349 519 _l
584 519 _l
584 467 _l
495 467 _l
341 324 _l
538 52 _l
613 52 _l
613 0 _l
357 0 _l
357 52 _l
431 52 _l
276 265 _l
205 199 _l
205 52 _l
286 52 _l
286 0 _l
_cl}_e}_d
/l{320 0 29 0 290 760 _sc
205 52 _m
290 52 _l
290 0 _l
29 0 _l
29 52 _l
115 52 _l
115 708 _l
29 708 _l
29 760 _l
205 760 _l
205 52 _l
_cl}_d
/m{{948 0 36 0 921 533 _sc
518 418 _m
535 456 557 484 584 504 _c
611 523 642 533 678 533 _c
732 533 773 516 800 482 _c
826 448 840 398 840 330 _c
840 52 _l
921 52 _l
921 0 _l
672 0 _l
672 52 _l
750 52 _l
750 320 _l
750 372 742 410 726 433 _c
710 455 685 467 649 467 _c
609 467 578 451 557 421 _c
536 391 526 347 526 289 _c
526 52 _l
604 52 _l
604 0 _l
358 0 _l
}_e{358 52 _l
436 52 _l
436 323 _l
436 375 428 412 412 434 _c
396 456 371 467 335 467 _c
295 467 264 451 243 421 _c
222 391 212 347 212 289 _c
212 52 _l
290 52 _l
290 0 _l
41 0 _l
41 52 _l
122 52 _l
122 468 _l
36 468 _l
36 519 _l
212 519 _l
212 427 _l
228 461 249 488 275 506 _c
301 524 330 533 363 533 _c
403 533 436 523 463 503 _c
}_e{490 483 508 454 518 418 _c
_cl}_e}_d
/n{{644 0 36 0 616 533 _sc
41 0 _m
41 52 _l
122 52 _l
122 467 _l
36 467 _l
36 519 _l
212 519 _l
212 427 _l
228 461 250 488 276 506 _c
302 524 333 533 369 533 _c
426 533 468 516 495 484 _c
522 451 536 400 536 330 _c
536 52 _l
616 52 _l
616 0 _l
368 0 _l
368 52 _l
446 52 _l
446 302 _l
446 365 438 408 422 432 _c
406 456 379 468 340 468 _c
}_e{298 468 266 452 244 422 _c
222 391 212 347 212 289 _c
212 52 _l
290 52 _l
290 0 _l
41 0 _l
_cl}_e}_d
/p{{640 0 29 -207 590 533 _sc
205 285 _m
205 234 _l
205 171 217 123 241 91 _c
265 58 299 42 345 42 _c
391 42 425 60 449 97 _c
473 133 485 188 485 260 _c
485 332 473 386 449 422 _c
425 458 391 477 345 477 _c
299 477 265 460 241 427 _c
217 394 205 347 205 285 _c
115 467 _m
29 467 _l
29 519 _l
205 519 _l
205 438 _l
222 470 244 494 272 510 _c
299 525 333 533 373 533 _c
}_e{437 533 489 507 529 457 _c
569 407 590 341 590 260 _c
590 178 569 112 529 62 _c
489 12 437 -13 373 -13 _c
333 -13 299 -5 272 9 _c
244 24 222 48 205 81 _c
205 -155 _l
290 -155 _l
290 -207 _l
29 -207 _l
29 -155 _l
115 -155 _l
115 467 _l
_cl}_e}_d
/r{478 0 36 0 478 533 _sc
478 520 _m
478 390 _l
426 390 _l
424 416 417 435 405 448 _c
392 460 373 467 349 467 _c
305 467 271 451 247 421 _c
223 390 212 346 212 289 _c
212 52 _l
316 52 _l
316 0 _l
41 0 _l
41 52 _l
122 52 _l
122 468 _l
36 468 _l
36 519 _l
212 519 _l
212 427 _l
229 463 251 489 279 507 _c
307 524 341 533 381 533 _c
395 533 411 531 427 529 _c
443 527 460 524 478 520 _c
_cl}_d
/s{{513 0 56 -13 462 533 _sc
56 29 _m
56 150 _l
108 150 _l
109 111 121 82 144 63 _c
167 43 201 34 246 34 _c
286 34 317 41 338 57 _c
359 72 370 94 370 123 _c
370 145 362 164 347 178 _c
331 192 299 207 249 223 _c
184 245 _l
139 259 107 277 87 299 _c
67 320 57 347 57 381 _c
57 428 74 465 109 492 _c
144 519 192 533 254 533 _c
281 533 310 529 340 522 _c
}_e{370 515 402 505 434 491 _c
434 378 _l
382 378 _l
380 411 369 437 347 456 _c
325 475 295 485 257 485 _c
219 485 190 478 171 465 _c
151 451 142 431 142 405 _c
142 383 149 365 164 352 _c
178 339 208 326 252 312 _c
323 290 _l
372 274 407 255 429 232 _c
451 209 462 180 462 144 _c
462 94 443 56 405 28 _c
367 0 316 -13 250 -13 _c
216 -13 184 -9 152 -3 _c
}_e{120 3 88 14 56 29 _c
_cl}_e}_d
/t{402 0 29 -13 394 680 _sc
108 467 _m
29 467 _l
29 519 _l
108 519 _l
108 680 _l
198 680 _l
198 519 _l
367 519 _l
367 467 _l
198 467 _l
198 137 _l
198 93 202 64 211 52 _c
219 40 235 34 258 34 _c
281 34 298 41 309 55 _c
319 69 325 91 326 122 _c
394 122 _l
391 74 378 40 355 19 _c
332 -2 297 -13 250 -13 _c
198 -13 161 -1 140 21 _c
118 43 108 82 108 137 _c
108 467 _l
_cl}_d
/minus{838 0 106 274 732 353 _sc
106 353 _m
732 353 _l
732 274 _l
106 274 _l
106 353 _l
_cl}_d
end readonly def

/BuildGlyph
 {exch begin
 CharStrings exch
 2 copy known not{pop /.notdef}if
 true 3 1 roll get exec
 end}_d

/BuildChar {
 1 index /Encoding get exch get
 1 index /BuildGlyph get exec
}_d

FontName currentdict end definefont pop
%!PS-Adobe-3.0 Resource-Font
%%Title: DejaVu Sans Oblique
%%Copyright: Copyright (c) 2003 by Bitstream, Inc. All Rights Reserved. Copyright (c) 2006 by Tavmjong Bah. All Rights Reserved. DejaVu changes are in public domain 
%%Creator: Converted from TrueType to type 3 by PPR
25 dict begin
/_d{bind def}bind def
/_m{moveto}_d
/_l{lineto}_d
/_cl{closepath eofill}_d
/_c{curveto}_d
/_sc{7 -1 roll{setcachedevice}{pop pop pop pop pop pop}ifelse}_d
/_e{exec}_d
/FontName /DejaVuSans-Oblique def
/PaintType 0 def
/FontMatrix[.001 0 0 .001 0 0]def
/FontBBox[-1016 -350 1659 1068]def
/FontType 3 def
/Encoding [ /E /b /k /sigma /phi1 ] def
/FontInfo 10 dict dup begin
/FamilyName (DejaVu Sans) def
/FullName (DejaVu Sans Oblique) def
/Notice (Copyright (c) 2003 by Bitstream, Inc. All Rights Reserved. Copyright (c) 2006 by Tavmjong Bah. All Rights Reserved. DejaVu changes are in public domain ) def
/Weight (Oblique) def
/Version (Version 2.35) def
/ItalicAngle -11.0 def
/isFixedPitch false def
/UnderlinePosition -130 def
/UnderlineThickness 90 def
end readonly def
/CharStrings 6 dict dup begin
/.notdef 0 def
/E{632 0 27 0 630 729 _sc
169 729 _m
630 729 _l
614 646 _l
251 646 _l
209 430 _l
557 430 _l
541 347 _l
193 347 _l
142 83 _l
513 83 _l
497 0 _l
27 0 _l
169 729 _l
_cl}_d
/b{{635 0 36 -13 587 760 _sc
495 334 _m
495 381 484 418 462 445 _c
440 471 411 485 373 485 _c
345 485 319 478 295 464 _c
271 450 250 431 232 406 _c
213 378 198 347 187 311 _c
176 275 171 240 171 205 _c
171 160 181 125 203 99 _c
224 73 253 61 291 61 _c
319 61 345 67 369 81 _c
393 94 415 113 433 139 _c
451 165 466 196 478 232 _c
489 268 495 302 495 334 _c
216 464 _m
}_e{238 494 265 517 299 534 _c
332 551 367 560 404 560 _c
460 560 504 541 537 503 _c
570 465 587 414 587 350 _c
587 297 577 246 558 197 _c
538 147 511 103 475 65 _c
451 39 424 20 394 7 _c
363 -6 331 -13 298 -13 _c
262 -13 232 -5 206 11 _c
180 27 158 51 142 83 _c
126 0 _l
36 0 _l
184 760 _l
274 760 _l
216 464 _l
_cl}_e}_d
/k{579 0 35 0 612 760 _sc
183 760 _m
273 760 _l
187 317 _l
495 547 _l
612 547 _l
268 285 _l
519 0 _l
410 0 _l
177 267 _l
125 0 _l
35 0 _l
183 760 _l
_cl}_d
/sigma{{634 0 57 -13 659 547 _sc
347 476 _m
297 476 255 458 222 422 _c
186 384 163 335 151 273 _c
138 207 142 156 163 118 _c
183 80 218 62 267 62 _c
314 62 355 81 391 119 _c
426 156 450 207 463 273 _c
474 332 470 382 450 422 _c
431 458 397 476 347 476 _c
361 547 _m
659 547 _l
642 457 _l
541 457 _l
566 406 572 345 559 273 _c
541 183 505 113 451 63 _c
396 12 329 -13 251 -13 _c
}_e{173 -13 116 12 82 63 _c
47 113 39 183 57 273 _c
74 363 110 433 164 484 _c
209 526 275 547 361 547 _c
_cl}_e}_d
/phi1{{660 0 54 -207 602 760 _sc
467 760 _m
428 558 _l
492 558 542 533 576 483 _c
610 432 618 362 602 273 _c
584 183 548 113 494 63 _c
441 13 382 -11 317 -11 _c
279 -207 _l
189 -207 _l
228 -11 _l
162 -11 113 13 80 63 _c
45 113 36 183 54 273 _c
71 362 107 432 162 483 _c
214 533 273 558 338 558 _c
378 760 _l
467 760 _l
333 68 _m
369 68 403 84 435 118 _c
}_e{469 155 493 207 507 273 _c
519 338 515 390 495 428 _c
476 461 448 478 412 478 _c
333 68 _l
243 68 _m
323 478 _l
286 478 252 461 221 428 _c
185 390 161 338 149 273 _c
136 207 140 155 161 118 _c
179 84 206 68 243 68 _c
_cl}_e}_d
end readonly def

/BuildGlyph
 {exch begin
 CharStrings exch
 2 copy known not{pop /.notdef}if
 true 3 1 roll get exec
 end}_d

/BuildChar {
 1 index /Encoding get exch get
 1 index /BuildGlyph get exec
}_d

FontName currentdict end definefont pop
%!PS-Adobe-3.0 Resource-Font
%%Title: DejaVu Sans
%%Copyright: Copyright (c) 2003 by Bitstream, Inc. All Rights Reserved. Copyright (c) 2006 by Tavmjong Bah. All Rights Reserved. DejaVu changes are in public domain 
%%Creator: Converted from TrueType to type 3 by PPR
25 dict begin
/_d{bind def}bind def
/_m{moveto}_d
/_l{lineto}_d
/_cl{closepath eofill}_d
/_c{curveto}_d
/_sc{7 -1 roll{setcachedevice}{pop pop pop pop pop pop}ifelse}_d
/_e{exec}_d
/FontName /DejaVuSans def
/PaintType 0 def
/FontMatrix[.001 0 0 .001 0 0]def
/FontBBox[-1021 -463 1793 1232]def
/FontType 3 def
/Encoding [ /b /c /e /o /r /s /t ] def
/FontInfo 10 dict dup begin
/FamilyName (DejaVu Sans) def
/FullName (DejaVu Sans) def
/Notice (Copyright (c) 2003 by Bitstream, Inc. All Rights Reserved. Copyright (c) 2006 by Tavmjong Bah. All Rights Reserved. DejaVu changes are in public domain ) def
/Weight (Book) def
/Version (Version 2.35) def
/ItalicAngle 0.0 def
/isFixedPitch false def
/UnderlinePosition -130 def
/UnderlineThickness 90 def
end readonly def
/CharStrings 8 dict dup begin
/.notdef 0 def
/b{{635 0 91 -13 580 760 _sc
487 273 _m
487 339 473 390 446 428 _c
418 466 381 485 334 485 _c
286 485 249 466 222 428 _c
194 390 181 339 181 273 _c
181 207 194 155 222 117 _c
249 79 286 61 334 61 _c
381 61 418 79 446 117 _c
473 155 487 207 487 273 _c
181 464 _m
199 496 223 520 252 536 _c
281 552 316 560 356 560 _c
422 560 476 533 518 481 _c
559 428 580 359 580 273 _c
}_e{580 187 559 117 518 65 _c
476 13 422 -13 356 -13 _c
316 -13 281 -5 252 10 _c
223 25 199 49 181 82 _c
181 0 _l
91 0 _l
91 760 _l
181 760 _l
181 464 _l
_cl}_e}_d
/c{{550 0 55 -13 488 560 _sc
488 526 _m
488 442 _l
462 456 437 466 411 473 _c
385 480 360 484 334 484 _c
276 484 230 465 198 428 _c
166 391 150 339 150 273 _c
150 206 166 154 198 117 _c
230 80 276 62 334 62 _c
360 62 385 65 411 72 _c
437 79 462 90 488 104 _c
488 21 _l
462 9 436 0 410 -5 _c
383 -10 354 -13 324 -13 _c
242 -13 176 12 128 64 _c
}_e{79 115 55 185 55 273 _c
55 362 79 432 128 483 _c
177 534 244 560 330 560 _c
358 560 385 557 411 551 _c
437 545 463 537 488 526 _c
_cl}_e}_d
/e{{615 0 55 -13 562 560 _sc
562 296 _m
562 252 _l
149 252 _l
153 190 171 142 205 110 _c
238 78 284 62 344 62 _c
378 62 412 66 444 74 _c
476 82 509 95 541 113 _c
541 28 _l
509 14 476 3 442 -3 _c
408 -9 373 -13 339 -13 _c
251 -13 182 12 131 62 _c
80 112 55 181 55 268 _c
55 357 79 428 127 481 _c
175 533 241 560 323 560 _c
397 560 455 536 498 489 _c
}_e{540 441 562 377 562 296 _c
472 322 _m
471 371 457 410 431 440 _c
404 469 368 484 324 484 _c
274 484 234 469 204 441 _c
174 413 156 373 152 322 _c
472 322 _l
_cl}_e}_d
/o{612 0 55 -13 557 560 _sc
306 484 _m
258 484 220 465 192 427 _c
164 389 150 338 150 273 _c
150 207 163 156 191 118 _c
219 80 257 62 306 62 _c
354 62 392 80 420 118 _c
448 156 462 207 462 273 _c
462 337 448 389 420 427 _c
392 465 354 484 306 484 _c
306 560 _m
384 560 445 534 490 484 _c
534 433 557 363 557 273 _c
557 183 534 113 490 63 _c
445 12 384 -13 306 -13 _c
227 -13 165 12 121 63 _c
77 113 55 183 55 273 _c
55 363 77 433 121 484 _c
165 534 227 560 306 560 _c
_cl}_d
/r{411 0 91 0 411 560 _sc
411 463 _m
401 469 390 473 378 476 _c
366 478 353 480 339 480 _c
288 480 249 463 222 430 _c
194 397 181 350 181 288 _c
181 0 _l
91 0 _l
91 547 _l
181 547 _l
181 462 _l
199 495 224 520 254 536 _c
284 552 321 560 365 560 _c
371 560 378 559 386 559 _c
393 558 401 557 411 555 _c
411 463 _l
_cl}_d
/s{{521 0 54 -13 472 560 _sc
443 531 _m
443 446 _l
417 458 391 468 364 475 _c
336 481 308 485 279 485 _c
234 485 200 478 178 464 _c
156 450 145 430 145 403 _c
145 382 153 366 169 354 _c
185 342 217 330 265 320 _c
296 313 _l
360 299 405 279 432 255 _c
458 230 472 195 472 151 _c
472 100 452 60 412 31 _c
372 1 316 -13 246 -13 _c
216 -13 186 -10 154 -5 _c
}_e{122 0 89 8 54 20 _c
54 113 _l
87 95 120 82 152 74 _c
184 65 216 61 248 61 _c
290 61 323 68 346 82 _c
368 96 380 117 380 144 _c
380 168 371 187 355 200 _c
339 213 303 226 247 238 _c
216 245 _l
160 257 119 275 95 299 _c
70 323 58 356 58 399 _c
58 450 76 490 112 518 _c
148 546 200 560 268 560 _c
301 560 332 557 362 552 _c
391 547 418 540 443 531 _c
}_e{_cl}_e}_d
/t{392 0 27 0 368 702 _sc
183 702 _m
183 547 _l
368 547 _l
368 477 _l
183 477 _l
183 180 _l
183 135 189 106 201 94 _c
213 81 238 75 276 75 _c
368 75 _l
368 0 _l
276 0 _l
206 0 158 13 132 39 _c
106 65 93 112 93 180 _c
93 477 _l
27 477 _l
27 547 _l
93 547 _l
93 702 _l
183 702 _l
_cl}_d
end readonly def

/BuildGlyph
 {exch begin
 CharStrings exch
 2 copy known not{pop /.notdef}if
 true 3 1 roll get exec
 end}_d

/BuildChar {
 1 index /Encoding get exch get
 1 index /BuildGlyph get exec
}_d

FontName currentdict end definefont pop
end
%%EndProlog
mpldict begin
162 252 translate
288 288 0 0 clipbox
gsave
0 0 m
288 0 l
288 288 l
0 288 l
cl
1.000 setgray
fill
grestore
gsave
43.2 43.2 m
259.2 43.2 l
259.2 259.2 l
43.2 259.2 l
cl
1.000 setgray
fill
grestore
0.800 setlinewidth
1 setlinejoin
2 setlinecap
[] 0 setdash
0.690 setgray
gsave
216 216 43.2 43.2 clipbox
70.2 43.2 m
70.2 259.2 l
stroke
grestore
1.000 setlinewidth
0 setlinecap
0.000 setgray
gsave
/o {
gsave
newpath
translate
1.0 setlinewidth
1 setlinejoin
0 setlinecap
0 0 m
0 5 l

gsave
0.000 setgray
fill
grestore
stroke
grestore
} bind def
70.2 43.2 o
grestore
gsave
/o {
gsave
newpath
translate
1.0 setlinewidth
1 setlinejoin
0 setlinecap
0 0 m
0 -5 l

gsave
0.000 setgray
fill
grestore
stroke
grestore
} bind def
70.2 259.2 o
grestore
/DejaVuSerif findfont
10.000 scalefont
setfont
gsave
59.653125 32.106250 translate
0.000000 rotate
0.000000 0.000000 m /minus glyphshow
8.378906 0.000000 m /two glyphshow
14.741211 0.000000 m /zero glyphshow
grestore
0.800 setlinewidth
2 setlinecap
0.690 setgray
gsave
216 216 43.2 43.2 clipbox
124.2 43.2 m
124.2 259.2 l
stroke
grestore
1.000 setlinewidth
0 setlinecap
0.000 setgray
gsave
/o {
gsave
newpath
translate
1.0 setlinewidth
1 setlinejoin
0 setlinecap
0 0 m
0 5 l

gsave
0.000 setgray
fill
grestore
stroke
grestore
} bind def
124.2 43.2 o
grestore
gsave
/o {
gsave
newpath
translate
1.0 setlinewidth
1 setlinejoin
0 setlinecap
0 0 m
0 -5 l

gsave
0.000 setgray
fill
grestore
stroke
grestore
} bind def
124.2 259.2 o
grestore
gsave
113.653125 32.106250 translate
0.000000 rotate
0.000000 0.000000 m /minus glyphshow
8.378906 0.000000 m /one glyphshow
14.741211 0.000000 m /zero glyphshow
grestore
0.800 setlinewidth
2 setlinecap
0.690 setgray
gsave
216 216 43.2 43.2 clipbox
178.2 43.2 m
178.2 259.2 l
stroke
grestore
1.000 setlinewidth
0 setlinecap
0.000 setgray
gsave
/o {
gsave
newpath
translate
1.0 setlinewidth
1 setlinejoin
0 setlinecap
0 0 m
0 5 l

gsave
0.000 setgray
fill
grestore
stroke
grestore
} bind def
178.2 43.2 o
grestore
gsave
/o {
gsave
newpath
translate
1.0 setlinewidth
1 setlinejoin
0 setlinecap
0 0 m
0 -5 l

gsave
0.000 setgray
fill
grestore
stroke
grestore
} bind def
178.2 259.2 o
grestore
gsave
175.020312 32.106250 translate
0.000000 rotate
0.000000 0.000000 m /zero glyphshow
grestore
0.800 setlinewidth
2 setlinecap
0.690 setgray
gsave
216 216 43.2 43.2 clipbox
232.2 43.2 m
232.2 259.2 l
stroke
grestore
1.000 setlinewidth
0 setlinecap
0.000 setgray
gsave
/o {
gsave
newpath
translate
1.0 setlinewidth
1 setlinejoin
0 setlinecap
0 0 m
0 5 l

gsave
0.000 setgray
fill
grestore
stroke
grestore
} bind def
232.2 43.2 o
grestore
gsave
/o {
gsave
newpath
translate
1.0 setlinewidth
1 setlinejoin
0 setlinecap
0 0 m
0 -5 l

gsave
0.000 setgray
fill
grestore
stroke
grestore
} bind def
232.2 259.2 o
grestore
gsave
225.840625 32.106250 translate
0.000000 rotate
0.000000 0.000000 m /one glyphshow
6.362305 0.000000 m /zero glyphshow
grestore
0.700 setlinewidth
gsave
/o {
gsave
newpath
translate
0.7 setlinewidth
1 setlinejoin
0 setlinecap
0 0 m
0 3 l

gsave
0.000 setgray
fill
grestore
stroke
grestore
} bind def
48.6 43.2 o
grestore
gsave
/o {
gsave
newpath
translate
0.7 setlinewidth
1 setlinejoin
0 setlinecap
0 0 m
0 -3 l

gsave
0.000 setgray
fill
grestore
stroke
grestore
} bind def
48.6 259.2 o
grestore
gsave
/o {
gsave
newpath
translate
0.7 setlinewidth
1 setlinejoin
0 setlinecap
0 0 m
0 3 l

gsave
0.000 setgray
fill
grestore
stroke
grestore
} bind def
59.4 43.2 o
grestore
gsave
/o {
gsave
newpath
translate
0.7 setlinewidth
1 setlinejoin
0 setlinecap
0 0 m
0 -3 l

gsave
0.000 setgray
fill
grestore
stroke
grestore
} bind def
59.4 259.2 o
grestore
gsave
/o {
gsave
newpath
translate
0.7 setlinewidth
1 setlinejoin
0 setlinecap
0 0 m
0 3 l

gsave
0.000 setgray
fill
grestore
stroke
grestore
} bind def
81 43.2 o
grestore
gsave
/o {
gsave
newpath
translate
0.7 setlinewidth
1 setlinejoin
0 setlinecap
0 0 m
0 -3 l

gsave
0.000 setgray
fill
grestore
stroke
grestore
} bind def
81 259.2 o
grestore
gsave
/o {
gsave
newpath
translate
0.7 setlinewidth
1 setlinejoin
0 setlinecap
0 0 m
0 3 l

gsave
0.000 setgray
fill
grestore
stroke
grestore
} bind def
91.8 43.2 o
grestore
gsave
/o {
gsave
newpath
translate
0.7 setlinewidth
1 setlinejoin
0 setlinecap
0 0 m
0 -3 l

gsave
0.000 setgray
fill
grestore
stroke
grestore
} bind def
91.8 259.2 o
grestore
gsave
/o {
gsave
newpath
translate
0.7 setlinewidth
1 setlinejoin
0 setlinecap
0 0 m
0 3 l

gsave
0.000 setgray
fill
grestore
stroke
grestore
} bind def
102.6 43.2 o
grestore
gsave
/o {
gsave
newpath
translate
0.7 setlinewidth
1 setlinejoin
0 setlinecap
0 0 m
0 -3 l

gsave
0.000 setgray
fill
grestore
stroke
grestore
} bind def
102.6 259.2 o
grestore
gsave
/o {
gsave
newpath
translate
0.7 setlinewidth
1 setlinejoin
0 setlinecap
0 0 m
0 3 l

gsave
0.000 setgray
fill
grestore
stroke
grestore
} bind def
113.4 43.2 o
grestore
gsave
/o {
gsave
newpath
translate
0.7 setlinewidth
1 setlinejoin
0 setlinecap
0 0 m
0 -3 l

gsave
0.000 setgray
fill
grestore
stroke
grestore
} bind def
113.4 259.2 o
grestore
gsave
/o {
gsave
newpath
translate
0.7 setlinewidth
1 setlinejoin
0 setlinecap
0 0 m
0 3 l

gsave
0.000 setgray
fill
grestore
stroke
grestore
} bind def
135 43.2 o
grestore
gsave
/o {
gsave
newpath
translate
0.7 setlinewidth
1 setlinejoin
0 setlinecap
0 0 m
0 -3 l

gsave
0.000 setgray
fill
grestore
stroke
grestore
} bind def
135 259.2 o
grestore
gsave
/o {
gsave
newpath
translate
0.7 setlinewidth
1 setlinejoin
0 setlinecap
0 0 m
0 3 l

gsave
0.000 setgray
fill
grestore
stroke
grestore
} bind def
145.8 43.2 o
grestore
gsave
/o {
gsave
newpath
translate
0.7 setlinewidth
1 setlinejoin
0 setlinecap
0 0 m
0 -3 l

gsave
0.000 setgray
fill
grestore
stroke
grestore
} bind def
145.8 259.2 o
grestore
gsave
/o {
gsave
newpath
translate
0.7 setlinewidth
1 setlinejoin
0 setlinecap
0 0 m
0 3 l

gsave
0.000 setgray
fill
grestore
stroke
grestore
} bind def
156.6 43.2 o
grestore
gsave
/o {
gsave
newpath
translate
0.7 setlinewidth
1 setlinejoin
0 setlinecap
0 0 m
0 -3 l

gsave
0.000 setgray
fill
grestore
stroke
grestore
} bind def
156.6 259.2 o
grestore
gsave
/o {
gsave
newpath
translate
0.7 setlinewidth
1 setlinejoin
0 setlinecap
0 0 m
0 3 l

gsave
0.000 setgray
fill
grestore
stroke
grestore
} bind def
167.4 43.2 o
grestore
gsave
/o {
gsave
newpath
translate
0.7 setlinewidth
1 setlinejoin
0 setlinecap
0 0 m
0 -3 l

gsave
0.000 setgray
fill
grestore
stroke
grestore
} bind def
167.4 259.2 o
grestore
gsave
/o {
gsave
newpath
translate
0.7 setlinewidth
1 setlinejoin
0 setlinecap
0 0 m
0 3 l

gsave
0.000 setgray
fill
grestore
stroke
grestore
} bind def
189 43.2 o
grestore
gsave
/o {
gsave
newpath
translate
0.7 setlinewidth
1 setlinejoin
0 setlinecap
0 0 m
0 -3 l

gsave
0.000 setgray
fill
grestore
stroke
grestore
} bind def
189 259.2 o
grestore
gsave
/o {
gsave
newpath
translate
0.7 setlinewidth
1 setlinejoin
0 setlinecap
0 0 m
0 3 l

gsave
0.000 setgray
fill
grestore
stroke
grestore
} bind def
199.8 43.2 o
grestore
gsave
/o {
gsave
newpath
translate
0.7 setlinewidth
1 setlinejoin
0 setlinecap
0 0 m
0 -3 l

gsave
0.000 setgray
fill
grestore
stroke
grestore
} bind def
199.8 259.2 o
grestore
gsave
/o {
gsave
newpath
translate
0.7 setlinewidth
1 setlinejoin
0 setlinecap
0 0 m
0 3 l

gsave
0.000 setgray
fill
grestore
stroke
grestore
} bind def
210.6 43.2 o
grestore
gsave
/o {
gsave
newpath
translate
0.7 setlinewidth
1 setlinejoin
0 setlinecap
0 0 m
0 -3 l

gsave
0.000 setgray
fill
grestore
stroke
grestore
} bind def
210.6 259.2 o
grestore
gsave
/o {
gsave
newpath
translate
0.7 setlinewidth
1 setlinejoin
0 setlinecap
0 0 m
0 3 l

gsave
0.000 setgray
fill
grestore
stroke
grestore
} bind def
221.4 43.2 o
grestore
gsave
/o {
gsave
newpath
translate
0.7 setlinewidth
1 setlinejoin
0 setlinecap
0 0 m
0 -3 l

gsave
0.000 setgray
fill
grestore
stroke
grestore
} bind def
221.4 259.2 o
grestore
gsave
/o {
gsave
newpath
translate
0.7 setlinewidth
1 setlinejoin
0 setlinecap
0 0 m
0 3 l

gsave
0.000 setgray
fill
grestore
stroke
grestore
} bind def
243 43.2 o
grestore
gsave
/o {
gsave
newpath
translate
0.7 setlinewidth
1 setlinejoin
0 setlinecap
0 0 m
0 -3 l

gsave
0.000 setgray
fill
grestore
stroke
grestore
} bind def
243 259.2 o
grestore
gsave
/o {
gsave
newpath
translate
0.7 setlinewidth
1 setlinejoin
0 setlinecap
0 0 m
0 3 l

gsave
0.000 setgray
fill
grestore
stroke
grestore
} bind def
253.8 43.2 o
grestore
gsave
/o {
gsave
newpath
translate
0.7 setlinewidth
1 setlinejoin
0 setlinecap
0 0 m
0 -3 l

gsave
0.000 setgray
fill
grestore
stroke
grestore
} bind def
253.8 259.2 o
grestore
gsave
95.200000 19.028125 translate
0.000000 rotate
/DejaVuSans-Oblique findfont
14.0 scalefont
setfont
0.000000 0.359375 moveto
/phi1 glyphshow

/DejaVuSans findfont
9.8 scalefont
setfont
9.235352 -1.937500 moveto
/b glyphshow

15.456055 -1.937500 moveto
/o glyphshow

21.451855 -1.937500 moveto
/o glyphshow

27.447656 -1.937500 moveto
/s glyphshow

32.553418 -1.937500 moveto
/t glyphshow

36.395898 -1.937500 moveto
/e glyphshow

42.425195 -1.937500 moveto
/r glyphshow

/DejaVuSerif findfont
14.0 scalefont
setfont
46.837109 0.359375 moveto
/space glyphshow

51.287305 0.359375 moveto
/parenleft glyphshow

56.749219 0.359375 moveto
/d glyphshow

65.711133 0.359375 moveto
/e glyphshow

73.996289 0.359375 moveto
/g glyphshow

82.958203 0.359375 moveto
/r glyphshow

89.650586 0.359375 moveto
/e glyphshow

97.935742 0.359375 moveto
/e glyphshow

106.220898 0.359375 moveto
/parenright glyphshow


grestore
0.800 setlinewidth
2 setlinecap
0.690 setgray
gsave
216 216 43.2 43.2 clipbox
43.2 56.093391 m
259.2 56.093391 l
stroke
grestore
1.000 setlinewidth
0 setlinecap
0.000 setgray
gsave
/o {
gsave
newpath
translate
1.0 setlinewidth
1 setlinejoin
0 setlinecap
0 0 m
5 0 l

gsave
0.000 setgray
fill
grestore
stroke
grestore
} bind def
43.2 56.0934 o
grestore
gsave
/o {
gsave
newpath
translate
1.0 setlinewidth
1 setlinejoin
0 setlinecap
0 0 m
-5 0 l

gsave
0.000 setgray
fill
grestore
stroke
grestore
} bind def
259.2 56.0934 o
grestore
gsave
12.246875 52.296516 translate
0.000000 rotate
0.000000 0.000000 m /minus glyphshow
8.378906 0.000000 m /one glyphshow
14.741211 0.000000 m /zero glyphshow
21.103516 0.000000 m /zero glyphshow
grestore
0.800 setlinewidth
2 setlinecap
0.690 setgray
gsave
216 216 43.2 43.2 clipbox
43.2 93.252444 m
259.2 93.252444 l
stroke
grestore
1.000 setlinewidth
0 setlinecap
0.000 setgray
gsave
/o {
gsave
newpath
translate
1.0 setlinewidth
1 setlinejoin
0 setlinecap
0 0 m
5 0 l

gsave
0.000 setgray
fill
grestore
stroke
grestore
} bind def
43.2 93.2524 o
grestore
gsave
/o {
gsave
newpath
translate
1.0 setlinewidth
1 setlinejoin
0 setlinecap
0 0 m
-5 0 l

gsave
0.000 setgray
fill
grestore
stroke
grestore
} bind def
259.2 93.2524 o
grestore
gsave
33.340625 89.455569 translate
0.000000 rotate
0.000000 0.000000 m /zero glyphshow
grestore
0.800 setlinewidth
2 setlinecap
0.690 setgray
gsave
216 216 43.2 43.2 clipbox
43.2 130.411498 m
259.2 130.411498 l
stroke
grestore
1.000 setlinewidth
0 setlinecap
0.000 setgray
gsave
/o {
gsave
newpath
translate
1.0 setlinewidth
1 setlinejoin
0 setlinecap
0 0 m
5 0 l

gsave
0.000 setgray
fill
grestore
stroke
grestore
} bind def
43.2 130.411 o
grestore
gsave
/o {
gsave
newpath
translate
1.0 setlinewidth
1 setlinejoin
0 setlinecap
0 0 m
-5 0 l

gsave
0.000 setgray
fill
grestore
stroke
grestore
} bind def
259.2 130.411 o
grestore
gsave
20.621875 126.614623 translate
0.000000 rotate
0.000000 0.000000 m /one glyphshow
6.362305 0.000000 m /zero glyphshow
12.724609 0.000000 m /zero glyphshow
grestore
0.800 setlinewidth
2 setlinecap
0.690 setgray
gsave
216 216 43.2 43.2 clipbox
43.2 167.570551 m
259.2 167.570551 l
stroke
grestore
1.000 setlinewidth
0 setlinecap
0.000 setgray
gsave
/o {
gsave
newpath
translate
1.0 setlinewidth
1 setlinejoin
0 setlinecap
0 0 m
5 0 l

gsave
0.000 setgray
fill
grestore
stroke
grestore
} bind def
43.2 167.571 o
grestore
gsave
/o {
gsave
newpath
translate
1.0 setlinewidth
1 setlinejoin
0 setlinecap
0 0 m
-5 0 l

gsave
0.000 setgray
fill
grestore
stroke
grestore
} bind def
259.2 167.571 o
grestore
gsave
20.621875 163.773676 translate
0.000000 rotate
0.000000 0.000000 m /two glyphshow
6.362305 0.000000 m /zero glyphshow
12.724609 0.000000 m /zero glyphshow
grestore
0.800 setlinewidth
2 setlinecap
0.690 setgray
gsave
216 216 43.2 43.2 clipbox
43.2 204.729604 m
259.2 204.729604 l
stroke
grestore
1.000 setlinewidth
0 setlinecap
0.000 setgray
gsave
/o {
gsave
newpath
translate
1.0 setlinewidth
1 setlinejoin
0 setlinecap
0 0 m
5 0 l

gsave
0.000 setgray
fill
grestore
stroke
grestore
} bind def
43.2 204.73 o
grestore
gsave
/o {
gsave
newpath
translate
1.0 setlinewidth
1 setlinejoin
0 setlinecap
0 0 m
-5 0 l

gsave
0.000 setgray
fill
grestore
stroke
grestore
} bind def
259.2 204.73 o
grestore
gsave
20.621875 200.932729 translate
0.000000 rotate
0.000000 0.000000 m /three glyphshow
6.362305 0.000000 m /zero glyphshow
12.724609 0.000000 m /zero glyphshow
grestore
0.800 setlinewidth
2 setlinecap
0.690 setgray
gsave
216 216 43.2 43.2 clipbox
43.2 241.888658 m
259.2 241.888658 l
stroke
grestore
1.000 setlinewidth
0 setlinecap
0.000 setgray
gsave
/o {
gsave
newpath
translate
1.0 setlinewidth
1 setlinejoin
0 setlinecap
0 0 m
5 0 l

gsave
0.000 setgray
fill
grestore
stroke
grestore
} bind def
43.2 241.889 o
grestore
gsave
/o {
gsave
newpath
translate
1.0 setlinewidth
1 setlinejoin
0 setlinecap
0 0 m
-5 0 l

gsave
0.000 setgray
fill
grestore
stroke
grestore
} bind def
259.2 241.889 o
grestore
gsave
20.621875 238.091783 translate
0.000000 rotate
0.000000 0.000000 m /four glyphshow
6.362305 0.000000 m /zero glyphshow
12.724609 0.000000 m /zero glyphshow
grestore
0.700 setlinewidth
gsave
/o {
gsave
newpath
translate
0.7 setlinewidth
1 setlinejoin
0 setlinecap
0 0 m
3 0 l

gsave
0.000 setgray
fill
grestore
stroke
grestore
} bind def
43.2 48.6616 o
grestore
gsave
/o {
gsave
newpath
translate
0.7 setlinewidth
1 setlinejoin
0 setlinecap
0 0 m
-3 0 l

gsave
0.000 setgray
fill
grestore
stroke
grestore
} bind def
259.2 48.6616 o
grestore
gsave
/o {
gsave
newpath
translate
0.7 setlinewidth
1 setlinejoin
0 setlinecap
0 0 m
3 0 l

gsave
0.000 setgray
fill
grestore
stroke
grestore
} bind def
43.2 63.5252 o
grestore
gsave
/o {
gsave
newpath
translate
0.7 setlinewidth
1 setlinejoin
0 setlinecap
0 0 m
-3 0 l

gsave
0.000 setgray
fill
grestore
stroke
grestore
} bind def
259.2 63.5252 o
grestore
gsave
/o {
gsave
newpath
translate
0.7 setlinewidth
1 setlinejoin
0 setlinecap
0 0 m
3 0 l

gsave
0.000 setgray
fill
grestore
stroke
grestore
} bind def
43.2 70.957 o
grestore
gsave
/o {
gsave
newpath
translate
0.7 setlinewidth
1 setlinejoin
0 setlinecap
0 0 m
-3 0 l

gsave
0.000 setgray
fill
grestore
stroke
grestore
} bind def
259.2 70.957 o
grestore
gsave
/o {
gsave
newpath
translate
0.7 setlinewidth
1 setlinejoin
0 setlinecap
0 0 m
3 0 l

gsave
0.000 setgray
fill
grestore
stroke
grestore
} bind def
43.2 78.3888 o
grestore
gsave
/o {
gsave
newpath
translate
0.7 setlinewidth
1 setlinejoin
0 setlinecap
0 0 m
-3 0 l

gsave
0.000 setgray
fill
grestore
stroke
grestore
} bind def
259.2 78.3888 o
grestore
gsave
/o {
gsave
newpath
translate
0.7 setlinewidth
1 setlinejoin
0 setlinecap
0 0 m
3 0 l

gsave
0.000 setgray
fill
grestore
stroke
grestore
} bind def
43.2 85.8206 o
grestore
gsave
/o {
gsave
newpath
translate
0.7 setlinewidth
1 setlinejoin
0 setlinecap
0 0 m
-3 0 l

gsave
0.000 setgray
fill
grestore
stroke
grestore
} bind def
259.2 85.8206 o
grestore
gsave
/o {
gsave
newpath
translate
0.7 setlinewidth
1 setlinejoin
0 setlinecap
0 0 m
3 0 l

gsave
0.000 setgray
fill
grestore
stroke
grestore
} bind def
43.2 100.684 o
grestore
gsave
/o {
gsave
newpath
translate
0.7 setlinewidth
1 setlinejoin
0 setlinecap
0 0 m
-3 0 l

gsave
0.000 setgray
fill
grestore
stroke
grestore
} bind def
259.2 100.684 o
grestore
gsave
/o {
gsave
newpath
translate
0.7 setlinewidth
1 setlinejoin
0 setlinecap
0 0 m
3 0 l

gsave
0.000 setgray
fill
grestore
stroke
grestore
} bind def
43.2 108.116 o
grestore
gsave
/o {
gsave
newpath
translate
0.7 setlinewidth
1 setlinejoin
0 setlinecap
0 0 m
-3 0 l

gsave
0.000 setgray
fill
grestore
stroke
grestore
} bind def
259.2 108.116 o
grestore
gsave
/o {
gsave
newpath
translate
0.7 setlinewidth
1 setlinejoin
0 setlinecap
0 0 m
3 0 l

gsave
0.000 setgray
fill
grestore
stroke
grestore
} bind def
43.2 115.548 o
grestore
gsave
/o {
gsave
newpath
translate
0.7 setlinewidth
1 setlinejoin
0 setlinecap
0 0 m
-3 0 l

gsave
0.000 setgray
fill
grestore
stroke
grestore
} bind def
259.2 115.548 o
grestore
gsave
/o {
gsave
newpath
translate
0.7 setlinewidth
1 setlinejoin
0 setlinecap
0 0 m
3 0 l

gsave
0.000 setgray
fill
grestore
stroke
grestore
} bind def
43.2 122.98 o
grestore
gsave
/o {
gsave
newpath
translate
0.7 setlinewidth
1 setlinejoin
0 setlinecap
0 0 m
-3 0 l

gsave
0.000 setgray
fill
grestore
stroke
grestore
} bind def
259.2 122.98 o
grestore
gsave
/o {
gsave
newpath
translate
0.7 setlinewidth
1 setlinejoin
0 setlinecap
0 0 m
3 0 l

gsave
0.000 setgray
fill
grestore
stroke
grestore
} bind def
43.2 137.843 o
grestore
gsave
/o {
gsave
newpath
translate
0.7 setlinewidth
1 setlinejoin
0 setlinecap
0 0 m
-3 0 l

gsave
0.000 setgray
fill
grestore
stroke
grestore
} bind def
259.2 137.843 o
grestore
gsave
/o {
gsave
newpath
translate
0.7 setlinewidth
1 setlinejoin
0 setlinecap
0 0 m
3 0 l

gsave
0.000 setgray
fill
grestore
stroke
grestore
} bind def
43.2 145.275 o
grestore
gsave
/o {
gsave
newpath
translate
0.7 setlinewidth
1 setlinejoin
0 setlinecap
0 0 m
-3 0 l

gsave
0.000 setgray
fill
grestore
stroke
grestore
} bind def
259.2 145.275 o
grestore
gsave
/o {
gsave
newpath
translate
0.7 setlinewidth
1 setlinejoin
0 setlinecap
0 0 m
3 0 l

gsave
0.000 setgray
fill
grestore
stroke
grestore
} bind def
43.2 152.707 o
grestore
gsave
/o {
gsave
newpath
translate
0.7 setlinewidth
1 setlinejoin
0 setlinecap
0 0 m
-3 0 l

gsave
0.000 setgray
fill
grestore
stroke
grestore
} bind def
259.2 152.707 o
grestore
gsave
/o {
gsave
newpath
translate
0.7 setlinewidth
1 setlinejoin
0 setlinecap
0 0 m
3 0 l

gsave
0.000 setgray
fill
grestore
stroke
grestore
} bind def
43.2 160.139 o
grestore
gsave
/o {
gsave
newpath
translate
0.7 setlinewidth
1 setlinejoin
0 setlinecap
0 0 m
-3 0 l

gsave
0.000 setgray
fill
grestore
stroke
grestore
} bind def
259.2 160.139 o
grestore
gsave
/o {
gsave
newpath
translate
0.7 setlinewidth
1 setlinejoin
0 setlinecap
0 0 m
3 0 l

gsave
0.000 setgray
fill
grestore
stroke
grestore
} bind def
43.2 175.002 o
grestore
gsave
/o {
gsave
newpath
translate
0.7 setlinewidth
1 setlinejoin
0 setlinecap
0 0 m
-3 0 l

gsave
0.000 setgray
fill
grestore
stroke
grestore
} bind def
259.2 175.002 o
grestore
gsave
/o {
gsave
newpath
translate
0.7 setlinewidth
1 setlinejoin
0 setlinecap
0 0 m
3 0 l

gsave
0.000 setgray
fill
grestore
stroke
grestore
} bind def
43.2 182.434 o
grestore
gsave
/o {
gsave
newpath
translate
0.7 setlinewidth
1 setlinejoin
0 setlinecap
0 0 m
-3 0 l

gsave
0.000 setgray
fill
grestore
stroke
grestore
} bind def
259.2 182.434 o
grestore
gsave
/o {
gsave
newpath
translate
0.7 setlinewidth
1 setlinejoin
0 setlinecap
0 0 m
3 0 l

gsave
0.000 setgray
fill
grestore
stroke
grestore
} bind def
43.2 189.866 o
grestore
gsave
/o {
gsave
newpath
translate
0.7 setlinewidth
1 setlinejoin
0 setlinecap
0 0 m
-3 0 l

gsave
0.000 setgray
fill
grestore
stroke
grestore
} bind def
259.2 189.866 o
grestore
gsave
/o {
gsave
newpath
translate
0.7 setlinewidth
1 setlinejoin
0 setlinecap
0 0 m
3 0 l

gsave
0.000 setgray
fill
grestore
stroke
grestore
} bind def
43.2 197.298 o
grestore
gsave
/o {
gsave
newpath
translate
0.7 setlinewidth
1 setlinejoin
0 setlinecap
0 0 m
-3 0 l

gsave
0.000 setgray
fill
grestore
stroke
grestore
} bind def
259.2 197.298 o
grestore
gsave
/o {
gsave
newpath
translate
0.7 setlinewidth
1 setlinejoin
0 setlinecap
0 0 m
3 0 l

gsave
0.000 setgray
fill
grestore
stroke
grestore
} bind def
43.2 212.161 o
grestore
gsave
/o {
gsave
newpath
translate
0.7 setlinewidth
1 setlinejoin
0 setlinecap
0 0 m
-3 0 l

gsave
0.000 setgray
fill
grestore
stroke
grestore
} bind def
259.2 212.161 o
grestore
gsave
/o {
gsave
newpath
translate
0.7 setlinewidth
1 setlinejoin
0 setlinecap
0 0 m
3 0 l

gsave
0.000 setgray
fill
grestore
stroke
grestore
} bind def
43.2 219.593 o
grestore
gsave
/o {
gsave
newpath
translate
0.7 setlinewidth
1 setlinejoin
0 setlinecap
0 0 m
-3 0 l

gsave
0.000 setgray
fill
grestore
stroke
grestore
} bind def
259.2 219.593 o
grestore
gsave
/o {
gsave
newpath
translate
0.7 setlinewidth
1 setlinejoin
0 setlinecap
0 0 m
3 0 l

gsave
0.000 setgray
fill
grestore
stroke
grestore
} bind def
43.2 227.025 o
grestore
gsave
/o {
gsave
newpath
translate
0.7 setlinewidth
1 setlinejoin
0 setlinecap
0 0 m
-3 0 l

gsave
0.000 setgray
fill
grestore
stroke
grestore
} bind def
259.2 227.025 o
grestore
gsave
/o {
gsave
newpath
translate
0.7 setlinewidth
1 setlinejoin
0 setlinecap
0 0 m
3 0 l

gsave
0.000 setgray
fill
grestore
stroke
grestore
} bind def
43.2 234.457 o
grestore
gsave
/o {
gsave
newpath
translate
0.7 setlinewidth
1 setlinejoin
0 setlinecap
0 0 m
-3 0 l

gsave
0.000 setgray
fill
grestore
stroke
grestore
} bind def
259.2 234.457 o
grestore
gsave
/o {
gsave
newpath
translate
0.7 setlinewidth
1 setlinejoin
0 setlinecap
0 0 m
3 0 l

gsave
0.000 setgray
fill
grestore
stroke
grestore
} bind def
43.2 249.32 o
grestore
gsave
/o {
gsave
newpath
translate
0.7 setlinewidth
1 setlinejoin
0 setlinecap
0 0 m
-3 0 l

gsave
0.000 setgray
fill
grestore
stroke
grestore
} bind def
259.2 249.32 o
grestore
gsave
/o {
gsave
newpath
translate
0.7 setlinewidth
1 setlinejoin
0 setlinecap
0 0 m
3 0 l

gsave
0.000 setgray
fill
grestore
stroke
grestore
} bind def
43.2 256.752 o
grestore
gsave
/o {
gsave
newpath
translate
0.7 setlinewidth
1 setlinejoin
0 setlinecap
0 0 m
-3 0 l

gsave
0.000 setgray
fill
grestore
stroke
grestore
} bind def
259.2 256.752 o
grestore
gsave
14.246875 115.200000 translate
90.000000 rotate
/DejaVuSans-Oblique findfont
14.0 scalefont
setfont
0.000000 0.150000 moveto
/sigma glyphshow

/DejaVuSans findfont
9.8 scalefont
setfont
9.498307 5.509375 moveto
/c glyphshow

14.886393 5.509375 moveto
/o glyphshow

20.882194 5.509375 moveto
/r glyphshow

24.911296 5.509375 moveto
/r glyphshow

/DejaVuSans-Oblique findfont
9.8 scalefont
setfont
8.873047 -3.678125 moveto
/E glyphshow

/DejaVuSans-Oblique findfont
6.86 scalefont
setfont
15.065039 -5.285937 moveto
/k glyphshow

/DejaVuSerif findfont
14.0 scalefont
setfont
29.323210 0.150000 moveto
/space glyphshow

33.773405 0.150000 moveto
/parenleft glyphshow

39.235319 0.150000 moveto
/k glyphshow

47.718717 0.150000 moveto
/e glyphshow

56.003874 0.150000 moveto
/V glyphshow

66.114225 0.150000 moveto
/parenright glyphshow


grestore
1.000 setlinewidth
1.000 0.000 0.000 setrgbcolor
gsave
216 216 43.2 43.2 clipbox
/o {
gsave
newpath
translate
1.0 setlinewidth
1 setlinejoin
0 setlinecap
0 -1.5 m
0.397805 -1.5 0.77937 -1.341951 1.06066 -1.06066 c
1.341951 -0.77937 1.5 -0.397805 1.5 0 c
1.5 0.397805 1.341951 0.77937 1.06066 1.06066 c
0.77937 1.341951 0.397805 1.5 0 1.5 c
-0.397805 1.5 -0.77937 1.341951 -1.06066 1.06066 c
-1.341951 0.77937 -1.5 0.397805 -1.5 0 c
-1.5 -0.397805 -1.341951 -0.77937 -1.06066 -1.06066 c
-0.77937 -1.341951 -0.397805 -1.5 0 -1.5 c
cl

gsave
1.000 0.000 0.000 setrgbcolor
fill
grestore
stroke
grestore
} bind def
215.932 186.829 o
171.638 174.486 o
227.583 231.808 o
119.412 128.079 o
72.3673 88.6031 o
105.986 120.753 o
203.992 175.321 o
163.771 178.254 o
126.332 135.957 o
134.3 133.971 o
193.289 210.937 o
86.4872 93.5206 o
126.332 128.119 o
170.429 158.463 o
230.48 209.009 o
225.127 197.043 o
155.194 147.65 o
203.992 179.302 o
112.146 134.365 o
207.5 197.831 o
72.706 105.704 o
125.389 130.694 o
212.475 188.517 o
155.282 151.05 o
125.32 132.55 o
108.586 111.883 o
170.429 162.499 o
205.068 204.744 o
124.538 134.321 o
48.4754 84.5207 o
174.544 157.855 o
82.9716 105.26 o
86.0525 93.6904 o
120.583 126.314 o
113.446 122.922 o
187.015 171.882 o
61.8933 89.2009 o
122.347 138.192 o
185.772 189.638 o
59.669 89.2316 o
119.412 144.879 o
88.3507 113.922 o
116.876 134.86 o
104.904 112.096 o
146.364 134.189 o
254.914 218.021 o
52.591 78.1695 o
210.616 176.362 o
59.9922 89.5588 o
249.45 215.752 o
72.706 76.8569 o
120.583 123.777 o
113.294 136.589 o
48.3389 79.6453 o
120.49 138.602 o
72.9073 97.4562 o
116.876 120.416 o
110.46 121.566 o
77.8527 99.3011 o
61.8933 90.9999 o
49.3927 83.2036 o
82.9716 107.156 o
99.7885 117.734 o
212.064 202.186 o
63.8912 91.0378 o
59.1886 90.1738 o
69.8616 93.3255 o
92.5173 114.82 o
128.422 135.908 o
201.584 192.006 o
61.8933 77.3085 o
85.9135 102.849 o
132.321 135.716 o
87.0522 94.8449 o
57.7978 85.7973 o
71.3211 93.1134 o
72.2036 99.1966 o
87.799 103.323 o
235.268 219.496 o
69.8616 91.9071 o
81.9872 100.851 o
86.4872 97.348 o
104.904 118.755 o
60.1188 88.3437 o
70.536 71.138 o
107.025 124.235 o
114.298 127.246 o
72.706 97.6844 o
212.936 208.813 o
46.8517 75.0191 o
86.7156 103.024 o
120.223 110.722 o
70.4341 94.2548 o
68.6578 92.7002 o
85.8565 100.028 o
55.7944 85.7584 o
52.859 91.2697 o
81.9637 101.628 o
79.2507 94.0529 o
60.966 91.0403 o
55.384 83.3864 o
45.0765 82.3099 o
43.7038 78.1278 o
59.005 94.8297 o
104.904 115.959 o
65.4237 89.3071 o
88.8508 107.026 o
87.0522 115.137 o
59.376 91.5806 o
88.6409 107.08 o
46.4934 81.0001 o
70.0487 97.9621 o
69.6598 100.043 o
51.0792 82.9413 o
114.055 129.721 o
60.5598 89.078 o
86.9915 91.4502 o
76.6033 90.9628 o
63.2066 84.1324 o
56.9993 85.2934 o
60.4907 89.3396 o
50.1904 77.6036 o
81.6384 97.0003 o
55.3274 88.036 o
55.8737 85.8901 o
57.9887 86.7496 o
71.6473 89.9344 o
55.8903 91.268 o
67.0931 81.9346 o
68.8214 94.4756 o
86.7156 105.343 o
81.7185 95.4961 o
55.7285 83.9328 o
52.3481 86.308 o
45.627 77.7644 o
73.5724 96.9406 o
239.845 222.229 o
61.9404 88.1641 o
73.8379 96.0135 o
49.4912 79.104 o
76.9393 91.6978 o
59.1886 85.7476 o
59.1551 76.0838 o
78.9143 101.262 o
84.1763 96.1192 o
71.3211 85.6848 o
79.6992 86.4225 o
64.5842 79.9341 o
60.966 83.7243 o
97.6043 98.5775 o
52.4439 85.9039 o
101.572 112.331 o
69.8616 92.6754 o
59.3691 90.6648 o
93.1414 109.616 o
60.7922 87.1674 o
77.2535 98.2761 o
78.3268 92.5855 o
86.7156 103.137 o
75.5163 94.5709 o
78.4123 92.7341 o
58.0972 85.7524 o
72.0305 74.061 o
74.2755 86.4287 o
101.572 105.11 o
61.356 79.8642 o
62.9205 83.7464 o
98.4381 113.351 o
64.1573 85.21 o
73.8078 81.4817 o
52.5653 80.0312 o
67.7378 85.3266 o
71.3211 91.1397 o
66.2406 83.8186 o
102.034 106.764 o
85.856 88.9267 o
64.8178 83.8605 o
64.0846 71.883 o
76.3381 74.7772 o
66.7724 79.5391 o
85.9914 102.805 o
55.4542 80.587 o
77.2535 95.4103 o
87.0206 100.286 o
110.697 118.502 o
86.0209 103.152 o
114.485 127.02 o
57.1614 78.1138 o
86.393 102.103 o
87.9206 106.682 o
66.2012 79.096 o
75.5163 97.1886 o
75.6164 86.1875 o
57.2519 86.3821 o
69.8616 86.7747 o
62.5349 90.7287 o
57.9631 85.7364 o
67.6458 91.1544 o
73.8078 102.049 o
65.4503 78.6534 o
60.6703 89.9557 o
90.0433 107.769 o
52.859 81.4753 o
64.5817 85.6141 o
146.045 147.031 o
44.3301 72.7385 o
70.5181 93.0287 o
78.3268 102.179 o
80.5063 98.012 o
66.2406 91.6249 o
54.4297 84.4936 o
79.9903 98.7305 o
49.4082 81.9154 o
52.859 85.1805 o
72.2459 90.8182 o
63.8436 84.9617 o
47.2761 70.9704 o
67.9366 96.5319 o
46.1665 78.6352 o
62.9205 87.6439 o
69.2836 97.0921 o
59.1177 89.6054 o
59.6726 93.9792 o
65.7482 98.6595 o
54.3218 85.9715 o
71.3211 98.0904 o
69.0136 93.012 o
71.819 91.8351 o
62.9205 91.7399 o
70.8802 94.9054 o
62.9532 95.6294 o
55.3771 88.6249 o
66.6238 87.5606 o
66.7848 93.8262 o
71.1787 92.9953 o
52.6062 84.1771 o
52.7803 87.5668 o
62.7412 87.4462 o
61.0606 87.5232 o
59.3691 88.384 o
60.6703 89.9557 o
55.7078 86.8744 o
68.1211 84.8982 o
58.0616 90.8268 o
52.7803 74.939 o
52.9893 89.1253 o
52.6062 66.4344 o
56.4883 87.6611 o
76.6283 102.632 o
75.8864 106.553 o
61.2918 90.6562 o
52.4439 81.0574 o
81.3235 109.075 o
79.4335 92.4982 o
73.9871 82.8064 o
89.8286 94.3196 o
68.8533 86.765 o
79.7895 102.657 o
53.4908 84.9567 o
79.8964 107.179 o
57.7539 89.1319 o
56.5634 90.1756 o
54.3218 89.8403 o
45.8486 81.576 o
52.7803 85.2917 o
60.091 91.1101 o
63.1292 88.0186 o
69.2836 99.4056 o
52.0365 88.031 o
75.7494 101.196 o
54.9422 90.2733 o
47.1067 75.4811 o
70.8802 98.9046 o
45.8876 78.0776 o
54.2161 91.1412 o
49.9988 89.1352 o
60.6055 92.4483 o
52.6062 86.7236 o
69.0981 93.9508 o
63.347 94.3666 o
62.9337 86.4389 o
52.576 87.5282 o
69.3549 98.6845 o
60.6703 93.6386 o
46.9821 81.8426 o
54.0244 87.0465 o
46.553 87.6724 o
52.9893 88.5986 o
52.7478 88.2408 o
67.6844 91.7446 o
62.9337 93.3288 o
72.2459 99.8726 o
58.355 90.908 o
47.1502 73.3886 o
209.287 198.664 o
54.6484 81.8903 o
59.1487 89.6166 o
69.8843 87.6596 o
48.4993 84.4916 o
51.9626 88.3609 o
57.5628 87.7412 o
134.001 140.068 o
52.8605 88.7347 o
48.2709 86.4392 o
51.5838 79.285 o
47.6822 83.3225 o
54.267 83.1244 o
54.4078 86.5476 o
60.0958 89.9317 o
61.2918 85.571 o
47.3728 79.3852 o
49.2216 87.1387 o
56.1963 88.6914 o
47.0777 84.7238 o
54.356 90.6307 o
69.3549 99.6863 o
49.0808 87.6543 o
48.9046 87.9555 o
66.8927 92.6381 o
46.553 85.0294 o
62.9205 88.3977 o
48.5929 87.1817 o
53.1084 88.1873 o
63.1647 92.0686 o
47.3904 84.8864 o
54.3218 87.3397 o
60.091 89.6636 o
57.1888 88.4479 o
52.9893 89.3465 o
131.061 150.942 o
55.9135 89.1988 o
57.4591 89.6643 o
53.0998 89.2002 o
75.8864 103.583 o
61.3101 92.7447 o
62.9521 94.8996 o
51.714 89.1627 o
58.355 90.6063 o
51.3796 87.7964 o
78.3268 98.6436 o
57.0146 81.0666 o
46.3098 83.5263 o
47.0685 82.5895 o
50.2257 85.6119 o
60.4127 88.1905 o
46.6481 82.1417 o
48.1287 82.1662 o
57.3506 90.4108 o
54.0317 86.0641 o
47.9843 83.6194 o
46.3098 83.5303 o
44.6436 81.0482 o
69.3549 96.0951 o
46.4152 83.0182 o
49.8303 84.5835 o
58.355 88.8619 o
43.6897 79.7854 o
51.3796 83.8108 o
46.8023 82.7456 o
78.3268 102.28 o
50.9236 85.6952 o
52.3598 85.7711 o
74.2011 100.592 o
76.9393 99.6061 o
47.8058 81.1805 o
50.3146 85.0425 o
49.1343 82.2085 o
51.3963 85.1392 o
52.9893 80.4778 o
59.4292 88.3695 o
61.2926 84.3953 o
190.99 183.802 o
71.5381 97.1759 o
47.3904 76.5115 o
63.1647 87.9777 o
47.1461 82.8802 o
57.5109 89.0002 o
46.454 81.1642 o
46.2722 83.9481 o
164.669 163.825 o
204.109 194.985 o
53.9954 87.7028 o
208.022 197.054 o
50.7378 84.9233 o
47.929 83.7261 o
51.3796 85.2236 o
48.3259 83.4091 o
60.5204 85.2704 o
52.8133 84.5459 o
47.0575 80.3379 o
252.709 236.222 o
69.995 94.2324 o
49.2216 84.0868 o
54.356 88.9305 o
49.2414 79.5189 o
46.553 81.9757 o
59.765 84.6639 o
52.9129 86.1373 o
192.213 186.931 o
117.828 131.918 o
64.9057 87.2599 o
43.8294 82.1728 o
113.516 127.203 o
63.1452 95.1619 o
70.0568 96.2157 o
62.6785 92.9257 o
50.8833 81.1869 o
50.5708 79.5895 o
76.9393 99.4361 o
195.614 184.157 o
93.7357 114.185 o
59.3691 91.6941 o
55.9785 86.2214 o
52.9893 81.5769 o
47.8597 74.0891 o
161.544 163.694 o
53.1084 83.2107 o
51.1878 84.1884 o
66.8927 96.3308 o
56.6835 90.2914 o
70.7809 94.6357 o
58.4116 92.1683 o
62.9205 94.0258 o
61.0871 92.3563 o
71.2742 100.066 o
67.8296 95.7389 o
106.478 122.095 o
51.714 83.4836 o
51.3796 83.5287 o
44.9778 80.6565 o
50.5631 85.4431 o
54.3372 87.8605 o
76.9393 88.5627 o
79.7895 96.2326 o
49.3385 83.166 o
59.3691 88.8607 o
50.2257 87.7391 o
62.531 94.811 o
62.4387 96.0132 o
57.7514 90.1391 o
125.677 135.996 o
49.4574 83.8692 o
68.6356 93.8729 o
182.431 172.729 o
104.861 118.478 o
63.3116 91.9217 o
59.8788 94.911 o
57.3506 92.0964 o
66.9482 93.4641 o
46.3098 78.2805 o
66.9892 93.2769 o
63.577 91.0593 o
51.9809 86.6114 o
48.1287 78.4946 o
65.4465 89.5974 o
62.3602 90.9799 o
58.969 90.6395 o
58.355 88.106 o
80.1492 102.342 o
52.9893 90.934 o
61.3101 94.0079 o
59.2482 90.7637 o
72.9987 100.285 o
66.6386 97.4984 o
63.828 90.5303 o
57.0146 88.4472 o
54.4676 89.6623 o
63.8854 90.9642 o
57.1888 92.2508 o
61.8955 91.4693 o
69.5534 95.394 o
60.8964 93.7044 o
57.6382 91.2359 o
69.0826 96.2387 o
54.0317 88.8229 o
78.3268 102.062 o
70.9847 99.0795 o
69.7701 94.7967 o
63.7649 89.2542 o
54.4785 91.8329 o
69.5534 96.029 o
51.4021 85.3138 o
91.9286 114.111 o
54.3218 80.3744 o
65.9779 97.1381 o
104.861 119.778 o
75.2023 99.458 o
62.9521 92.8293 o
63.1647 95.3071 o
63.0254 95.1471 o
88.2232 111.102 o
70.3341 98.4591 o
188.285 191.578 o
61.3101 91.0518 o
71.7525 97.4359 o
54.1716 84.2289 o
60.2738 91.0077 o
51.714 88.6097 o
93.134 112.378 o
57.5762 93.582 o
66.9482 98.1414 o
65.3592 95.9059 o
57.0146 89.9476 o
64.4197 94.208 o
60.091 94.1121 o
56.0959 89.7876 o
66.0557 88.7745 o
71.9039 99.0595 o
67.7672 97.3821 o
69.5534 98.6101 o
56.3411 87.7938 o
110.862 126.645 o
75.8864 100.197 o
61.3101 92.5998 o
99.1707 115.36 o
87.1166 107.824 o
83.9131 108.765 o
55.0927 89.2667 o
65.2021 96.3522 o
60.0326 93.3043 o
59.9044 92.1707 o
60.091 91.4282 o
69.7474 97.5216 o
64.7562 95.6136 o
60.1258 91.3593 o
71.2068 100.535 o
56.9129 89.9641 o
66.1334 96.1494 o
73.6791 103.449 o
58.17 88.6939 o
58.1995 88.0807 o
60.9378 87.164 o
56.1346 87.7182 o
49.0229 65.4235 o
139.379 139.282 o
59.669 71.9979 o
82.428 90.5354 o
150.488 148.603 o
248.244 249.382 o
56.3286 69.1186 o
181.596 193.881 o
133.539 106.737 o
49.0229 53.4602 o
204.895 202.444 o
231.931 206.351 o
75.3373 90.8527 o
131.288 149.742 o
66.127 74.5624 o
163.771 186.947 o
59.669 90.249 o
45.9633 60.1686 o
231.335 193.628 o
99.8707 79.5003 o
107.169 100.278 o
188.201 194.526 o
61.7432 83.0215 o
181.596 189.067 o
66.127 76.7291 o
226.856 227.097 o
113.669 112.049 o
149.988 149.02 o
178.522 193.513 o
149.281 156.841 o
120.223 104.427 o
205.569 173.665 o
128.422 119.32 o
45.9633 62.5068 o
86.4872 109.403 o
59.1886 83.2415 o
92.2006 90.1056 o
99.7885 106.302 o
81.9872 94.5656 o
143.635 146.739 o
196.491 203.473 o
69.6598 86.9222 o
215.22 229.279 o
87.0522 102.496 o
71.3211 90.8925 o
97.4833 106.155 o
69.8616 72.5807 o
69.6598 87.5465 o
102.034 83.2246 o
103.95 101.367 o
120.583 130.189 o
84.775 86.3837 o
49.3954 67.5495 o
73.8379 87.8031 o
69.8616 97.648 o
52.859 81.4217 o
125.752 119.833 o
77.0085 96.8327 o
84.775 105.53 o
158.65 131.71 o
72.6623 72.8349 o
56.667 62.8471 o
82.8739 98.5568 o
55.6286 82.0881 o
64.016 75.2684 o
69.3769 90.5767 o
71.722 89.8219 o
52.859 69.82 o
87.6057 77.8428 o
102.034 89.4913 o
55.8903 76.0439 o
52.859 72.4553 o
88.0066 94.0317 o
83.0496 80.9751 o
73.8379 69.5712 o
84.5415 75.8606 o
69.2836 89.6157 o
81.3235 87.9262 o
78.4123 98.2866 o
79.7895 87.5985 o
70.1929 83.9174 o
55.4018 63.0685 o
65.696 69.4877 o
72.2099 85.6878 o
239.807 211.505 o
60.6793 65.4492 o
52.7702 53.0182 o
84.5415 87.6619 o
69.2836 76.2836 o
65.521 78.4896 o
100.264 101.618 o
71.5479 89.863 o
52.4439 76.107 o
87.6057 97.8524 o
92.996 93.3509 o
122.646 111.723 o
105.316 111.738 o
91.8233 99.1651 o
79.6992 86.187 o
75.8864 85.6148 o
77.794 88.944 o
78.8059 90.9331 o
62.0221 83.1834 o
69.2836 91.7929 o
70.8802 88.0609 o
89.2778 105.115 o
65.4462 85.491 o
51.1889 63.6416 o
79.8159 85.7238 o
70.7068 89.5913 o
77.2535 89.7761 o
86.393 100.679 o
55.4542 69.5993 o
82.6984 99.8511 o
67.7378 79.5009 o
74.2011 90.7237 o
75.5163 92.5305 o
79.4049 100.495 o
55.4542 76.9663 o
61.7115 84.4274 o
71.1098 94.0724 o
90.3423 97.8884 o
74.2923 97.0859 o
68.6143 95.2355 o
63.3887 80.4184 o
73.8078 93.4899 o
76.1613 86.9623 o
69.8128 80.2674 o
66.76 78.0467 o
72.2459 87.7823 o
54.8619 84.4123 o
72.2172 88.9443 o
73.8123 94.4978 o
60.6703 74.726 o
60.9497 87.9491 o
53.5076 74.2499 o
102.034 116.565 o
68.4791 89.5167 o
71.8102 88.1198 o
78.8059 105.109 o
54.8812 68.9863 o
52.0232 78.1756 o
98.529 107.458 o
71.3113 87.8917 o
81.3968 96.8684 o
68.3387 89.6704 o
67.0663 75.1646 o
59.1493 88.442 o
56.3815 81.4988 o
81.2418 83.603 o
59.3691 74.2352 o
69.3549 91.1767 o
60.5258 85.9703 o
63.627 93.3531 o
73.4001 92.7251 o
73.6408 87.6373 o
43.5748 62.8677 o
71.5479 90.7442 o
55.3279 70.9032 o
115.761 118.974 o
47.8117 72.5859 o
48.8539 72.5769 o
222.915 215.228 o
66.3549 87.5117 o
66.8927 85.6841 o
131.287 132.282 o
117.396 128.326 o
46.7129 71.3449 o
55.9135 78.3902 o
180.972 173.035 o
57.0146 77.5675 o
85.5959 94.6353 o
75.2692 90.1225 o
106.786 111.511 o
120.567 125.273 o
58.3045 85.6874 o
44.3509 69.7317 o
66.7693 84.9761 o
58.4919 84.5536 o
48.5635 76.3782 o
75.8864 95.4554 o
57.3256 80.8708 o
46.7821 67.693 o
215.872 212.975 o
45.3906 76.7626 o
63.1647 65.9994 o
50.8287 73.9906 o
71.5479 70.3549 o
103.175 115.579 o
70.8276 94.4157 o
54.3218 80.1351 o
109.338 119.044 o
68.9813 81.0808 o
63.8907 78.1204 o
60.916 87.9844 o
50.2257 77.5319 o
64.0187 91.62 o
68.3993 85.8327 o
58.5161 86.056 o
91.9286 110.346 o
55.4553 82.3994 o
49.4574 66.679 o
60.4127 79.3317 o
93.134 100.277 o
58.17 84.6146 o
66.3004 86.1207 o
64.2215 87.7555 o
46.4504 75.2093 o
54.5795 65.6257 o
44.4932 76.7013 o
69.8965 93.6105 o
51.714 80.1233 o
68.3993 92.137 o
64.4197 86.0329 o
71.6045 94.1183 o
64.9229 82.8479 o
56.1346 78.1155 o
63.7795 84.3625 o
70.8105 86.354 o
73.6556 99.6248 o
69.1138 90.3764 o
52.6319 80.272 o
66.3004 86.3045 o
56.1346 78.1448 o
78.4282 94.9617 o
66.0301 78.6394 o
52.6195 81.8463 o
58.2361 89.7064 o
69.8965 94.668 o
58.2459 85.0901 o
54.3218 80.8041 o
64.8043 86.782 o
210.561 211.247 o
93.134 100.965 o
52.6195 84.2458 o
53.0998 72.0596 o
69.7107 88.3324 o
57.4651 74.3139 o
grestore
2.000 setlinewidth
2 setlinecap
0.000 0.000 1.000 setrgbcolor
gsave
216 216 43.2 43.2 clipbox
43.2 73.150608 m
45.381818 74.739699 l
47.563636 76.32879 l
49.745455 77.917882 l
51.927273 79.506973 l
54.109091 81.096064 l
56.290909 82.685155 l
58.472727 84.274247 l
60.654545 85.863338 l
62.836364 87.452429 l
65.018182 89.04152 l
67.2 90.630612 l
69.381818 92.219703 l
71.563636 93.808794 l
73.745455 95.397886 l
75.927273 96.986977 l
78.109091 98.576068 l
80.290909 100.165159 l
82.472727 101.754251 l
84.654545 103.343342 l
86.836364 104.932433 l
89.018182 106.521524 l
91.2 108.110616 l
93.381818 109.699707 l
95.563636 111.288798 l
97.745455 112.877889 l
99.927273 114.466981 l
102.109091 116.056072 l
104.290909 117.645163 l
106.472727 119.234255 l
108.654545 120.823346 l
110.836364 122.412437 l
113.018182 124.001528 l
115.2 125.59062 l
117.381818 127.179711 l
119.563636 128.768802 l
121.745455 130.357893 l
123.927273 131.946985 l
126.109091 133.536076 l
128.290909 135.125167 l
130.472727 136.714259 l
132.654545 138.30335 l
134.836364 139.892441 l
137.018182 141.481532 l
139.2 143.070624 l
141.381818 144.659715 l
143.563636 146.248806 l
145.745455 147.837897 l
147.927273 149.426989 l
150.109091 151.01608 l
152.290909 152.605171 l
154.472727 154.194263 l
156.654545 155.783354 l
158.836364 157.372445 l
161.018182 158.961536 l
163.2 160.550628 l
165.381818 162.139719 l
167.563636 163.72881 l
169.745455 165.317901 l
171.927273 166.906993 l
174.109091 168.496084 l
176.290909 170.085175 l
178.472727 171.674266 l
180.654545 173.263358 l
182.836364 174.852449 l
185.018182 176.44154 l
187.2 178.030632 l
189.381818 179.619723 l
191.563636 181.208814 l
193.745455 182.797905 l
195.927273 184.386997 l
198.109091 185.976088 l
200.290909 187.565179 l
202.472727 189.15427 l
204.654545 190.743362 l
206.836364 192.332453 l
209.018182 193.921544 l
211.2 195.510636 l
213.381818 197.099727 l
215.563636 198.688818 l
217.745455 200.277909 l
219.927273 201.867001 l
222.109091 203.456092 l
224.290909 205.045183 l
226.472727 206.634274 l
228.654545 208.223366 l
230.836364 209.812457 l
233.018182 211.401548 l
235.2 212.990639 l
237.381818 214.579731 l
239.563636 216.168822 l
241.745455 217.757913 l
243.927273 219.347005 l
246.109091 220.936096 l
248.290909 222.525187 l
250.472727 224.114278 l
252.654545 225.70337 l
254.836364 227.292461 l
257.018182 228.881552 l
259.2 230.470643 l
stroke
grestore
0.800 setlinewidth
0 setlinejoin
[] 0 setdash
0.000 setgray
gsave
43.2 43.2 m
43.2 259.2 l
stroke
grestore
gsave
259.2 43.2 m
259.2 259.2 l
stroke
grestore
gsave
43.2 43.2 m
259.2 43.2 l
stroke
grestore
gsave
43.2 259.2 m
259.2 259.2 l
stroke
grestore
gsave
233.000000 244.400000 translate
0.000000 rotate
/DejaVuSerif findfont
14.0 scalefont
setfont
0.000000 0.359375 moveto
/parenleft glyphshow

/DejaVuSans-Oblique findfont
14.0 scalefont
setfont
5.461914 0.359375 moveto
/b glyphshow

/DejaVuSerif findfont
14.0 scalefont
setfont
14.348633 0.359375 moveto
/parenright glyphshow


grestore
1.000 setlinewidth
1 setlinejoin
0 setlinecap
[] 0 setdash
1.000 0.000 0.000 setrgbcolor
gsave
/o {
gsave
newpath
translate
1.0 setlinewidth
1 setlinejoin
0 setlinecap
0 -1.5 m
0.397805 -1.5 0.77937 -1.341951 1.06066 -1.06066 c
1.341951 -0.77937 1.5 -0.397805 1.5 0 c
1.5 0.397805 1.341951 0.77937 1.06066 1.06066 c
0.77937 1.341951 0.397805 1.5 0 1.5 c
-0.397805 1.5 -0.77937 1.341951 -1.06066 1.06066 c
-1.341951 0.77937 -1.5 0.397805 -1.5 0 c
-1.5 -0.397805 -1.341951 -0.77937 -1.06066 -1.06066 c
-0.77937 -1.341951 -0.397805 -1.5 0 -1.5 c
cl

gsave
1.000 0.000 0.000 setrgbcolor
fill
grestore
stroke
grestore
} bind def
66.6 243.475 o
grestore
0.000 setgray
/DejaVuSerif findfont
12.000 scalefont
setfont
gsave
84.000000 239.275000 translate
0.000000 rotate
0.000000 0.000000 m /S glyphshow
8.220703 0.000000 m /a glyphshow
15.375000 0.000000 m /m glyphshow
26.753906 0.000000 m /p glyphshow
34.435547 0.000000 m /l glyphshow
38.273438 0.000000 m /e glyphshow
45.375000 0.000000 m /s glyphshow
grestore
2.000 setlinewidth
2 setlinecap
0.000 0.000 1.000 setrgbcolor
gsave
54 231.25 m
79.2 231.25 l
stroke
grestore
0.000 setgray
gsave
84.000000 227.050000 translate
0.000000 rotate
0.000000 0.000000 m /L glyphshow
7.968750 0.000000 m /i glyphshow
11.806641 0.000000 m /n glyphshow
19.535156 0.000000 m /e glyphshow
26.636719 0.000000 m /a glyphshow
33.791016 0.000000 m /r glyphshow
39.527344 0.000000 m /space glyphshow
43.341797 0.000000 m /f glyphshow
47.783203 0.000000 m /i glyphshow
51.621094 0.000000 m /t glyphshow
grestore

end
showpage
