\relax 
\citation{palmer2019pump,vester2019ultrafast}
\citation{terahertz-xfel}
\citation{tanikawa2018superradiant}
\citation{schneidmiller2013tunable}
\citation{schneidmiller2013tunable,boonpornprasert2014start,boonpornprasert2017calculations,krasilnikov2018start}
\citation{krasilnikov2012experimentally}
\citation{boonpornprasert2014start}
\citation{krasilnikov2012experimentally}
\citation{DE}
\citation{astra}
\babel@aux{USenglish}{}
\@writefile{toc}{\contentsline {section}{INTRODUCTION}{1}}
\@writefile{toc}{\contentsline {section}{SIMULATIONS}{1}}
\@writefile{toc}{\contentsline {subsection}{Start-to-end simulation}{1}}
\citation{krasilnikov2018start}
\citation{genesis}
\@writefile{lof}{\contentsline {figure}{\numberline {1}{\ignorespaces Dependence of (a) peak current on laser spot size (BSA) and (b) correlated energy spread on booster phase.\relax }}{2}}
\providecommand*\caption@xref[2]{\@setref\relax\@undefined{#1}}
\newlabel{fig:optimization}{{1}{2}}
\@writefile{lof}{\contentsline {figure}{\numberline {2}{\ignorespaces Start-to-end simulation: (a) rms beam sizes, (b) normalized emittances and (c) rms energy spread and mean momentum along the beamline.\relax }}{2}}
\newlabel{fig:beam-transport}{{2}{2}}
\@writefile{lof}{\contentsline {figure}{\numberline {3}{\ignorespaces (a) Transverse and (b) longitudinal phase spaces at the undulator entrance.\relax }}{2}}
\newlabel{fig:transverse-phase-space}{{3}{2}}
\@writefile{lot}{\contentsline {table}{\numberline {1}{\ignorespaces Summary of simulations\relax }}{2}}
\newlabel{tab:THz-SASE}{{1}{2}}
\@writefile{toc}{\contentsline {subsection}{THz radiation generation}{2}}
\@writefile{toc}{\contentsline {section}{Experiments}{2}}
\@writefile{toc}{\contentsline {subsection}{Electron beam characterization}{2}}
\bibcite{palmer2019pump}{1}
\@writefile{lof}{\contentsline {figure}{\numberline {4}{\ignorespaces (a) THz pulse energy along the undulator and (b) its spectrum at the exit.\relax }}{3}}
\newlabel{fig:THz-pulse}{{4}{3}}
\@writefile{lof}{\contentsline {figure}{\numberline {5}{\ignorespaces Measurement of (a) emission curve and (b) bunch profile.\relax }}{3}}
\newlabel{fig:emission-curve}{{5}{3}}
\@writefile{lot}{\contentsline {table}{\numberline {2}{\ignorespaces Comparison of measured and simulated beam parameters\relax }}{3}}
\newlabel{tab:measurement-simulation}{{2}{3}}
\@writefile{lof}{\contentsline {figure}{\numberline {6}{\ignorespaces Measured transverse phase spaces in (a) horizontal and (b) vertical planes: $\mitvarepsilon _{n,x} = 4.0$, $\mitvarepsilon _{n,x} = 3.8$ mm mrad.\relax }}{3}}
\newlabel{fig:beam-characterization}{{6}{3}}
\@writefile{toc}{\contentsline {subsection}{Electron beam matching}{3}}
\@writefile{lof}{\contentsline {figure}{\numberline {7}{\ignorespaces (a) Transport and matching of the electron beam from simulation and measurement and (b) transverse distribution at the matching screen (YAG in (a)).\relax }}{3}}
\newlabel{fig:transport-and-matching}{{7}{3}}
\@writefile{toc}{\contentsline {section}{CONCLUSION}{3}}
\bibcite{vester2019ultrafast}{2}
\bibcite{terahertz-xfel}{3}
\bibcite{tanikawa2018superradiant}{4}
\bibcite{schneidmiller2013tunable}{5}
\bibcite{boonpornprasert2014start}{6}
\bibcite{boonpornprasert2017calculations}{7}
\bibcite{krasilnikov2018start}{8}
\bibcite{krasilnikov2012experimentally}{9}
\bibcite{DE}{10}
\bibcite{astra}{11}
\bibcite{genesis}{12}
