%!PS-Adobe-3.0 EPSF-3.0
%%Title: beam-size-with-quads@4000pC(b).eps
%%Creator: matplotlib version 2.2.2, http://matplotlib.org/
%%CreationDate: Wed Jul 31 21:55:40 2019
%%Orientation: portrait
%%BoundingBox: 36 306 576 486
%%EndComments
%%BeginProlog
/mpldict 9 dict def
mpldict begin
/m { moveto } bind def
/l { lineto } bind def
/r { rlineto } bind def
/c { curveto } bind def
/cl { closepath } bind def
/box {
m
1 index 0 r
0 exch r
neg 0 r
cl
} bind def
/clipbox {
box
clip
newpath
} bind def
%!PS-Adobe-3.0 Resource-Font
%%Title: DejaVu Serif
%%Copyright: Copyright (c) 2003 by Bitstream, Inc. All Rights Reserved. DejaVu changes are in public domain 
%%Creator: Converted from TrueType to type 3 by PPR
25 dict begin
/_d{bind def}bind def
/_m{moveto}_d
/_l{lineto}_d
/_cl{closepath eofill}_d
/_c{curveto}_d
/_sc{7 -1 roll{setcachedevice}{pop pop pop pop pop pop}ifelse}_d
/_e{exec}_d
/FontName /DejaVuSerif def
/PaintType 0 def
/FontMatrix[.001 0 0 .001 0 0]def
/FontBBox[-770 -347 2105 1109]def
/FontType 3 def
/Encoding [ /space /parenleft /parenright /period /zero /one /two /three /four /five /m /o /r ] def
/FontInfo 10 dict dup begin
/FamilyName (DejaVu Serif) def
/FullName (DejaVu Serif) def
/Notice (Copyright (c) 2003 by Bitstream, Inc. All Rights Reserved. DejaVu changes are in public domain ) def
/Weight (Book) def
/Version (Version 2.35) def
/ItalicAngle 0.0 def
/isFixedPitch false def
/UnderlinePosition -130 def
/UnderlineThickness 90 def
end readonly def
/CharStrings 14 dict dup begin
/.notdef 0 def
/space{318 0 0 0 0 0 _sc
}_d
/parenleft{390 0 79 -155 319 760 _sc
319 -155 _m
239 -119 179 -63 139 13 _c
99 89 79 186 79 302 _c
79 418 99 514 139 591 _c
179 668 239 724 319 760 _c
319 712 _l
269 677 233 628 211 566 _c
189 503 178 415 178 302 _c
178 188 189 100 211 38 _c
233 -24 269 -72 319 -107 _c
319 -155 _l
_cl}_d
/parenright{390 0 71 -155 311 760 _sc
71 -155 _m
71 -107 _l
121 -72 157 -24 179 38 _c
201 100 212 188 212 302 _c
212 415 201 503 179 566 _c
157 628 121 677 71 712 _c
71 760 _l
150 724 210 668 250 591 _c
290 514 311 418 311 302 _c
311 186 290 89 250 13 _c
210 -63 150 -119 71 -155 _c
_cl}_d
/period{318 0 94 -13 224 116 _sc
94 51 _m
94 69 100 84 112 97 _c
124 109 140 116 159 116 _c
177 116 192 109 205 97 _c
217 84 224 69 224 51 _c
224 33 217 17 205 5 _c
192 -7 177 -13 159 -13 _c
140 -13 124 -7 112 5 _c
100 17 94 32 94 51 _c
_cl}_d
/zero{636 0 66 -13 570 742 _sc
318 34 _m
368 34 405 61 430 116 _c
454 170 467 253 467 364 _c
467 474 454 557 430 612 _c
405 666 368 694 318 694 _c
268 694 230 666 206 612 _c
181 557 169 474 169 364 _c
169 253 181 170 206 116 _c
230 61 268 34 318 34 _c
318 -13 _m
238 -13 176 20 132 86 _c
88 152 66 244 66 364 _c
66 483 88 576 132 642 _c
176 708 238 742 318 742 _c
397 742 459 708 503 642 _c
547 576 570 483 570 364 _c
570 244 547 152 503 86 _c
459 20 397 -13 318 -13 _c
_cl}_d
/one{636 0 122 0 494 742 _sc
142 0 _m
142 52 _l
269 52 _l
269 658 _l
122 563 _l
122 627 _l
300 742 _l
367 742 _l
367 52 _l
494 52 _l
494 0 _l
142 0 _l
_cl}_d
/two{{636 0 68 0 538 742 _sc
128 555 _m
73 555 _l
73 685 _l
107 703 142 717 178 727 _c
213 737 248 742 282 742 _c
358 742 418 723 462 687 _c
506 650 528 600 528 537 _c
528 465 478 380 378 281 _c
370 273 365 268 361 264 _c
177 80 _l
481 80 _l
481 170 _l
538 170 _l
538 0 _l
68 0 _l
68 53 _l
289 274 _l
337 322 372 367 393 408 _c
414 449 425 492 425 537 _c
}_e{425 586 412 624 386 652 _c
360 680 325 694 281 694 _c
234 694 198 682 173 659 _c
147 636 132 601 128 555 _c
_cl}_e}_d
/three{{636 0 76 -13 562 742 _sc
97 698 _m
135 712 171 723 206 731 _c
241 738 274 742 305 742 _c
376 742 432 726 472 696 _c
512 665 532 622 532 568 _c
532 524 518 487 490 458 _c
462 428 423 408 373 398 _c
433 389 479 367 512 332 _c
545 297 562 252 562 197 _c
562 129 539 77 493 41 _c
447 5 382 -13 296 -13 _c
258 -13 220 -9 184 -1 _c
148 6 112 18 76 35 _c
76 177 _l
}_e{131 177 _l
134 129 150 94 178 70 _c
206 46 246 34 298 34 _c
348 34 387 48 416 77 _c
444 106 459 146 459 196 _c
459 253 444 296 414 326 _c
384 355 341 370 284 370 _c
238 370 _l
238 420 _l
262 420 _l
319 420 362 431 390 455 _c
418 479 433 514 433 562 _c
433 604 421 637 398 660 _c
374 682 341 694 297 694 _c
253 694 218 683 194 662 _c
170 641 156 610 152 570 _c
}_e{97 570 _l
97 698 _l
_cl}_e}_d
/four{636 0 31 0 586 742 _sc
349 247 _m
349 635 _l
100 247 _l
349 247 _l
564 0 _m
232 0 _l
232 52 _l
349 52 _l
349 195 _l
31 195 _l
31 248 _l
350 742 _l
447 742 _l
447 247 _l
586 247 _l
586 195 _l
447 195 _l
447 52 _l
564 52 _l
564 0 _l
_cl}_d
/five{{636 0 85 -13 559 729 _sc
503 729 _m
503 649 _l
169 649 _l
169 440 _l
185 452 205 460 228 466 _c
250 472 276 475 304 475 _c
382 475 444 453 490 409 _c
536 365 559 306 559 231 _c
559 153 536 93 490 51 _c
444 8 379 -13 296 -13 _c
262 -13 228 -9 193 -1 _c
157 6 121 18 85 35 _c
85 177 _l
140 177 _l
143 130 158 94 184 70 _c
210 46 248 34 296 34 _c
}_e{347 34 386 51 414 85 _c
442 119 456 167 456 231 _c
456 294 442 342 415 376 _c
387 410 348 427 296 427 _c
266 427 240 421 218 411 _c
196 401 176 385 159 363 _c
117 363 _l
117 729 _l
503 729 _l
_cl}_e}_d
/m{{948 0 36 0 921 533 _sc
518 418 _m
535 456 557 484 584 504 _c
611 523 642 533 678 533 _c
732 533 773 516 800 482 _c
826 448 840 398 840 330 _c
840 52 _l
921 52 _l
921 0 _l
672 0 _l
672 52 _l
750 52 _l
750 320 _l
750 372 742 410 726 433 _c
710 455 685 467 649 467 _c
609 467 578 451 557 421 _c
536 391 526 347 526 289 _c
526 52 _l
604 52 _l
604 0 _l
358 0 _l
}_e{358 52 _l
436 52 _l
436 323 _l
436 375 428 412 412 434 _c
396 456 371 467 335 467 _c
295 467 264 451 243 421 _c
222 391 212 347 212 289 _c
212 52 _l
290 52 _l
290 0 _l
41 0 _l
41 52 _l
122 52 _l
122 468 _l
36 468 _l
36 519 _l
212 519 _l
212 427 _l
228 461 249 488 275 506 _c
301 524 330 533 363 533 _c
403 533 436 523 463 503 _c
}_e{490 483 508 454 518 418 _c
_cl}_e}_d
/o{602 0 50 -13 552 533 _sc
301 34 _m
349 34 385 53 410 91 _c
434 129 447 185 447 260 _c
447 334 434 390 410 428 _c
385 466 349 485 301 485 _c
253 485 216 466 192 428 _c
167 390 155 334 155 260 _c
155 185 167 129 192 91 _c
216 53 253 34 301 34 _c
301 -13 _m
225 -13 165 11 119 61 _c
73 111 50 177 50 260 _c
50 342 72 408 118 458 _c
164 508 225 533 301 533 _c
377 533 437 508 483 458 _c
529 408 552 342 552 260 _c
552 177 529 111 483 61 _c
437 11 377 -13 301 -13 _c
_cl}_d
/r{478 0 36 0 478 533 _sc
478 520 _m
478 390 _l
426 390 _l
424 416 417 435 405 448 _c
392 460 373 467 349 467 _c
305 467 271 451 247 421 _c
223 390 212 346 212 289 _c
212 52 _l
316 52 _l
316 0 _l
41 0 _l
41 52 _l
122 52 _l
122 468 _l
36 468 _l
36 519 _l
212 519 _l
212 427 _l
229 463 251 489 279 507 _c
307 524 341 533 381 533 _c
395 533 411 531 427 529 _c
443 527 460 524 478 520 _c
_cl}_d
end readonly def

/BuildGlyph
 {exch begin
 CharStrings exch
 2 copy known not{pop /.notdef}if
 true 3 1 roll get exec
 end}_d

/BuildChar {
 1 index /Encoding get exch get
 1 index /BuildGlyph get exec
}_d

FontName currentdict end definefont pop
%!PS-Adobe-3.0 Resource-Font
%%Title: DejaVu Sans Oblique
%%Copyright: Copyright (c) 2003 by Bitstream, Inc. All Rights Reserved. Copyright (c) 2006 by Tavmjong Bah. All Rights Reserved. DejaVu changes are in public domain 
%%Creator: Converted from TrueType to type 3 by PPR
25 dict begin
/_d{bind def}bind def
/_m{moveto}_d
/_l{lineto}_d
/_cl{closepath eofill}_d
/_c{curveto}_d
/_sc{7 -1 roll{setcachedevice}{pop pop pop pop pop pop}ifelse}_d
/_e{exec}_d
/FontName /DejaVuSans-Oblique def
/PaintType 0 def
/FontMatrix[.001 0 0 .001 0 0]def
/FontBBox[-1016 -350 1659 1068]def
/FontType 3 def
/Encoding [ /b /x /y /z /sigma ] def
/FontInfo 10 dict dup begin
/FamilyName (DejaVu Sans) def
/FullName (DejaVu Sans Oblique) def
/Notice (Copyright (c) 2003 by Bitstream, Inc. All Rights Reserved. Copyright (c) 2006 by Tavmjong Bah. All Rights Reserved. DejaVu changes are in public domain ) def
/Weight (Oblique) def
/Version (Version 2.35) def
/ItalicAngle -11.0 def
/isFixedPitch false def
/UnderlinePosition -130 def
/UnderlineThickness 90 def
end readonly def
/CharStrings 6 dict dup begin
/.notdef 0 def
/b{{635 0 36 -13 587 760 _sc
495 334 _m
495 381 484 418 462 445 _c
440 471 411 485 373 485 _c
345 485 319 478 295 464 _c
271 450 250 431 232 406 _c
213 378 198 347 187 311 _c
176 275 171 240 171 205 _c
171 160 181 125 203 99 _c
224 73 253 61 291 61 _c
319 61 345 67 369 81 _c
393 94 415 113 433 139 _c
451 165 466 196 478 232 _c
489 268 495 302 495 334 _c
216 464 _m
}_e{238 494 265 517 299 534 _c
332 551 367 560 404 560 _c
460 560 504 541 537 503 _c
570 465 587 414 587 350 _c
587 297 577 246 558 197 _c
538 147 511 103 475 65 _c
451 39 424 20 394 7 _c
363 -6 331 -13 298 -13 _c
262 -13 232 -5 206 11 _c
180 27 158 51 142 83 _c
126 0 _l
36 0 _l
184 760 _l
274 760 _l
216 464 _l
_cl}_e}_d
/x{592 0 -25 0 600 547 _sc
600 547 _m
349 279 _l
503 0 _l
400 0 _l
284 217 _l
83 0 _l
-25 0 _l
243 288 _l
100 547 _l
203 547 _l
308 349 _l
491 547 _l
600 547 _l
_cl}_d
/y{592 0 -24 -207 603 547 _sc
248 -50 _m
206 -120 172 -163 146 -181 _c
120 -198 86 -207 46 -207 _c
-24 -207 _l
-9 -132 _l
42 -132 _l
67 -132 88 -125 106 -111 _c
123 -97 143 -71 165 -31 _c
193 20 _l
72 547 _l
167 547 _l
258 128 _l
509 547 _l
603 547 _l
248 -50 _l
_cl}_d
/z{525 0 -2 0 543 547 _sc
116 547 _m
543 547 _l
527 465 _l
115 72 _l
455 72 _l
441 0 _l
-2 0 _l
13 82 _l
425 475 _l
102 475 _l
116 547 _l
_cl}_d
/sigma{{634 0 57 -13 659 547 _sc
347 476 _m
297 476 255 458 222 422 _c
186 384 163 335 151 273 _c
138 207 142 156 163 118 _c
183 80 218 62 267 62 _c
314 62 355 81 391 119 _c
426 156 450 207 463 273 _c
474 332 470 382 450 422 _c
431 458 397 476 347 476 _c
361 547 _m
659 547 _l
642 457 _l
541 457 _l
566 406 572 345 559 273 _c
541 183 505 113 451 63 _c
396 12 329 -13 251 -13 _c
}_e{173 -13 116 12 82 63 _c
47 113 39 183 57 273 _c
74 363 110 433 164 484 _c
209 526 275 547 361 547 _c
_cl}_e}_d
end readonly def

/BuildGlyph
 {exch begin
 CharStrings exch
 2 copy known not{pop /.notdef}if
 true 3 1 roll get exec
 end}_d

/BuildChar {
 1 index /Encoding get exch get
 1 index /BuildGlyph get exec
}_d

FontName currentdict end definefont pop
end
%%EndProlog
mpldict begin
36 306 translate
540 180 0 0 clipbox
gsave
0 0 m
540 0 l
540 180 l
0 180 l
cl
1.000 setgray
fill
grestore
gsave
54 27 m
486 27 l
486 162 l
54 162 l
cl
1.000 setgray
fill
grestore
0.800 setlinewidth
1 setlinejoin
2 setlinecap
[] 0 setdash
0.690 setgray
gsave
432 135 54 27 clipbox
54 27 m
54 162 l
stroke
grestore
1.000 setlinewidth
0 setlinecap
0.000 setgray
gsave
/o {
gsave
newpath
translate
1.0 setlinewidth
1 setlinejoin
0 setlinecap
0 0 m
0 5 l

gsave
0.000 setgray
fill
grestore
stroke
grestore
} bind def
54 27 o
grestore
gsave
/o {
gsave
newpath
translate
1.0 setlinewidth
1 setlinejoin
0 setlinecap
0 0 m
0 -5 l

gsave
0.000 setgray
fill
grestore
stroke
grestore
} bind def
54 162 o
grestore
/DejaVuSerif findfont
10.000 scalefont
setfont
gsave
50.820312 15.906250 translate
0.000000 rotate
0.000000 0.000000 m /zero glyphshow
grestore
0.800 setlinewidth
2 setlinecap
0.690 setgray
gsave
432 135 54 27 clipbox
121.5 27 m
121.5 162 l
stroke
grestore
1.000 setlinewidth
0 setlinecap
0.000 setgray
gsave
/o {
gsave
newpath
translate
1.0 setlinewidth
1 setlinejoin
0 setlinecap
0 0 m
0 5 l

gsave
0.000 setgray
fill
grestore
stroke
grestore
} bind def
121.5 27 o
grestore
gsave
/o {
gsave
newpath
translate
1.0 setlinewidth
1 setlinejoin
0 setlinecap
0 0 m
0 -5 l

gsave
0.000 setgray
fill
grestore
stroke
grestore
} bind def
121.5 162 o
grestore
gsave
118.320312 15.906250 translate
0.000000 rotate
0.000000 0.000000 m /five glyphshow
grestore
0.800 setlinewidth
2 setlinecap
0.690 setgray
gsave
432 135 54 27 clipbox
189 27 m
189 162 l
stroke
grestore
1.000 setlinewidth
0 setlinecap
0.000 setgray
gsave
/o {
gsave
newpath
translate
1.0 setlinewidth
1 setlinejoin
0 setlinecap
0 0 m
0 5 l

gsave
0.000 setgray
fill
grestore
stroke
grestore
} bind def
189 27 o
grestore
gsave
/o {
gsave
newpath
translate
1.0 setlinewidth
1 setlinejoin
0 setlinecap
0 0 m
0 -5 l

gsave
0.000 setgray
fill
grestore
stroke
grestore
} bind def
189 162 o
grestore
gsave
182.640625 15.906250 translate
0.000000 rotate
0.000000 0.000000 m /one glyphshow
6.362305 0.000000 m /zero glyphshow
grestore
0.800 setlinewidth
2 setlinecap
0.690 setgray
gsave
432 135 54 27 clipbox
256.5 27 m
256.5 162 l
stroke
grestore
1.000 setlinewidth
0 setlinecap
0.000 setgray
gsave
/o {
gsave
newpath
translate
1.0 setlinewidth
1 setlinejoin
0 setlinecap
0 0 m
0 5 l

gsave
0.000 setgray
fill
grestore
stroke
grestore
} bind def
256.5 27 o
grestore
gsave
/o {
gsave
newpath
translate
1.0 setlinewidth
1 setlinejoin
0 setlinecap
0 0 m
0 -5 l

gsave
0.000 setgray
fill
grestore
stroke
grestore
} bind def
256.5 162 o
grestore
gsave
250.140625 15.906250 translate
0.000000 rotate
0.000000 0.000000 m /one glyphshow
6.362305 0.000000 m /five glyphshow
grestore
0.800 setlinewidth
2 setlinecap
0.690 setgray
gsave
432 135 54 27 clipbox
324 27 m
324 162 l
stroke
grestore
1.000 setlinewidth
0 setlinecap
0.000 setgray
gsave
/o {
gsave
newpath
translate
1.0 setlinewidth
1 setlinejoin
0 setlinecap
0 0 m
0 5 l

gsave
0.000 setgray
fill
grestore
stroke
grestore
} bind def
324 27 o
grestore
gsave
/o {
gsave
newpath
translate
1.0 setlinewidth
1 setlinejoin
0 setlinecap
0 0 m
0 -5 l

gsave
0.000 setgray
fill
grestore
stroke
grestore
} bind def
324 162 o
grestore
gsave
317.640625 15.906250 translate
0.000000 rotate
0.000000 0.000000 m /two glyphshow
6.362305 0.000000 m /zero glyphshow
grestore
0.800 setlinewidth
2 setlinecap
0.690 setgray
gsave
432 135 54 27 clipbox
391.5 27 m
391.5 162 l
stroke
grestore
1.000 setlinewidth
0 setlinecap
0.000 setgray
gsave
/o {
gsave
newpath
translate
1.0 setlinewidth
1 setlinejoin
0 setlinecap
0 0 m
0 5 l

gsave
0.000 setgray
fill
grestore
stroke
grestore
} bind def
391.5 27 o
grestore
gsave
/o {
gsave
newpath
translate
1.0 setlinewidth
1 setlinejoin
0 setlinecap
0 0 m
0 -5 l

gsave
0.000 setgray
fill
grestore
stroke
grestore
} bind def
391.5 162 o
grestore
gsave
385.140625 15.906250 translate
0.000000 rotate
0.000000 0.000000 m /two glyphshow
6.362305 0.000000 m /five glyphshow
grestore
0.800 setlinewidth
2 setlinecap
0.690 setgray
gsave
432 135 54 27 clipbox
459 27 m
459 162 l
stroke
grestore
1.000 setlinewidth
0 setlinecap
0.000 setgray
gsave
/o {
gsave
newpath
translate
1.0 setlinewidth
1 setlinejoin
0 setlinecap
0 0 m
0 5 l

gsave
0.000 setgray
fill
grestore
stroke
grestore
} bind def
459 27 o
grestore
gsave
/o {
gsave
newpath
translate
1.0 setlinewidth
1 setlinejoin
0 setlinecap
0 0 m
0 -5 l

gsave
0.000 setgray
fill
grestore
stroke
grestore
} bind def
459 162 o
grestore
gsave
452.640625 15.906250 translate
0.000000 rotate
0.000000 0.000000 m /three glyphshow
6.362305 0.000000 m /zero glyphshow
grestore
0.700 setlinewidth
gsave
/o {
gsave
newpath
translate
0.7 setlinewidth
1 setlinejoin
0 setlinecap
0 0 m
0 3 l

gsave
0.000 setgray
fill
grestore
stroke
grestore
} bind def
67.5 27 o
grestore
gsave
/o {
gsave
newpath
translate
0.7 setlinewidth
1 setlinejoin
0 setlinecap
0 0 m
0 -3 l

gsave
0.000 setgray
fill
grestore
stroke
grestore
} bind def
67.5 162 o
grestore
gsave
/o {
gsave
newpath
translate
0.7 setlinewidth
1 setlinejoin
0 setlinecap
0 0 m
0 3 l

gsave
0.000 setgray
fill
grestore
stroke
grestore
} bind def
81 27 o
grestore
gsave
/o {
gsave
newpath
translate
0.7 setlinewidth
1 setlinejoin
0 setlinecap
0 0 m
0 -3 l

gsave
0.000 setgray
fill
grestore
stroke
grestore
} bind def
81 162 o
grestore
gsave
/o {
gsave
newpath
translate
0.7 setlinewidth
1 setlinejoin
0 setlinecap
0 0 m
0 3 l

gsave
0.000 setgray
fill
grestore
stroke
grestore
} bind def
94.5 27 o
grestore
gsave
/o {
gsave
newpath
translate
0.7 setlinewidth
1 setlinejoin
0 setlinecap
0 0 m
0 -3 l

gsave
0.000 setgray
fill
grestore
stroke
grestore
} bind def
94.5 162 o
grestore
gsave
/o {
gsave
newpath
translate
0.7 setlinewidth
1 setlinejoin
0 setlinecap
0 0 m
0 3 l

gsave
0.000 setgray
fill
grestore
stroke
grestore
} bind def
108 27 o
grestore
gsave
/o {
gsave
newpath
translate
0.7 setlinewidth
1 setlinejoin
0 setlinecap
0 0 m
0 -3 l

gsave
0.000 setgray
fill
grestore
stroke
grestore
} bind def
108 162 o
grestore
gsave
/o {
gsave
newpath
translate
0.7 setlinewidth
1 setlinejoin
0 setlinecap
0 0 m
0 3 l

gsave
0.000 setgray
fill
grestore
stroke
grestore
} bind def
135 27 o
grestore
gsave
/o {
gsave
newpath
translate
0.7 setlinewidth
1 setlinejoin
0 setlinecap
0 0 m
0 -3 l

gsave
0.000 setgray
fill
grestore
stroke
grestore
} bind def
135 162 o
grestore
gsave
/o {
gsave
newpath
translate
0.7 setlinewidth
1 setlinejoin
0 setlinecap
0 0 m
0 3 l

gsave
0.000 setgray
fill
grestore
stroke
grestore
} bind def
148.5 27 o
grestore
gsave
/o {
gsave
newpath
translate
0.7 setlinewidth
1 setlinejoin
0 setlinecap
0 0 m
0 -3 l

gsave
0.000 setgray
fill
grestore
stroke
grestore
} bind def
148.5 162 o
grestore
gsave
/o {
gsave
newpath
translate
0.7 setlinewidth
1 setlinejoin
0 setlinecap
0 0 m
0 3 l

gsave
0.000 setgray
fill
grestore
stroke
grestore
} bind def
162 27 o
grestore
gsave
/o {
gsave
newpath
translate
0.7 setlinewidth
1 setlinejoin
0 setlinecap
0 0 m
0 -3 l

gsave
0.000 setgray
fill
grestore
stroke
grestore
} bind def
162 162 o
grestore
gsave
/o {
gsave
newpath
translate
0.7 setlinewidth
1 setlinejoin
0 setlinecap
0 0 m
0 3 l

gsave
0.000 setgray
fill
grestore
stroke
grestore
} bind def
175.5 27 o
grestore
gsave
/o {
gsave
newpath
translate
0.7 setlinewidth
1 setlinejoin
0 setlinecap
0 0 m
0 -3 l

gsave
0.000 setgray
fill
grestore
stroke
grestore
} bind def
175.5 162 o
grestore
gsave
/o {
gsave
newpath
translate
0.7 setlinewidth
1 setlinejoin
0 setlinecap
0 0 m
0 3 l

gsave
0.000 setgray
fill
grestore
stroke
grestore
} bind def
202.5 27 o
grestore
gsave
/o {
gsave
newpath
translate
0.7 setlinewidth
1 setlinejoin
0 setlinecap
0 0 m
0 -3 l

gsave
0.000 setgray
fill
grestore
stroke
grestore
} bind def
202.5 162 o
grestore
gsave
/o {
gsave
newpath
translate
0.7 setlinewidth
1 setlinejoin
0 setlinecap
0 0 m
0 3 l

gsave
0.000 setgray
fill
grestore
stroke
grestore
} bind def
216 27 o
grestore
gsave
/o {
gsave
newpath
translate
0.7 setlinewidth
1 setlinejoin
0 setlinecap
0 0 m
0 -3 l

gsave
0.000 setgray
fill
grestore
stroke
grestore
} bind def
216 162 o
grestore
gsave
/o {
gsave
newpath
translate
0.7 setlinewidth
1 setlinejoin
0 setlinecap
0 0 m
0 3 l

gsave
0.000 setgray
fill
grestore
stroke
grestore
} bind def
229.5 27 o
grestore
gsave
/o {
gsave
newpath
translate
0.7 setlinewidth
1 setlinejoin
0 setlinecap
0 0 m
0 -3 l

gsave
0.000 setgray
fill
grestore
stroke
grestore
} bind def
229.5 162 o
grestore
gsave
/o {
gsave
newpath
translate
0.7 setlinewidth
1 setlinejoin
0 setlinecap
0 0 m
0 3 l

gsave
0.000 setgray
fill
grestore
stroke
grestore
} bind def
243 27 o
grestore
gsave
/o {
gsave
newpath
translate
0.7 setlinewidth
1 setlinejoin
0 setlinecap
0 0 m
0 -3 l

gsave
0.000 setgray
fill
grestore
stroke
grestore
} bind def
243 162 o
grestore
gsave
/o {
gsave
newpath
translate
0.7 setlinewidth
1 setlinejoin
0 setlinecap
0 0 m
0 3 l

gsave
0.000 setgray
fill
grestore
stroke
grestore
} bind def
270 27 o
grestore
gsave
/o {
gsave
newpath
translate
0.7 setlinewidth
1 setlinejoin
0 setlinecap
0 0 m
0 -3 l

gsave
0.000 setgray
fill
grestore
stroke
grestore
} bind def
270 162 o
grestore
gsave
/o {
gsave
newpath
translate
0.7 setlinewidth
1 setlinejoin
0 setlinecap
0 0 m
0 3 l

gsave
0.000 setgray
fill
grestore
stroke
grestore
} bind def
283.5 27 o
grestore
gsave
/o {
gsave
newpath
translate
0.7 setlinewidth
1 setlinejoin
0 setlinecap
0 0 m
0 -3 l

gsave
0.000 setgray
fill
grestore
stroke
grestore
} bind def
283.5 162 o
grestore
gsave
/o {
gsave
newpath
translate
0.7 setlinewidth
1 setlinejoin
0 setlinecap
0 0 m
0 3 l

gsave
0.000 setgray
fill
grestore
stroke
grestore
} bind def
297 27 o
grestore
gsave
/o {
gsave
newpath
translate
0.7 setlinewidth
1 setlinejoin
0 setlinecap
0 0 m
0 -3 l

gsave
0.000 setgray
fill
grestore
stroke
grestore
} bind def
297 162 o
grestore
gsave
/o {
gsave
newpath
translate
0.7 setlinewidth
1 setlinejoin
0 setlinecap
0 0 m
0 3 l

gsave
0.000 setgray
fill
grestore
stroke
grestore
} bind def
310.5 27 o
grestore
gsave
/o {
gsave
newpath
translate
0.7 setlinewidth
1 setlinejoin
0 setlinecap
0 0 m
0 -3 l

gsave
0.000 setgray
fill
grestore
stroke
grestore
} bind def
310.5 162 o
grestore
gsave
/o {
gsave
newpath
translate
0.7 setlinewidth
1 setlinejoin
0 setlinecap
0 0 m
0 3 l

gsave
0.000 setgray
fill
grestore
stroke
grestore
} bind def
337.5 27 o
grestore
gsave
/o {
gsave
newpath
translate
0.7 setlinewidth
1 setlinejoin
0 setlinecap
0 0 m
0 -3 l

gsave
0.000 setgray
fill
grestore
stroke
grestore
} bind def
337.5 162 o
grestore
gsave
/o {
gsave
newpath
translate
0.7 setlinewidth
1 setlinejoin
0 setlinecap
0 0 m
0 3 l

gsave
0.000 setgray
fill
grestore
stroke
grestore
} bind def
351 27 o
grestore
gsave
/o {
gsave
newpath
translate
0.7 setlinewidth
1 setlinejoin
0 setlinecap
0 0 m
0 -3 l

gsave
0.000 setgray
fill
grestore
stroke
grestore
} bind def
351 162 o
grestore
gsave
/o {
gsave
newpath
translate
0.7 setlinewidth
1 setlinejoin
0 setlinecap
0 0 m
0 3 l

gsave
0.000 setgray
fill
grestore
stroke
grestore
} bind def
364.5 27 o
grestore
gsave
/o {
gsave
newpath
translate
0.7 setlinewidth
1 setlinejoin
0 setlinecap
0 0 m
0 -3 l

gsave
0.000 setgray
fill
grestore
stroke
grestore
} bind def
364.5 162 o
grestore
gsave
/o {
gsave
newpath
translate
0.7 setlinewidth
1 setlinejoin
0 setlinecap
0 0 m
0 3 l

gsave
0.000 setgray
fill
grestore
stroke
grestore
} bind def
378 27 o
grestore
gsave
/o {
gsave
newpath
translate
0.7 setlinewidth
1 setlinejoin
0 setlinecap
0 0 m
0 -3 l

gsave
0.000 setgray
fill
grestore
stroke
grestore
} bind def
378 162 o
grestore
gsave
/o {
gsave
newpath
translate
0.7 setlinewidth
1 setlinejoin
0 setlinecap
0 0 m
0 3 l

gsave
0.000 setgray
fill
grestore
stroke
grestore
} bind def
405 27 o
grestore
gsave
/o {
gsave
newpath
translate
0.7 setlinewidth
1 setlinejoin
0 setlinecap
0 0 m
0 -3 l

gsave
0.000 setgray
fill
grestore
stroke
grestore
} bind def
405 162 o
grestore
gsave
/o {
gsave
newpath
translate
0.7 setlinewidth
1 setlinejoin
0 setlinecap
0 0 m
0 3 l

gsave
0.000 setgray
fill
grestore
stroke
grestore
} bind def
418.5 27 o
grestore
gsave
/o {
gsave
newpath
translate
0.7 setlinewidth
1 setlinejoin
0 setlinecap
0 0 m
0 -3 l

gsave
0.000 setgray
fill
grestore
stroke
grestore
} bind def
418.5 162 o
grestore
gsave
/o {
gsave
newpath
translate
0.7 setlinewidth
1 setlinejoin
0 setlinecap
0 0 m
0 3 l

gsave
0.000 setgray
fill
grestore
stroke
grestore
} bind def
432 27 o
grestore
gsave
/o {
gsave
newpath
translate
0.7 setlinewidth
1 setlinejoin
0 setlinecap
0 0 m
0 -3 l

gsave
0.000 setgray
fill
grestore
stroke
grestore
} bind def
432 162 o
grestore
gsave
/o {
gsave
newpath
translate
0.7 setlinewidth
1 setlinejoin
0 setlinecap
0 0 m
0 3 l

gsave
0.000 setgray
fill
grestore
stroke
grestore
} bind def
445.5 27 o
grestore
gsave
/o {
gsave
newpath
translate
0.7 setlinewidth
1 setlinejoin
0 setlinecap
0 0 m
0 -3 l

gsave
0.000 setgray
fill
grestore
stroke
grestore
} bind def
445.5 162 o
grestore
gsave
/o {
gsave
newpath
translate
0.7 setlinewidth
1 setlinejoin
0 setlinecap
0 0 m
0 3 l

gsave
0.000 setgray
fill
grestore
stroke
grestore
} bind def
472.5 27 o
grestore
gsave
/o {
gsave
newpath
translate
0.7 setlinewidth
1 setlinejoin
0 setlinecap
0 0 m
0 -3 l

gsave
0.000 setgray
fill
grestore
stroke
grestore
} bind def
472.5 162 o
grestore
gsave
/o {
gsave
newpath
translate
0.7 setlinewidth
1 setlinejoin
0 setlinecap
0 0 m
0 3 l

gsave
0.000 setgray
fill
grestore
stroke
grestore
} bind def
486 27 o
grestore
gsave
/o {
gsave
newpath
translate
0.7 setlinewidth
1 setlinejoin
0 setlinecap
0 0 m
0 -3 l

gsave
0.000 setgray
fill
grestore
stroke
grestore
} bind def
486 162 o
grestore
gsave
252.000000 2.828125 translate
0.000000 rotate
/DejaVuSans-Oblique findfont
14.0 scalefont
setfont
0.000000 0.359375 moveto
/z glyphshow

/DejaVuSerif findfont
14.0 scalefont
setfont
7.348633 0.359375 moveto
/space glyphshow

11.798828 0.359375 moveto
/parenleft glyphshow

17.260742 0.359375 moveto
/m glyphshow

30.536133 0.359375 moveto
/parenright glyphshow


grestore
0.800 setlinewidth
2 setlinecap
0.690 setgray
gsave
432 135 54 27 clipbox
54 27 m
486 27 l
stroke
grestore
1.000 setlinewidth
0 setlinecap
0.000 setgray
gsave
/o {
gsave
newpath
translate
1.0 setlinewidth
1 setlinejoin
0 setlinecap
0 0 m
5 0 l

gsave
0.000 setgray
fill
grestore
stroke
grestore
} bind def
54 27 o
grestore
gsave
44.140625 23.203125 translate
0.000000 rotate
0.000000 0.000000 m /zero glyphshow
grestore
0.800 setlinewidth
2 setlinecap
0.690 setgray
gsave
432 135 54 27 clipbox
54 54 m
486 54 l
stroke
grestore
1.000 setlinewidth
0 setlinecap
0.000 setgray
gsave
/o {
gsave
newpath
translate
1.0 setlinewidth
1 setlinejoin
0 setlinecap
0 0 m
5 0 l

gsave
0.000 setgray
fill
grestore
stroke
grestore
} bind def
54 54 o
grestore
gsave
44.140625 50.203125 translate
0.000000 rotate
0.000000 0.000000 m /one glyphshow
grestore
0.800 setlinewidth
2 setlinecap
0.690 setgray
gsave
432 135 54 27 clipbox
54 81 m
486 81 l
stroke
grestore
1.000 setlinewidth
0 setlinecap
0.000 setgray
gsave
/o {
gsave
newpath
translate
1.0 setlinewidth
1 setlinejoin
0 setlinecap
0 0 m
5 0 l

gsave
0.000 setgray
fill
grestore
stroke
grestore
} bind def
54 81 o
grestore
gsave
44.140625 77.203125 translate
0.000000 rotate
0.000000 0.000000 m /two glyphshow
grestore
0.800 setlinewidth
2 setlinecap
0.690 setgray
gsave
432 135 54 27 clipbox
54 108 m
486 108 l
stroke
grestore
1.000 setlinewidth
0 setlinecap
0.000 setgray
gsave
/o {
gsave
newpath
translate
1.0 setlinewidth
1 setlinejoin
0 setlinecap
0 0 m
5 0 l

gsave
0.000 setgray
fill
grestore
stroke
grestore
} bind def
54 108 o
grestore
gsave
44.140625 104.203125 translate
0.000000 rotate
0.000000 0.000000 m /three glyphshow
grestore
0.800 setlinewidth
2 setlinecap
0.690 setgray
gsave
432 135 54 27 clipbox
54 135 m
486 135 l
stroke
grestore
1.000 setlinewidth
0 setlinecap
0.000 setgray
gsave
/o {
gsave
newpath
translate
1.0 setlinewidth
1 setlinejoin
0 setlinecap
0 0 m
5 0 l

gsave
0.000 setgray
fill
grestore
stroke
grestore
} bind def
54 135 o
grestore
gsave
44.140625 131.203125 translate
0.000000 rotate
0.000000 0.000000 m /four glyphshow
grestore
0.800 setlinewidth
2 setlinecap
0.690 setgray
gsave
432 135 54 27 clipbox
54 162 m
486 162 l
stroke
grestore
1.000 setlinewidth
0 setlinecap
0.000 setgray
gsave
/o {
gsave
newpath
translate
1.0 setlinewidth
1 setlinejoin
0 setlinecap
0 0 m
5 0 l

gsave
0.000 setgray
fill
grestore
stroke
grestore
} bind def
54 162 o
grestore
gsave
44.140625 158.203125 translate
0.000000 rotate
0.000000 0.000000 m /five glyphshow
grestore
0.700 setlinewidth
gsave
/o {
gsave
newpath
translate
0.7 setlinewidth
1 setlinejoin
0 setlinecap
0 0 m
3 0 l

gsave
0.000 setgray
fill
grestore
stroke
grestore
} bind def
54 32.4 o
grestore
gsave
/o {
gsave
newpath
translate
0.7 setlinewidth
1 setlinejoin
0 setlinecap
0 0 m
3 0 l

gsave
0.000 setgray
fill
grestore
stroke
grestore
} bind def
54 37.8 o
grestore
gsave
/o {
gsave
newpath
translate
0.7 setlinewidth
1 setlinejoin
0 setlinecap
0 0 m
3 0 l

gsave
0.000 setgray
fill
grestore
stroke
grestore
} bind def
54 43.2 o
grestore
gsave
/o {
gsave
newpath
translate
0.7 setlinewidth
1 setlinejoin
0 setlinecap
0 0 m
3 0 l

gsave
0.000 setgray
fill
grestore
stroke
grestore
} bind def
54 48.6 o
grestore
gsave
/o {
gsave
newpath
translate
0.7 setlinewidth
1 setlinejoin
0 setlinecap
0 0 m
3 0 l

gsave
0.000 setgray
fill
grestore
stroke
grestore
} bind def
54 59.4 o
grestore
gsave
/o {
gsave
newpath
translate
0.7 setlinewidth
1 setlinejoin
0 setlinecap
0 0 m
3 0 l

gsave
0.000 setgray
fill
grestore
stroke
grestore
} bind def
54 64.8 o
grestore
gsave
/o {
gsave
newpath
translate
0.7 setlinewidth
1 setlinejoin
0 setlinecap
0 0 m
3 0 l

gsave
0.000 setgray
fill
grestore
stroke
grestore
} bind def
54 70.2 o
grestore
gsave
/o {
gsave
newpath
translate
0.7 setlinewidth
1 setlinejoin
0 setlinecap
0 0 m
3 0 l

gsave
0.000 setgray
fill
grestore
stroke
grestore
} bind def
54 75.6 o
grestore
gsave
/o {
gsave
newpath
translate
0.7 setlinewidth
1 setlinejoin
0 setlinecap
0 0 m
3 0 l

gsave
0.000 setgray
fill
grestore
stroke
grestore
} bind def
54 86.4 o
grestore
gsave
/o {
gsave
newpath
translate
0.7 setlinewidth
1 setlinejoin
0 setlinecap
0 0 m
3 0 l

gsave
0.000 setgray
fill
grestore
stroke
grestore
} bind def
54 91.8 o
grestore
gsave
/o {
gsave
newpath
translate
0.7 setlinewidth
1 setlinejoin
0 setlinecap
0 0 m
3 0 l

gsave
0.000 setgray
fill
grestore
stroke
grestore
} bind def
54 97.2 o
grestore
gsave
/o {
gsave
newpath
translate
0.7 setlinewidth
1 setlinejoin
0 setlinecap
0 0 m
3 0 l

gsave
0.000 setgray
fill
grestore
stroke
grestore
} bind def
54 102.6 o
grestore
gsave
/o {
gsave
newpath
translate
0.7 setlinewidth
1 setlinejoin
0 setlinecap
0 0 m
3 0 l

gsave
0.000 setgray
fill
grestore
stroke
grestore
} bind def
54 113.4 o
grestore
gsave
/o {
gsave
newpath
translate
0.7 setlinewidth
1 setlinejoin
0 setlinecap
0 0 m
3 0 l

gsave
0.000 setgray
fill
grestore
stroke
grestore
} bind def
54 118.8 o
grestore
gsave
/o {
gsave
newpath
translate
0.7 setlinewidth
1 setlinejoin
0 setlinecap
0 0 m
3 0 l

gsave
0.000 setgray
fill
grestore
stroke
grestore
} bind def
54 124.2 o
grestore
gsave
/o {
gsave
newpath
translate
0.7 setlinewidth
1 setlinejoin
0 setlinecap
0 0 m
3 0 l

gsave
0.000 setgray
fill
grestore
stroke
grestore
} bind def
54 129.6 o
grestore
gsave
/o {
gsave
newpath
translate
0.7 setlinewidth
1 setlinejoin
0 setlinecap
0 0 m
3 0 l

gsave
0.000 setgray
fill
grestore
stroke
grestore
} bind def
54 140.4 o
grestore
gsave
/o {
gsave
newpath
translate
0.7 setlinewidth
1 setlinejoin
0 setlinecap
0 0 m
3 0 l

gsave
0.000 setgray
fill
grestore
stroke
grestore
} bind def
54 145.8 o
grestore
gsave
/o {
gsave
newpath
translate
0.7 setlinewidth
1 setlinejoin
0 setlinecap
0 0 m
3 0 l

gsave
0.000 setgray
fill
grestore
stroke
grestore
} bind def
54 151.2 o
grestore
gsave
/o {
gsave
newpath
translate
0.7 setlinewidth
1 setlinejoin
0 setlinecap
0 0 m
3 0 l

gsave
0.000 setgray
fill
grestore
stroke
grestore
} bind def
54 156.6 o
grestore
gsave
29.140625 46.000000 translate
90.000000 rotate
/DejaVuSans-Oblique findfont
14.0 scalefont
setfont
0.000000 0.359375 moveto
/sigma glyphshow

/DejaVuSans-Oblique findfont
9.8 scalefont
setfont
8.873047 -1.937500 moveto
/x glyphshow

/DejaVuSerif findfont
14.0 scalefont
setfont
15.055469 0.359375 moveto
/space glyphshow

19.505664 0.359375 moveto
/o glyphshow

27.934375 0.359375 moveto
/r glyphshow

34.626758 0.359375 moveto
/space glyphshow

/DejaVuSans-Oblique findfont
14.0 scalefont
setfont
39.076953 0.359375 moveto
/sigma glyphshow

/DejaVuSans-Oblique findfont
9.8 scalefont
setfont
47.950000 -1.937500 moveto
/y glyphshow

/DejaVuSerif findfont
14.0 scalefont
setfont
54.132422 0.359375 moveto
/space glyphshow

58.582617 0.359375 moveto
/parenleft glyphshow

64.044531 0.359375 moveto
/m glyphshow

77.319922 0.359375 moveto
/m glyphshow

90.595313 0.359375 moveto
/parenright glyphshow


grestore
2.000 setlinewidth
2 setlinecap
1.000 0.000 0.000 setrgbcolor
gsave
432 135 54 27 clipbox
54.268799 66.5091 m
54.54 72.7218 l
55.349069 103.5207 l
55.62 105.5241 l
55.888785 105.0813 l
56.16 105.8373 l
56.42946 109.4607 l
57.51 130.6422 l
58.05 136.62 l
58.32 138.2508 l
58.59 139.1688 l
58.86 139.5792 l
59.13 139.6602 l
59.67 139.3173 l
60.75 138.0267 l
63.72 134.3952 l
65.88 132.1299 l
68.04 130.2102 l
70.2 128.6442 l
72.09 127.5696 l
73.71 126.8649 l
75.6 126.3006 l
77.49 126.0144 l
79.38 126.0063 l
81 126.2169 l
82.62 126.63 l
84.24 127.2402 l
86.13 128.2041 l
88.02 129.4299 l
89.91 130.9149 l
91.26 131.9436 l
91.53 130.9986 l
92.07 128.0475 l
92.34 127.5966 l
92.61 127.7802 l
92.88 127.602 l
93.42 125.2017 l
93.69 124.0731 l
93.96 123.8922 l
94.23 124.0353 l
94.5 123.6654 l
95.31 120.555 l
95.85 120.5928 l
96.12 120.069 l
96.93 117.396 l
97.47 117.396 l
97.74 116.7669 l
98.28 114.8472 l
98.55 114.5178 l
98.82 114.5772 l
99.09 114.4098 l
99.63 112.7952 l
99.9 112.0257 l
100.17 111.861 l
100.44 111.9015 l
100.71 111.618 l
101.52 109.4472 l
102.06 109.3824 l
102.33 108.9963 l
103.14 107.0766 l
103.68 106.9956 l
103.95 106.5339 l
104.49 105.1353 l
104.76 104.8707 l
105.03 104.8734 l
105.3 104.7249 l
105.84 103.5315 l
106.11 102.951 l
106.38 102.7998 l
106.65 102.7971 l
106.92 102.5676 l
107.73 100.9233 l
108.27 100.8153 l
108.54 100.5129 l
109.35 99.0279 l
109.89 98.9145 l
110.16 98.5554 l
110.7 97.47 l
110.97 97.2459 l
111.51 97.0893 l
112.59 95.5503 l
116.64 95.0913 l
122.04 94.6566 l
125.01 94.5054 l
125.01 94.5054 l
stroke
grestore
0 setlinecap
[7.4 3.2] 0 setdash
0.000 0.000 1.000 setrgbcolor
gsave
432 135 54 27 clipbox
54.268799 66.5091 m
54.54 72.7218 l
55.349069 103.5207 l
55.62 105.5241 l
55.888785 105.0813 l
56.16 105.8373 l
56.42946 109.4607 l
57.51 130.6449 l
58.05 136.62 l
58.32 138.2508 l
58.59 139.1688 l
58.86 139.5792 l
59.13 139.6602 l
59.67 139.3173 l
60.75 138.0267 l
63.72 134.3952 l
65.88 132.1299 l
67.77 130.4316 l
69.93 128.8224 l
71.82 127.7073 l
73.71 126.8649 l
75.33 126.3654 l
77.22 126.0414 l
78.84 125.982 l
80.73 126.1683 l
82.62 126.63 l
84.51 127.3644 l
86.4 128.3634 l
88.29 129.627 l
90.18 131.1498 l
90.99 131.9112 l
91.26 131.9463 l
91.53 131.0013 l
92.07 128.0475 l
92.34 127.5966 l
92.61 127.7829 l
92.88 127.6047 l
93.42 125.2017 l
93.69 124.0758 l
93.96 123.8949 l
94.23 124.038 l
94.5 123.6654 l
95.31 120.5577 l
95.85 120.5928 l
96.12 120.0717 l
96.93 117.3987 l
97.47 117.396 l
97.74 116.7696 l
98.28 114.8499 l
98.55 114.5205 l
98.82 114.5772 l
99.09 114.4125 l
99.63 112.7979 l
99.9 112.0257 l
100.17 111.861 l
100.44 111.9042 l
100.71 111.618 l
101.52 109.4472 l
102.06 109.3851 l
102.33 108.9963 l
103.14 107.0766 l
103.68 106.9956 l
103.95 106.5366 l
104.49 105.138 l
104.76 104.8707 l
105.03 104.8734 l
105.3 104.7276 l
105.84 103.5315 l
106.11 102.951 l
106.38 102.8025 l
106.65 102.7971 l
106.92 102.5676 l
107.73 100.9233 l
108.27 100.8153 l
108.54 100.5129 l
109.35 99.0279 l
109.89 98.9145 l
110.16 98.5554 l
110.7 97.47 l
110.97 97.2459 l
111.51 97.0893 l
112.05 96.1551 l
112.32 95.6934 l
112.86 95.5125 l
119.07 94.8726 l
125.01 94.5054 l
125.01 94.5054 l
stroke
grestore
[12.8 3.2 2 3.2] 0 setdash
0.000 0.500 0.000 setrgbcolor
gsave
432 135 54 27 clipbox

stroke
grestore
2 setlinecap
[] 0 setdash
1.000 0.000 0.000 setrgbcolor
gsave
432 135 54 27 clipbox
125.28 94.4946 m
130.68 94.3812 l
132.84 94.446 l
133.11 94.5918 l
133.92 95.6043 l
140.94 105.4782 l
146.88 113.9616 l
147.15 114.0291 l
147.69 113.3649 l
164.43 86.7861 l
164.97 86.4189 l
168.21 85.0068 l
173.61 82.8522 l
178.74 81.0162 l
183.6 79.4745 l
188.46 78.1272 l
193.32 76.977 l
198.99 75.8916 l
203.58 75.2139 l
209.25 74.6361 l
213.84 74.3742 l
219.51 74.3067 l
222.21 74.304 l
222.75 73.8747 l
228.15 67.4973 l
234.63 60.1452 l
237.6 56.9808 l
237.87 56.889 l
238.68 57.1617 l
243.81 59.5836 l
249.21 62.4078 l
252.99 64.4922 l
253.53 64.3869 l
257.31 62.2593 l
261.63 59.9994 l
266.49 57.7368 l
270.27 56.1924 l
274.32 54.7695 l
278.1 53.6706 l
281.88 52.80525 l
285.39 52.22502 l
288.9 51.87051 l
292.41 51.74982 l
295.65 51.84783 l
299.16 52.18074 l
300.537 52.37541 l
300.537 52.37541 l
stroke
grestore
0 setlinecap
[7.4 3.2] 0 setdash
0.000 0.000 1.000 setrgbcolor
gsave
432 135 54 27 clipbox
125.28 94.4946 m
133.11 94.1949 l
133.92 93.2121 l
142.56 81.8937 l
146.88 76.4937 l
147.15 76.3452 l
147.69 76.5018 l
150.93 78.246 l
156.06 81.1836 l
161.73 84.6477 l
164.43 86.2785 l
164.97 86.1759 l
176.04 81.9774 l
181.17 80.3493 l
187.11 78.7347 l
193.32 77.3577 l
197.91 76.545 l
202.77 75.8781 l
208.44 75.3597 l
214.11 75.1221 l
219.78 75.1653 l
222.21 75.3408 l
222.75 75.8322 l
225.45 79.4583 l
232.74 89.6211 l
237.6 96.444 l
237.87 96.3738 l
238.41 95.4558 l
252.99 66.6738 l
253.53 66.096 l
255.69 64.6812 l
260.55 61.749 l
264.6 59.5242 l
268.38 57.6423 l
272.43 55.8603 l
275.94 54.5265 l
279.45 53.40141 l
282.96 52.49853 l
286.47 51.8292 l
289.71 51.42636 l
292.95 51.23331 l
296.19 51.25059 l
299.7 51.50466 l
300.537 51.60078 l
300.537 51.60078 l
stroke
grestore
2 setlinecap
[] 0 setdash
1.000 0.000 0.000 setrgbcolor
gsave
432 135 54 27 clipbox
300.537 52.37541 m
303.696 52.95591 l
307.152 53.80182 l
310.608 54.8613 l
314.496 56.3004 l
317.952 57.807 l
318.384 58.1283 l
319.248 59.6997 l
324.432 70.5888 l
330.912 84.7152 l
335.232 94.2813 l
335.664 94.446 l
336.528 92.3481 l
345.168 69.012 l
351.216 53.3007 l
352.512 50.11551 l
352.944 49.45887 l
354.672 47.85831 l
358.128 44.96661 l
361.152 42.7275 l
363.744 41.06727 l
366.336 39.68811 l
368.496 38.78334 l
370.656 38.1267 l
372.816 37.73412 l
374.976 37.60668 l
377.136 37.73655 l
379.296 38.1105 l
381.456 38.70342 l
384.048 39.66759 l
386.64 40.86882 l
389.664 42.52473 l
393.12 44.69985 l
397.008 47.44791 l
401.328 50.81103 l
406.08 54.8235 l
409.536 57.807 l
409.968 57.6207 l
411.696 55.0233 l
414.72 50.48622 l
415.152 50.30883 l
415.584 51.1893 l
418.5 59.67 l
420.336 64.9296 l
420.768 65.2455 l
421.632 64.3572 l
425.952 59.3811 l
426.384 59.4594 l
427.248 58.3497 l
428.112 57.0483 l
428.976 56.3112 l
429.84 55.7118 l
431.568 53.67438 l
433.296 52.76124 l
435.024 50.74083 l
436.32 50.37471 l
436.752 50.01885 l
437.616 49.03092 l
438.048 48.75768 l
438.48 48.71772 l
439.344 48.79359 l
439.776 48.58677 l
441.072 47.29563 l
441.504 47.18331 l
442.8 47.48058 l
443.232 47.29158 l
444.096 46.61712 l
444.528 46.52019 l
444.96 46.67949 l
445.824 47.21031 l
446.256 47.19897 l
447.552 46.56366 l
447.984 46.67868 l
449.28 47.65122 l
449.712 47.64879 l
450.576 47.39418 l
451.008 47.49624 l
451.44 47.8467 l
452.304 48.73662 l
452.736 48.95532 l
454.032 49.00797 l
454.464 49.34061 l
455.76 50.77404 l
456.192 50.99112 l
457.056 51.15096 l
457.488 51.41664 l
459.216 53.39493 l
460.512 54.0648 l
461.376 55.1529 l
462.24 56.3112 l
463.104 56.8971 l
463.536 57.1428 l
463.968 57.5316 l
466.128 60.2478 l
466.992 60.9822 l
467.1 61.5816 l
467.424 61.5384 l
468.72 63.5445 l
469.584 64.3707 l
470.448 65.2131 l
471.744 66.9006 l
474.768 70.8966 l
480.816 79.2315 l
486 86.6079 l
486 86.6079 l
stroke
grestore
0 setlinecap
[7.4 3.2] 0 setdash
0.000 0.000 1.000 setrgbcolor
gsave
432 135 54 27 clipbox
300.537 51.60078 m
303.696 52.08435 l
307.152 52.8282 l
310.608 53.78751 l
314.496 55.1124 l
318.384 56.5515 l
318.816 56.2653 l
327.456 47.75841 l
331.776 43.92792 l
335.232 41.1318 l
335.664 40.96818 l
336.96 41.28597 l
339.984 42.31143 l
343.44 43.71138 l
346.896 45.33651 l
350.784 47.42226 l
352.512 48.34917 l
352.944 48.21066 l
361.152 41.89536 l
364.176 39.99753 l
366.768 38.61891 l
369.36 37.51137 l
371.52 36.82935 l
373.68 36.39465 l
375.84 36.22887 l
377.568 36.29826 l
379.728 36.6363 l
381.888 37.24164 l
384.048 38.09268 l
386.208 39.16404 l
388.8 40.70385 l
391.824 42.80013 l
394.848 45.16857 l
398.304 48.15207 l
402.192 51.80166 l
406.512 56.16 l
409.104 58.9248 l
409.536 59.4837 l
409.968 60.561 l
412.128 68.5962 l
414.72 78.2784 l
415.152 78.9048 l
415.584 77.1903 l
419.04 57.2238 l
420.336 49.84794 l
421.2 46.42623 l
425.088 33.72381 l
426.384 30.1158 l
426.816 29.063502 l
427.248 28.87812 l
428.112 30.68388 l
428.544 30.90501 l
428.976 30.39849 l
429.408 29.406321 l
429.84 28.775115 l
430.272 29.456352 l
430.704 30.43548 l
431.136 30.90987 l
431.568 30.64797 l
432.432 28.87272 l
432.864 29.122767 l
433.296 30.12876 l
433.728 30.82023 l
434.16 30.82455 l
434.592 30.13767 l
435.024 29.137617 l
435.456 28.878795 l
436.32 30.64365 l
436.752 30.90663 l
437.184 30.44736 l
437.616 29.490318 l
438.048 28.817532 l
438.48 29.400543 l
438.912 30.37284 l
439.344 30.89232 l
439.776 30.69225 l
440.64 28.960497 l
441.072 29.084157 l
441.936 30.76137 l
442.368 30.84075 l
442.8 30.23514 l
443.232 29.266245 l
443.664 28.885545 l
444.528 30.55212 l
444.96 30.89313 l
445.392 30.52566 l
446.256 28.888407 l
446.688 29.321109 l
447.12 30.27078 l
447.552 30.84129 l
447.984 30.73329 l
448.848 29.080863 l
449.28 29.039445 l
450.144 30.69954 l
450.576 30.84912 l
451.008 30.32505 l
451.44 29.395656 l
451.872 28.909008 l
452.304 29.579391 l
452.736 30.47139 l
453.168 30.86856 l
453.6 30.57453 l
454.464 28.971648 l
454.896 29.260197 l
455.328 30.17628 l
455.76 30.78972 l
456.192 30.75894 l
456.624 30.09474 l
457.056 29.189835 l
457.488 29.028726 l
458.352 30.63231 l
458.784 30.84372 l
459.216 30.37986 l
459.648 29.494962 l
460.08 28.956744 l
460.512 29.525364 l
460.944 30.3993 l
461.376 30.83589 l
461.808 30.6045 l
462.672 29.042523 l
463.104 29.251341 l
463.536 30.12471 l
463.968 30.74409 l
464.4 30.7449 l
464.832 30.12957 l
465.264 29.264544 l
465.696 29.062827 l
466.56 30.5856 l
467.1 30.76407 l
467.424 30.38472 l
467.856 29.544777 l
468.288 29.013552 l
468.72 29.525661 l
469.152 30.36744 l
469.584 30.80349 l
470.016 30.59613 l
470.88 29.112885 l
471.312 29.292381 l
471.744 30.2859 l
472.608 33.26427 l
475.632 45.11403 l
483.84 78.3648 l
486 87.2127 l
486 87.2127 l
stroke
grestore
0.800 setlinewidth
0 setlinejoin
2 setlinecap
[] 0 setdash
0.000 setgray
gsave
54 27 m
54 162 l
stroke
grestore
gsave
486 27 m
486 162 l
stroke
grestore
gsave
54 27 m
486 27 l
stroke
grestore
gsave
54 162 m
486 162 l
stroke
grestore
gsave
465.200000 151.250000 translate
0.000000 rotate
/DejaVuSerif findfont
14.0 scalefont
setfont
0.000000 0.359375 moveto
/parenleft glyphshow

/DejaVuSans-Oblique findfont
14.0 scalefont
setfont
5.461914 0.359375 moveto
/b glyphshow

/DejaVuSerif findfont
14.0 scalefont
setfont
14.348633 0.359375 moveto
/parenright glyphshow


grestore
2.000 setlinewidth
1 setlinejoin
[] 0 setdash
1.000 0.000 0.000 setrgbcolor
gsave
64.8 45 m
90 45 l
stroke
grestore
0.000 setgray
gsave
94.800000 40.800000 translate
0.000000 rotate
/DejaVuSans-Oblique findfont
12.0 scalefont
setfont
0.000000 0.437500 moveto
/x glyphshow


grestore
0 setlinecap
[7.4 3.2] 0 setdash
0.000 0.000 1.000 setrgbcolor
gsave
126.8 45 m
152 45 l
stroke
grestore
0.000 setgray
gsave
156.800000 40.800000 translate
0.000000 rotate
/DejaVuSans-Oblique findfont
12.0 scalefont
setfont
0.000000 0.437500 moveto
/y glyphshow


grestore
[12.8 3.2 2 3.2] 0 setdash
0.000 0.500 0.000 setrgbcolor
gsave
188.8 45 m
214 45 l
stroke
grestore
0.000 setgray
gsave
218.800000 40.800000 translate
0.000000 rotate
/DejaVuSans-Oblique findfont
12.0 scalefont
setfont
0.000000 0.437500 moveto
/z glyphshow


grestore
1.000 setlinewidth
[] 0 setdash
gsave
/o {
gsave
newpath
translate
1.0 setlinewidth
1 setlinejoin
0 setlinecap
0 0 m
-5 0 l

gsave
0.000 setgray
fill
grestore
stroke
grestore
} bind def
486 27 o
grestore
gsave
489.500000 23.203125 translate
0.000000 rotate
0.000000 0.000000 m /two glyphshow
6.362305 0.000000 m /period glyphshow
9.541016 0.000000 m /zero glyphshow
grestore
gsave
/o {
gsave
newpath
translate
1.0 setlinewidth
1 setlinejoin
0 setlinecap
0 0 m
-5 0 l

gsave
0.000 setgray
fill
grestore
stroke
grestore
} bind def
486 72 o
grestore
gsave
489.500000 68.203125 translate
0.000000 rotate
0.000000 0.000000 m /two glyphshow
6.362305 0.000000 m /period glyphshow
9.541016 0.000000 m /one glyphshow
grestore
gsave
/o {
gsave
newpath
translate
1.0 setlinewidth
1 setlinejoin
0 setlinecap
0 0 m
-5 0 l

gsave
0.000 setgray
fill
grestore
stroke
grestore
} bind def
486 117 o
grestore
gsave
489.500000 113.203125 translate
0.000000 rotate
0.000000 0.000000 m /two glyphshow
6.362305 0.000000 m /period glyphshow
9.541016 0.000000 m /two glyphshow
grestore
gsave
/o {
gsave
newpath
translate
1.0 setlinewidth
1 setlinejoin
0 setlinecap
0 0 m
-5 0 l

gsave
0.000 setgray
fill
grestore
stroke
grestore
} bind def
486 162 o
grestore
gsave
489.500000 158.203125 translate
0.000000 rotate
0.000000 0.000000 m /two glyphshow
6.362305 0.000000 m /period glyphshow
9.541016 0.000000 m /three glyphshow
grestore
0.700 setlinewidth
gsave
/o {
gsave
newpath
translate
0.7 setlinewidth
1 setlinejoin
0 setlinecap
0 0 m
-3 0 l

gsave
0.000 setgray
fill
grestore
stroke
grestore
} bind def
486 36 o
grestore
gsave
/o {
gsave
newpath
translate
0.7 setlinewidth
1 setlinejoin
0 setlinecap
0 0 m
-3 0 l

gsave
0.000 setgray
fill
grestore
stroke
grestore
} bind def
486 45 o
grestore
gsave
/o {
gsave
newpath
translate
0.7 setlinewidth
1 setlinejoin
0 setlinecap
0 0 m
-3 0 l

gsave
0.000 setgray
fill
grestore
stroke
grestore
} bind def
486 54 o
grestore
gsave
/o {
gsave
newpath
translate
0.7 setlinewidth
1 setlinejoin
0 setlinecap
0 0 m
-3 0 l

gsave
0.000 setgray
fill
grestore
stroke
grestore
} bind def
486 63 o
grestore
gsave
/o {
gsave
newpath
translate
0.7 setlinewidth
1 setlinejoin
0 setlinecap
0 0 m
-3 0 l

gsave
0.000 setgray
fill
grestore
stroke
grestore
} bind def
486 81 o
grestore
gsave
/o {
gsave
newpath
translate
0.7 setlinewidth
1 setlinejoin
0 setlinecap
0 0 m
-3 0 l

gsave
0.000 setgray
fill
grestore
stroke
grestore
} bind def
486 90 o
grestore
gsave
/o {
gsave
newpath
translate
0.7 setlinewidth
1 setlinejoin
0 setlinecap
0 0 m
-3 0 l

gsave
0.000 setgray
fill
grestore
stroke
grestore
} bind def
486 99 o
grestore
gsave
/o {
gsave
newpath
translate
0.7 setlinewidth
1 setlinejoin
0 setlinecap
0 0 m
-3 0 l

gsave
0.000 setgray
fill
grestore
stroke
grestore
} bind def
486 108 o
grestore
gsave
/o {
gsave
newpath
translate
0.7 setlinewidth
1 setlinejoin
0 setlinecap
0 0 m
-3 0 l

gsave
0.000 setgray
fill
grestore
stroke
grestore
} bind def
486 126 o
grestore
gsave
/o {
gsave
newpath
translate
0.7 setlinewidth
1 setlinejoin
0 setlinecap
0 0 m
-3 0 l

gsave
0.000 setgray
fill
grestore
stroke
grestore
} bind def
486 135 o
grestore
gsave
/o {
gsave
newpath
translate
0.7 setlinewidth
1 setlinejoin
0 setlinecap
0 0 m
-3 0 l

gsave
0.000 setgray
fill
grestore
stroke
grestore
} bind def
486 144 o
grestore
gsave
/o {
gsave
newpath
translate
0.7 setlinewidth
1 setlinejoin
0 setlinecap
0 0 m
-3 0 l

gsave
0.000 setgray
fill
grestore
stroke
grestore
} bind def
486 153 o
grestore
gsave
516.406250 66.000000 translate
90.000000 rotate
/DejaVuSans-Oblique findfont
14.0 scalefont
setfont
0.000000 0.359375 moveto
/sigma glyphshow

/DejaVuSans-Oblique findfont
9.8 scalefont
setfont
8.873047 -1.937500 moveto
/z glyphshow

/DejaVuSerif findfont
14.0 scalefont
setfont
14.399902 0.359375 moveto
/space glyphshow

18.850098 0.359375 moveto
/parenleft glyphshow

24.312012 0.359375 moveto
/m glyphshow

37.587402 0.359375 moveto
/m glyphshow

50.862793 0.359375 moveto
/parenright glyphshow


grestore
2.000 setlinewidth
[12.8 3.2 2 3.2] 0 setdash
0.000 0.500 0.000 setrgbcolor
gsave
432 135 54 27 clipbox
54.268799 5.76 m
54.54 37.755 l
54.809879 45.9 l
55.62 56.295 l
55.888785 57.645 l
56.16 58.32 l
57.24 59.49 l
59.67 63.405 l
61.29 65.385 l
63.18 67.725 l
66.69 72.585 l
70.47 78.435 l
73.98 84.465 l
78.03 92.115 l
81.27 98.82 l
85.32 107.82 l
88.83 116.28 l
92.34 124.83 l
93.96 127.17 l
95.31 128.43 l
96.66 129.24 l
97.47 129.555 l
98.82 129.915 l
100.71 130.14 l
103.68 130.05 l
112.32 128.52 l
113.4 128.25 l
115.29 127.845 l
116.37 127.575 l
117.99 127.215 l
119.07 126.945 l
120.96 126.54 l
122.04 126.27 l
124.2 125.82 l
125.01 125.64 l
125.01 125.64 l
stroke
grestore
gsave
432 135 54 27 clipbox
125.28 125.55 m
127.44 125.1 l
128.52 124.83 l
130.68 124.38 l
131.76 124.11 l
134.19 123.615 l
135.27 123.345 l
137.7 122.85 l
138.78 122.58 l
141.48 122.04 l
142.56 121.77 l
145.26 121.23 l
146.07 121.05 l
148.5 120.555 l
149.31 120.375 l
151.74 119.88 l
152.55 119.7 l
155.52 119.115 l
156.33 118.935 l
159.3 118.35 l
160.11 118.17 l
163.35 117.54 l
164.16 117.36 l
167.94 116.64 l
168.75 116.46 l
173.34 115.605 l
174.15 115.425 l
179.82 114.39 l
180.63 114.21 l
188.73 112.77 l
189.54 112.59 l
226.26 106.56 l
227.07 106.47 l
233.82 105.435 l
234.63 105.345 l
239.76 104.58 l
240.57 104.49 l
244.89 103.86 l
245.7 103.77 l
249.21 103.275 l
250.02 103.185 l
253.26 102.735 l
254.07 102.645 l
256.77 102.285 l
257.58 102.195 l
260.28 101.835 l
261.36 101.745 l
264.33 101.34 l
265.41 101.25 l
268.11 100.89 l
269.19 100.8 l
271.62 100.485 l
272.7 100.395 l
274.86 100.125 l
275.94 100.035 l
278.1 99.765 l
279.18 99.675 l
281.07 99.45 l
282.15 99.36 l
284.04 99.135 l
285.12 99.045 l
286.74 98.865 l
287.82 98.775 l
289.44 98.595 l
290.52 98.505 l
292.14 98.325 l
293.49 98.235 l
295.11 98.055 l
296.46 97.965 l
298.08 97.785 l
299.43 97.695 l
300.537 97.56 l
300.537 97.56 l
stroke
grestore
gsave
432 135 54 27 clipbox
300.537 97.56 m
301.968 97.47 l
308.016 96.93 l
309.312 96.84 l
313.2 96.525 l
314.496 96.435 l
317.52 96.21 l
319.248 96.12 l
322.704 95.85 l
324.432 95.76 l
327.024 95.58 l
328.752 95.49 l
330.912 95.355 l
332.64 95.265 l
334.8 95.13 l
336.96 95.04 l
339.12 94.905 l
341.28 94.815 l
343.44 94.68 l
346.032 94.59 l
347.76 94.5 l
350.352 94.41 l
352.08 94.32 l
354.672 94.23 l
356.4 94.14 l
359.856 94.05 l
361.584 93.96 l
365.904 93.87 l
367.2 93.825 l
371.952 93.735 l
373.248 93.69 l
381.888 93.6 l
383.184 93.555 l
405.648 93.645 l
406.944 93.69 l
411.696 93.78 l
412.992 93.825 l
415.584 93.915 l
417.744 94.05 l
419.472 94.14 l
421.2 94.23 l
423.792 94.32 l
425.52 94.41 l
425.952 94.41 l
426.384 90.225 l
426.816 90.72 l
427.248 91.575 l
427.68 93.105 l
428.112 94.185 l
428.544 93.915 l
429.408 91.305 l
429.84 90.81 l
430.272 91.71 l
431.136 94.77 l
431.568 95.22 l
432 94.365 l
432.432 92.925 l
432.864 91.935 l
433.296 92.16 l
433.728 93.51 l
434.16 95.265 l
434.592 96.39 l
435.024 96.255 l
435.888 93.735 l
436.32 93.285 l
436.752 94.005 l
437.616 97.425 l
438.048 97.965 l
438.48 97.245 l
439.344 94.95 l
439.776 95.175 l
440.208 96.57 l
440.64 98.37 l
441.072 99.63 l
441.504 99.585 l
441.936 98.64 l
442.368 97.29 l
442.8 96.84 l
443.232 97.695 l
444.096 101.295 l
444.528 101.97 l
444.96 101.43 l
445.824 99.225 l
446.256 99.63 l
446.688 101.07 l
447.12 103.005 l
447.552 104.355 l
447.984 104.445 l
448.848 102.285 l
449.28 101.97 l
449.712 103.05 l
450.576 106.83 l
451.008 107.595 l
451.44 107.145 l
451.872 105.93 l
452.304 105.255 l
452.736 105.66 l
453.168 107.1 l
453.6 109.26 l
454.032 110.745 l
454.464 110.835 l
455.328 108.99 l
455.76 108.945 l
456.192 109.935 l
457.056 113.76 l
457.488 114.66 l
457.92 114.3 l
458.784 112.635 l
459.216 113.13 l
459.648 114.66 l
460.512 118.35 l
460.944 118.575 l
461.808 116.955 l
462.24 116.685 l
462.672 117.855 l
463.536 121.86 l
463.968 122.85 l
464.4 122.535 l
464.832 121.545 l
465.264 120.87 l
465.696 121.365 l
466.128 122.985 l
466.56 125.235 l
466.992 126.855 l
467.1 123.435 l
467.424 127.305 l
468.288 125.505 l
468.72 125.46 l
469.152 126.585 l
470.016 130.725 l
470.448 131.76 l
470.88 131.715 l
471.312 131.265 l
471.744 133.965 l
472.608 134.235 l
486 136.935 l
486 136.935 l
stroke
grestore
0.800 setlinewidth
0 setlinejoin
2 setlinecap
[] 0 setdash
0.000 setgray
gsave
54 27 m
54 162 l
stroke
grestore
gsave
486 27 m
486 162 l
stroke
grestore
gsave
54 27 m
486 27 l
stroke
grestore
gsave
54 162 m
486 162 l
stroke
grestore

end
showpage
