%!PS-Adobe-3.0 EPSF-3.0
%%Title: I1@20m-vs-BSA@2500pC(b).eps
%%Creator: matplotlib version 2.2.2, http://matplotlib.org/
%%CreationDate: Mon Jul 29 21:31:33 2019
%%Orientation: portrait
%%BoundingBox: 162 252 450 540
%%EndComments
%%BeginProlog
/mpldict 10 dict def
mpldict begin
/m { moveto } bind def
/l { lineto } bind def
/r { rlineto } bind def
/c { curveto } bind def
/cl { closepath } bind def
/box {
m
1 index 0 r
0 exch r
neg 0 r
cl
} bind def
/clipbox {
box
clip
newpath
} bind def
%!PS-Adobe-3.0 Resource-Font
%%Title: DejaVu Serif
%%Copyright: Copyright (c) 2003 by Bitstream, Inc. All Rights Reserved. DejaVu changes are in public domain 
%%Creator: Converted from TrueType to type 3 by PPR
25 dict begin
/_d{bind def}bind def
/_m{moveto}_d
/_l{lineto}_d
/_cl{closepath eofill}_d
/_c{curveto}_d
/_sc{7 -1 roll{setcachedevice}{pop pop pop pop pop pop}ifelse}_d
/_e{exec}_d
/FontName /DejaVuSerif def
/PaintType 0 def
/FontMatrix[.001 0 0 .001 0 0]def
/FontBBox[-770 -347 2105 1109]def
/FontType 3 def
/Encoding [ /space /parenleft /parenright /period /zero /one /two /three /four /five /six /eight /A /P /S /a /e /f /i /l /m /n /o /p /s /t /y ] def
/FontInfo 10 dict dup begin
/FamilyName (DejaVu Serif) def
/FullName (DejaVu Serif) def
/Notice (Copyright (c) 2003 by Bitstream, Inc. All Rights Reserved. DejaVu changes are in public domain ) def
/Weight (Book) def
/Version (Version 2.35) def
/ItalicAngle 0.0 def
/isFixedPitch false def
/UnderlinePosition -130 def
/UnderlineThickness 90 def
end readonly def
/CharStrings 28 dict dup begin
/.notdef 0 def
/space{318 0 0 0 0 0 _sc
}_d
/parenleft{390 0 79 -155 319 760 _sc
319 -155 _m
239 -119 179 -63 139 13 _c
99 89 79 186 79 302 _c
79 418 99 514 139 591 _c
179 668 239 724 319 760 _c
319 712 _l
269 677 233 628 211 566 _c
189 503 178 415 178 302 _c
178 188 189 100 211 38 _c
233 -24 269 -72 319 -107 _c
319 -155 _l
_cl}_d
/parenright{390 0 71 -155 311 760 _sc
71 -155 _m
71 -107 _l
121 -72 157 -24 179 38 _c
201 100 212 188 212 302 _c
212 415 201 503 179 566 _c
157 628 121 677 71 712 _c
71 760 _l
150 724 210 668 250 591 _c
290 514 311 418 311 302 _c
311 186 290 89 250 13 _c
210 -63 150 -119 71 -155 _c
_cl}_d
/period{318 0 94 -13 224 116 _sc
94 51 _m
94 69 100 84 112 97 _c
124 109 140 116 159 116 _c
177 116 192 109 205 97 _c
217 84 224 69 224 51 _c
224 33 217 17 205 5 _c
192 -7 177 -13 159 -13 _c
140 -13 124 -7 112 5 _c
100 17 94 32 94 51 _c
_cl}_d
/zero{636 0 66 -13 570 742 _sc
318 34 _m
368 34 405 61 430 116 _c
454 170 467 253 467 364 _c
467 474 454 557 430 612 _c
405 666 368 694 318 694 _c
268 694 230 666 206 612 _c
181 557 169 474 169 364 _c
169 253 181 170 206 116 _c
230 61 268 34 318 34 _c
318 -13 _m
238 -13 176 20 132 86 _c
88 152 66 244 66 364 _c
66 483 88 576 132 642 _c
176 708 238 742 318 742 _c
397 742 459 708 503 642 _c
547 576 570 483 570 364 _c
570 244 547 152 503 86 _c
459 20 397 -13 318 -13 _c
_cl}_d
/one{636 0 122 0 494 742 _sc
142 0 _m
142 52 _l
269 52 _l
269 658 _l
122 563 _l
122 627 _l
300 742 _l
367 742 _l
367 52 _l
494 52 _l
494 0 _l
142 0 _l
_cl}_d
/two{{636 0 68 0 538 742 _sc
128 555 _m
73 555 _l
73 685 _l
107 703 142 717 178 727 _c
213 737 248 742 282 742 _c
358 742 418 723 462 687 _c
506 650 528 600 528 537 _c
528 465 478 380 378 281 _c
370 273 365 268 361 264 _c
177 80 _l
481 80 _l
481 170 _l
538 170 _l
538 0 _l
68 0 _l
68 53 _l
289 274 _l
337 322 372 367 393 408 _c
414 449 425 492 425 537 _c
}_e{425 586 412 624 386 652 _c
360 680 325 694 281 694 _c
234 694 198 682 173 659 _c
147 636 132 601 128 555 _c
_cl}_e}_d
/three{{636 0 76 -13 562 742 _sc
97 698 _m
135 712 171 723 206 731 _c
241 738 274 742 305 742 _c
376 742 432 726 472 696 _c
512 665 532 622 532 568 _c
532 524 518 487 490 458 _c
462 428 423 408 373 398 _c
433 389 479 367 512 332 _c
545 297 562 252 562 197 _c
562 129 539 77 493 41 _c
447 5 382 -13 296 -13 _c
258 -13 220 -9 184 -1 _c
148 6 112 18 76 35 _c
76 177 _l
}_e{131 177 _l
134 129 150 94 178 70 _c
206 46 246 34 298 34 _c
348 34 387 48 416 77 _c
444 106 459 146 459 196 _c
459 253 444 296 414 326 _c
384 355 341 370 284 370 _c
238 370 _l
238 420 _l
262 420 _l
319 420 362 431 390 455 _c
418 479 433 514 433 562 _c
433 604 421 637 398 660 _c
374 682 341 694 297 694 _c
253 694 218 683 194 662 _c
170 641 156 610 152 570 _c
}_e{97 570 _l
97 698 _l
_cl}_e}_d
/four{636 0 31 0 586 742 _sc
349 247 _m
349 635 _l
100 247 _l
349 247 _l
564 0 _m
232 0 _l
232 52 _l
349 52 _l
349 195 _l
31 195 _l
31 248 _l
350 742 _l
447 742 _l
447 247 _l
586 247 _l
586 195 _l
447 195 _l
447 52 _l
564 52 _l
564 0 _l
_cl}_d
/five{{636 0 85 -13 559 729 _sc
503 729 _m
503 649 _l
169 649 _l
169 440 _l
185 452 205 460 228 466 _c
250 472 276 475 304 475 _c
382 475 444 453 490 409 _c
536 365 559 306 559 231 _c
559 153 536 93 490 51 _c
444 8 379 -13 296 -13 _c
262 -13 228 -9 193 -1 _c
157 6 121 18 85 35 _c
85 177 _l
140 177 _l
143 130 158 94 184 70 _c
210 46 248 34 296 34 _c
}_e{347 34 386 51 414 85 _c
442 119 456 167 456 231 _c
456 294 442 342 415 376 _c
387 410 348 427 296 427 _c
266 427 240 421 218 411 _c
196 401 176 385 159 363 _c
117 363 _l
117 729 _l
503 729 _l
_cl}_e}_d
/six{{636 0 67 -13 573 742 _sc
327 34 _m
373 34 408 50 433 84 _c
457 118 470 166 470 230 _c
470 293 457 341 433 375 _c
408 409 373 426 327 426 _c
280 426 244 409 220 377 _c
196 344 184 297 184 236 _c
184 171 196 121 221 86 _c
245 51 281 34 327 34 _c
168 401 _m
190 425 215 444 243 456 _c
271 468 302 474 338 474 _c
410 474 468 452 510 408 _c
552 364 573 305 573 230 _c
}_e{573 156 550 97 505 53 _c
459 9 399 -13 323 -13 _c
241 -13 177 17 133 78 _c
89 139 67 227 67 341 _c
67 468 93 567 145 637 _c
197 707 271 742 367 742 _c
393 742 420 739 448 735 _c
476 730 505 723 535 713 _c
535 593 _l
480 593 _l
476 625 463 650 442 668 _c
421 685 393 694 357 694 _c
293 694 246 670 215 622 _c
184 574 168 500 168 401 _c
_cl}_e}_d
/eight{{636 0 67 -13 569 742 _sc
466 199 _m
466 251 453 291 427 320 _c
401 349 364 364 318 364 _c
271 364 235 349 209 320 _c
183 291 170 251 170 199 _c
170 147 183 106 209 77 _c
235 48 271 34 318 34 _c
364 34 401 48 427 77 _c
453 106 466 147 466 199 _c
446 553 _m
446 597 434 632 412 657 _c
389 681 358 694 318 694 _c
278 694 246 681 224 657 _c
201 632 190 597 190 553 _c
}_e{190 508 201 473 224 449 _c
246 424 278 412 318 412 _c
358 412 389 424 412 449 _c
434 473 446 508 446 553 _c
393 388 _m
448 380 491 360 522 327 _c
553 293 569 251 569 199 _c
569 131 547 78 504 42 _c
460 5 398 -13 318 -13 _c
237 -13 175 5 132 42 _c
88 78 67 131 67 199 _c
67 251 82 293 113 327 _c
144 360 187 380 243 388 _c
193 396 156 415 130 444 _c
}_e{104 472 91 509 91 553 _c
91 611 111 657 151 691 _c
191 725 247 742 318 742 _c
388 742 444 725 484 691 _c
524 657 545 611 545 553 _c
545 509 531 472 505 444 _c
479 415 441 396 393 388 _c
_cl}_e}_d
/A{722 0 -5 0 732 729 _sc
200 264 _m
468 264 _l
334 611 _l
200 264 _l
-5 0 _m
-5 52 _l
58 52 _l
318 729 _l
400 729 _l
660 52 _l
732 52 _l
732 0 _l
467 0 _l
467 52 _l
548 52 _l
487 212 _l
180 212 _l
119 52 _l
199 52 _l
199 0 _l
-5 0 _l
_cl}_d
/P{{673 0 55 0 637 729 _sc
247 371 _m
376 371 _l
424 371 461 384 487 410 _c
512 436 525 474 525 524 _c
525 574 512 612 487 638 _c
461 664 424 677 376 677 _c
247 677 _l
247 371 _l
55 0 _m
55 52 _l
148 52 _l
148 677 _l
55 677 _l
55 729 _l
400 729 _l
472 729 530 710 573 673 _c
615 636 637 586 637 524 _c
637 461 615 411 573 374 _c
530 337 472 319 400 319 _c
247 319 _l
}_e{247 52 _l
360 52 _l
360 0 _l
55 0 _l
_cl}_e}_d
/S{{685 0 84 -13 612 742 _sc
93 35 _m
93 201 _l
149 201 _l
150 145 166 104 197 78 _c
227 51 274 38 336 38 _c
394 38 438 49 468 72 _c
498 95 514 129 514 173 _c
514 208 504 235 486 254 _c
468 272 429 291 370 309 _c
274 338 _l
204 359 154 385 126 417 _c
98 448 84 491 84 547 _c
84 609 106 657 150 691 _c
194 725 255 742 335 742 _c
369 742 406 738 446 731 _c
}_e{486 723 529 713 575 699 _c
575 544 _l
520 544 _l
514 595 497 632 468 655 _c
439 678 395 690 337 690 _c
285 690 246 679 219 658 _c
192 637 179 607 179 567 _c
179 532 189 505 209 485 _c
229 465 272 445 338 426 _c
428 399 _l
494 379 541 353 569 323 _c
597 292 612 251 612 199 _c
612 128 589 75 544 40 _c
498 4 431 -13 342 -13 _c
302 -13 261 -9 219 -1 _c
}_e{177 6 135 18 93 35 _c
_cl}_e}_d
/a{{596 0 50 -13 568 533 _sc
398 163 _m
398 273 _l
282 273 _l
237 273 204 263 182 244 _c
160 224 150 195 150 156 _c
150 120 161 91 183 70 _c
205 48 235 38 273 38 _c
310 38 340 49 363 72 _c
386 95 398 125 398 163 _c
488 324 _m
488 52 _l
568 52 _l
568 0 _l
398 0 _l
398 56 _l
378 32 355 14 329 3 _c
303 -7 272 -13 238 -13 _c
180 -13 134 2 100 32 _c
}_e{66 62 50 104 50 156 _c
50 209 69 250 108 280 _c
146 310 201 325 272 325 _c
398 325 _l
398 361 _l
398 400 386 430 362 452 _c
338 474 304 485 261 485 _c
225 485 197 476 176 460 _c
154 444 141 420 136 388 _c
90 388 _l
90 493 _l
121 506 151 516 181 523 _c
210 529 239 533 267 533 _c
339 533 393 515 431 479 _c
469 443 488 392 488 324 _c
_cl}_e}_d
/e{{592 0 50 -13 542 533 _sc
542 250 _m
155 250 _l
155 246 _l
155 176 168 123 194 87 _c
220 51 259 34 311 34 _c
350 34 382 44 408 65 _c
433 85 451 116 461 157 _c
533 157 _l
519 100 492 57 454 29 _c
415 1 364 -13 302 -13 _c
226 -13 165 11 119 61 _c
73 111 50 177 50 260 _c
50 342 72 408 118 458 _c
163 508 222 533 296 533 _c
374 533 435 508 477 460 _c
}_e{519 412 540 342 542 250 _c
436 302 _m
434 362 421 408 397 439 _c
373 469 340 485 296 485 _c
254 485 222 469 198 438 _c
174 407 160 362 155 302 _c
436 302 _l
_cl}_e}_d
/f{{370 0 36 0 430 760 _sc
430 637 _m
383 637 _l
382 661 375 680 362 693 _c
348 705 329 712 303 712 _c
269 712 246 702 232 684 _c
218 666 212 633 212 586 _c
212 519 _l
357 519 _l
357 467 _l
212 467 _l
212 52 _l
327 52 _l
327 0 _l
36 0 _l
36 52 _l
122 52 _l
122 467 _l
36 467 _l
36 519 _l
122 519 _l
122 584 _l
122 642 137 685 167 715 _c
}_e{197 745 241 760 300 760 _c
322 760 343 758 365 754 _c
387 750 408 744 430 736 _c
430 637 _l
_cl}_e}_d
/i{320 0 36 0 297 736 _sc
97 680 _m
97 695 102 708 113 719 _c
124 730 137 736 153 736 _c
167 736 180 730 191 719 _c
202 708 208 695 208 680 _c
208 664 202 651 192 641 _c
181 630 168 625 153 625 _c
137 625 124 630 113 641 _c
102 651 97 664 97 680 _c
212 52 _m
297 52 _l
297 0 _l
36 0 _l
36 52 _l
122 52 _l
122 467 _l
36 467 _l
36 519 _l
212 519 _l
212 52 _l
_cl}_d
/l{320 0 29 0 290 760 _sc
205 52 _m
290 52 _l
290 0 _l
29 0 _l
29 52 _l
115 52 _l
115 708 _l
29 708 _l
29 760 _l
205 760 _l
205 52 _l
_cl}_d
/m{{948 0 36 0 921 533 _sc
518 418 _m
535 456 557 484 584 504 _c
611 523 642 533 678 533 _c
732 533 773 516 800 482 _c
826 448 840 398 840 330 _c
840 52 _l
921 52 _l
921 0 _l
672 0 _l
672 52 _l
750 52 _l
750 320 _l
750 372 742 410 726 433 _c
710 455 685 467 649 467 _c
609 467 578 451 557 421 _c
536 391 526 347 526 289 _c
526 52 _l
604 52 _l
604 0 _l
358 0 _l
}_e{358 52 _l
436 52 _l
436 323 _l
436 375 428 412 412 434 _c
396 456 371 467 335 467 _c
295 467 264 451 243 421 _c
222 391 212 347 212 289 _c
212 52 _l
290 52 _l
290 0 _l
41 0 _l
41 52 _l
122 52 _l
122 468 _l
36 468 _l
36 519 _l
212 519 _l
212 427 _l
228 461 249 488 275 506 _c
301 524 330 533 363 533 _c
403 533 436 523 463 503 _c
}_e{490 483 508 454 518 418 _c
_cl}_e}_d
/n{{644 0 36 0 616 533 _sc
41 0 _m
41 52 _l
122 52 _l
122 467 _l
36 467 _l
36 519 _l
212 519 _l
212 427 _l
228 461 250 488 276 506 _c
302 524 333 533 369 533 _c
426 533 468 516 495 484 _c
522 451 536 400 536 330 _c
536 52 _l
616 52 _l
616 0 _l
368 0 _l
368 52 _l
446 52 _l
446 302 _l
446 365 438 408 422 432 _c
406 456 379 468 340 468 _c
}_e{298 468 266 452 244 422 _c
222 391 212 347 212 289 _c
212 52 _l
290 52 _l
290 0 _l
41 0 _l
_cl}_e}_d
/o{602 0 50 -13 552 533 _sc
301 34 _m
349 34 385 53 410 91 _c
434 129 447 185 447 260 _c
447 334 434 390 410 428 _c
385 466 349 485 301 485 _c
253 485 216 466 192 428 _c
167 390 155 334 155 260 _c
155 185 167 129 192 91 _c
216 53 253 34 301 34 _c
301 -13 _m
225 -13 165 11 119 61 _c
73 111 50 177 50 260 _c
50 342 72 408 118 458 _c
164 508 225 533 301 533 _c
377 533 437 508 483 458 _c
529 408 552 342 552 260 _c
552 177 529 111 483 61 _c
437 11 377 -13 301 -13 _c
_cl}_d
/p{{640 0 29 -207 590 533 _sc
205 285 _m
205 234 _l
205 171 217 123 241 91 _c
265 58 299 42 345 42 _c
391 42 425 60 449 97 _c
473 133 485 188 485 260 _c
485 332 473 386 449 422 _c
425 458 391 477 345 477 _c
299 477 265 460 241 427 _c
217 394 205 347 205 285 _c
115 467 _m
29 467 _l
29 519 _l
205 519 _l
205 438 _l
222 470 244 494 272 510 _c
299 525 333 533 373 533 _c
}_e{437 533 489 507 529 457 _c
569 407 590 341 590 260 _c
590 178 569 112 529 62 _c
489 12 437 -13 373 -13 _c
333 -13 299 -5 272 9 _c
244 24 222 48 205 81 _c
205 -155 _l
290 -155 _l
290 -207 _l
29 -207 _l
29 -155 _l
115 -155 _l
115 467 _l
_cl}_e}_d
/s{{513 0 56 -13 462 533 _sc
56 29 _m
56 150 _l
108 150 _l
109 111 121 82 144 63 _c
167 43 201 34 246 34 _c
286 34 317 41 338 57 _c
359 72 370 94 370 123 _c
370 145 362 164 347 178 _c
331 192 299 207 249 223 _c
184 245 _l
139 259 107 277 87 299 _c
67 320 57 347 57 381 _c
57 428 74 465 109 492 _c
144 519 192 533 254 533 _c
281 533 310 529 340 522 _c
}_e{370 515 402 505 434 491 _c
434 378 _l
382 378 _l
380 411 369 437 347 456 _c
325 475 295 485 257 485 _c
219 485 190 478 171 465 _c
151 451 142 431 142 405 _c
142 383 149 365 164 352 _c
178 339 208 326 252 312 _c
323 290 _l
372 274 407 255 429 232 _c
451 209 462 180 462 144 _c
462 94 443 56 405 28 _c
367 0 316 -13 250 -13 _c
216 -13 184 -9 152 -3 _c
}_e{120 3 88 14 56 29 _c
_cl}_e}_d
/t{402 0 29 -13 394 680 _sc
108 467 _m
29 467 _l
29 519 _l
108 519 _l
108 680 _l
198 680 _l
198 519 _l
367 519 _l
367 467 _l
198 467 _l
198 137 _l
198 93 202 64 211 52 _c
219 40 235 34 258 34 _c
281 34 298 41 309 55 _c
319 69 325 91 326 122 _c
394 122 _l
391 74 378 40 355 19 _c
332 -2 297 -13 250 -13 _c
198 -13 161 -1 140 21 _c
118 43 108 82 108 137 _c
108 467 _l
_cl}_d
/y{{565 0 -2 -221 562 519 _sc
216 -94 _m
250 -8 _l
56 467 _l
-2 467 _l
-2 519 _l
236 519 _l
236 467 _l
153 467 _l
299 110 _l
445 467 _l
367 467 _l
367 519 _l
562 519 _l
562 467 _l
504 467 _l
266 -116 _l
250 -156 232 -184 212 -199 _c
192 -213 164 -221 128 -221 _c
112 -221 97 -219 81 -217 _c
65 -214 48 -210 32 -206 _c
32 -107 _l
78 -107 _l
80 -129 85 -144 95 -154 _c
}_e{104 -164 118 -169 138 -169 _c
156 -169 170 -164 181 -154 _c
192 -144 204 -124 216 -94 _c
_cl}_e}_d
end readonly def

/BuildGlyph
 {exch begin
 CharStrings exch
 2 copy known not{pop /.notdef}if
 true 3 1 roll get exec
 end}_d

/BuildChar {
 1 index /Encoding get exch get
 1 index /BuildGlyph get exec
}_d

FontName currentdict end definefont pop
%!PS-Adobe-3.0 Resource-Font
%%Title: DejaVu Sans Oblique
%%Copyright: Copyright (c) 2003 by Bitstream, Inc. All Rights Reserved. Copyright (c) 2006 by Tavmjong Bah. All Rights Reserved. DejaVu changes are in public domain 
%%Creator: Converted from TrueType to type 3 by PPR
25 dict begin
/_d{bind def}bind def
/_m{moveto}_d
/_l{lineto}_d
/_cl{closepath eofill}_d
/_c{curveto}_d
/_sc{7 -1 roll{setcachedevice}{pop pop pop pop pop pop}ifelse}_d
/_e{exec}_d
/FontName /DejaVuSans-Oblique def
/PaintType 0 def
/FontMatrix[.001 0 0 .001 0 0]def
/FontBBox[-1016 -350 1659 1068]def
/FontType 3 def
/Encoding [ /I /b ] def
/FontInfo 10 dict dup begin
/FamilyName (DejaVu Sans) def
/FullName (DejaVu Sans Oblique) def
/Notice (Copyright (c) 2003 by Bitstream, Inc. All Rights Reserved. Copyright (c) 2006 by Tavmjong Bah. All Rights Reserved. DejaVu changes are in public domain ) def
/Weight (Oblique) def
/Version (Version 2.35) def
/ItalicAngle -11.0 def
/isFixedPitch false def
/UnderlinePosition -130 def
/UnderlineThickness 90 def
end readonly def
/CharStrings 3 dict dup begin
/.notdef 0 def
/I{295 0 27 0 268 729 _sc
169 729 _m
268 729 _l
126 0 _l
27 0 _l
169 729 _l
_cl}_d
/b{{635 0 36 -13 587 760 _sc
495 334 _m
495 381 484 418 462 445 _c
440 471 411 485 373 485 _c
345 485 319 478 295 464 _c
271 450 250 431 232 406 _c
213 378 198 347 187 311 _c
176 275 171 240 171 205 _c
171 160 181 125 203 99 _c
224 73 253 61 291 61 _c
319 61 345 67 369 81 _c
393 94 415 113 433 139 _c
451 165 466 196 478 232 _c
489 268 495 302 495 334 _c
216 464 _m
}_e{238 494 265 517 299 534 _c
332 551 367 560 404 560 _c
460 560 504 541 537 503 _c
570 465 587 414 587 350 _c
587 297 577 246 558 197 _c
538 147 511 103 475 65 _c
451 39 424 20 394 7 _c
363 -6 331 -13 298 -13 _c
262 -13 232 -5 206 11 _c
180 27 158 51 142 83 _c
126 0 _l
36 0 _l
184 760 _l
274 760 _l
216 464 _l
_cl}_e}_d
end readonly def

/BuildGlyph
 {exch begin
 CharStrings exch
 2 copy known not{pop /.notdef}if
 true 3 1 roll get exec
 end}_d

/BuildChar {
 1 index /Encoding get exch get
 1 index /BuildGlyph get exec
}_d

FontName currentdict end definefont pop
%!PS-Adobe-3.0 Resource-Font
%%Title: DejaVu Sans
%%Copyright: Copyright (c) 2003 by Bitstream, Inc. All Rights Reserved. Copyright (c) 2006 by Tavmjong Bah. All Rights Reserved. DejaVu changes are in public domain 
%%Creator: Converted from TrueType to type 3 by PPR
25 dict begin
/_d{bind def}bind def
/_m{moveto}_d
/_l{lineto}_d
/_cl{closepath eofill}_d
/_c{curveto}_d
/_sc{7 -1 roll{setcachedevice}{pop pop pop pop pop pop}ifelse}_d
/_e{exec}_d
/FontName /DejaVuSans def
/PaintType 0 def
/FontMatrix[.001 0 0 .001 0 0]def
/FontBBox[-1021 -463 1793 1232]def
/FontType 3 def
/Encoding [ /a /e /k /p /Phi ] def
/FontInfo 10 dict dup begin
/FamilyName (DejaVu Sans) def
/FullName (DejaVu Sans) def
/Notice (Copyright (c) 2003 by Bitstream, Inc. All Rights Reserved. Copyright (c) 2006 by Tavmjong Bah. All Rights Reserved. DejaVu changes are in public domain ) def
/Weight (Book) def
/Version (Version 2.35) def
/ItalicAngle 0.0 def
/isFixedPitch false def
/UnderlinePosition -130 def
/UnderlineThickness 90 def
end readonly def
/CharStrings 6 dict dup begin
/.notdef 0 def
/a{{613 0 60 -13 522 560 _sc
343 275 _m
270 275 220 266 192 250 _c
164 233 150 205 150 165 _c
150 133 160 107 181 89 _c
202 70 231 61 267 61 _c
317 61 357 78 387 114 _c
417 149 432 196 432 255 _c
432 275 _l
343 275 _l
522 312 _m
522 0 _l
432 0 _l
432 83 _l
411 49 385 25 355 10 _c
325 -5 287 -13 243 -13 _c
187 -13 142 2 109 33 _c
76 64 60 106 60 159 _c
}_e{60 220 80 266 122 298 _c
163 329 224 345 306 345 _c
432 345 _l
432 354 _l
432 395 418 427 391 450 _c
364 472 326 484 277 484 _c
245 484 215 480 185 472 _c
155 464 127 453 100 439 _c
100 522 _l
132 534 164 544 195 550 _c
226 556 256 560 286 560 _c
365 560 424 539 463 498 _c
502 457 522 395 522 312 _c
_cl}_e}_d
/e{{615 0 55 -13 562 560 _sc
562 296 _m
562 252 _l
149 252 _l
153 190 171 142 205 110 _c
238 78 284 62 344 62 _c
378 62 412 66 444 74 _c
476 82 509 95 541 113 _c
541 28 _l
509 14 476 3 442 -3 _c
408 -9 373 -13 339 -13 _c
251 -13 182 12 131 62 _c
80 112 55 181 55 268 _c
55 357 79 428 127 481 _c
175 533 241 560 323 560 _c
397 560 455 536 498 489 _c
}_e{540 441 562 377 562 296 _c
472 322 _m
471 371 457 410 431 440 _c
404 469 368 484 324 484 _c
274 484 234 469 204 441 _c
174 413 156 373 152 322 _c
472 322 _l
_cl}_e}_d
/k{579 0 91 0 576 760 _sc
91 760 _m
181 760 _l
181 311 _l
449 547 _l
564 547 _l
274 291 _l
576 0 _l
459 0 _l
181 267 _l
181 0 _l
91 0 _l
91 760 _l
_cl}_d
/p{{635 0 91 -207 580 560 _sc
181 82 _m
181 -207 _l
91 -207 _l
91 547 _l
181 547 _l
181 464 _l
199 496 223 520 252 536 _c
281 552 316 560 356 560 _c
422 560 476 533 518 481 _c
559 428 580 359 580 273 _c
580 187 559 117 518 65 _c
476 13 422 -13 356 -13 _c
316 -13 281 -5 252 10 _c
223 25 199 49 181 82 _c
487 273 _m
487 339 473 390 446 428 _c
418 466 381 485 334 485 _c
}_e{286 485 249 466 222 428 _c
194 390 181 339 181 273 _c
181 207 194 155 222 117 _c
249 79 286 61 334 61 _c
381 61 418 79 446 117 _c
473 155 487 207 487 273 _c
_cl}_e}_d
/Phi{{787 0 56 0 731 729 _sc
345 569 _m
295 562 255 545 224 517 _c
181 479 160 428 160 364 _c
160 300 181 249 224 211 _c
255 183 295 165 345 159 _c
345 569 _l
443 159 _m
492 165 532 183 564 211 _c
606 249 627 300 627 364 _c
627 428 606 479 564 517 _c
532 545 492 562 443 569 _c
443 159 _l
345 77 _m
265 84 200 109 148 153 _c
86 205 56 275 56 364 _c
56 452 86 522 148 575 _c
}_e{199 619 265 644 345 651 _c
345 729 _l
443 729 _l
443 651 _l
523 643 588 618 639 575 _c
700 522 731 452 731 364 _c
731 276 700 205 639 153 _c
588 109 523 84 443 77 _c
443 0 _l
345 0 _l
345 77 _l
_cl}_e}_d
end readonly def

/BuildGlyph
 {exch begin
 CharStrings exch
 2 copy known not{pop /.notdef}if
 true 3 1 roll get exec
 end}_d

/BuildChar {
 1 index /Encoding get exch get
 1 index /BuildGlyph get exec
}_d

FontName currentdict end definefont pop
end
%%EndProlog
mpldict begin
162 252 translate
288 288 0 0 clipbox
gsave
0 0 m
288 0 l
288 288 l
0 288 l
cl
1.000 setgray
fill
grestore
gsave
43.2 43.2 m
259.2 43.2 l
259.2 259.2 l
43.2 259.2 l
cl
1.000 setgray
fill
grestore
0.800 setlinewidth
1 setlinejoin
2 setlinecap
[] 0 setdash
0.690 setgray
gsave
216 216 43.2 43.2 clipbox
43.2 43.2 m
43.2 259.2 l
stroke
grestore
1.000 setlinewidth
0 setlinecap
0.000 setgray
gsave
/o {
gsave
newpath
translate
1.0 setlinewidth
1 setlinejoin
0 setlinecap
0 0 m
0 5 l

gsave
0.000 setgray
fill
grestore
stroke
grestore
} bind def
43.2 43.2 o
grestore
gsave
/o {
gsave
newpath
translate
1.0 setlinewidth
1 setlinejoin
0 setlinecap
0 0 m
0 -5 l

gsave
0.000 setgray
fill
grestore
stroke
grestore
} bind def
43.2 259.2 o
grestore
/DejaVuSerif findfont
10.000 scalefont
setfont
gsave
35.246875 32.106250 translate
0.000000 rotate
0.000000 0.000000 m /three glyphshow
6.362305 0.000000 m /period glyphshow
9.541016 0.000000 m /zero glyphshow
grestore
0.800 setlinewidth
2 setlinecap
0.690 setgray
gsave
216 216 43.2 43.2 clipbox
97.2 43.2 m
97.2 259.2 l
stroke
grestore
1.000 setlinewidth
0 setlinecap
0.000 setgray
gsave
/o {
gsave
newpath
translate
1.0 setlinewidth
1 setlinejoin
0 setlinecap
0 0 m
0 5 l

gsave
0.000 setgray
fill
grestore
stroke
grestore
} bind def
97.2 43.2 o
grestore
gsave
/o {
gsave
newpath
translate
1.0 setlinewidth
1 setlinejoin
0 setlinecap
0 0 m
0 -5 l

gsave
0.000 setgray
fill
grestore
stroke
grestore
} bind def
97.2 259.2 o
grestore
gsave
89.246875 32.106250 translate
0.000000 rotate
0.000000 0.000000 m /three glyphshow
6.362305 0.000000 m /period glyphshow
9.541016 0.000000 m /five glyphshow
grestore
0.800 setlinewidth
2 setlinecap
0.690 setgray
gsave
216 216 43.2 43.2 clipbox
151.2 43.2 m
151.2 259.2 l
stroke
grestore
1.000 setlinewidth
0 setlinecap
0.000 setgray
gsave
/o {
gsave
newpath
translate
1.0 setlinewidth
1 setlinejoin
0 setlinecap
0 0 m
0 5 l

gsave
0.000 setgray
fill
grestore
stroke
grestore
} bind def
151.2 43.2 o
grestore
gsave
/o {
gsave
newpath
translate
1.0 setlinewidth
1 setlinejoin
0 setlinecap
0 0 m
0 -5 l

gsave
0.000 setgray
fill
grestore
stroke
grestore
} bind def
151.2 259.2 o
grestore
gsave
143.246875 32.106250 translate
0.000000 rotate
0.000000 0.000000 m /four glyphshow
6.362305 0.000000 m /period glyphshow
9.541016 0.000000 m /zero glyphshow
grestore
0.800 setlinewidth
2 setlinecap
0.690 setgray
gsave
216 216 43.2 43.2 clipbox
205.2 43.2 m
205.2 259.2 l
stroke
grestore
1.000 setlinewidth
0 setlinecap
0.000 setgray
gsave
/o {
gsave
newpath
translate
1.0 setlinewidth
1 setlinejoin
0 setlinecap
0 0 m
0 5 l

gsave
0.000 setgray
fill
grestore
stroke
grestore
} bind def
205.2 43.2 o
grestore
gsave
/o {
gsave
newpath
translate
1.0 setlinewidth
1 setlinejoin
0 setlinecap
0 0 m
0 -5 l

gsave
0.000 setgray
fill
grestore
stroke
grestore
} bind def
205.2 259.2 o
grestore
gsave
197.246875 32.106250 translate
0.000000 rotate
0.000000 0.000000 m /four glyphshow
6.362305 0.000000 m /period glyphshow
9.541016 0.000000 m /five glyphshow
grestore
0.800 setlinewidth
2 setlinecap
0.690 setgray
gsave
216 216 43.2 43.2 clipbox
259.2 43.2 m
259.2 259.2 l
stroke
grestore
1.000 setlinewidth
0 setlinecap
0.000 setgray
gsave
/o {
gsave
newpath
translate
1.0 setlinewidth
1 setlinejoin
0 setlinecap
0 0 m
0 5 l

gsave
0.000 setgray
fill
grestore
stroke
grestore
} bind def
259.2 43.2 o
grestore
gsave
/o {
gsave
newpath
translate
1.0 setlinewidth
1 setlinejoin
0 setlinecap
0 0 m
0 -5 l

gsave
0.000 setgray
fill
grestore
stroke
grestore
} bind def
259.2 259.2 o
grestore
gsave
251.246875 32.106250 translate
0.000000 rotate
0.000000 0.000000 m /five glyphshow
6.362305 0.000000 m /period glyphshow
9.541016 0.000000 m /zero glyphshow
grestore
0.700 setlinewidth
gsave
/o {
gsave
newpath
translate
0.7 setlinewidth
1 setlinejoin
0 setlinecap
0 0 m
0 3 l

gsave
0.000 setgray
fill
grestore
stroke
grestore
} bind def
54 43.2 o
grestore
gsave
/o {
gsave
newpath
translate
0.7 setlinewidth
1 setlinejoin
0 setlinecap
0 0 m
0 -3 l

gsave
0.000 setgray
fill
grestore
stroke
grestore
} bind def
54 259.2 o
grestore
gsave
/o {
gsave
newpath
translate
0.7 setlinewidth
1 setlinejoin
0 setlinecap
0 0 m
0 3 l

gsave
0.000 setgray
fill
grestore
stroke
grestore
} bind def
64.8 43.2 o
grestore
gsave
/o {
gsave
newpath
translate
0.7 setlinewidth
1 setlinejoin
0 setlinecap
0 0 m
0 -3 l

gsave
0.000 setgray
fill
grestore
stroke
grestore
} bind def
64.8 259.2 o
grestore
gsave
/o {
gsave
newpath
translate
0.7 setlinewidth
1 setlinejoin
0 setlinecap
0 0 m
0 3 l

gsave
0.000 setgray
fill
grestore
stroke
grestore
} bind def
75.6 43.2 o
grestore
gsave
/o {
gsave
newpath
translate
0.7 setlinewidth
1 setlinejoin
0 setlinecap
0 0 m
0 -3 l

gsave
0.000 setgray
fill
grestore
stroke
grestore
} bind def
75.6 259.2 o
grestore
gsave
/o {
gsave
newpath
translate
0.7 setlinewidth
1 setlinejoin
0 setlinecap
0 0 m
0 3 l

gsave
0.000 setgray
fill
grestore
stroke
grestore
} bind def
86.4 43.2 o
grestore
gsave
/o {
gsave
newpath
translate
0.7 setlinewidth
1 setlinejoin
0 setlinecap
0 0 m
0 -3 l

gsave
0.000 setgray
fill
grestore
stroke
grestore
} bind def
86.4 259.2 o
grestore
gsave
/o {
gsave
newpath
translate
0.7 setlinewidth
1 setlinejoin
0 setlinecap
0 0 m
0 3 l

gsave
0.000 setgray
fill
grestore
stroke
grestore
} bind def
108 43.2 o
grestore
gsave
/o {
gsave
newpath
translate
0.7 setlinewidth
1 setlinejoin
0 setlinecap
0 0 m
0 -3 l

gsave
0.000 setgray
fill
grestore
stroke
grestore
} bind def
108 259.2 o
grestore
gsave
/o {
gsave
newpath
translate
0.7 setlinewidth
1 setlinejoin
0 setlinecap
0 0 m
0 3 l

gsave
0.000 setgray
fill
grestore
stroke
grestore
} bind def
118.8 43.2 o
grestore
gsave
/o {
gsave
newpath
translate
0.7 setlinewidth
1 setlinejoin
0 setlinecap
0 0 m
0 -3 l

gsave
0.000 setgray
fill
grestore
stroke
grestore
} bind def
118.8 259.2 o
grestore
gsave
/o {
gsave
newpath
translate
0.7 setlinewidth
1 setlinejoin
0 setlinecap
0 0 m
0 3 l

gsave
0.000 setgray
fill
grestore
stroke
grestore
} bind def
129.6 43.2 o
grestore
gsave
/o {
gsave
newpath
translate
0.7 setlinewidth
1 setlinejoin
0 setlinecap
0 0 m
0 -3 l

gsave
0.000 setgray
fill
grestore
stroke
grestore
} bind def
129.6 259.2 o
grestore
gsave
/o {
gsave
newpath
translate
0.7 setlinewidth
1 setlinejoin
0 setlinecap
0 0 m
0 3 l

gsave
0.000 setgray
fill
grestore
stroke
grestore
} bind def
140.4 43.2 o
grestore
gsave
/o {
gsave
newpath
translate
0.7 setlinewidth
1 setlinejoin
0 setlinecap
0 0 m
0 -3 l

gsave
0.000 setgray
fill
grestore
stroke
grestore
} bind def
140.4 259.2 o
grestore
gsave
/o {
gsave
newpath
translate
0.7 setlinewidth
1 setlinejoin
0 setlinecap
0 0 m
0 3 l

gsave
0.000 setgray
fill
grestore
stroke
grestore
} bind def
162 43.2 o
grestore
gsave
/o {
gsave
newpath
translate
0.7 setlinewidth
1 setlinejoin
0 setlinecap
0 0 m
0 -3 l

gsave
0.000 setgray
fill
grestore
stroke
grestore
} bind def
162 259.2 o
grestore
gsave
/o {
gsave
newpath
translate
0.7 setlinewidth
1 setlinejoin
0 setlinecap
0 0 m
0 3 l

gsave
0.000 setgray
fill
grestore
stroke
grestore
} bind def
172.8 43.2 o
grestore
gsave
/o {
gsave
newpath
translate
0.7 setlinewidth
1 setlinejoin
0 setlinecap
0 0 m
0 -3 l

gsave
0.000 setgray
fill
grestore
stroke
grestore
} bind def
172.8 259.2 o
grestore
gsave
/o {
gsave
newpath
translate
0.7 setlinewidth
1 setlinejoin
0 setlinecap
0 0 m
0 3 l

gsave
0.000 setgray
fill
grestore
stroke
grestore
} bind def
183.6 43.2 o
grestore
gsave
/o {
gsave
newpath
translate
0.7 setlinewidth
1 setlinejoin
0 setlinecap
0 0 m
0 -3 l

gsave
0.000 setgray
fill
grestore
stroke
grestore
} bind def
183.6 259.2 o
grestore
gsave
/o {
gsave
newpath
translate
0.7 setlinewidth
1 setlinejoin
0 setlinecap
0 0 m
0 3 l

gsave
0.000 setgray
fill
grestore
stroke
grestore
} bind def
194.4 43.2 o
grestore
gsave
/o {
gsave
newpath
translate
0.7 setlinewidth
1 setlinejoin
0 setlinecap
0 0 m
0 -3 l

gsave
0.000 setgray
fill
grestore
stroke
grestore
} bind def
194.4 259.2 o
grestore
gsave
/o {
gsave
newpath
translate
0.7 setlinewidth
1 setlinejoin
0 setlinecap
0 0 m
0 3 l

gsave
0.000 setgray
fill
grestore
stroke
grestore
} bind def
216 43.2 o
grestore
gsave
/o {
gsave
newpath
translate
0.7 setlinewidth
1 setlinejoin
0 setlinecap
0 0 m
0 -3 l

gsave
0.000 setgray
fill
grestore
stroke
grestore
} bind def
216 259.2 o
grestore
gsave
/o {
gsave
newpath
translate
0.7 setlinewidth
1 setlinejoin
0 setlinecap
0 0 m
0 3 l

gsave
0.000 setgray
fill
grestore
stroke
grestore
} bind def
226.8 43.2 o
grestore
gsave
/o {
gsave
newpath
translate
0.7 setlinewidth
1 setlinejoin
0 setlinecap
0 0 m
0 -3 l

gsave
0.000 setgray
fill
grestore
stroke
grestore
} bind def
226.8 259.2 o
grestore
gsave
/o {
gsave
newpath
translate
0.7 setlinewidth
1 setlinejoin
0 setlinecap
0 0 m
0 3 l

gsave
0.000 setgray
fill
grestore
stroke
grestore
} bind def
237.6 43.2 o
grestore
gsave
/o {
gsave
newpath
translate
0.7 setlinewidth
1 setlinejoin
0 setlinecap
0 0 m
0 -3 l

gsave
0.000 setgray
fill
grestore
stroke
grestore
} bind def
237.6 259.2 o
grestore
gsave
/o {
gsave
newpath
translate
0.7 setlinewidth
1 setlinejoin
0 setlinecap
0 0 m
0 3 l

gsave
0.000 setgray
fill
grestore
stroke
grestore
} bind def
248.4 43.2 o
grestore
gsave
/o {
gsave
newpath
translate
0.7 setlinewidth
1 setlinejoin
0 setlinecap
0 0 m
0 -3 l

gsave
0.000 setgray
fill
grestore
stroke
grestore
} bind def
248.4 259.2 o
grestore
gsave
124.700000 19.028125 translate
0.000000 rotate
/DejaVuSans findfont
14.0 scalefont
setfont
0.000000 0.359375 moveto
/Phi glyphshow

/DejaVuSerif findfont
14.0 scalefont
setfont
11.019531 0.359375 moveto
/space glyphshow

15.469727 0.359375 moveto
/parenleft glyphshow

20.931641 0.359375 moveto
/m glyphshow

34.207031 0.359375 moveto
/m glyphshow

47.482422 0.359375 moveto
/parenright glyphshow


grestore
0.800 setlinewidth
2 setlinecap
0.690 setgray
gsave
216 216 43.2 43.2 clipbox
43.2 43.2 m
259.2 43.2 l
stroke
grestore
1.000 setlinewidth
0 setlinecap
0.000 setgray
gsave
/o {
gsave
newpath
translate
1.0 setlinewidth
1 setlinejoin
0 setlinecap
0 0 m
5 0 l

gsave
0.000 setgray
fill
grestore
stroke
grestore
} bind def
43.2 43.2 o
grestore
gsave
/o {
gsave
newpath
translate
1.0 setlinewidth
1 setlinejoin
0 setlinecap
0 0 m
-5 0 l

gsave
0.000 setgray
fill
grestore
stroke
grestore
} bind def
259.2 43.2 o
grestore
gsave
20.621875 39.403125 translate
0.000000 rotate
0.000000 0.000000 m /one glyphshow
6.362305 0.000000 m /zero glyphshow
12.724609 0.000000 m /zero glyphshow
grestore
0.800 setlinewidth
2 setlinecap
0.690 setgray
gsave
216 216 43.2 43.2 clipbox
43.2 86.4 m
259.2 86.4 l
stroke
grestore
1.000 setlinewidth
0 setlinecap
0.000 setgray
gsave
/o {
gsave
newpath
translate
1.0 setlinewidth
1 setlinejoin
0 setlinecap
0 0 m
5 0 l

gsave
0.000 setgray
fill
grestore
stroke
grestore
} bind def
43.2 86.4 o
grestore
gsave
/o {
gsave
newpath
translate
1.0 setlinewidth
1 setlinejoin
0 setlinecap
0 0 m
-5 0 l

gsave
0.000 setgray
fill
grestore
stroke
grestore
} bind def
259.2 86.4 o
grestore
gsave
20.621875 82.603125 translate
0.000000 rotate
0.000000 0.000000 m /one glyphshow
6.362305 0.000000 m /two glyphshow
12.724609 0.000000 m /zero glyphshow
grestore
0.800 setlinewidth
2 setlinecap
0.690 setgray
gsave
216 216 43.2 43.2 clipbox
43.2 129.6 m
259.2 129.6 l
stroke
grestore
1.000 setlinewidth
0 setlinecap
0.000 setgray
gsave
/o {
gsave
newpath
translate
1.0 setlinewidth
1 setlinejoin
0 setlinecap
0 0 m
5 0 l

gsave
0.000 setgray
fill
grestore
stroke
grestore
} bind def
43.2 129.6 o
grestore
gsave
/o {
gsave
newpath
translate
1.0 setlinewidth
1 setlinejoin
0 setlinecap
0 0 m
-5 0 l

gsave
0.000 setgray
fill
grestore
stroke
grestore
} bind def
259.2 129.6 o
grestore
gsave
20.621875 125.803125 translate
0.000000 rotate
0.000000 0.000000 m /one glyphshow
6.362305 0.000000 m /four glyphshow
12.724609 0.000000 m /zero glyphshow
grestore
0.800 setlinewidth
2 setlinecap
0.690 setgray
gsave
216 216 43.2 43.2 clipbox
43.2 172.8 m
259.2 172.8 l
stroke
grestore
1.000 setlinewidth
0 setlinecap
0.000 setgray
gsave
/o {
gsave
newpath
translate
1.0 setlinewidth
1 setlinejoin
0 setlinecap
0 0 m
5 0 l

gsave
0.000 setgray
fill
grestore
stroke
grestore
} bind def
43.2 172.8 o
grestore
gsave
/o {
gsave
newpath
translate
1.0 setlinewidth
1 setlinejoin
0 setlinecap
0 0 m
-5 0 l

gsave
0.000 setgray
fill
grestore
stroke
grestore
} bind def
259.2 172.8 o
grestore
gsave
20.621875 169.003125 translate
0.000000 rotate
0.000000 0.000000 m /one glyphshow
6.362305 0.000000 m /six glyphshow
12.724609 0.000000 m /zero glyphshow
grestore
0.800 setlinewidth
2 setlinecap
0.690 setgray
gsave
216 216 43.2 43.2 clipbox
43.2 216 m
259.2 216 l
stroke
grestore
1.000 setlinewidth
0 setlinecap
0.000 setgray
gsave
/o {
gsave
newpath
translate
1.0 setlinewidth
1 setlinejoin
0 setlinecap
0 0 m
5 0 l

gsave
0.000 setgray
fill
grestore
stroke
grestore
} bind def
43.2 216 o
grestore
gsave
/o {
gsave
newpath
translate
1.0 setlinewidth
1 setlinejoin
0 setlinecap
0 0 m
-5 0 l

gsave
0.000 setgray
fill
grestore
stroke
grestore
} bind def
259.2 216 o
grestore
gsave
20.621875 212.203125 translate
0.000000 rotate
0.000000 0.000000 m /one glyphshow
6.362305 0.000000 m /eight glyphshow
12.724609 0.000000 m /zero glyphshow
grestore
0.800 setlinewidth
2 setlinecap
0.690 setgray
gsave
216 216 43.2 43.2 clipbox
43.2 259.2 m
259.2 259.2 l
stroke
grestore
1.000 setlinewidth
0 setlinecap
0.000 setgray
gsave
/o {
gsave
newpath
translate
1.0 setlinewidth
1 setlinejoin
0 setlinecap
0 0 m
5 0 l

gsave
0.000 setgray
fill
grestore
stroke
grestore
} bind def
43.2 259.2 o
grestore
gsave
/o {
gsave
newpath
translate
1.0 setlinewidth
1 setlinejoin
0 setlinecap
0 0 m
-5 0 l

gsave
0.000 setgray
fill
grestore
stroke
grestore
} bind def
259.2 259.2 o
grestore
gsave
20.621875 255.403125 translate
0.000000 rotate
0.000000 0.000000 m /two glyphshow
6.362305 0.000000 m /zero glyphshow
12.724609 0.000000 m /zero glyphshow
grestore
0.700 setlinewidth
gsave
/o {
gsave
newpath
translate
0.7 setlinewidth
1 setlinejoin
0 setlinecap
0 0 m
3 0 l

gsave
0.000 setgray
fill
grestore
stroke
grestore
} bind def
43.2 54 o
grestore
gsave
/o {
gsave
newpath
translate
0.7 setlinewidth
1 setlinejoin
0 setlinecap
0 0 m
-3 0 l

gsave
0.000 setgray
fill
grestore
stroke
grestore
} bind def
259.2 54 o
grestore
gsave
/o {
gsave
newpath
translate
0.7 setlinewidth
1 setlinejoin
0 setlinecap
0 0 m
3 0 l

gsave
0.000 setgray
fill
grestore
stroke
grestore
} bind def
43.2 64.8 o
grestore
gsave
/o {
gsave
newpath
translate
0.7 setlinewidth
1 setlinejoin
0 setlinecap
0 0 m
-3 0 l

gsave
0.000 setgray
fill
grestore
stroke
grestore
} bind def
259.2 64.8 o
grestore
gsave
/o {
gsave
newpath
translate
0.7 setlinewidth
1 setlinejoin
0 setlinecap
0 0 m
3 0 l

gsave
0.000 setgray
fill
grestore
stroke
grestore
} bind def
43.2 75.6 o
grestore
gsave
/o {
gsave
newpath
translate
0.7 setlinewidth
1 setlinejoin
0 setlinecap
0 0 m
-3 0 l

gsave
0.000 setgray
fill
grestore
stroke
grestore
} bind def
259.2 75.6 o
grestore
gsave
/o {
gsave
newpath
translate
0.7 setlinewidth
1 setlinejoin
0 setlinecap
0 0 m
3 0 l

gsave
0.000 setgray
fill
grestore
stroke
grestore
} bind def
43.2 97.2 o
grestore
gsave
/o {
gsave
newpath
translate
0.7 setlinewidth
1 setlinejoin
0 setlinecap
0 0 m
-3 0 l

gsave
0.000 setgray
fill
grestore
stroke
grestore
} bind def
259.2 97.2 o
grestore
gsave
/o {
gsave
newpath
translate
0.7 setlinewidth
1 setlinejoin
0 setlinecap
0 0 m
3 0 l

gsave
0.000 setgray
fill
grestore
stroke
grestore
} bind def
43.2 108 o
grestore
gsave
/o {
gsave
newpath
translate
0.7 setlinewidth
1 setlinejoin
0 setlinecap
0 0 m
-3 0 l

gsave
0.000 setgray
fill
grestore
stroke
grestore
} bind def
259.2 108 o
grestore
gsave
/o {
gsave
newpath
translate
0.7 setlinewidth
1 setlinejoin
0 setlinecap
0 0 m
3 0 l

gsave
0.000 setgray
fill
grestore
stroke
grestore
} bind def
43.2 118.8 o
grestore
gsave
/o {
gsave
newpath
translate
0.7 setlinewidth
1 setlinejoin
0 setlinecap
0 0 m
-3 0 l

gsave
0.000 setgray
fill
grestore
stroke
grestore
} bind def
259.2 118.8 o
grestore
gsave
/o {
gsave
newpath
translate
0.7 setlinewidth
1 setlinejoin
0 setlinecap
0 0 m
3 0 l

gsave
0.000 setgray
fill
grestore
stroke
grestore
} bind def
43.2 140.4 o
grestore
gsave
/o {
gsave
newpath
translate
0.7 setlinewidth
1 setlinejoin
0 setlinecap
0 0 m
-3 0 l

gsave
0.000 setgray
fill
grestore
stroke
grestore
} bind def
259.2 140.4 o
grestore
gsave
/o {
gsave
newpath
translate
0.7 setlinewidth
1 setlinejoin
0 setlinecap
0 0 m
3 0 l

gsave
0.000 setgray
fill
grestore
stroke
grestore
} bind def
43.2 151.2 o
grestore
gsave
/o {
gsave
newpath
translate
0.7 setlinewidth
1 setlinejoin
0 setlinecap
0 0 m
-3 0 l

gsave
0.000 setgray
fill
grestore
stroke
grestore
} bind def
259.2 151.2 o
grestore
gsave
/o {
gsave
newpath
translate
0.7 setlinewidth
1 setlinejoin
0 setlinecap
0 0 m
3 0 l

gsave
0.000 setgray
fill
grestore
stroke
grestore
} bind def
43.2 162 o
grestore
gsave
/o {
gsave
newpath
translate
0.7 setlinewidth
1 setlinejoin
0 setlinecap
0 0 m
-3 0 l

gsave
0.000 setgray
fill
grestore
stroke
grestore
} bind def
259.2 162 o
grestore
gsave
/o {
gsave
newpath
translate
0.7 setlinewidth
1 setlinejoin
0 setlinecap
0 0 m
3 0 l

gsave
0.000 setgray
fill
grestore
stroke
grestore
} bind def
43.2 183.6 o
grestore
gsave
/o {
gsave
newpath
translate
0.7 setlinewidth
1 setlinejoin
0 setlinecap
0 0 m
-3 0 l

gsave
0.000 setgray
fill
grestore
stroke
grestore
} bind def
259.2 183.6 o
grestore
gsave
/o {
gsave
newpath
translate
0.7 setlinewidth
1 setlinejoin
0 setlinecap
0 0 m
3 0 l

gsave
0.000 setgray
fill
grestore
stroke
grestore
} bind def
43.2 194.4 o
grestore
gsave
/o {
gsave
newpath
translate
0.7 setlinewidth
1 setlinejoin
0 setlinecap
0 0 m
-3 0 l

gsave
0.000 setgray
fill
grestore
stroke
grestore
} bind def
259.2 194.4 o
grestore
gsave
/o {
gsave
newpath
translate
0.7 setlinewidth
1 setlinejoin
0 setlinecap
0 0 m
3 0 l

gsave
0.000 setgray
fill
grestore
stroke
grestore
} bind def
43.2 205.2 o
grestore
gsave
/o {
gsave
newpath
translate
0.7 setlinewidth
1 setlinejoin
0 setlinecap
0 0 m
-3 0 l

gsave
0.000 setgray
fill
grestore
stroke
grestore
} bind def
259.2 205.2 o
grestore
gsave
/o {
gsave
newpath
translate
0.7 setlinewidth
1 setlinejoin
0 setlinecap
0 0 m
3 0 l

gsave
0.000 setgray
fill
grestore
stroke
grestore
} bind def
43.2 226.8 o
grestore
gsave
/o {
gsave
newpath
translate
0.7 setlinewidth
1 setlinejoin
0 setlinecap
0 0 m
-3 0 l

gsave
0.000 setgray
fill
grestore
stroke
grestore
} bind def
259.2 226.8 o
grestore
gsave
/o {
gsave
newpath
translate
0.7 setlinewidth
1 setlinejoin
0 setlinecap
0 0 m
3 0 l

gsave
0.000 setgray
fill
grestore
stroke
grestore
} bind def
43.2 237.6 o
grestore
gsave
/o {
gsave
newpath
translate
0.7 setlinewidth
1 setlinejoin
0 setlinecap
0 0 m
-3 0 l

gsave
0.000 setgray
fill
grestore
stroke
grestore
} bind def
259.2 237.6 o
grestore
gsave
/o {
gsave
newpath
translate
0.7 setlinewidth
1 setlinejoin
0 setlinecap
0 0 m
3 0 l

gsave
0.000 setgray
fill
grestore
stroke
grestore
} bind def
43.2 248.4 o
grestore
gsave
/o {
gsave
newpath
translate
0.7 setlinewidth
1 setlinejoin
0 setlinecap
0 0 m
-3 0 l

gsave
0.000 setgray
fill
grestore
stroke
grestore
} bind def
259.2 248.4 o
grestore
gsave
15.621875 124.200000 translate
90.000000 rotate
/DejaVuSans-Oblique findfont
14.0 scalefont
setfont
0.000000 0.359375 moveto
/I glyphshow

/DejaVuSans findfont
9.8 scalefont
setfont
4.128906 -1.937500 moveto
/p glyphshow

10.349609 -1.937500 moveto
/e glyphshow

16.378906 -1.937500 moveto
/a glyphshow

22.384277 -1.937500 moveto
/k glyphshow

/DejaVuSerif findfont
14.0 scalefont
setfont
28.442285 0.359375 moveto
/space glyphshow

32.892480 0.359375 moveto
/parenleft glyphshow

38.354395 0.359375 moveto
/A glyphshow

48.464746 0.359375 moveto
/parenright glyphshow


grestore
1.000 setlinewidth
1.000 0.000 0.000 setrgbcolor
gsave
216 216 43.2 43.2 clipbox
/o {
gsave
newpath
translate
1.0 setlinewidth
1 setlinejoin
0 setlinecap
0 -1.5 m
0.397805 -1.5 0.77937 -1.341951 1.06066 -1.06066 c
1.341951 -0.77937 1.5 -0.397805 1.5 0 c
1.5 0.397805 1.341951 0.77937 1.06066 1.06066 c
0.77937 1.341951 0.397805 1.5 0 1.5 c
-0.397805 1.5 -0.77937 1.341951 -1.06066 1.06066 c
-1.341951 0.77937 -1.5 0.397805 -1.5 0 c
-1.5 -0.397805 -1.341951 -0.77937 -1.06066 -1.06066 c
-0.77937 -1.341951 -0.397805 -1.5 0 -1.5 c
cl

gsave
1.000 0.000 0.000 setrgbcolor
fill
grestore
stroke
grestore
} bind def
120.792 208.612 o
111.904 189.107 o
73.1063 139.402 o
167.174 198.358 o
134.703 165.429 o
183.309 203.133 o
129.242 189.861 o
172.483 213.067 o
147.533 204.282 o
202.78 209.596 o
156.411 214.779 o
224.865 241.356 o
143.429 206.681 o
199.527 225.308 o
158.699 204.999 o
85.5121 147.6 o
101.836 175.174 o
90.3491 172.66 o
123.327 183.138 o
138.251 205.352 o
116.21 187.128 o
113.401 182.493 o
138.155 201.89 o
108.141 211.551 o
130.109 201.332 o
115.537 196.195 o
133.308 195.405 o
119.529 186.035 o
169.758 220.734 o
232.265 212.761 o
132.289 181.335 o
176.878 217.605 o
102.014 160.99 o
113.156 191.338 o
210.6 199.683 o
131.637 167.451 o
170.805 188.374 o
101.836 169.471 o
166.777 219.352 o
163.541 191.55 o
158.789 224.084 o
156.411 199.801 o
123.327 171.011 o
185.384 206.291 o
180.267 196.092 o
196.507 203.944 o
184.721 203.538 o
102.014 186.447 o
164.852 191.028 o
115.109 196.59 o
185.652 215.82 o
176.559 200.573 o
180.267 192.472 o
180.267 192.472 o
166.455 204.444 o
108.141 194.831 o
143.419 207.025 o
153.382 221.577 o
69.7834 155.874 o
101.836 187.729 o
115.537 185.138 o
135.885 209.865 o
119.3 182.478 o
130.109 201.94 o
138.345 190.406 o
177.96 200.364 o
116.091 174.807 o
156.411 221.114 o
199.527 217.429 o
73.1063 148.469 o
97.2894 184.904 o
152.476 206.818 o
120.936 182.752 o
126.367 178.961 o
73.9443 148.763 o
94.9051 185.653 o
150.639 203.828 o
154.416 195.71 o
101.836 185.633 o
125.933 188.336 o
127.469 195.313 o
163.175 203.107 o
98.866 174.262 o
118.647 170.961 o
80.6317 152.511 o
156.411 218.007 o
196.052 215.741 o
99.5252 163.221 o
176.878 208.658 o
121.653 193.94 o
114.426 181.534 o
124.534 192.815 o
129.721 183.619 o
191.308 227.464 o
166.455 197.904 o
57.0313 144.827 o
54.273 144.709 o
58.8865 139.569 o
126.367 168.837 o
82.405 161.095 o
91.5956 156.675 o
80.6317 166.271 o
134.189 169.044 o
48.3686 142.335 o
73.9443 157.957 o
73.1063 152.962 o
54.2629 149.984 o
77.1835 172.195 o
176.878 188.958 o
166.455 189.265 o
64.2363 157.801 o
93.0703 166.311 o
75.7771 154.92 o
84.0216 172.999 o
81.6562 159.164 o
105.549 178.699 o
120.936 157.551 o
149.306 195.438 o
54.6586 132.942 o
44.3523 115.409 o
105.431 159.282 o
57.8241 127.922 o
96.2334 165.459 o
173.513 186.74 o
75.3068 157.115 o
72.9489 158.689 o
90.903 173.029 o
91.9923 170.375 o
106.629 171.352 o
65.5853 166.446 o
71.3308 157.94 o
80.6317 167.121 o
149.641 208.971 o
118.127 173.937 o
94.2695 179.5 o
106.038 174.615 o
77.6454 154.953 o
122.219 182.539 o
92.156 167.858 o
55.6205 129.478 o
221.431 230.677 o
126.367 181.074 o
92.9017 185.157 o
128.395 179.388 o
44.3523 138.555 o
95.2699 179.414 o
91.9923 165.804 o
93.0703 169.038 o
97.3617 171.421 o
80.2603 163.58 o
70.1383 164.795 o
108.13 173.367 o
80.6317 174.983 o
73.9443 162.251 o
120.048 177.131 o
122.946 192.39 o
120.666 185.617 o
86.4251 167.698 o
140.303 197.804 o
176.878 210.158 o
114.979 189.476 o
82.6685 150.34 o
121.003 188.689 o
107.972 183.759 o
137.784 212.882 o
86.5484 169.682 o
96.2334 169.744 o
91.9923 170.426 o
73.4838 148.283 o
82.405 162.311 o
81.7442 162.894 o
117.375 180.561 o
122.324 173.92 o
84.9861 169.464 o
91.9923 162.997 o
86.4251 169.583 o
95.0578 168.174 o
112.814 174.12 o
53.4297 143.747 o
105.213 185.459 o
96.6112 168.753 o
223.931 241.787 o
93.6304 174.773 o
165.52 208.082 o
85.4877 168.526 o
101.143 174.99 o
196.052 210.12 o
76.5741 158.74 o
146.123 205.934 o
102.676 184.183 o
125.936 192.766 o
74.2363 157.059 o
109.354 177.428 o
109.781 177.451 o
119.214 199.945 o
115.467 184.582 o
120.952 193.982 o
75.3068 162.024 o
115.237 187.463 o
92.9918 168.236 o
75.7771 151.226 o
70.2213 145.784 o
205.137 166.471 o
75.9981 156.319 o
85.5986 162.976 o
102.102 173.508 o
103.62 176.863 o
119.857 190.564 o
99.6918 175.817 o
71.3308 162.895 o
86.8426 176.237 o
102.053 176.802 o
118.845 186.943 o
93.2829 178.653 o
134.388 196.93 o
159.367 199.746 o
92.9918 161.199 o
90.9665 171.914 o
61.6101 144.757 o
97.3617 173.19 o
52.4447 144.413 o
54.2629 148.221 o
73.4516 157.978 o
91.9923 175.975 o
91.9923 172.489 o
79.8422 161.816 o
73.8918 162.353 o
177.986 195.958 o
110.47 193.43 o
119.829 193.522 o
102.676 181.463 o
89.9003 171.755 o
81.9321 161.862 o
122.219 190.194 o
135.748 161.172 o
62.2024 152.163 o
79.0874 155.024 o
87.0721 162.973 o
82.6134 158.018 o
80.2603 155.399 o
77.8423 160.499 o
87.8354 164.305 o
96.6112 173.524 o
77.8854 158.252 o
119.593 182.237 o
82.405 157.423 o
75.9981 157.36 o
100.338 168.027 o
88.6043 159.326 o
99.6918 171.74 o
77.3815 157.818 o
77.3815 157.818 o
88.0786 153.231 o
86.0355 163.894 o
93.39 170.112 o
100.07 171.691 o
60.0321 151.832 o
125.919 185.817 o
114.361 188.118 o
88.8149 170.885 o
147.954 209.424 o
128.305 185.576 o
138.273 185.285 o
102.053 170.679 o
79.8422 163.29 o
102.676 161.789 o
83.3244 146.925 o
77.8423 149.126 o
72.6406 149.357 o
96.6034 169.677 o
70.2957 151.696 o
146.123 176.189 o
102.053 157.244 o
74.455 158.616 o
88.1137 165.1 o
48.4201 138.533 o
82.405 163.535 o
99.6918 180.114 o
79.1274 158.769 o
122.732 192.209 o
92.6243 179.369 o
124.534 195.038 o
110.795 187.396 o
118.612 186.011 o
75.9981 162.602 o
92.9199 168.01 o
112.437 162.248 o
127.469 185.477 o
85.5986 156.902 o
90.5275 167.651 o
160.176 198.89 o
89.8028 162.981 o
133.263 197.376 o
89.1704 169.019 o
94.3293 173.82 o
87.8658 167.778 o
119.829 151.261 o
74.1047 149.388 o
60.2757 143.315 o
52.3384 132.411 o
89.7093 161.833 o
66.7548 143.594 o
94.6143 163.109 o
72.1981 143.664 o
83.9134 161.64 o
88.1852 151.827 o
77.3815 157.839 o
99.0293 175.436 o
90.5275 166.667 o
85.5986 167.671 o
91.1859 171.965 o
109.171 180.869 o
96.2555 176.373 o
75.9981 151.599 o
82.9876 156.481 o
67.3991 151.036 o
92.9199 167.747 o
124.268 190.227 o
72.4355 149.47 o
104.112 182.808 o
97.4442 171.15 o
99.6918 172.663 o
92.7465 168.48 o
98.7598 180.224 o
138.967 198.366 o
101.26 178.408 o
90.9665 170.873 o
125.926 190.025 o
102.053 178.206 o
84.5736 165.616 o
81.4426 159.805 o
43.2738 129.83 o
91.688 170.859 o
80.7929 168.417 o
83.9134 159.417 o
93.1442 170.214 o
122.732 183.605 o
96.2193 158.229 o
101.487 177.183 o
80.2675 163.77 o
84.9363 166.355 o
82.6134 164.352 o
99.0293 173.928 o
114.774 184.992 o
100.188 176.326 o
84.605 162.344 o
89.4511 162.206 o
95.5688 172.584 o
90.0666 169.379 o
82.083 162.909 o
75.3109 157.566 o
90.5275 169.011 o
89.4761 164.167 o
85.3014 169.977 o
98.2813 171.438 o
92.9199 170.645 o
112.764 182.267 o
97.4442 169.392 o
92.6955 170.625 o
107.652 176.295 o
119.356 188.513 o
109.456 179.905 o
84.4305 157.874 o
94.2537 169.524 o
99.9924 173.618 o
85.4009 165.411 o
91.9803 167.075 o
94.3787 170.882 o
77.3815 160.532 o
94.3856 170.23 o
96.6955 174.694 o
98.7654 174.541 o
104.06 175.504 o
108.993 182.047 o
107.522 182.695 o
122.732 182.276 o
71.2762 151.48 o
70.2557 154.556 o
73.6181 155.239 o
90.6211 169.401 o
90.0666 166.123 o
91.8742 169.929 o
84.605 165.151 o
90.1151 161.592 o
91.9923 166.83 o
94.8799 170.692 o
107.484 178.707 o
95.5995 170.61 o
104.806 178.924 o
119.981 187.652 o
75.9981 157.035 o
97.1269 170.624 o
87.0029 164.659 o
87.8658 167.041 o
97.4442 168.486 o
90.0666 166.484 o
101.875 172.172 o
94.3787 168.285 o
105.48 175.545 o
73.3254 152.286 o
96.4927 165.6 o
109.64 180.149 o
105.725 176.697 o
107.05 174.645 o
108.185 178.91 o
115.497 183.07 o
116.633 178.177 o
98.7654 173.851 o
96.7897 169.975 o
101.938 170.734 o
94.3856 170.486 o
109.559 181.911 o
104.159 175.411 o
101.938 169.151 o
120.286 188.48 o
91.8939 166.104 o
105.771 177.169 o
110.489 179.626 o
85.5986 168.267 o
120.239 186.904 o
100.588 173.179 o
105.163 177.002 o
122.732 183.859 o
124.534 183.945 o
131.616 196.1 o
100.386 170.514 o
105.771 175.762 o
106.63 178.305 o
109.465 177.812 o
90.3745 167.071 o
90.0666 166.403 o
87.9701 166.851 o
98.7654 179.761 o
105.255 174.419 o
110.607 179.726 o
101.892 175.387 o
91.8939 163.928 o
97.4442 172.14 o
115.93 181.795 o
105.401 176.842 o
97.6849 174.929 o
101.963 172.916 o
102.83 174.516 o
114.052 182.589 o
95.3899 169.769 o
109.465 178.233 o
109.559 178.762 o
105.44 176.126 o
91.8939 171.344 o
109.039 180.1 o
101.1 172.885 o
124.534 182.486 o
111.489 181.099 o
110.388 185.784 o
106.849 169.973 o
117.454 181.078 o
118.889 186.953 o
100.6 173.26 o
95.7515 163.519 o
109.64 177.983 o
106.29 172.19 o
96.7897 172.576 o
111.489 179.845 o
110.623 182.544 o
99.9427 172.912 o
95.7515 166.885 o
107.904 177.663 o
97.2934 169.196 o
118.079 184.25 o
105.163 176.255 o
101.1 171.405 o
159.732 194.328 o
104.06 177.938 o
104.155 175.427 o
95.2666 170.902 o
98.7654 175.738 o
108.335 180.561 o
95.2666 173.945 o
107.116 179.96 o
105.44 176.873 o
91.8939 167.847 o
101.003 172.869 o
93.658 168.947 o
105.771 168.515 o
131.616 185.561 o
98.7585 172.644 o
93.659 171.113 o
100.215 173.529 o
96.805 169.54 o
139.146 192.113 o
102.607 174.131 o
91.5208 164.915 o
92.333 169.179 o
102.969 173.972 o
123.347 190.931 o
91.8939 172.022 o
104.155 175.246 o
121.17 187.065 o
109.559 181.176 o
126.742 192.893 o
90.1151 168.852 o
87.3924 162.739 o
94.0453 168.018 o
96.5034 171.029 o
91.4452 163.359 o
97.2819 171.216 o
101.892 172.662 o
102.679 173.138 o
115.403 184.589 o
91.8939 171.958 o
106.879 178.748 o
111.638 177.364 o
106.752 176.667 o
105.44 178.494 o
100.066 173.234 o
106.921 175.821 o
126.66 192.264 o
112.204 180.975 o
101.425 174.197 o
111.278 182.38 o
99.9312 176.283 o
92.9095 167.562 o
87.9564 164.638 o
91.9196 166.513 o
112.523 179.053 o
91.055 167.077 o
117.624 177.596 o
91.9662 165.677 o
96.9705 170.899 o
114.731 182.96 o
89.3989 168.364 o
103.073 173.162 o
120.073 192.296 o
106.752 174.68 o
94.4364 167.07 o
103.371 178.341 o
112.619 178.024 o
115.769 186.129 o
123.441 188.516 o
106.639 175.201 o
112.674 180.17 o
102.607 175.327 o
105.201 177.177 o
81.4318 161.384 o
103.915 177.45 o
91.5237 167.224 o
98.8046 172.166 o
106.383 178.483 o
109.559 176.074 o
108.185 179.707 o
102.966 174.905 o
119.128 184.395 o
95.7335 168.277 o
101.015 172.934 o
92.9095 167.424 o
100.215 174.035 o
91.4482 165.339 o
107.755 177.797 o
96.6694 171.352 o
97.5831 170.627 o
118.433 181.552 o
110.08 176.442 o
108.185 178.726 o
103.198 175.349 o
83.859 165.615 o
112.523 184.089 o
108.951 177.916 o
127.162 192.64 o
94.0453 172.293 o
97.0692 170.359 o
102.969 173.228 o
94.9572 166.781 o
123.926 182.721 o
103.757 174.766 o
105.44 175.094 o
99.653 169.038 o
110.484 180.958 o
97.3703 174.212 o
100.018 172.145 o
108.041 178.584 o
91.9662 165.123 o
109.559 179.852 o
95.8956 168.306 o
119.234 181.083 o
112.446 180.859 o
105.143 174.056 o
105.196 175.414 o
103.411 174.177 o
112.523 175.453 o
103.757 174.228 o
108.225 176.123 o
92.562 164.1 o
101.89 173.258 o
111.916 181.347 o
112.57 179.09 o
91.5208 169.392 o
103.444 176.175 o
103.497 175.595 o
114.018 181.409 o
104.701 176.615 o
95.3823 172.89 o
103.151 174.123 o
109.542 179.376 o
100.785 175.28 o
96.9705 172.176 o
104.881 173.374 o
97.5831 172.238 o
96.8001 172.626 o
101.167 173.254 o
103.448 176.302 o
107.317 179.66 o
103.028 174.962 o
101.015 173.605 o
105.44 176.137 o
108.118 177.401 o
105.664 175.077 o
105.771 179.706 o
91.9662 170.943 o
106.89 178.354 o
94.7266 172.387 o
92.856 168.296 o
114.621 184.041 o
106.25 180.37 o
110.274 178.281 o
104.997 176.585 o
112.727 179.116 o
104.667 175.499 o
90.9453 166.685 o
98.4812 168.644 o
90.1151 166.215 o
96.9705 170.629 o
112.303 179.687 o
93.3306 167.285 o
110.835 177.692 o
105.959 176.523 o
101.167 169.547 o
98.2856 170.175 o
92.562 164.021 o
104.641 175.273 o
100.51 172.294 o
105.778 176.64 o
90.0666 167.112 o
99.6569 173.124 o
123.095 183.033 o
105.201 175.261 o
102.38 173.877 o
110.068 179.086 o
102.607 175.586 o
91.5208 166.462 o
94.0453 169.965 o
86.1257 162.136 o
95.0768 168.913 o
81.1909 156.606 o
90.4909 165.709 o
87.5286 167.054 o
85.6918 163.758 o
92.4522 172.104 o
82.7142 156.276 o
100.368 169.857 o
104.641 175.535 o
91.18 166.717 o
87.8912 163.032 o
91.9242 166.272 o
103.448 177.869 o
81.5432 160.563 o
99.4495 172.944 o
98.3521 174.795 o
82.2447 161.143 o
102.095 172.393 o
96.609 174.743 o
89.7968 165.715 o
92.244 169.047 o
99.0672 175.987 o
85.6351 164.011 o
91.9662 165.745 o
96.7716 168.786 o
94.8687 167.765 o
90.8309 169.387 o
82.5445 165.197 o
108.185 175.359 o
90.9905 167.444 o
96.1427 172.761 o
92.809 168.189 o
83.6477 161.297 o
88.6635 166.379 o
93.0118 167.086 o
87.8912 163.729 o
108.185 172.912 o
90.0126 165.953 o
94.4226 168.555 o
90.3699 166.714 o
82.4029 163.302 o
103.757 172.814 o
96.9705 165.41 o
86.2565 167.066 o
85.3856 158.059 o
84.1893 159.675 o
83.7852 163.029 o
106.752 174.68 o
90.5342 165.294 o
105.778 177.394 o
98.6376 171.077 o
93.4461 169.122 o
91.7416 168.197 o
85.9116 162.424 o
92.0982 168.459 o
88.4078 165.55 o
83.2599 153.883 o
101.89 173.372 o
82.7919 162.083 o
94.6061 168.532 o
94.3854 167.073 o
98.2743 171.642 o
93.1275 166.196 o
83.0325 161.747 o
85.224 155.815 o
97.5831 168.087 o
76.0914 160.479 o
104.641 174.38 o
104.997 170.289 o
72.746 157.029 o
90.5134 164.975 o
86.6943 160.727 o
90.1151 162.635 o
105.201 171.634 o
87.4216 166.099 o
72.3558 149.57 o
103.913 176.377 o
86.3402 166.477 o
96.8824 168.138 o
95.172 167.775 o
91.5208 162.738 o
73.6003 152.146 o
81.3829 158.268 o
100.018 167.063 o
93.6503 162.587 o
71.9657 149.427 o
86.7456 162.509 o
74.8603 150.525 o
92.3349 161.23 o
70.1618 154.461 o
84.1893 159.649 o
84.7042 159.128 o
105.771 170.905 o
93.0447 164.485 o
83.0304 159.286 o
95.172 163.498 o
85.3856 159.414 o
83.0761 158.57 o
105.778 169.341 o
101.402 174.238 o
97.5831 171.981 o
87.8912 161.738 o
78.3029 156.525 o
73.0568 150.23 o
101.015 170.136 o
76.581 156.995 o
90.1953 164.513 o
83.9769 160.161 o
84.1893 159.96 o
74.3686 153.718 o
92.856 161.996 o
98.4036 172.335 o
78.8556 156.769 o
93.1093 168.168 o
100.375 172.726 o
77.4984 152.155 o
105.027 175.087 o
92.809 167.683 o
96.9705 168.993 o
grestore
2.000 setlinewidth
2 setlinecap
0.000 0.000 1.000 setrgbcolor
gsave
216 216 43.2 43.2 clipbox
43.2 130.730896 m
45.109091 132.384745 l
47.018182 134.022487 l
48.927273 135.644123 l
50.836364 137.249653 l
52.745455 138.839077 l
54.654545 140.412395 l
56.563636 141.969606 l
58.472727 143.510711 l
60.381818 145.03571 l
62.290909 146.544602 l
64.2 148.037389 l
66.109091 149.514069 l
68.018182 150.974643 l
69.927273 152.41911 l
71.836364 153.847472 l
73.745455 155.259727 l
75.654545 156.655876 l
77.563636 158.035918 l
79.472727 159.399855 l
81.381818 160.747685 l
83.290909 162.079409 l
85.2 163.395026 l
87.109091 164.694538 l
89.018182 165.977943 l
90.927273 167.245242 l
92.836364 168.496435 l
94.745455 169.731521 l
96.654545 170.950501 l
98.563636 172.153375 l
100.472727 173.340143 l
102.381818 174.510805 l
104.290909 175.66536 l
106.2 176.803809 l
108.109091 177.926152 l
110.018182 179.032388 l
111.927273 180.122518 l
113.836364 181.196542 l
115.745455 182.25446 l
117.654545 183.296272 l
119.563636 184.321977 l
121.472727 185.331576 l
123.381818 186.325069 l
125.290909 187.302456 l
127.2 188.263736 l
129.109091 189.20891 l
131.018182 190.137978 l
132.927273 191.050939 l
134.836364 191.947795 l
136.745455 192.828544 l
138.654545 193.693187 l
140.563636 194.541723 l
142.472727 195.374154 l
144.381818 196.190478 l
146.290909 196.990696 l
148.2 197.774808 l
150.109091 198.542813 l
152.018182 199.294712 l
153.927273 200.030505 l
155.836364 200.750192 l
157.745455 201.453772 l
159.654545 202.141247 l
161.563636 202.812615 l
163.472727 203.467876 l
165.381818 204.107032 l
167.290909 204.730081 l
169.2 205.337024 l
171.109091 205.927861 l
173.018182 206.502591 l
174.927273 207.061216 l
176.836364 207.603734 l
178.745455 208.130146 l
180.654545 208.640451 l
182.563636 209.13465 l
184.472727 209.612744 l
186.381818 210.07473 l
188.290909 210.520611 l
190.2 210.950385 l
192.109091 211.364053 l
194.018182 211.761615 l
195.927273 212.143071 l
197.836364 212.50842 l
199.745455 212.857664 l
201.654545 213.1908 l
203.563636 213.507831 l
205.472727 213.808755 l
207.381818 214.093574 l
209.290909 214.362286 l
211.2 214.614891 l
213.109091 214.851391 l
215.018182 215.071784 l
216.927273 215.276071 l
218.836364 215.464252 l
220.745455 215.636326 l
222.654545 215.792294 l
224.563636 215.932156 l
226.472727 216.055912 l
228.381818 216.163562 l
230.290909 216.255105 l
232.2 216.330542 l
stroke
grestore
0.800 setlinewidth
0 setlinejoin
[] 0 setdash
0.000 setgray
gsave
43.2 43.2 m
43.2 259.2 l
stroke
grestore
gsave
259.2 43.2 m
259.2 259.2 l
stroke
grestore
gsave
43.2 43.2 m
259.2 43.2 l
stroke
grestore
gsave
43.2 259.2 m
259.2 259.2 l
stroke
grestore
gsave
233.000000 244.400000 translate
0.000000 rotate
/DejaVuSerif findfont
14.0 scalefont
setfont
0.000000 0.359375 moveto
/parenleft glyphshow

/DejaVuSans-Oblique findfont
14.0 scalefont
setfont
5.461914 0.359375 moveto
/b glyphshow

/DejaVuSerif findfont
14.0 scalefont
setfont
14.348633 0.359375 moveto
/parenright glyphshow


grestore
1.000 setlinewidth
1 setlinejoin
0 setlinecap
[] 0 setdash
1.000 0.000 0.000 setrgbcolor
gsave
/o {
gsave
newpath
translate
1.0 setlinewidth
1 setlinejoin
0 setlinecap
0 -1.5 m
0.397805 -1.5 0.77937 -1.341951 1.06066 -1.06066 c
1.341951 -0.77937 1.5 -0.397805 1.5 0 c
1.5 0.397805 1.341951 0.77937 1.06066 1.06066 c
0.77937 1.341951 0.397805 1.5 0 1.5 c
-0.397805 1.5 -0.77937 1.341951 -1.06066 1.06066 c
-1.341951 0.77937 -1.5 0.397805 -1.5 0 c
-1.5 -0.397805 -1.341951 -0.77937 -1.06066 -1.06066 c
-0.77937 -1.341951 -0.397805 -1.5 0 -1.5 c
cl

gsave
1.000 0.000 0.000 setrgbcolor
fill
grestore
stroke
grestore
} bind def
146.984 73.0969 o
grestore
0.000 setgray
/DejaVuSerif findfont
12.000 scalefont
setfont
gsave
164.384375 68.896875 translate
0.000000 rotate
0.000000 0.000000 m /S glyphshow
8.220703 0.000000 m /a glyphshow
15.375000 0.000000 m /m glyphshow
26.753906 0.000000 m /p glyphshow
34.435547 0.000000 m /l glyphshow
38.273438 0.000000 m /e glyphshow
45.375000 0.000000 m /s glyphshow
grestore
2.000 setlinewidth
2 setlinecap
0.000 0.000 1.000 setrgbcolor
gsave
134.384375 60.871875 m
159.584375 60.871875 l
stroke
grestore
0.000 setgray
gsave
164.384375 56.671875 translate
0.000000 rotate
0.000000 0.000000 m /P glyphshow
8.074219 0.000000 m /o glyphshow
15.298828 0.000000 m /l glyphshow
19.136719 0.000000 m /y glyphshow
25.916016 0.000000 m /n glyphshow
33.644531 0.000000 m /o glyphshow
40.869141 0.000000 m /m glyphshow
52.248047 0.000000 m /i glyphshow
56.085938 0.000000 m /a glyphshow
63.240234 0.000000 m /l glyphshow
67.078125 0.000000 m /space glyphshow
70.892578 0.000000 m /f glyphshow
75.333984 0.000000 m /i glyphshow
79.171875 0.000000 m /t glyphshow
grestore

end
showpage
