\relax 
\citation{terahertz-xfel}
\citation{tanikawa2018superradiant}
\citation{tiedtke2014soft}
\citation{schneidmiller2013tunable}
\citation{schneidmiller2013tunable,boonpornprasert2014start,boonpornprasert2017calculations,krasilnikov2018start}
\citation{krasilnikov2012experimentally}
\citation{genesis}
\citation{krasilnikov2012experimentally}
\citation{boonpornprasert2014start}
\citation{astra}
\citation{DE}
\babel@aux{USenglish}{}
\@writefile{toc}{\contentsline {section}{INTRODUCTION}{1}}
\@writefile{toc}{\contentsline {section}{START-TO-END SIMULATIONS}{1}}
\@writefile{toc}{\contentsline {subsection}{Optimization of the injector}{1}}
\citation{krasilnikov2018start}
\citation{genesis}
\@writefile{lof}{\contentsline {figure}{\numberline {1}{\ignorespaces Dependence of peak current on laser spot size (BSA) for (a) the Gaussian and (b) the flattop laser.\relax }}{2}}
\providecommand*\caption@xref[2]{\@setref\relax\@undefined{#1}}
\newlabel{fig:optimization1}{{1}{2}}
\@writefile{lof}{\contentsline {figure}{\numberline {2}{\ignorespaces Dependence of correlated energy spread on the booster phase for (a) the Gaussian and (b) the flattop laser.\relax }}{2}}
\newlabel{fig:optimization2}{{2}{2}}
\@writefile{toc}{\contentsline {subsection}{Beam transport and matching}{2}}
\@writefile{lof}{\contentsline {figure}{\numberline {3}{\ignorespaces Beam transport for (a) the Gaussian and (b) the flattop laser.\relax }}{2}}
\newlabel{fig:beam-transport}{{3}{2}}
\@writefile{lof}{\contentsline {figure}{\numberline {4}{\ignorespaces Current profile and slice emittance of the optimized beam at the undulator entrance for (a) the Gaussian and (b) the flattop laser.\relax }}{2}}
\newlabel{fig:optimization3}{{4}{2}}
\@writefile{lot}{\contentsline {table}{\numberline {1}{\ignorespaces Simulated beam parameters at undulator entrance\relax }}{2}}
\newlabel{tab:astra-simulation}{{1}{2}}
\citation{krasilnikov2012experimentally}
\bibcite{terahertz-xfel}{1}
\@writefile{toc}{\contentsline {subsection}{THz radiation generation}{3}}
\@writefile{lof}{\contentsline {figure}{\numberline {5}{\ignorespaces THz pulse energy along the undulator for (a) the Gaussian and (b) the flattop laser.\relax }}{3}}
\newlabel{fig:THz-energy}{{5}{3}}
\@writefile{lof}{\contentsline {figure}{\numberline {6}{\ignorespaces THz pulse spectra for (a) the Gaussian and (b) the flattop laser.\relax }}{3}}
\newlabel{fig:THz-spectrum}{{6}{3}}
\@writefile{lot}{\contentsline {table}{\numberline {2}{\ignorespaces Simulated THz SASE radiation parameters\relax }}{3}}
\newlabel{tab:genesis-simulation}{{2}{3}}
\@writefile{toc}{\contentsline {section}{Experimental studies}{3}}
\@writefile{lof}{\contentsline {figure}{\numberline {7}{\ignorespaces (a) Emission curves and transverse phase spaces in (b) horizontal plane and (c) vertical plane.\relax }}{3}}
\newlabel{fig:measurement1}{{7}{3}}
\@writefile{lof}{\contentsline {figure}{\numberline {8}{\ignorespaces (a) Transport and matching of the electron beam from simulation and measurement and (b) transverse distribution at the matching screen (YAG in (a)).\relax }}{3}}
\newlabel{fig:transport-and-matching}{{8}{3}}
\@writefile{toc}{\contentsline {section}{CONCLUSION}{3}}
\bibcite{tanikawa2018superradiant}{2}
\bibcite{tiedtke2014soft}{3}
\bibcite{schneidmiller2013tunable}{4}
\bibcite{boonpornprasert2014start}{5}
\bibcite{boonpornprasert2017calculations}{6}
\bibcite{krasilnikov2018start}{7}
\bibcite{krasilnikov2012experimentally}{8}
\bibcite{genesis}{9}
\bibcite{astra}{10}
\bibcite{DE}{11}
