2.796e-05,0-3.2927e-10i
3.232e-05,0
3.668e-05,0
4.104e-05,4.6566e-10
4.54e-05,4.6566e-10
4.976e-05,0-8.0655e-10i
5.412e-05,6.5854e-10
5.848e-05,0-8.0655e-10i
6.284e-05,0-6.5854e-10i
6.72e-05,0
7.156e-05,9.3132e-10
7.592e-05,0-6.5854e-10i
8.028e-05,6.5854e-10
8.464e-05,6.5854e-10
8.9e-05,6.5854e-10
9.336e-05,6.5854e-10
9.772e-05,0
0.00010208,9.3132e-10
0.00010644,0-6.5854e-10i
0.0001108,0-6.5854e-10i
0.00011516,0-9.3132e-10i
0.00011952,6.5854e-10
0.00012388,9.3132e-10
0.00012824,9.3132e-10
0.0001326,6.5854e-10
0.00013696,0-6.5854e-10i
0.00014132,0-1.3171e-09i
0.00014568,0
0.00015004,9.3132e-10
0.0001544,0
0.00015876,0-6.5854e-10i
0.00016312,0
0.00016748,9.3132e-10
0.00017184,6.5854e-10
0.0001762,6.5854e-10
0.00018056,0
0.00018492,6.5854e-10
0.00018928,6.5854e-10
0.00019364,0-6.5854e-10i
0.000198,6.5854e-10
0.00020236,0
0.00020672,0
0.00021108,0
0.00021544,0
0.0002198,9.3132e-10
0.00022832,0.0014464
0.00023704,0.0020014
0.00024576,0.0023829
0.00025448,0.0026734
0.0002632,0.0029055
0.00027192,0.0030965
0.00028064,0.0032568
0.00028936,0.0033933
0.00029808,0.0035109
0.0003068,0.0036131
0.00031552,0.0037027
0.00032424,0.0037816
0.00033296,0.0038516
0.00034168,0.0039139
0.0003504,0.0039696
0.00035912,0.0040197
0.00036784,0.0040648
0.00037656,0.0041055
0.00038528,0.0041424
0.000394,0.004176
0.00040272,0.0042065
0.00041144,0.0042344
0.00042016,0.0042599
0.00042888,0.0042833
0.0004376,0.0043047
0.00044632,0.0043245
0.00045504,0.0043426
0.0004647,0.0044734
0.0004756,0.0047343
0.0004865,0.0049713
0.0004974,0.0051884
0.0005083,0.0053882
0.0005192,0.0055732
0.0005301,0.0057452
0.000541,0.0059056
0.0005519,0.0060558
0.00056336,0.0062552
0.00057644,0.0066039
0.00058952,0.0069288
0.0006026,0.0072326
0.00061568,0.007518
0.00062876,0.0077867
0.00064184,0.0080405
0.00065492,0.0082807
0.000668,0.0085086
0.00068144,0.008771
0.00069888,0.0094864
0.00071632,0.010121
0.00073376,0.01069
0.0007512,0.011205
0.00076864,0.011676
0.00078608,0.012109
0.00080352,0.012508
0.00082096,0.012878
0.0008384,0.013223
0.00085584,0.013545
0.00087328,0.013846
0.00089072,0.014129
0.00090816,0.014395
0.0009256,0.014647
0.00094304,0.014884
0.00096048,0.015109
0.00097792,0.015322
0.00099536,0.015524
0.0010144,0.015735
0.001034,0.015943
0.0010536,0.016141
0.0010733,0.01633
0.0010929,0.016511
0.0011125,0.016684
0.0011321,0.016851
0.0011517,0.01701
0.0011714,0.017163
0.0011922,0.017336
0.001214,0.017521
0.0012358,0.017699
0.0012576,0.01787
0.0012794,0.018035
0.0013012,0.018194
0.001323,0.018347
0.0013448,0.018495
0.0013666,0.018638
0.0013909,0.018752
0.0014193,0.018824
0.0014476,0.018893
0.0014759,0.018959
0.0015043,0.019023
0.0015326,0.019084
0.001561,0.019142
0.0015893,0.019198
0.0016176,0.019252
0.0016469,0.019315
0.0016796,0.019416
0.0017123,0.019512
0.001745,0.019605
0.0017777,0.019694
0.0018104,0.01978
0.0018431,0.019863
0.0018758,0.019943
0.0019085,0.02002
0.0019414,0.020096
0.0019784,0.020197
0.0020155,0.020294
0.0020525,0.020387
0.0020896,0.020477
0.0021267,0.020563
0.0021637,0.020646
0.0022008,0.020726
0.0022378,0.020803
0.0022749,0.020878
0.0023138,0.020989
0.0023531,0.021103
0.0023923,0.021212
0.0024316,0.021317
0.0024708,0.021417
0.00251,0.021514
0.0025493,0.021608
0.0025885,0.021698
0.0026278,0.021785
0.00267,0.021889
0.0027136,0.021998
0.0027572,0.022104
0.0028008,0.022206
0.0028444,0.022305
0.002888,0.0224
0.0029316,0.022493
0.0029752,0.022582
0.0030188,0.022669
0.0030691,0.02275
0.0031258,0.022826
0.0031825,0.022898
0.0032392,0.022968
0.0032958,0.023035
0.0033525,0.023099
0.0034092,0.023162
0.0034659,0.023222
0.0035226,0.02328
0.0035844,0.02335
0.0036564,0.023445
0.0037283,0.023536
0.0038002,0.023622
0.0038722,0.023704
0.0039441,0.023783
0.0040161,0.023857
0.004088,0.023929
0.0041599,0.023997
0.0042344,0.02407
0.0043216,0.024177
0.0044088,0.024279
0.004496,0.024377
0.0045832,0.02447
0.0046704,0.024559
0.0047576,0.024644
0.0048448,0.024726
0.004932,0.024804
0.0050192,0.024879
0.0051215,0.024967
0.005224,0.025051
0.0053264,0.025132
0.0054289,0.025209
0.0055314,0.025284
0.0056338,0.025355
0.0057363,0.025424
0.0058387,0.02549
0.0059412,0.025553
0.0060508,0.025625
0.006162,0.025696
0.0062731,0.025764
0.0063843,0.025829
0.0064955,0.025892
0.0066067,0.025952
0.0067179,0.026011
0.006829,0.026067
0.0069402,0.026121
0.0070626,0.026177
0.0071912,0.026234
0.0073198,0.026288
0.0074485,0.02634
0.0075771,0.02639
0.0077057,0.026439
0.0078343,0.026485
0.0079629,0.026531
0.0080916,0.026574
0.0082253,0.026625
0.0083648,0.026685
0.0085043,0.026743
0.0086438,0.026798
0.0087834,0.026852
0.0089229,0.026904
0.0090624,0.026954
0.0092019,0.027002
0.0093414,0.027049
0.0094912,0.027104
0.0096656,0.027181
0.00984,0.027254
0.010014,0.027325
0.010189,0.027394
0.010363,0.02746
0.010538,0.027523
0.010712,0.027584
0.010886,0.027643
0.011063,0.027707
0.01126,0.02781
0.011456,0.02791
0.011652,0.028006
0.011848,0.028099
0.012044,0.028189
0.012241,0.028275
0.012437,0.028359
0.012633,0.02844
0.012829,0.028518
0.01304,0.028622
0.013251,0.028723
0.013463,0.02882
0.013674,0.028915
0.013886,0.029006
0.014097,0.029095
0.014309,0.02918
0.01452,0.029263
0.014732,0.029344
0.014956,0.029425
0.015185,0.029505
0.015414,0.029583
0.015643,0.029658
0.015872,0.029731
0.016101,0.029801
0.01633,0.029869
0.016559,0.029936
0.016788,0.03
0.017032,0.030091
0.017287,0.030198
0.017542,0.030302
0.017797,0.030403
0.018052,0.0305
0.018307,0.030595
0.018562,0.030686
0.018818,0.030775
0.019073,0.030862
0.019335,0.030951
0.019608,0.031046
0.01988,0.031138
0.020153,0.031227
0.020425,0.031313
0.020698,0.031397
0.02097,0.031479
0.021243,0.031558
0.021515,0.031635
0.021791,0.031715
0.022079,0.031805
0.022367,0.031893
0.022655,0.031978
0.022942,0.032061
0.02323,0.032142
0.023518,0.032221
0.023806,0.032298
0.024093,0.032373
0.024383,0.032449
0.024699,0.032555
0.025015,0.032659
0.025332,0.03276
0.025648,0.032859
0.025964,0.032955
0.02628,0.033049
0.026596,0.03314
0.026912,0.03323
0.027228,0.033317
0.027558,0.033411
0.027889,0.033503
0.028221,0.033593
0.028552,0.033681
0.028883,0.033767
0.029215,0.033851
0.029546,0.033933
0.029877,0.034013
0.030209,0.034092
0.03055,0.034183
0.030894,0.034278
0.031239,0.034371
0.031583,0.034461
0.031927,0.03455
0.032272,0.034637
0.032616,0.034722
0.032961,0.034805
0.033305,0.034886
0.033658,0.034974
0.034018,0.035068
0.034377,0.035159
0.034737,0.035248
0.035097,0.035336
0.035457,0.035421
0.035816,0.035505
0.036176,0.035587
0.036536,0.035668
0.036903,0.03575
0.037282,0.035837
0.037661,0.035922
0.038041,0.036006
0.03842,0.036087
0.038799,0.036167
0.039179,0.036246
0.039558,0.036322
0.039937,0.036398
0.040319,0.036474
0.040712,0.036555
0.041104,0.036634
0.041496,0.036712
0.041889,0.036789
0.042281,0.036864
0.042674,0.036938
0.043066,0.03701
0.043458,0.037081
0.043851,0.037151
0.044263,0.037242
0.044675,0.037331
0.045087,0.037418
0.045499,0.037503
0.045911,0.037587
0.046323,0.03767
0.046735,0.037751
0.047148,0.03783
0.04756,0.037908
0.047977,0.037991
0.048396,0.038072
0.048814,0.038153
0.049233,0.038231
0.049651,0.038309
0.05007,0.038385
0.050488,0.03846
0.050907,0.038534
0.051326,0.038607
0.051753,0.038685
0.052185,0.038765
0.052616,0.038843
0.053048,0.038921
0.05348,0.038997
0.053911,0.039072
0.054343,0.039146
0.054775,0.039218
0.055206,0.03929
0.05564,0.039363
0.056076,0.039439
0.056512,0.039513
0.056948,0.039586
0.057384,0.039658
0.05782,0.039729
0.058256,0.039799
0.058692,0.039868
0.059128,0.039935
0.05957,0.04001
0.060026,0.040101
0.060482,0.04019
0.060937,0.040277
0.061393,0.040364
0.061849,0.040449
0.062304,0.040533
0.06276,0.040615
0.063215,0.040697
0.063675,0.040781
0.064159,0.040886
0.064643,0.04099
0.065127,0.041093
0.065611,0.041194
0.066095,0.041293
0.066579,0.041391
0.067063,0.041487
0.067547,0.041582
0.068031,0.041676
0.068532,0.041781
0.069034,0.041885
0.069535,0.041987
0.070036,0.042088
0.070538,0.042187
0.071039,0.042285
0.071541,0.042382
0.072042,0.042477
0.072543,0.042571
0.073066,0.042676
0.073593,0.042782
0.074121,0.042887
0.074649,0.04299
0.075176,0.043092
0.075704,0.043192
0.076231,0.043291
0.076759,0.043389
0.077286,0.043485
0.077826,0.04359
0.078374,0.0437
0.078921,0.043809
0.079468,0.043916
0.080015,0.044022
0.080562,0.044126
0.081109,0.044229
0.081657,0.04433
0.082204,0.04443
0.082759,0.044535
0.083324,0.044645
0.083888,0.044753
0.084453,0.04486
0.085017,0.044966
0.085582,0.04507
0.086147,0.045173
0.086711,0.045274
0.087276,0.045375
0.087846,0.045477
0.088428,0.045585
0.08901,0.045693
0.089592,0.045798
0.090174,0.045903
0.090756,0.046006
0.091338,0.046108
0.09192,0.046208
0.092502,0.046307
0.093085,0.046406
0.093678,0.046512
0.094271,0.046617
0.094864,0.04672
0.095457,0.046822
0.09605,0.046923
0.096643,0.047022
0.097236,0.047121
0.097829,0.047218
0.098422,0.047314
0.099035,0.047422
0.09965,0.047531
0.10026,0.047638
0.10088,0.047744
0.10149,0.047848
0.10211,0.047951
0.10272,0.048053
0.10334,0.048154
0.10395,0.048253
0.10458,0.048359
0.10521,0.048465
0.10583,0.048571
0.10646,0.048674
0.10709,0.048777
0.10772,0.048879
0.10835,0.048979
0.10897,0.049078
0.1096,0.049176
0.11024,0.049281
0.11089,0.049391
0.11154,0.0495
0.11218,0.049607
0.11283,0.049713
0.11348,0.049818
0.11412,0.049922
0.11477,0.050025
0.11542,0.050126
0.11608,0.050232
0.11674,0.050346
0.11741,0.050458
0.11808,0.050569
0.11874,0.050679
0.11941,0.050787
0.12008,0.050894
0.12074,0.051
0.12141,0.051105
0.12208,0.051212
0.12277,0.051329
0.12346,0.051445
0.12415,0.051559
0.12484,0.051673
0.12553,0.051784
0.12622,0.051895
0.12691,0.052005
0.1276,0.052113
0.12828,0.05222
0.12898,0.05233
0.12967,0.052438
0.13036,0.052545
0.13106,0.052651
0.13175,0.052756
0.13244,0.052859
0.13314,0.052962
0.13383,0.053064
0.13452,0.053164
0.13524,0.053276
0.13595,0.053388
0.13667,0.053499
0.13738,0.053609
0.1381,0.053717
0.13881,0.053825
0.13953,0.053931
0.14024,0.054037
0.14096,0.054141
0.14168,0.05425
0.14242,0.054359
0.14315,0.054468
0.14388,0.054576
0.14461,0.054683
0.14535,0.054788
0.14608,0.054892
0.14681,0.054996
0.14754,0.055098
0.14829,0.055207
0.14904,0.05532
0.1498,0.055433
0.15055,0.055544
0.15131,0.055654
0.15206,0.055763
0.15281,0.055871
0.15357,0.055978
0.15432,0.056084
0.15508,0.05619
0.15584,0.056298
0.1566,0.056405
0.15736,0.05651
0.15812,0.056615
0.15888,0.056719
0.15964,0.056822
0.1604,0.056923
0.16117,0.057024
0.16193,0.057126
0.16271,0.057238
0.16349,0.057348
0.16427,0.057458
0.16505,0.057566
0.16583,0.057673
0.16661,0.057779
0.16739,0.057885
0.16817,0.057989
0.16895,0.058092
0.16975,0.058204
0.17055,0.058314
0.17134,0.058424
0.17214,0.058532
0.17293,0.05864
0.17373,0.058746
0.17452,0.058852
0.17532,0.058956
0.17612,0.05906
0.17693,0.059177
0.17776,0.059295
0.17858,0.059413
0.1794,0.059529
0.18022,0.059645
0.18104,0.059759
0.18186,0.059873
0.18269,0.059985
0.18351,0.060096
0.18433,0.060209
0.18516,0.060321
0.18599,0.060433
0.18682,0.060544
0.18765,0.060654
0.18848,0.060762
0.18931,0.06087
0.19013,0.060977
0.19096,0.061083
0.1918,0.061196
0.19265,0.061315
0.19351,0.061434
0.19436,0.061552
0.19521,0.061669
0.19606,0.061784
0.19692,0.061899
0.19777,0.062013
0.19862,0.062125
0.19948,0.062242
0.20036,0.062369
0.20124,0.062495
0.20212,0.062619
0.203,0.062743
0.20387,0.062865
0.20475,0.062986
0.20563,0.063106
0.20651,0.063226
0.20739,0.063346
0.20829,0.063475
0.20919,0.063603
0.21009,0.06373
0.21098,0.063856
0.21188,0.063981
0.21278,0.064105
0.21368,0.064228
0.21458,0.06435
0.21548,0.064471
0.21639,0.064603
0.21731,0.064735
0.21823,0.064865
0.21915,0.064994
0.22006,0.065122
0.22098,0.06525
0.2219,0.065376
0.22282,0.065501
0.22373,0.065625
0.22467,0.065755
0.2256,0.065885
0.22654,0.066015
0.22747,0.066143
0.22841,0.066271
0.22934,0.066397
0.23028,0.066523
0.23121,0.066647
0.23215,0.06677
0.23309,0.066897
0.23404,0.067026
0.23499,0.067153
0.23594,0.06728
0.23688,0.067406
0.23783,0.06753
0.23878,0.067654
0.23973,0.067776
0.24068,0.067898
0.24164,0.068025
0.24261,0.068159
0.24359,0.068293
0.24456,0.068425
0.24554,0.068556
0.24651,0.068686
0.24748,0.068815
0.24846,0.068943
0.24943,0.06907
0.25041,0.069199
0.2514,0.069335
0.2524,0.069469
0.25339,0.069603
0.25438,0.069735
0.25537,0.069866
0.25636,0.069997
0.25736,0.070126
0.25835,0.070254
0.25934,0.070384
0.26037,0.070529
0.26139,0.070673
0.26241,0.070816
0.26343,0.070958
0.26446,0.071099
0.26548,0.071238
0.2665,0.071377
0.26752,0.071515
0.26854,0.071651
0.26959,0.071796
0.27063,0.071941
0.27167,0.072085
0.27271,0.072228
0.27375,0.07237
0.2748,0.07251
0.27584,0.07265
0.27688,0.072788
0.27792,0.072926
0.27899,0.073077
0.28007,0.073232
0.28115,0.073385
0.28223,0.073538
0.28331,0.073689
0.28439,0.073839
0.28547,0.073988
0.28655,0.074135
0.28762,0.074282
0.28872,0.074436
0.28983,0.074594
0.29094,0.074751
0.29205,0.074907
0.29316,0.075062
0.29427,0.075215
0.29538,0.075368
0.29649,0.075519
0.2976,0.075669
0.29872,0.075824
0.29985,0.075987
0.30098,0.076149
0.30212,0.07631
0.30325,0.076469
0.30439,0.076627
0.30552,0.076784
0.30665,0.07694
0.30779,0.077095
0.30893,0.077253
0.3101,0.077424
0.31126,0.077593
0.31243,0.077762
0.3136,0.077929
0.31477,0.078094
0.31594,0.078259
0.31711,0.078422
0.31828,0.078584
0.31945,0.078746
0.32065,0.078926
0.32186,0.079104
0.32306,0.079281
0.32427,0.079457
0.32547,0.079632
0.32668,0.079805
0.32789,0.079976
0.32909,0.080147
0.3303,0.080316
0.33152,0.080492
0.33274,0.080669
0.33397,0.080843
0.33519,0.081017
0.33642,0.081189
0.33764,0.08136
0.33887,0.08153
0.3401,0.081698
0.34132,0.081865
0.34257,0.082043
0.34382,0.082224
0.34507,0.082404
0.34633,0.082583
0.34758,0.08276
0.34883,0.082936
0.35009,0.08311
0.35134,0.083284
0.35259,0.083456
0.35386,0.083634
0.35513,0.083817
0.35641,0.083999
0.35768,0.084179
0.35896,0.084358
0.36024,0.084536
0.36151,0.084712
0.36279,0.084888
0.36406,0.085062
0.36534,0.08524
0.36664,0.085429
0.36794,0.085615
0.36924,0.085801
0.37054,0.085985
0.37184,0.086168
0.37314,0.086349
0.37444,0.08653
0.37574,0.086709
0.37705,0.086892
0.3784,0.087098
0.37976,0.087303
0.38111,0.087506
0.38246,0.087708
0.38382,0.087908
0.38517,0.088107
0.38652,0.088305
0.38788,0.088501
0.38923,0.088696
0.39062,0.088908
0.39201,0.089118
0.39339,0.089328
0.39478,0.089535
0.39617,0.089741
0.39755,0.089946
0.39894,0.090149
0.40032,0.090351
0.40171,0.090552
0.40312,0.090767
0.40454,0.090983
0.40596,0.091199
0.40737,0.091412
0.40879,0.091624
0.41021,0.091835
0.41163,0.092044
0.41304,0.092251
0.41446,0.092458
0.4159,0.092677
0.41736,0.092902
0.41882,0.093125
0.42028,0.093347
0.42174,0.093567
0.4232,0.093786
0.42465,0.094003
0.42611,0.094219
0.42757,0.094433
0.42905,0.094658
0.43056,0.094894
0.43206,0.095128
0.43356,0.09536
0.43507,0.095591
0.43657,0.095821
0.43808,0.096048
0.43958,0.096274
0.44109,0.096499
0.44261,0.096732
0.44416,0.096984
0.44572,0.097234
0.44728,0.097483
0.44883,0.09773
0.45039,0.097975
0.45194,0.098219
0.4535,0.09846
0.45506,0.098701
0.45662,0.098943
0.45822,0.099205
0.45982,0.099465
0.46141,0.099724
0.46301,0.099981
0.46461,0.10024
0.46621,0.10049
0.46781,0.10074
0.4694,0.10099
0.471,0.10124
0.47265,0.10152
0.4743,0.1018
0.47596,0.10207
0.47761,0.10235
0.47926,0.10262
0.48091,0.10289
0.48257,0.10316
0.48422,0.10343
0.48587,0.10369
0.48757,0.10399
0.48928,0.10428
0.49099,0.10458
0.4927,0.10488
0.49442,0.10517
0.49613,0.10546
0.49784,0.10575
0.49955,0.10603
0.50126,0.10632
0.50301,0.10662
0.50478,0.10693
0.50655,0.10724
0.50832,0.10755
0.51009,0.10785
0.51186,0.10815
0.51363,0.10845
0.5154,0.10875
0.51717,0.10905
0.51896,0.10936
0.52078,0.10968
0.5226,0.11
0.52442,0.11032
0.52624,0.11064
0.52806,0.11095
0.52988,0.11127
0.5317,0.11158
0.53352,0.11189
0.53537,0.11221
0.53726,0.11256
0.53916,0.1129
0.54106,0.11325
0.54296,0.11359
0.54486,0.11393
0.54676,0.11427
0.54866,0.11461
0.55056,0.11494
0.55246,0.11528
0.55443,0.11565
0.55641,0.11602
0.55838,0.11638
0.56035,0.11675
0.56233,0.11711
0.5643,0.11747
0.56627,0.11782
0.56824,0.11817
0.57022,0.11853
0.5723,0.11895
0.57439,0.11938
0.57648,0.11981
0.57857,0.12023
0.58066,0.12065
0.58275,0.12107
0.58484,0.12148
0.58693,0.12189
0.58902,0.1223
0.59123,0.12279
0.59348,0.1233
0.59573,0.12381
0.59798,0.12431
0.60023,0.12481
0.60248,0.12531
0.60473,0.1258
0.60698,0.12629
0.60923,0.12677
0.61157,0.12731
0.61398,0.1279
0.61638,0.12848
0.61879,0.12905
0.6212,0.12962
0.6236,0.13019
0.62601,0.13075
0.62842,0.1313
0.63082,0.13185
0.63333,0.13249
0.63598,0.13325
0.63863,0.134
0.64129,0.13475
0.64394,0.13549
0.64659,0.13622
0.64924,0.13695
0.6519,0.13767
0.65455,0.13839
0.65727,0.13915
0.66021,0.14012
0.66316,0.14107
0.6661,0.14202
0.66905,0.14295
0.67199,0.14388
0.67494,0.1448
0.67788,0.14571
0.68083,0.14661
0.68379,0.14753
0.68712,0.14887
0.69045,0.15021
0.69377,0.15152
0.6971,0.15283
0.70043,0.15412
0.70375,0.1554
0.70708,0.15666
0.71041,0.15791
0.71373,0.15915
0.71753,0.16116
0.72141,0.16325
0.72528,0.16531
0.72915,0.16735
0.73302,0.16936
0.73689,0.17135
0.74076,0.17332
0.74464,0.17526
0.74851,0.17717
0.75289,0.18002
0.7575,0.18324
0.7621,0.1864
0.76671,0.18951
0.77132,0.19257
0.77592,0.19558
0.78053,0.19855
0.78514,0.20147
0.78974,0.20435
0.79491,0.20829
0.8006,0.21314
0.80629,0.21789
0.81198,0.22254
0.81766,0.2271
0.82335,0.23157
0.82904,0.23596
0.83473,0.24026
0.84042,0.24448
0.84666,0.24989
0.85394,0.25748
0.86122,0.26487
0.8685,0.27205
0.87578,0.27904
0.88306,0.28586
0.89035,0.29251
0.89763,0.29901
0.90491,0.30535
0.91261,0.31307
0.92232,0.32761
0.93203,0.34164
0.94174,0.35522
0.95145,0.36838
0.96116,0.38115
0.97087,0.39356
0.98058,0.40563
0.99029,0.41738
1,0.42884
