O    0.154250    0.000000    0.000000    0.000000    0
Q    0.067500   -0.407926   -1.500000    1.500000    0
O    0.312500    0.000000    0.000000    0.000000    0
Q    0.067500    0.000000    0.000000    0.000000    0
O    0.312500    0.000000    0.000000    0.000000    0
Q    0.067500    0.749456   -1.500000    1.500000    0
O    0.312500    0.000000    0.000000    0.000000    0
Q    0.067500    0.000000    0.000000    0.000000    0
O    0.312500    0.000000    0.000000    0.000000    0
Q    0.067500   -0.438449   -1.500000    1.500000    0
O    0.312500    0.000000    0.000000    0.000000    0
Q    0.067500    0.000000    0.000000    0.000000    0
O    0.312500    0.000000    0.000000    0.000000    0
Q    0.067500    0.000000    0.000000    0.000000    0
O    0.312500    0.000000    0.000000    0.000000    0
Q    0.067500    0.000000    0.000000    0.000000    0
O    1.439500    0.000000    0.000000    0.000000    0
Q    0.067500    0.000000    0.000000    0.000000    0
O    0.032500    0.000000    0.000000    0.000000    0
Q    0.067500    0.000000    0.000000    0.000000    0
O    0.231250    0.000000    0.000000    0.000000    0
O    3.000000    0.000000    0.000000    0.000000    0
