%!PS-Adobe-3.0 EPSF-3.0
%%Title: sco-emi_xy-z.eps
%%Creator: matplotlib version 2.2.3, http://matplotlib.org/
%%CreationDate: Sun Nov 25 11:30:53 2018
%%Orientation: portrait
%%BoundingBox: 18 252 594 540
%%EndComments
%%BeginProlog
/mpldict 9 dict def
mpldict begin
/m { moveto } bind def
/l { lineto } bind def
/r { rlineto } bind def
/c { curveto } bind def
/cl { closepath } bind def
/box {
m
1 index 0 r
0 exch r
neg 0 r
cl
} bind def
/clipbox {
box
clip
newpath
} bind def
%!PS-Adobe-3.0 Resource-Font
%%Title: DejaVu Sans Oblique
%%Copyright: Copyright (c) 2003 by Bitstream, Inc. All Rights Reserved. Copyright (c) 2006 by Tavmjong Bah. All Rights Reserved. DejaVu changes are in public domain 
%%Creator: Converted from TrueType to type 3 by PPR
25 dict begin
/_d{bind def}bind def
/_m{moveto}_d
/_l{lineto}_d
/_cl{closepath eofill}_d
/_c{curveto}_d
/_sc{7 -1 roll{setcachedevice}{pop pop pop pop pop pop}ifelse}_d
/_e{exec}_d
/FontName /DejaVuSans-Oblique def
/PaintType 0 def
/FontMatrix[.001 0 0 .001 0 0]def
/FontBBox[-1016 -350 1659 1068]def
/FontType 3 def
/Encoding [ /n /x /y /z /epsilon ] def
/FontInfo 10 dict dup begin
/FamilyName (DejaVu Sans) def
/FullName (DejaVu Sans Oblique) def
/Notice (Copyright (c) 2003 by Bitstream, Inc. All Rights Reserved. Copyright (c) 2006 by Tavmjong Bah. All Rights Reserved. DejaVu changes are in public domain ) def
/Weight (Oblique) def
/Version (Version 2.35) def
/ItalicAngle -11.0 def
/isFixedPitch false def
/UnderlinePosition -130 def
/UnderlineThickness 90 def
end readonly def
/CharStrings 6 dict dup begin
/.notdef 0 def
/n{{634 0 35 0 566 560 _sc
557 330 _m
493 0 _l
403 0 _l
467 327 _l
469 342 471 355 473 367 _c
475 379 476 388 476 395 _c
476 422 467 443 450 459 _c
432 474 408 482 378 482 _c
330 482 288 466 253 434 _c
218 402 195 358 185 303 _c
125 0 _l
35 0 _l
141 547 _l
231 547 _l
213 461 _l
237 492 267 516 303 534 _c
338 551 375 560 414 560 _c
462 560 499 547 526 521 _c
}_e{552 495 566 458 566 411 _c
566 399 565 387 564 374 _c
562 360 560 346 557 330 _c
_cl}_e}_d
/x{592 0 -25 0 600 547 _sc
600 547 _m
349 279 _l
503 0 _l
400 0 _l
284 217 _l
83 0 _l
-25 0 _l
243 288 _l
100 547 _l
203 547 _l
308 349 _l
491 547 _l
600 547 _l
_cl}_d
/y{592 0 -24 -207 603 547 _sc
248 -50 _m
206 -120 172 -163 146 -181 _c
120 -198 86 -207 46 -207 _c
-24 -207 _l
-9 -132 _l
42 -132 _l
67 -132 88 -125 106 -111 _c
123 -97 143 -71 165 -31 _c
193 20 _l
72 547 _l
167 547 _l
258 128 _l
509 547 _l
603 547 _l
248 -50 _l
_cl}_d
/z{525 0 -2 0 543 547 _sc
116 547 _m
543 547 _l
527 465 _l
115 72 _l
455 72 _l
441 0 _l
-2 0 _l
13 82 _l
425 475 _l
102 475 _l
116 547 _l
_cl}_d
/epsilon{{541 0 39 -13 506 561 _sc
197 295 _m
162 303 137 317 122 338 _c
110 353 104 371 104 391 _c
104 446 130 490 184 522 _c
225 548 278 561 342 561 _c
366 561 392 559 419 555 _c
446 551 475 545 505 537 _c
490 456 _l
460 465 432 472 407 476 _c
381 480 357 482 334 482 _c
295 482 263 474 238 460 _c
207 442 192 420 192 394 _c
192 376 200 362 216 350 _c
234 336 263 329 301 329 _c
}_e{376 329 _l
362 254 _l
290 254 _l
245 254 209 245 183 229 _c
147 207 129 178 129 143 _c
129 121 138 102 158 88 _c
182 70 218 61 268 61 _c
298 61 327 63 357 69 _c
385 75 412 85 438 97 _c
422 13 _l
390 4 361 -2 333 -6 _c
305 -10 277 -13 251 -13 _c
173 -13 117 1 81 30 _c
53 52 39 83 39 122 _c
39 174 57 216 94 248 _c
120 271 155 287 197 295 _c
_cl}_e}_d
end readonly def

/BuildGlyph
 {exch begin
 CharStrings exch
 2 copy known not{pop /.notdef}if
 true 3 1 roll get exec
 end}_d

/BuildChar {
 1 index /Encoding get exch get
 1 index /BuildGlyph get exec
}_d

FontName currentdict end definefont pop
%!PS-Adobe-3.0 Resource-Font
%%Title: DejaVu Sans
%%Copyright: Copyright (c) 2003 by Bitstream, Inc. All Rights Reserved. Copyright (c) 2006 by Tavmjong Bah. All Rights Reserved. DejaVu changes are in public domain 
%%Creator: Converted from TrueType to type 3 by PPR
25 dict begin
/_d{bind def}bind def
/_m{moveto}_d
/_l{lineto}_d
/_cl{closepath eofill}_d
/_c{curveto}_d
/_sc{7 -1 roll{setcachedevice}{pop pop pop pop pop pop}ifelse}_d
/_e{exec}_d
/FontName /DejaVuSans def
/PaintType 0 def
/FontMatrix[.001 0 0 .001 0 0]def
/FontBBox[-1021 -463 1793 1232]def
/FontType 3 def
/Encoding [ /space /parenleft /parenright /comma /period /slash /zero /one /two /four /five /six /eight /a /d /m /r /x /y ] def
/FontInfo 10 dict dup begin
/FamilyName (DejaVu Sans) def
/FullName (DejaVu Sans) def
/Notice (Copyright (c) 2003 by Bitstream, Inc. All Rights Reserved. Copyright (c) 2006 by Tavmjong Bah. All Rights Reserved. DejaVu changes are in public domain ) def
/Weight (Book) def
/Version (Version 2.35) def
/ItalicAngle 0.0 def
/isFixedPitch false def
/UnderlinePosition -130 def
/UnderlineThickness 90 def
end readonly def
/CharStrings 20 dict dup begin
/.notdef 0 def
/space{318 0 0 0 0 0 _sc
}_d
/parenleft{390 0 86 -131 310 759 _sc
310 759 _m
266 683 234 609 213 536 _c
191 463 181 389 181 314 _c
181 238 191 164 213 91 _c
234 17 266 -56 310 -131 _c
232 -131 _l
183 -54 146 20 122 94 _c
98 168 86 241 86 314 _c
86 386 98 459 122 533 _c
146 607 182 682 232 759 _c
310 759 _l
_cl}_d
/parenright{390 0 80 -131 304 759 _sc
80 759 _m
158 759 _l
206 682 243 607 267 533 _c
291 459 304 386 304 314 _c
304 241 291 168 267 94 _c
243 20 206 -54 158 -131 _c
80 -131 _l
123 -56 155 17 177 91 _c
198 164 209 238 209 314 _c
209 389 198 463 177 536 _c
155 609 123 683 80 759 _c
_cl}_d
/comma{318 0 77 -115 220 124 _sc
117 124 _m
220 124 _l
220 40 _l
140 -115 _l
77 -115 _l
117 40 _l
117 124 _l
_cl}_d
/period{318 0 107 0 210 124 _sc
107 124 _m
210 124 _l
210 0 _l
107 0 _l
107 124 _l
_cl}_d
/slash{337 0 0 -92 337 729 _sc
254 729 _m
337 729 _l
83 -92 _l
0 -92 _l
254 729 _l
_cl}_d
/zero{636 0 66 -13 570 742 _sc
318 664 _m
267 664 229 639 203 589 _c
177 539 165 464 165 364 _c
165 264 177 189 203 139 _c
229 89 267 64 318 64 _c
369 64 407 89 433 139 _c
458 189 471 264 471 364 _c
471 464 458 539 433 589 _c
407 639 369 664 318 664 _c
318 742 _m
399 742 461 709 505 645 _c
548 580 570 486 570 364 _c
570 241 548 147 505 83 _c
461 19 399 -13 318 -13 _c
236 -13 173 19 130 83 _c
87 147 66 241 66 364 _c
66 486 87 580 130 645 _c
173 709 236 742 318 742 _c
_cl}_d
/one{636 0 110 0 544 729 _sc
124 83 _m
285 83 _l
285 639 _l
110 604 _l
110 694 _l
284 729 _l
383 729 _l
383 83 _l
544 83 _l
544 0 _l
124 0 _l
124 83 _l
_cl}_d
/two{{636 0 73 0 536 742 _sc
192 83 _m
536 83 _l
536 0 _l
73 0 _l
73 83 _l
110 121 161 173 226 239 _c
290 304 331 346 348 365 _c
380 400 402 430 414 455 _c
426 479 433 504 433 528 _c
433 566 419 598 392 622 _c
365 646 330 659 286 659 _c
255 659 222 653 188 643 _c
154 632 117 616 78 594 _c
78 694 _l
118 710 155 722 189 730 _c
223 738 255 742 284 742 _c
}_e{359 742 419 723 464 685 _c
509 647 532 597 532 534 _c
532 504 526 475 515 449 _c
504 422 484 390 454 354 _c
446 344 420 317 376 272 _c
332 227 271 164 192 83 _c
_cl}_e}_d
/four{636 0 49 0 580 729 _sc
378 643 _m
129 254 _l
378 254 _l
378 643 _l
352 729 _m
476 729 _l
476 254 _l
580 254 _l
580 172 _l
476 172 _l
476 0 _l
378 0 _l
378 172 _l
49 172 _l
49 267 _l
352 729 _l
_cl}_d
/five{{636 0 77 -13 549 729 _sc
108 729 _m
495 729 _l
495 646 _l
198 646 _l
198 467 _l
212 472 227 476 241 478 _c
255 480 270 482 284 482 _c
365 482 429 459 477 415 _c
525 370 549 310 549 234 _c
549 155 524 94 475 51 _c
426 8 357 -13 269 -13 _c
238 -13 207 -10 175 -6 _c
143 -1 111 6 77 17 _c
77 116 _l
106 100 136 88 168 80 _c
199 72 232 69 267 69 _c
}_e{323 69 368 83 401 113 _c
433 143 450 183 450 234 _c
450 284 433 324 401 354 _c
368 384 323 399 267 399 _c
241 399 214 396 188 390 _c
162 384 135 375 108 363 _c
108 729 _l
_cl}_e}_d
/six{{636 0 70 -13 573 742 _sc
330 404 _m
286 404 251 388 225 358 _c
199 328 186 286 186 234 _c
186 181 199 139 225 109 _c
251 79 286 64 330 64 _c
374 64 409 79 435 109 _c
461 139 474 181 474 234 _c
474 286 461 328 435 358 _c
409 388 374 404 330 404 _c
526 713 _m
526 623 _l
501 635 476 644 451 650 _c
425 656 400 659 376 659 _c
310 659 260 637 226 593 _c
}_e{192 549 172 482 168 394 _c
187 422 211 444 240 459 _c
269 474 301 482 336 482 _c
409 482 467 459 509 415 _c
551 371 573 310 573 234 _c
573 159 550 99 506 54 _c
462 9 403 -13 330 -13 _c
246 -13 181 19 137 83 _c
92 147 70 241 70 364 _c
70 479 97 571 152 639 _c
206 707 280 742 372 742 _c
396 742 421 739 447 735 _c
472 730 498 723 526 713 _c
_cl}_e}_d
/eight{{636 0 68 -13 568 742 _sc
318 346 _m
271 346 234 333 207 308 _c
180 283 167 249 167 205 _c
167 161 180 126 207 101 _c
234 76 271 64 318 64 _c
364 64 401 76 428 102 _c
455 127 469 161 469 205 _c
469 249 455 283 429 308 _c
402 333 365 346 318 346 _c
219 388 _m
177 398 144 418 120 447 _c
96 476 85 511 85 553 _c
85 611 105 657 147 691 _c
188 725 245 742 318 742 _c
}_e{390 742 447 725 489 691 _c
530 657 551 611 551 553 _c
551 511 539 476 515 447 _c
491 418 459 398 417 388 _c
464 377 501 355 528 323 _c
554 291 568 251 568 205 _c
568 134 546 80 503 43 _c
459 5 398 -13 318 -13 _c
237 -13 175 5 132 43 _c
89 80 68 134 68 205 _c
68 251 81 291 108 323 _c
134 355 171 377 219 388 _c
183 544 _m
183 506 194 476 218 455 _c
}_e{242 434 275 424 318 424 _c
360 424 393 434 417 455 _c
441 476 453 506 453 544 _c
453 582 441 611 417 632 _c
393 653 360 664 318 664 _c
275 664 242 653 218 632 _c
194 611 183 582 183 544 _c
_cl}_e}_d
/a{{613 0 60 -13 522 560 _sc
343 275 _m
270 275 220 266 192 250 _c
164 233 150 205 150 165 _c
150 133 160 107 181 89 _c
202 70 231 61 267 61 _c
317 61 357 78 387 114 _c
417 149 432 196 432 255 _c
432 275 _l
343 275 _l
522 312 _m
522 0 _l
432 0 _l
432 83 _l
411 49 385 25 355 10 _c
325 -5 287 -13 243 -13 _c
187 -13 142 2 109 33 _c
76 64 60 106 60 159 _c
}_e{60 220 80 266 122 298 _c
163 329 224 345 306 345 _c
432 345 _l
432 354 _l
432 395 418 427 391 450 _c
364 472 326 484 277 484 _c
245 484 215 480 185 472 _c
155 464 127 453 100 439 _c
100 522 _l
132 534 164 544 195 550 _c
226 556 256 560 286 560 _c
365 560 424 539 463 498 _c
502 457 522 395 522 312 _c
_cl}_e}_d
/d{{635 0 55 -13 544 760 _sc
454 464 _m
454 760 _l
544 760 _l
544 0 _l
454 0 _l
454 82 _l
435 49 411 25 382 10 _c
353 -5 319 -13 279 -13 _c
213 -13 159 13 117 65 _c
75 117 55 187 55 273 _c
55 359 75 428 117 481 _c
159 533 213 560 279 560 _c
319 560 353 552 382 536 _c
411 520 435 496 454 464 _c
148 273 _m
148 207 161 155 188 117 _c
215 79 253 61 301 61 _c
}_e{348 61 385 79 413 117 _c
440 155 454 207 454 273 _c
454 339 440 390 413 428 _c
385 466 348 485 301 485 _c
253 485 215 466 188 428 _c
161 390 148 339 148 273 _c
_cl}_e}_d
/m{{974 0 91 0 889 560 _sc
520 442 _m
542 482 569 511 600 531 _c
631 550 668 560 711 560 _c
767 560 811 540 842 500 _c
873 460 889 403 889 330 _c
889 0 _l
799 0 _l
799 327 _l
799 379 789 418 771 444 _c
752 469 724 482 686 482 _c
639 482 602 466 575 435 _c
548 404 535 362 535 309 _c
535 0 _l
445 0 _l
445 327 _l
445 379 435 418 417 444 _c
398 469 369 482 331 482 _c
}_e{285 482 248 466 221 435 _c
194 404 181 362 181 309 _c
181 0 _l
91 0 _l
91 547 _l
181 547 _l
181 462 _l
201 495 226 520 255 536 _c
283 552 317 560 357 560 _c
397 560 430 550 458 530 _c
486 510 506 480 520 442 _c
_cl}_e}_d
/r{411 0 91 0 411 560 _sc
411 463 _m
401 469 390 473 378 476 _c
366 478 353 480 339 480 _c
288 480 249 463 222 430 _c
194 397 181 350 181 288 _c
181 0 _l
91 0 _l
91 547 _l
181 547 _l
181 462 _l
199 495 224 520 254 536 _c
284 552 321 560 365 560 _c
371 560 378 559 386 559 _c
393 558 401 557 411 555 _c
411 463 _l
_cl}_d
/x{592 0 29 0 559 547 _sc
549 547 _m
351 281 _l
559 0 _l
453 0 _l
294 215 _l
135 0 _l
29 0 _l
241 286 _l
47 547 _l
153 547 _l
298 352 _l
443 547 _l
549 547 _l
_cl}_d
/y{592 0 30 -207 562 547 _sc
322 -50 _m
296 -114 271 -157 247 -177 _c
223 -197 191 -207 151 -207 _c
79 -207 _l
79 -132 _l
132 -132 _l
156 -132 175 -126 189 -114 _c
203 -102 218 -75 235 -31 _c
251 9 _l
30 547 _l
125 547 _l
296 119 _l
467 547 _l
562 547 _l
322 -50 _l
_cl}_d
end readonly def

/BuildGlyph
 {exch begin
 CharStrings exch
 2 copy known not{pop /.notdef}if
 true 3 1 roll get exec
 end}_d

/BuildChar {
 1 index /Encoding get exch get
 1 index /BuildGlyph get exec
}_d

FontName currentdict end definefont pop
end
%%EndProlog
mpldict begin
18 252 translate
576 288 0 0 clipbox
gsave
0 0 m
576 0 l
576 288 l
0 288 l
cl
1.000 setgray
fill
grestore
gsave
72 31.68 m
518.4 31.68 l
518.4 253.44 l
72 253.44 l
cl
1.000 setgray
fill
grestore
0.800 setlinewidth
1 setlinejoin
2 setlinecap
[] 0 setdash
0.690 setgray
gsave
446.4 221.8 72 31.68 clipbox
92.263344 31.68 m
92.263344 253.44 l
stroke
grestore
0 setlinecap
0.000 setgray
gsave
/o {
gsave
newpath
translate
0.8 setlinewidth
1 setlinejoin
0 setlinecap
0 0 m
0 -3.5 l

gsave
0.000 setgray
fill
grestore
stroke
grestore
} bind def
92.2633 31.68 o
grestore
/DejaVuSans findfont
10.000 scalefont
setfont
gsave
89.083656 17.086250 translate
0.000000 rotate
0.000000 0.000000 m /zero glyphshow
grestore
2 setlinecap
0.690 setgray
gsave
446.4 221.8 72 31.68 clipbox
147.394193 31.68 m
147.394193 253.44 l
stroke
grestore
0 setlinecap
0.000 setgray
gsave
/o {
gsave
newpath
translate
0.8 setlinewidth
1 setlinejoin
0 setlinecap
0 0 m
0 -3.5 l

gsave
0.000 setgray
fill
grestore
stroke
grestore
} bind def
147.394 31.68 o
grestore
gsave
144.214505 17.086250 translate
0.000000 rotate
0.000000 0.000000 m /two glyphshow
grestore
2 setlinecap
0.690 setgray
gsave
446.4 221.8 72 31.68 clipbox
202.525042 31.68 m
202.525042 253.44 l
stroke
grestore
0 setlinecap
0.000 setgray
gsave
/o {
gsave
newpath
translate
0.8 setlinewidth
1 setlinejoin
0 setlinecap
0 0 m
0 -3.5 l

gsave
0.000 setgray
fill
grestore
stroke
grestore
} bind def
202.525 31.68 o
grestore
gsave
199.345355 17.086250 translate
0.000000 rotate
0.000000 0.000000 m /four glyphshow
grestore
2 setlinecap
0.690 setgray
gsave
446.4 221.8 72 31.68 clipbox
257.655892 31.68 m
257.655892 253.44 l
stroke
grestore
0 setlinecap
0.000 setgray
gsave
/o {
gsave
newpath
translate
0.8 setlinewidth
1 setlinejoin
0 setlinecap
0 0 m
0 -3.5 l

gsave
0.000 setgray
fill
grestore
stroke
grestore
} bind def
257.656 31.68 o
grestore
gsave
254.476204 17.086250 translate
0.000000 rotate
0.000000 0.000000 m /six glyphshow
grestore
2 setlinecap
0.690 setgray
gsave
446.4 221.8 72 31.68 clipbox
312.786741 31.68 m
312.786741 253.44 l
stroke
grestore
0 setlinecap
0.000 setgray
gsave
/o {
gsave
newpath
translate
0.8 setlinewidth
1 setlinejoin
0 setlinecap
0 0 m
0 -3.5 l

gsave
0.000 setgray
fill
grestore
stroke
grestore
} bind def
312.787 31.68 o
grestore
gsave
309.607053 17.086250 translate
0.000000 rotate
0.000000 0.000000 m /eight glyphshow
grestore
2 setlinecap
0.690 setgray
gsave
446.4 221.8 72 31.68 clipbox
367.91759 31.68 m
367.91759 253.44 l
stroke
grestore
0 setlinecap
0.000 setgray
gsave
/o {
gsave
newpath
translate
0.8 setlinewidth
1 setlinejoin
0 setlinecap
0 0 m
0 -3.5 l

gsave
0.000 setgray
fill
grestore
stroke
grestore
} bind def
367.918 31.68 o
grestore
gsave
361.558215 17.086250 translate
0.000000 rotate
0.000000 0.000000 m /one glyphshow
6.362305 0.000000 m /zero glyphshow
grestore
2 setlinecap
0.690 setgray
gsave
446.4 221.8 72 31.68 clipbox
423.04844 31.68 m
423.04844 253.44 l
stroke
grestore
0 setlinecap
0.000 setgray
gsave
/o {
gsave
newpath
translate
0.8 setlinewidth
1 setlinejoin
0 setlinecap
0 0 m
0 -3.5 l

gsave
0.000 setgray
fill
grestore
stroke
grestore
} bind def
423.048 31.68 o
grestore
gsave
416.689065 17.086250 translate
0.000000 rotate
0.000000 0.000000 m /one glyphshow
6.362305 0.000000 m /two glyphshow
grestore
2 setlinecap
0.690 setgray
gsave
446.4 221.8 72 31.68 clipbox
478.179289 31.68 m
478.179289 253.44 l
stroke
grestore
0 setlinecap
0.000 setgray
gsave
/o {
gsave
newpath
translate
0.8 setlinewidth
1 setlinejoin
0 setlinecap
0 0 m
0 -3.5 l

gsave
0.000 setgray
fill
grestore
stroke
grestore
} bind def
478.179 31.68 o
grestore
gsave
471.819914 17.086250 translate
0.000000 rotate
0.000000 0.000000 m /one glyphshow
6.362305 0.000000 m /four glyphshow
grestore
gsave
282.200000 3.086250 translate
0.000000 rotate
/DejaVuSans-Oblique findfont
10.0 scalefont
setfont
0.000000 0.406250 moveto
/z glyphshow

/DejaVuSans findfont
10.0 scalefont
setfont
5.249023 0.406250 moveto
/space glyphshow

8.427734 0.406250 moveto
/parenleft glyphshow

12.329102 0.406250 moveto
/m glyphshow

22.070312 0.406250 moveto
/parenright glyphshow


grestore
2 setlinecap
0.690 setgray
gsave
446.4 221.8 72 31.68 clipbox
72 35.928562 m
518.4 35.928562 l
stroke
grestore
0 setlinecap
0.000 setgray
gsave
/o {
gsave
newpath
translate
0.8 setlinewidth
1 setlinejoin
0 setlinecap
0 0 m
-3.5 0 l

gsave
0.000 setgray
fill
grestore
stroke
grestore
} bind def
72 35.9286 o
grestore
gsave
49.093750 32.131687 translate
0.000000 rotate
0.000000 0.000000 m /four glyphshow
6.362305 0.000000 m /period glyphshow
9.541016 0.000000 m /zero glyphshow
grestore
2 setlinecap
0.690 setgray
gsave
446.4 221.8 72 31.68 clipbox
72 75.641432 m
518.4 75.641432 l
stroke
grestore
0 setlinecap
0.000 setgray
gsave
/o {
gsave
newpath
translate
0.8 setlinewidth
1 setlinejoin
0 setlinecap
0 0 m
-3.5 0 l

gsave
0.000 setgray
fill
grestore
stroke
grestore
} bind def
72 75.6414 o
grestore
gsave
49.093750 71.844557 translate
0.000000 rotate
0.000000 0.000000 m /four glyphshow
6.362305 0.000000 m /period glyphshow
9.541016 0.000000 m /five glyphshow
grestore
2 setlinecap
0.690 setgray
gsave
446.4 221.8 72 31.68 clipbox
72 115.354302 m
518.4 115.354302 l
stroke
grestore
0 setlinecap
0.000 setgray
gsave
/o {
gsave
newpath
translate
0.8 setlinewidth
1 setlinejoin
0 setlinecap
0 0 m
-3.5 0 l

gsave
0.000 setgray
fill
grestore
stroke
grestore
} bind def
72 115.354 o
grestore
gsave
49.093750 111.557427 translate
0.000000 rotate
0.000000 0.000000 m /five glyphshow
6.362305 0.000000 m /period glyphshow
9.541016 0.000000 m /zero glyphshow
grestore
2 setlinecap
0.690 setgray
gsave
446.4 221.8 72 31.68 clipbox
72 155.067171 m
518.4 155.067171 l
stroke
grestore
0 setlinecap
0.000 setgray
gsave
/o {
gsave
newpath
translate
0.8 setlinewidth
1 setlinejoin
0 setlinecap
0 0 m
-3.5 0 l

gsave
0.000 setgray
fill
grestore
stroke
grestore
} bind def
72 155.067 o
grestore
gsave
49.093750 151.270296 translate
0.000000 rotate
0.000000 0.000000 m /five glyphshow
6.362305 0.000000 m /period glyphshow
9.541016 0.000000 m /five glyphshow
grestore
2 setlinecap
0.690 setgray
gsave
446.4 221.8 72 31.68 clipbox
72 194.780041 m
518.4 194.780041 l
stroke
grestore
0 setlinecap
0.000 setgray
gsave
/o {
gsave
newpath
translate
0.8 setlinewidth
1 setlinejoin
0 setlinecap
0 0 m
-3.5 0 l

gsave
0.000 setgray
fill
grestore
stroke
grestore
} bind def
72 194.78 o
grestore
gsave
49.093750 190.983166 translate
0.000000 rotate
0.000000 0.000000 m /six glyphshow
6.362305 0.000000 m /period glyphshow
9.541016 0.000000 m /zero glyphshow
grestore
2 setlinecap
0.690 setgray
gsave
446.4 221.8 72 31.68 clipbox
72 234.49291 m
518.4 234.49291 l
stroke
grestore
0 setlinecap
0.000 setgray
gsave
/o {
gsave
newpath
translate
0.8 setlinewidth
1 setlinejoin
0 setlinecap
0 0 m
-3.5 0 l

gsave
0.000 setgray
fill
grestore
stroke
grestore
} bind def
72 234.493 o
grestore
gsave
49.093750 230.696035 translate
0.000000 rotate
0.000000 0.000000 m /six glyphshow
6.362305 0.000000 m /period glyphshow
9.541016 0.000000 m /five glyphshow
grestore
gsave
41.093750 100.060000 translate
90.000000 rotate
/DejaVuSans-Oblique findfont
10.0 scalefont
setfont
0.000000 0.406250 moveto
/epsilon glyphshow

/DejaVuSans-Oblique findfont
7.0 scalefont
setfont
5.405273 -1.234375 moveto
/n glyphshow

/DejaVuSans findfont
7.0 scalefont
setfont
9.841797 -1.234375 moveto
/comma glyphshow

/DejaVuSans-Oblique findfont
7.0 scalefont
setfont
13.430664 -1.234375 moveto
/x glyphshow

/DejaVuSans findfont
7.0 scalefont
setfont
17.573242 -1.234375 moveto
/slash glyphshow

/DejaVuSans-Oblique findfont
7.0 scalefont
setfont
19.931641 -1.234375 moveto
/y glyphshow

/DejaVuSans findfont
10.0 scalefont
setfont
24.347656 0.406250 moveto
/space glyphshow

27.526367 0.406250 moveto
/parenleft glyphshow

31.427734 0.406250 moveto
/m glyphshow

41.168945 0.406250 moveto
/m glyphshow

50.910156 0.406250 moveto
/space glyphshow

54.088867 0.406250 moveto
/m glyphshow

63.830078 0.406250 moveto
/r glyphshow

67.941406 0.406250 moveto
/a glyphshow

74.069336 0.406250 moveto
/d glyphshow

80.416992 0.406250 moveto
/parenright glyphshow


grestore
1.500 setlinewidth
2 setlinecap
0.122 0.467 0.706 setrgbcolor
gsave
446.4 221.8 72 31.68 clipbox
92.290909 136.701557 m
96.86677 138.558531 l
102.097309 140.39962 l
106.907476 141.807838 l
111.483336 142.880086 l
115.838673 143.646544 l
120.111314 144.150898 l
124.273693 144.3995 l
128.353376 144.406648 l
132.377928 144.181079 l
136.416263 143.721999 l
140.454597 143.029406 l
144.53428 142.093771 l
148.641528 140.915093 l
152.831473 139.471927 l
157.159245 137.732504 l
161.597278 135.694439 l
166.255835 133.289428 l
171.16248 130.476962 l
174.236025 128.577893 l
179.252933 125.266634 l
185.413805 120.871213 l
189.259182 117.96582 l
196.839673 111.927875 l
208.996026 101.625562 l
222.062037 90.185079 l
228.856914 83.977163 l
230.083576 82.093185 l
236.56145 72.218183 l
241.302703 65.44555 l
244.99647 60.629173 l
247.753013 57.387808 l
250.647382 54.381544 l
253.07314 52.226724 l
255.223243 50.631061 l
257.207953 49.446029 l
259.054837 48.612853 l
260.763893 48.089437 l
262.417819 47.821772 l
263.989048 47.796356 l
265.505146 47.993332 l
266.993679 48.404757 l
268.454647 49.026661 l
270.163703 50.036162 l
271.817629 51.310945 l
273.471554 52.883575 l
275.401134 55.101936 l
277.303148 57.691215 l
280.81774 63.03339 l
281.63092 65.315292 l
283.450238 70.948165 l
285.572775 78.29584 l
287.778009 86.710997 l
290.5759 98.367519 l
293.484052 111.429081 l
297.260515 129.468255 l
302.194727 154.187928 l
311.084576 198.95704 l
311.691015 200.574943 l
312.366368 201.73853 l
316.280659 207.295155 l
320.91165 213.512601 l
325.018898 218.656212 l
328.629969 222.853863 l
331.924037 226.389102 l
334.942451 229.361213 l
337.754124 231.882981 l
340.400405 234.024299 l
343.694473 236.355444 l
346.795584 238.190179 l
349.717519 239.580923 l
351.812491 240.367238 l
353.866115 240.959754 l
355.837043 241.358471 l
358.428193 241.619782 l
360.909081 241.582452 l
363.348621 241.262366 l
365.181722 240.833467 l
367.524783 240.04477 l
369.866466 238.980465 l
371.630653 237.995586 l
373.891018 236.500793 l
376.178948 234.717685 l
378.466878 232.662147 l
380.754809 230.334973 l
383.649178 227.001475 l
386.543548 223.239077 l
389.493048 218.972327 l
392.55281 214.098763 l
395.7504 208.541344 l
399.168512 202.108654 l
401.630105 197.189818 l
92.290909 136.701557 l
92.759521 136.90171 l
96.9219 138.579976 l
102.069743 140.390883 l
106.907476 141.807838 l
111.483336 142.880086 l
115.838673 143.646544 l
120.111314 144.150898 l
124.273693 144.3995 l
128.353376 144.406648 l
132.377928 144.181079 l
136.416263 143.721999 l
140.454597 143.029406 l
144.53428 142.093771 l
148.641528 140.915093 l
152.831473 139.471927 l
157.159245 137.732504 l
161.597278 135.694439 l
166.255835 133.289428 l
171.16248 130.476962 l
174.236025 128.577893 l
179.252933 125.266634 l
185.413805 120.871213 l
189.259182 117.96582 l
196.839673 111.927875 l
208.996026 101.625562 l
222.062037 90.185079 l
228.856914 83.977163 l
230.083576 82.093185 l
236.56145 72.218183 l
241.302703 65.44555 l
244.99647 60.629173 l
247.753013 57.387808 l
250.647382 54.381544 l
253.07314 52.226724 l
255.223243 50.631061 l
257.207953 49.446029 l
259.054837 48.612853 l
260.763893 48.089437 l
262.417819 47.821772 l
263.989048 47.796356 l
265.505146 47.993332 l
266.993679 48.404757 l
268.454647 49.026661 l
270.163703 50.036162 l
271.817629 51.310945 l
273.471554 52.883575 l
275.401134 55.101936 l
277.303148 57.691215 l
280.790174 63.010357 l
281.493093 65.0651 l
283.284845 70.887007 l
285.352252 78.433247 l
287.640182 87.700642 l
290.134853 98.743997 l
293.153267 113.178036 l
296.819469 131.902654 l
301.574504 157.426116 l
311.222403 209.407879 l
311.828842 211.039284 l
312.531761 212.264029 l
316.666574 218.377428 l
319.753902 222.632265 l
323.309842 227.16112 l
326.479866 230.82503 l
329.374235 233.831294 l
332.034299 236.282372 l
334.473839 238.247365 l
336.789334 239.845411 l
339.545877 241.383888 l
341.503022 242.221829 l
343.446385 242.834202 l
345.334616 243.209091 l
347.126369 243.355234 l
348.86299 243.295665 l
350.544481 243.042297 l
352.625671 242.45137 l
354.624164 241.586423 l
356.581309 240.447458 l
358.483324 239.056713 l
360.385338 237.380036 l
362.618137 235.03936 l
364.451238 232.816233 l
366.670255 229.761519 l
368.929241 226.24693 l
371.327433 222.096935 l
374.469892 216.072493 l
377.474523 209.853458 l
382.849781 198.805337 l
384.558837 195.881676 l
385.909543 194.019936 l
386.984594 192.892091 l
388.059646 192.104982 l
388.99687 191.692762 l
389.906529 191.519614 l
390.954016 191.570447 l
391.918805 191.821432 l
393.048988 192.325785 l
394.537521 193.263803 l
396.329273 194.689495 l
398.947989 197.097684 l
403.476988 201.379525 l
405.627091 203.211083 l
407.80476 204.828191 l
409.679209 205.992572 l
411.801746 207.028284 l
413.786457 207.709757 l
415.357686 208.048111 l
416.928915 208.207756 l
418.500144 208.190283 l
420.567551 207.902761 l
422.717654 207.295949 l
424.536972 206.550141 l
426.990295 205.227703 l
429.085268 203.832987 l
431.428329 202.01096 l
434.074609 199.657575 l
437.217068 196.517876 l
441.24162 192.066858 l
445.569392 186.910539 l
451.66135 179.364299 l
458.855926 170.626673 l
463.845268 165.045427 l
467.097988 161.739728 l
469.882096 159.167128 l
473.079685 156.548461 l
475.946489 154.53899 l
478.565205 153.008456 l
480.494785 152.077586 l
482.837846 151.184047 l
485.153341 150.56532 l
487.386141 150.226967 l
489.563809 150.148335 l
491.217735 150.257148 l
493.312707 150.609004 l
495.435245 151.211052 l
497.530217 152.051376 l
498.109091 152.326983 l
498.109091 152.326983 l
stroke
grestore
1.000 0.498 0.055 setrgbcolor
gsave
446.4 221.8 72 31.68 clipbox
92.290909 137.931068 m
97.169989 139.919888 l
102.35918 141.745092 l
107.100433 143.13266 l
111.648729 144.198553 l
115.9765 144.959452 l
120.221576 145.459039 l
124.328824 145.703671 l
128.380941 145.710819 l
132.377928 145.486044 l
136.388697 145.029346 l
140.399466 144.339931 l
144.424018 143.416209 l
148.503701 142.24468 l
152.66608 140.810251 l
156.938721 139.091478 l
161.321624 137.077241 l
165.92505 134.699235 l
168.791854 133.088481 l
173.298801 130.364178 l
178.701624 126.809082 l
184.724669 122.508972 l
188.48735 119.662354 l
195.681926 113.924638 l
200.698833 109.735725 l
216.548952 95.888641 l
229.311744 84.340139 l
232.49555 80.480842 l
235.844749 76.789134 l
239.400689 73.260248 l
242.239928 70.713859 l
246.319611 67.449461 l
249.5172 65.192182 l
253.07314 62.968261 l
256.98743 60.840445 l
261.315202 58.842888 l
264.45766 57.604641 l
267.793077 56.472824 l
273.306161 54.998682 l
276.586447 54.355334 l
289.555979 52.225135 l
296.92973 51.051223 l
300.444322 50.555606 l
304.455091 50.088583 l
310.133569 49.708928 l
312.076931 49.763732 l
317.741626 50.142593 l
325.12916 50.679511 l
331.868906 51.151299 l
344.562784 51.771614 l
351.371444 51.857394 l
357.24288 51.746992 l
362.563007 51.483299 l
367.690175 51.076639 l
379.100883 49.650153 l
384.476141 48.763762 l
392.663072 47.236405 l
401.630105 45.467594 l
92.290909 137.931068 l
92.428736 137.990637 l
97.169989 139.919888 l
102.35918 141.745092 l
107.100433 143.13266 l
111.648729 144.198553 l
115.9765 144.959452 l
120.221576 145.459039 l
124.328824 145.703671 l
128.380941 145.710819 l
132.377928 145.486044 l
136.388697 145.029346 l
140.399466 144.339931 l
144.424018 143.416209 l
148.503701 142.24468 l
152.66608 140.810251 l
156.938721 139.091478 l
161.321624 137.077241 l
165.92505 134.699235 l
168.791854 133.088481 l
173.298801 130.364178 l
178.701624 126.809082 l
184.724669 122.508972 l
188.48735 119.662354 l
195.681926 113.924638 l
200.698833 109.735725 l
216.548952 95.888641 l
229.311744 84.340139 l
232.49555 80.480842 l
235.844749 76.789134 l
239.400689 73.260248 l
242.239928 70.713859 l
246.319611 67.449461 l
249.5172 65.192182 l
253.07314 62.968261 l
256.98743 60.840445 l
261.315202 58.842094 l
266.194282 56.993063 l
269.557264 55.94782 l
273.058073 55.05428 l
276.558882 54.360099 l
289.859199 52.172714 l
305.778232 49.990889 l
309.499564 49.780411 l
311.856408 49.821713 l
341.33763 52.259288 l
347.319327 52.4928 l
351.895187 52.514245 l
355.699216 52.403843 l
359.062198 52.196542 l
364.589065 51.608792 l
369.976727 50.721606 l
375.572509 49.480182 l
379.100883 48.553283 l
395.777965 43.863194 l
400.877569 42.801271 l
405.186044 42.169043 l
408.934942 41.848163 l
414.337765 41.802096 l
417.342397 41.998277 l
420.539986 42.385081 l
425.639589 43.377902 l
430.711628 44.806771 l
434.184871 46.023574 l
438.044031 47.586672 l
442.233975 49.518306 l
446.864966 51.909815 l
452.019701 54.857304 l
457.946267 58.572046 l
464.865189 63.289141 l
473.162382 69.401746 l
483.47185 77.562741 l
489.343286 82.441864 l
498.109091 89.986515 l
498.109091 89.986515 l
stroke
grestore
0.800 setlinewidth
0 setlinejoin
[] 0 setdash
0.000 setgray
gsave
72 31.68 m
72 253.44 l
stroke
grestore
gsave
518.4 31.68 m
518.4 253.44 l
stroke
grestore
gsave
72 31.68 m
518.4 31.68 l
stroke
grestore
gsave
72 253.44 m
518.4 253.44 l
stroke
grestore
1.000 setlinewidth
0 setlinecap
0.800 setgray
gsave
473.478125 216.09625 m
511.4 216.09625 l
512.733333 216.09625 513.4 216.762917 513.4 218.09625 c
513.4 246.44 l
513.4 247.773333 512.733333 248.44 511.4 248.44 c
473.478125 248.44 l
472.144792 248.44 471.478125 247.773333 471.478125 246.44 c
471.478125 218.09625 l
471.478125 216.762917 472.144792 216.09625 473.478125 216.09625 c
cl
gsave
1.000 setgray
fill
grestore
stroke
grestore
1.500 setlinewidth
1 setlinejoin
2 setlinecap
[] 0 setdash
0.122 0.467 0.706 setrgbcolor
gsave
475.478125 240.34625 m
495.478125 240.34625 l
stroke
grestore
0.000 setgray
gsave
503.478125 236.846250 translate
0.000000 rotate
0.000000 0.000000 m /x glyphshow
grestore
1.000 0.498 0.055 setrgbcolor
gsave
475.478125 225.674375 m
495.478125 225.674375 l
stroke
grestore
0.000 setgray
gsave
503.478125 222.174375 translate
0.000000 rotate
0.000000 0.000000 m /y glyphshow
grestore

end
showpage
