0.000000000E+00  3.440780374E-03  
1.000000000E-03  3.446038470E-03  
2.000000000E-03  3.462001553E-03  
3.000000000E-03  3.488693224E-03  
4.000000000E-03  3.525797478E-03  
5.000000000E-03  3.573639529E-03  
6.000000000E-03  3.632410476E-03  
7.000000000E-03  3.702294510E-03  
8.000000000E-03  3.783504027E-03  
9.000000000E-03  3.876287111E-03  
1.000000000E-02  3.980927532E-03  
1.100000000E-02  4.097743595E-03  
1.200000000E-02  4.227093324E-03  
1.300000000E-02  4.369371003E-03  
1.400000000E-02  4.525010634E-03  
1.500000000E-02  4.694487662E-03  
1.600000000E-02  4.878318399E-03  
1.700000000E-02  5.077064630E-03  
1.800000000E-02  5.291331308E-03  
1.900000000E-02  5.521772891E-03  
2.000000000E-02  5.769089305E-03  
2.100000000E-02  6.034037463E-03  
2.200000000E-02  6.317427810E-03  
2.300000000E-02  6.620112230E-03  
2.400000000E-02  6.943017439E-03  
2.500000000E-02  7.287127710E-03  
2.600000000E-02  7.653490633E-03  
2.700000000E-02  8.043217114E-03  
2.800000000E-02  8.457487131E-03  
2.900000000E-02  8.897567001E-03  
3.000000000E-02  9.364786358E-03  
3.100000000E-02  9.860561174E-03  
3.200000000E-02  1.038639376E-02  
3.300000000E-02  1.094387278E-02  
3.400000000E-02  1.153469048E-02  
3.500000000E-02  1.216063122E-02  
3.600000000E-02  1.282357146E-02  
3.700000000E-02  1.352552580E-02  
3.800000000E-02  1.426858940E-02  
3.900000000E-02  1.505500711E-02  
4.000000000E-02  1.588713888E-02  
4.100000000E-02  1.676746554E-02  
4.200000000E-02  1.769862910E-02  
4.300000000E-02  1.868340969E-02  
4.400000000E-02  1.972472560E-02  
4.500000000E-02  2.082567931E-02  
4.600000000E-02  2.198953446E-02  
4.700000000E-02  2.321971587E-02  
4.800000000E-02  2.451986133E-02  
4.900000000E-02  2.589376978E-02  
5.000000000E-02  2.734547041E-02  
5.100000000E-02  2.887918813E-02  
5.200000000E-02  3.049936655E-02  
5.300000000E-02  3.221067955E-02  
5.400000000E-02  3.401804272E-02  
5.500000000E-02  3.592661920E-02  
5.600000000E-02  3.794181962E-02  
5.700000000E-02  4.006933088E-02  
5.800000000E-02  4.231509318E-02  
5.900000000E-02  4.468535751E-02  
6.000000000E-02  4.718663390E-02  
6.100000000E-02  4.982574895E-02  
6.200000000E-02  5.260982282E-02  
6.300000000E-02  5.554629225E-02  
6.400000000E-02  5.864287601E-02  
6.500000000E-02  6.190767279E-02  
6.600000000E-02  6.534900574E-02  
6.700000000E-02  6.897562396E-02  
6.800000000E-02  7.279644925E-02  
6.900000000E-02  7.682086385E-02  
7.000000000E-02  8.105836515E-02  
7.100000000E-02  8.551885345E-02  
7.200000000E-02  9.021251686E-02  
7.300000000E-02  9.514965858E-02  
7.400000000E-02  1.003409272E-01  
7.500000000E-02  1.057970289E-01  
7.600000000E-02  1.115289000E-01  
7.700000000E-02  1.175475344E-01  
7.800000000E-02  1.238640412E-01  
7.900000000E-02  1.304892993E-01  
8.000000000E-02  1.374343601E-01  
8.100000000E-02  1.447099298E-01  
8.200000000E-02  1.523264843E-01  
8.300000000E-02  1.602942116E-01  
8.400000000E-02  1.686227819E-01  
8.500000000E-02  1.773213471E-01  
8.600000000E-02  1.863983110E-01  
8.700000000E-02  1.958611563E-01  
8.800000000E-02  2.057166177E-01  
8.900000000E-02  2.159701633E-01  
9.000000000E-02  2.266259949E-01  
9.100000000E-02  2.376869905E-01  
9.200000000E-02  2.491543589E-01  
9.300000000E-02  2.610277548E-01  
9.400000000E-02  2.733048757E-01  
9.500000000E-02  2.859815198E-01  
9.600000000E-02  2.990512979E-01  
9.700000000E-02  3.125058064E-01  
9.800000000E-02  3.263342813E-01  
9.900000000E-02  3.405235993E-01  
1.000000000E-01  3.550585067E-01  
1.010000000E-01  3.699212178E-01  
1.020000000E-01  3.850917591E-01  
1.030000000E-01  4.005479701E-01  
1.040000000E-01  4.162656182E-01  
1.050000000E-01  4.322183408E-01  
1.060000000E-01  4.483782790E-01  
1.070000000E-01  4.647156743E-01  
1.080000000E-01  4.811996747E-01  
1.090000000E-01  4.977982192E-01  
1.100000000E-01  5.144784412E-01  
1.110000000E-01  5.312068984E-01  
1.120000000E-01  5.479500334E-01  
1.130000000E-01  5.646741161E-01  
1.140000000E-01  5.813456465E-01  
1.150000000E-01  5.979326791E-01  
1.160000000E-01  6.144028651E-01  
1.170000000E-01  6.307251222E-01  
1.180000000E-01  6.468700948E-01  
1.190000000E-01  6.628101543E-01  
1.200000000E-01  6.785182473E-01  
1.210000000E-01  6.939701989E-01  
1.220000000E-01  7.091429851E-01  
1.230000000E-01  7.240153086E-01  
1.240000000E-01  7.385687504E-01  
1.250000000E-01  7.527854668E-01  
1.260000000E-01  7.666499167E-01  
1.270000000E-01  7.801494370E-01  
1.280000000E-01  7.932713644E-01  
1.290000000E-01  8.060059137E-01  
1.300000000E-01  8.183450266E-01  
1.310000000E-01  8.302817959E-01  
1.320000000E-01  8.418098901E-01  
1.330000000E-01  8.529252798E-01  
1.340000000E-01  8.636250871E-01  
1.350000000E-01  8.739070097E-01  
1.360000000E-01  8.837693207E-01  
1.370000000E-01  8.932114445E-01  
1.380000000E-01  9.022345324E-01  
1.390000000E-01  9.108385842E-01  
1.400000000E-01  9.190247513E-01  
1.410000000E-01  9.267953360E-01  
1.420000000E-01  9.341514896E-01  
1.430000000E-01  9.410960899E-01  
1.440000000E-01  9.476308638E-01  
1.450000000E-01  9.537586894E-01  
1.460000000E-01  9.594812933E-01  
1.470000000E-01  9.648021293E-01  
1.480000000E-01  9.697223484E-01  
1.490000000E-01  9.742442531E-01  
1.500000000E-01  9.783701458E-01  
1.510000000E-01  9.821011776E-01  
1.520000000E-01  9.854396510E-01  
1.530000000E-01  9.883855661E-01  
1.540000000E-01  9.909406494E-01  
1.550000000E-01  9.931049012E-01  
1.560000000E-01  9.948783213E-01  
1.570000000E-01  9.962609098E-01  
1.580000000E-01  9.972515154E-01  
1.590000000E-01  9.978495626E-01  
1.600000000E-01  9.980527490E-01  
1.610000000E-01  9.978593478E-01  
1.620000000E-01  9.972664810E-01  
1.630000000E-01  9.962706949E-01  
1.640000000E-01  9.948691117E-01  
1.650000000E-01  9.930571265E-01  
1.660000000E-01  9.908295588E-01  
1.670000000E-01  9.881812285E-01  
1.680000000E-01  9.851058037E-01  
1.690000000E-01  9.815969530E-01  
1.700000000E-01  9.776471936E-01  
1.710000000E-01  9.732484670E-01  
1.720000000E-01  9.683921394E-01  
1.730000000E-01  9.630690011E-01  
1.740000000E-01  9.572686913E-01  
1.750000000E-01  9.509808493E-01  
1.760000000E-01  9.441933874E-01  
1.770000000E-01  9.368947938E-01  
1.780000000E-01  9.290712540E-01  
1.790000000E-01  9.207101048E-01  
1.800000000E-01  9.117963807E-01  
1.810000000E-01  9.023151162E-01  
1.820000000E-01  8.922513456E-01  
1.830000000E-01  8.815883766E-01  
1.840000000E-01  8.703089412E-01  
1.850000000E-01  8.583969226E-01  
1.860000000E-01  8.458339017E-01  
1.870000000E-01  8.326014594E-01  
1.880000000E-01  8.186829032E-01  
1.890000000E-01  8.040586627E-01  
1.900000000E-01  7.887114701E-01  
1.910000000E-01  7.726234818E-01  
1.920000000E-01  7.557762785E-01  
1.930000000E-01  7.381543192E-01  
1.940000000E-01  7.197414870E-01  
1.950000000E-01  7.005228165E-01  
1.960000000E-01  6.804850687E-01  
1.970000000E-01  6.596178829E-01  
1.980000000E-01  6.379108984E-01  
1.990000000E-01  6.153577836E-01  
2.000000000E-01  5.919539337E-01  
2.010000000E-01  5.676996364E-01  
2.020000000E-01  5.425965035E-01  
2.030000000E-01  5.166513845E-01  
2.040000000E-01  4.898749281E-01  
2.050000000E-01  4.622823301E-01  
2.060000000E-01  4.338934486E-01  
2.070000000E-01  4.047333222E-01  
2.080000000E-01  3.748320546E-01  
2.090000000E-01  3.442249302E-01  
2.100000000E-01  3.129526438E-01  
2.110000000E-01  2.810611280E-01  
2.120000000E-01  2.486013811E-01  
2.130000000E-01  2.156293512E-01  
2.140000000E-01  1.822055337E-01  
2.150000000E-01  1.483944533E-01  
2.160000000E-01  1.142643760E-01  
2.170000000E-01  7.988673365E-02  
2.180000000E-01  4.533524893E-02  
2.190000000E-01  1.068537708E-02  
2.200000000E-01  -2.398637327E-02  
2.210000000E-01  -5.860327481E-02  
2.220000000E-01  -9.308918732E-02  
2.230000000E-01  -1.273692657E-01  
2.240000000E-01  -1.613705239E-01  
2.250000000E-01  -1.950228542E-01  
2.260000000E-01  -2.282594293E-01  
2.270000000E-01  -2.610172213E-01  
2.280000000E-01  -2.932375767E-01  
2.290000000E-01  -3.248663891E-01  
2.300000000E-01  -3.558547902E-01  
2.310000000E-01  -3.861588043E-01  
2.320000000E-01  -4.157398086E-01  
2.330000000E-01  -4.445646487E-01  
2.340000000E-01  -4.726050626E-01  
2.350000000E-01  -4.998380840E-01  
2.360000000E-01  -5.262456391E-01  
2.370000000E-01  -5.518142013E-01  
2.380000000E-01  -5.765347912E-01  
2.390000000E-01  -6.004019982E-01  
2.400000000E-01  -6.234144410E-01  
2.410000000E-01  -6.455749974E-01  
2.420000000E-01  -6.668871210E-01  
2.430000000E-01  -6.873594460E-01  
2.440000000E-01  -7.070017573E-01  
2.450000000E-01  -7.258261427E-01  
2.460000000E-01  -7.438452652E-01  
2.470000000E-01  -7.610740905E-01  
2.480000000E-01  -7.775287353E-01  
2.490000000E-01  -7.932258920E-01  
2.500000000E-01  -8.081828286E-01  
2.510000000E-01  -8.224168130E-01  
2.520000000E-01  -8.359451132E-01  
2.530000000E-01  -8.487867239E-01  
2.540000000E-01  -8.609577620E-01  
2.550000000E-01  -8.724766465E-01  
2.560000000E-01  -8.833594943E-01  
2.570000000E-01  -8.936229977E-01  
2.580000000E-01  -9.032832735E-01  
2.590000000E-01  -9.123547117E-01  
2.600000000E-01  -9.208528533E-01  
2.610000000E-01  -9.287915129E-01  
2.620000000E-01  -9.361833536E-01  
2.630000000E-01  -9.430404629E-01  
2.640000000E-01  -9.493749284E-01  
2.650000000E-01  -9.551971110E-01  
2.660000000E-01  -9.605179469E-01  
2.670000000E-01  -9.653454946E-01  
2.680000000E-01  -9.696883880E-01  
2.690000000E-01  -9.735541100E-01  
2.700000000E-01  -9.769501434E-01  
2.710000000E-01  -9.798810928E-01  
2.720000000E-01  -9.823532899E-01  
2.730000000E-01  -9.843701884E-01  
2.740000000E-01  -9.859358173E-01  
2.750000000E-01  -9.870530547E-01  
2.760000000E-01  -9.877230518E-01  
2.770000000E-01  -9.879475353E-01  
2.780000000E-01  -9.877276565E-01  
2.790000000E-01  -9.870611131E-01  
2.800000000E-01  -9.859484804E-01  
2.810000000E-01  -9.843874563E-01  
2.820000000E-01  -9.823745871E-01  
2.830000000E-01  -9.799069947E-01  
2.840000000E-01  -9.769800745E-01  
2.850000000E-01  -9.735892216E-01  
2.860000000E-01  -9.697275288E-01  
2.870000000E-01  -9.653892401E-01  
2.880000000E-01  -9.605662972E-01  
2.890000000E-01  -9.552506416E-01  
2.900000000E-01  -9.494330639E-01  
2.910000000E-01  -9.431037787E-01  
2.920000000E-01  -9.362518498E-01  
2.930000000E-01  -9.288651896E-01  
2.940000000E-01  -9.209322860E-01  
2.950000000E-01  -9.124399003E-01  
2.960000000E-01  -9.033742181E-01  
2.970000000E-01  -8.937196983E-01  
2.980000000E-01  -8.834625265E-01  
2.990000000E-01  -8.725860103E-01  
3.000000000E-01  -8.610734574E-01  
3.010000000E-01  -8.489087509E-01  
3.020000000E-01  -8.360746229E-01  
3.030000000E-01  -8.225532299E-01  
3.040000000E-01  -8.083267283E-01  
3.050000000E-01  -7.933772746E-01  
3.060000000E-01  -7.776876006E-01  
3.070000000E-01  -7.612410142E-01  
3.080000000E-01  -7.440202473E-01  
3.090000000E-01  -7.260097587E-01  
3.100000000E-01  -7.071945829E-01  
3.110000000E-01  -6.875609056E-01  
3.120000000E-01  -6.670977902E-01  
3.130000000E-01  -6.457948761E-01  
3.140000000E-01  -6.236446805E-01  
3.150000000E-01  -6.006420230E-01  
3.160000000E-01  -5.767851767E-01  
3.170000000E-01  -5.520751778E-01  
3.180000000E-01  -5.265177247E-01  
3.190000000E-01  -5.001217392E-01  
3.200000000E-01  -4.729006326E-01  
3.210000000E-01  -4.448726516E-01  
3.220000000E-01  -4.160608201E-01  
3.230000000E-01  -3.864933423E-01  
3.240000000E-01  -3.562035456E-01  
3.250000000E-01  -3.252301676E-01  
3.260000000E-01  -2.936170115E-01  
3.270000000E-01  -2.614132334E-01  
3.280000000E-01  -2.286729395E-01  
3.290000000E-01  -1.954547835E-01  
3.300000000E-01  -1.618219661E-01  
3.310000000E-01  -1.278412567E-01  
3.320000000E-01  -9.358305115E-02  
3.330000000E-01  -5.912016260E-02  
3.340000000E-01  -2.452749952E-02  
3.350000000E-01  1.011867122E-02  
3.360000000E-01  4.474162230E-02  
3.370000000E-01  7.926485664E-02  
3.380000000E-01  1.136127981E-01  
3.390000000E-01  1.477117930E-01  
3.400000000E-01  1.814903521E-01  
3.410000000E-01  2.148802668E-01  
3.420000000E-01  2.478168398E-01  
3.430000000E-01  2.802396909E-01  
3.440000000E-01  3.120927566E-01  
3.450000000E-01  3.433250390E-01  
3.460000000E-01  3.738906051E-01  
3.470000000E-01  4.037486452E-01  
3.480000000E-01  4.328637022E-01  
3.490000000E-01  4.612056724E-01  
3.500000000E-01  4.887494021E-01  
3.510000000E-01  5.154749180E-01  
3.520000000E-01  5.413668516E-01  
3.530000000E-01  5.664143817E-01  
3.540000000E-01  5.906104859E-01  
3.550000000E-01  6.139533224E-01  
3.560000000E-01  6.364425457E-01  
3.570000000E-01  6.580821852E-01  
3.580000000E-01  6.788791478E-01  
3.590000000E-01  6.988420678E-01  
3.600000000E-01  7.179818813E-01  
3.610000000E-01  7.363118272E-01  
3.620000000E-01  7.538462955E-01  
3.630000000E-01  7.706002518E-01  
3.640000000E-01  7.865903883E-01  
3.650000000E-01  8.018333975E-01  
3.660000000E-01  8.163471230E-01  
3.670000000E-01  8.301488326E-01  
3.680000000E-01  8.432563700E-01  
3.690000000E-01  8.556870032E-01  
3.700000000E-01  8.674585756E-01  
3.710000000E-01  8.785883553E-01  
3.720000000E-01  8.890924590E-01  
3.730000000E-01  8.989870036E-01  
3.740000000E-01  9.082875301E-01  
3.750000000E-01  9.170090041E-01  
3.760000000E-01  9.251658156E-01  
3.770000000E-01  9.327706279E-01  
3.780000000E-01  9.398366796E-01  
3.790000000E-01  9.463754827E-01  
3.800000000E-01  9.523985493E-01  
3.810000000E-01  9.579156644E-01  
3.820000000E-01  9.629371889E-01  
3.830000000E-01  9.674706056E-01  
3.840000000E-01  9.715245484E-01  
3.850000000E-01  9.751053490E-01  
3.860000000E-01  9.782204901E-01  
3.870000000E-01  9.808740008E-01  
3.880000000E-01  9.830716373E-01  
3.890000000E-01  9.848162775E-01  
3.900000000E-01  9.861119505E-01  
3.910000000E-01  9.869603833E-01  
3.920000000E-01  9.873627269E-01  
3.930000000E-01  9.873207081E-01  
3.940000000E-01  9.868331759E-01  
3.950000000E-01  9.858995545E-01  
3.960000000E-01  9.845186929E-01  
3.970000000E-01  9.826877129E-01  
3.980000000E-01  9.804037366E-01  
3.990000000E-01  9.776627348E-01  
4.000000000E-01  9.744595271E-01  
4.010000000E-01  9.707883575E-01  
4.020000000E-01  9.666440456E-01  
4.030000000E-01  9.620179575E-01  
4.040000000E-01  9.569031860E-01  
4.050000000E-01  9.512899458E-01  
4.060000000E-01  9.451696031E-01  
4.070000000E-01  9.385312213E-01  
4.080000000E-01  9.313632886E-01  
4.090000000E-01  9.236542930E-01  
4.100000000E-01  9.153909957E-01  
4.110000000E-01  9.065601579E-01  
4.120000000E-01  8.971479652E-01  
4.130000000E-01  8.871383009E-01  
4.140000000E-01  8.765161994E-01  
4.150000000E-01  8.652655439E-01  
4.160000000E-01  8.533690665E-01  
4.170000000E-01  8.408106504E-01  
4.180000000E-01  8.275724521E-01  
4.190000000E-01  8.136360523E-01  
4.200000000E-01  7.989847587E-01  
4.210000000E-01  7.836007278E-01  
4.220000000E-01  7.674661159E-01  
4.230000000E-01  7.505642308E-01  
4.240000000E-01  7.328795312E-01  
4.250000000E-01  7.143959004E-01  
4.260000000E-01  6.950995239E-01  
4.270000000E-01  6.749783143E-01  
4.280000000E-01  6.540213351E-01  
4.290000000E-01  6.322199524E-01  
4.300000000E-01  6.095684102E-01  
4.310000000E-01  5.860632549E-01  
4.320000000E-01  5.617043713E-01  
4.330000000E-01  5.364956735E-01  
4.340000000E-01  5.104444717E-01  
4.350000000E-01  4.835625080E-01  
4.360000000E-01  4.558661295E-01  
4.370000000E-01  4.273763455E-01  
4.380000000E-01  3.981192307E-01  
4.390000000E-01  3.681260976E-01  
4.400000000E-01  3.374334967E-01  
4.410000000E-01  3.060832166E-01  
4.420000000E-01  2.741222837E-01  
4.430000000E-01  2.416027896E-01  
4.440000000E-01  2.085817186E-01  
4.450000000E-01  1.751204297E-01  
4.460000000E-01  1.412843683E-01  
4.470000000E-01  1.071424912E-01  
4.480000000E-01  7.276663322E-02  
4.490000000E-01  3.823113863E-02  
4.500000000E-01  3.611671073E-03  
4.510000000E-01  -3.101514343E-02  
4.520000000E-01  -6.557262590E-02  
4.530000000E-01  -9.998480419E-02  
4.540000000E-01  -1.341772188E-01  
4.550000000E-01  -1.680773444E-01  
4.560000000E-01  -2.016158211E-01  
4.570000000E-01  -2.347263977E-01  
4.580000000E-01  -2.673469094E-01  
4.590000000E-01  -2.994196812E-01  
4.600000000E-01  -3.308917005E-01  
4.610000000E-01  -3.617149047E-01  
4.620000000E-01  -3.918465845E-01  
4.630000000E-01  -4.212490956E-01  
4.640000000E-01  -4.498902621E-01  
4.650000000E-01  -4.777430308E-01  
4.660000000E-01  -5.047852987E-01  
4.670000000E-01  -5.310000282E-01  
4.680000000E-01  -5.563744984E-01  
4.690000000E-01  -5.809007086E-01  
4.700000000E-01  -6.045733632E-01  
4.710000000E-01  -6.273929803E-01  
4.720000000E-01  -6.493618623E-01  
4.730000000E-01  -6.704851896E-01  
4.740000000E-01  -6.907710204E-01  
4.750000000E-01  -7.102297158E-01  
4.760000000E-01  -7.288739387E-01  
4.770000000E-01  -7.467163524E-01  
4.780000000E-01  -7.637730736E-01  
4.790000000E-01  -7.800590680E-01  
4.800000000E-01  -7.955921790E-01  
4.810000000E-01  -8.103885235E-01  
4.820000000E-01  -8.244665206E-01  
4.830000000E-01  -8.378434383E-01  
4.840000000E-01  -8.505371201E-01  
4.850000000E-01  -8.625648340E-01  
4.860000000E-01  -8.739444236E-01  
4.870000000E-01  -8.846920057E-01  
4.880000000E-01  -8.948236969E-01  
4.890000000E-01  -9.043556142E-01  
4.900000000E-01  -9.133032986E-01  
4.910000000E-01  -9.216799889E-01  
4.920000000E-01  -9.295006507E-01  
4.930000000E-01  -9.367773716E-01  
4.940000000E-01  -9.435228147E-01  
4.950000000E-01  -9.497479165E-01  
4.960000000E-01  -9.554636132E-01  
4.970000000E-01  -9.606796902E-01  
4.980000000E-01  -9.654047813E-01  
4.990000000E-01  -9.696475205E-01  
5.000000000E-01  -9.734153907E-01  
5.010000000E-01  -9.767141478E-01  
5.020000000E-01  -9.795501234E-01  
5.030000000E-01  -9.819284980E-01  
5.040000000E-01  -9.838527250E-01  
5.050000000E-01  -9.853268337E-01  
5.060000000E-01  -9.863525509E-01  
5.070000000E-01  -9.869327545E-01  
5.080000000E-01  -9.870674446E-01  
5.090000000E-01  -9.867577725E-01  
5.100000000E-01  -9.860031623E-01  
5.110000000E-01  -9.848013119E-01  
5.120000000E-01  -9.831504944E-01  
5.130000000E-01  -9.810484073E-01  
5.140000000E-01  -9.784910215E-01  
5.150000000E-01  -9.754737323E-01  
5.160000000E-01  -9.719913591E-01  
5.170000000E-01  -9.680381461E-01  
5.180000000E-01  -9.636066104E-01  
5.190000000E-01  -9.586898449E-01  
5.200000000E-01  -9.532786399E-01  
5.210000000E-01  -9.473637860E-01  
5.220000000E-01  -9.409354978E-01  
5.230000000E-01  -9.339828391E-01  
5.240000000E-01  -9.264937222E-01  
5.250000000E-01  -9.184560596E-01  
5.260000000E-01  -9.098566126E-01  
5.270000000E-01  -9.006809910E-01  
5.280000000E-01  -8.909148050E-01  
5.290000000E-01  -8.805425134E-01  
5.300000000E-01  -8.695485751E-01  
5.310000000E-01  -8.579162976E-01  
5.320000000E-01  -8.456284129E-01  
5.330000000E-01  -8.326676532E-01  
5.340000000E-01  -8.190173261E-01  
5.350000000E-01  -8.046584368E-01  
5.360000000E-01  -7.895737172E-01  
5.370000000E-01  -7.737464752E-01  
5.380000000E-01  -7.571588670E-01  
5.390000000E-01  -7.397942004E-01  
5.400000000E-01  -7.216375097E-01  
5.410000000E-01  -7.026738294E-01  
5.420000000E-01  -6.828899207E-01  
5.430000000E-01  -6.622748473E-01  
5.440000000E-01  -6.408188239E-01  
5.450000000E-01  -6.185149434E-01  
5.460000000E-01  -5.953586010E-01  
5.470000000E-01  -5.713488181E-01  
5.480000000E-01  -5.464872640E-01  
5.490000000E-01  -5.207800976E-01  
5.500000000E-01  -4.942372193E-01  
5.510000000E-01  -4.668730189E-01  
5.520000000E-01  -4.387067214E-01  
5.530000000E-01  -4.097622719E-01  
5.540000000E-01  -3.800689107E-01  
5.550000000E-01  -3.496610010E-01  
5.560000000E-01  -3.185782017E-01  
5.570000000E-01  -2.868655246E-01  
5.580000000E-01  -2.545729891E-01  
5.590000000E-01  -2.217555650E-01  
5.600000000E-01  -1.884729420E-01  
5.610000000E-01  -1.547888962E-01  
5.620000000E-01  -1.207710607E-01  
5.630000000E-01  -8.649017654E-02  
5.640000000E-01  -5.201952892E-02  
5.650000000E-01  -1.743436590E-02  
5.660000000E-01  1.718899961E-02  
5.670000000E-01  5.177385757E-02  
5.680000000E-01  8.624387779E-02  
5.690000000E-01  1.205239561E-01  
5.700000000E-01  1.545406980E-01  
5.710000000E-01  1.882233623E-01  
5.720000000E-01  2.215044888E-01  
5.730000000E-01  2.543202436E-01  
5.740000000E-01  2.866109947E-01  
5.750000000E-01  3.183218300E-01  
5.760000000E-01  3.494027298E-01  
5.770000000E-01  3.798087976E-01  
5.780000000E-01  4.095004320E-01  
5.790000000E-01  4.384431547E-01  
5.800000000E-01  4.666078980E-01  
5.810000000E-01  4.939706594E-01  
5.820000000E-01  5.205122715E-01  
5.830000000E-01  5.462183442E-01  
5.840000000E-01  5.710790349E-01  
5.850000000E-01  5.950880695E-01  
5.860000000E-01  6.182438363E-01  
5.870000000E-01  6.405477169E-01  
5.880000000E-01  6.620037402E-01  
5.890000000E-01  6.826188137E-01  
5.900000000E-01  7.024027224E-01  
5.910000000E-01  7.213669782E-01  
5.920000000E-01  7.395242445E-01  
5.930000000E-01  7.568894867E-01  
5.940000000E-01  7.734776705E-01  
5.950000000E-01  7.893060638E-01  
5.960000000E-01  8.043919345E-01  
5.970000000E-01  8.187519750E-01  
5.980000000E-01  8.324040290E-01  
5.990000000E-01  8.453659399E-01  
6.000000000E-01  8.576549757E-01  
6.010000000E-01  8.692889800E-01  
6.020000000E-01  8.802846452E-01  
6.030000000E-01  8.906586635E-01  
6.040000000E-01  9.004265763E-01  
6.050000000E-01  9.096039247E-01  
6.060000000E-01  9.182050985E-01  
6.070000000E-01  9.262444879E-01  
6.080000000E-01  9.337353316E-01  
6.090000000E-01  9.406902927E-01  
6.100000000E-01  9.471208832E-01  
6.110000000E-01  9.530374640E-01  
6.120000000E-01  9.584509714E-01  
6.130000000E-01  9.633700393E-01  
6.140000000E-01  9.678038773E-01  
6.150000000E-01  9.717599684E-01  
6.160000000E-01  9.752446439E-01  
6.170000000E-01  9.782642356E-01  
6.180000000E-01  9.808244993E-01  
6.190000000E-01  9.829288888E-01  
6.200000000E-01  9.845820087E-01  
6.210000000E-01  9.857867372E-01  
6.220000000E-01  9.865448009E-01  
6.230000000E-01  9.868573511E-01  
6.240000000E-01  9.867255389E-01  
6.250000000E-01  9.861487889E-01  
6.260000000E-01  9.851259497E-01  
6.270000000E-01  9.836558702E-01  
6.280000000E-01  9.817350967E-01  
6.290000000E-01  9.793607514E-01  
6.300000000E-01  9.765282294E-01  
6.310000000E-01  9.732335015E-01  
6.320000000E-01  9.694702361E-01  
6.330000000E-01  9.652315260E-01  
6.340000000E-01  9.605110397E-01  
6.350000000E-01  9.552995676E-01  
6.360000000E-01  9.495884756E-01  
6.370000000E-01  9.433685542E-01  
6.380000000E-01  9.366282915E-01  
6.390000000E-01  9.293567510E-01  
6.400000000E-01  9.215424208E-01  
6.410000000E-01  9.131709108E-01  
6.420000000E-01  9.042295580E-01  
6.430000000E-01  8.947039724E-01  
6.440000000E-01  8.845786127E-01  
6.450000000E-01  8.738379378E-01  
6.460000000E-01  8.624652554E-01  
6.470000000E-01  8.504450243E-01  
6.480000000E-01  8.377588252E-01  
6.490000000E-01  8.243893903E-01  
6.500000000E-01  8.103194516E-01  
6.510000000E-01  7.955311655E-01  
6.520000000E-01  7.800072641E-01  
6.530000000E-01  7.637293281E-01  
6.540000000E-01  7.466823920E-01  
6.550000000E-01  7.288491879E-01  
6.560000000E-01  7.102147502E-01  
6.570000000E-01  6.907658400E-01  
6.580000000E-01  6.704897943E-01  
6.590000000E-01  6.493774035E-01  
6.600000000E-01  6.274188823E-01  
6.610000000E-01  6.046102016E-01  
6.620000000E-01  5.809484833E-01  
6.630000000E-01  5.564339578E-01  
6.640000000E-01  5.310712873E-01  
6.650000000E-01  5.048686455E-01  
6.660000000E-01  4.778386953E-01  
6.670000000E-01  4.499986473E-01  
6.680000000E-01  4.213704894E-01  
6.690000000E-01  3.919812746E-01  
6.700000000E-01  3.618633517E-01  
6.710000000E-01  3.310541921E-01  
6.720000000E-01  2.995966779E-01  
6.730000000E-01  2.675388141E-01  
6.740000000E-01  2.349335557E-01  
6.750000000E-01  2.018387506E-01  
6.760000000E-01  1.683165057E-01  
6.770000000E-01  1.344330150E-01  
6.780000000E-01  1.002576956E-01  
6.790000000E-01  6.586301553E-02  
6.800000000E-01  3.132341116E-02  
6.810000000E-01  -3.285177005E-03  
6.820000000E-01  -3.788611316E-02  
6.830000000E-01  -7.240285474E-02  
6.840000000E-01  -1.067597180E-01  
6.850000000E-01  -1.408824852E-01  
6.860000000E-01  -1.746994367E-01  
6.870000000E-01  -2.081416157E-01  
6.880000000E-01  -2.411436919E-01  
6.890000000E-01  -2.736443064E-01  
6.900000000E-01  -3.055867050E-01  
6.910000000E-01  -3.369187387E-01  
6.920000000E-01  -3.675934960E-01  
6.930000000E-01  -3.975691884E-01  
6.940000000E-01  -4.268093806E-01  
6.950000000E-01  -4.552828176E-01  
6.960000000E-01  -4.829633672E-01  
6.970000000E-01  -5.098301350E-01  
6.980000000E-01  -5.358667166E-01  
6.990000000E-01  -5.610615425E-01  
7.000000000E-01  -5.854070722E-01  
7.010000000E-01  -6.088995643E-01  
7.020000000E-01  -6.315390190E-01  
7.030000000E-01  -6.533294653E-01  
7.040000000E-01  -6.742755081E-01  
7.050000000E-01  -6.943863569E-01  
7.060000000E-01  -7.136729482E-01  
7.070000000E-01  -7.321479450E-01  
7.080000000E-01  -7.498245862E-01  
7.090000000E-01  -7.667184130E-01  
7.100000000E-01  -7.828455421E-01  
7.110000000E-01  -7.982232414E-01  
7.120000000E-01  -8.128682034E-01  
7.130000000E-01  -8.267982716E-01  
7.140000000E-01  -8.400312896E-01  
7.150000000E-01  -8.525851009E-01  
7.160000000E-01  -8.644763979E-01  
7.170000000E-01  -8.757230241E-01  
7.180000000E-01  -8.863416720E-01  
7.190000000E-01  -8.963478827E-01  
7.200000000E-01  -9.057571974E-01  
7.210000000E-01  -9.145857329E-01  
7.220000000E-01  -9.228467278E-01  
7.230000000E-01  -9.305534210E-01  
7.240000000E-01  -9.377196269E-01  
7.250000000E-01  -9.443574331E-01  
7.260000000E-01  -9.504766246E-01  
7.270000000E-01  -9.560892892E-01  
7.280000000E-01  -9.612040607E-01  
7.290000000E-01  -9.658301488E-01  
7.300000000E-01  -9.699750363E-01  
7.310000000E-01  -9.736467815E-01  
7.320000000E-01  -9.768511403E-01  
7.330000000E-01  -9.795938690E-01  
7.340000000E-01  -9.818795721E-01  
7.350000000E-01  -9.837128544E-01  
7.360000000E-01  -9.850960185E-01  
7.370000000E-01  -9.860325179E-01  
7.380000000E-01  -9.865229281E-01  
7.390000000E-01  -9.865689760E-01  
7.400000000E-01  -9.861700860E-01  
7.410000000E-01  -9.853262581E-01  
7.420000000E-01  -9.840351898E-01  
7.430000000E-01  -9.822951544E-01  
7.440000000E-01  -9.801032739E-01  
7.450000000E-01  -9.774549436E-01  
7.460000000E-01  -9.743467097E-01  
7.470000000E-01  -9.707722407E-01  
7.480000000E-01  -9.667252051E-01  
7.490000000E-01  -9.621992712E-01  
7.500000000E-01  -9.571858050E-01  
7.510000000E-01  -9.516773239E-01  
7.520000000E-01  -9.456628913E-01  
7.530000000E-01  -9.391332978E-01  
7.540000000E-01  -9.320770312E-01  
7.550000000E-01  -9.244825798E-01  
7.560000000E-01  -9.163372802E-01  
7.570000000E-01  -9.076273182E-01  
7.580000000E-01  -8.983383036E-01  
7.590000000E-01  -8.884564223E-01  
7.600000000E-01  -8.779655573E-01  
7.610000000E-01  -8.668501676E-01  
7.620000000E-01  -8.550924095E-01  
7.630000000E-01  -8.426767419E-01  
7.640000000E-01  -8.295853213E-01  
7.650000000E-01  -8.157997284E-01  
7.660000000E-01  -8.013032710E-01  
7.670000000E-01  -7.860781053E-01  
7.680000000E-01  -7.701063879E-01  
7.690000000E-01  -7.533714265E-01  
7.700000000E-01  -7.358565285E-01  
7.710000000E-01  -7.175473042E-01  
7.720000000E-01  -6.984282122E-01  
7.730000000E-01  -6.784877406E-01  
7.740000000E-01  -6.577132263E-01  
7.750000000E-01  -6.360971864E-01  
7.760000000E-01  -6.136321382E-01  
7.770000000E-01  -5.903140525E-01  
7.780000000E-01  -5.661432746E-01  
7.790000000E-01  -5.411219918E-01  
7.800000000E-01  -5.152569387E-01  
7.810000000E-01  -4.885589940E-01  
7.820000000E-01  -4.610435262E-01  
7.830000000E-01  -4.327305086E-01  
7.840000000E-01  -4.036450374E-01  
7.850000000E-01  -3.738172738E-01  
7.860000000E-01  -3.432826749E-01  
7.870000000E-01  -3.120819353E-01  
7.880000000E-01  -2.802611032E-01  
7.890000000E-01  -2.478711188E-01  
7.900000000E-01  -2.149679881E-01  
7.910000000E-01  -1.816121488E-01  
7.920000000E-01  -1.478682408E-01  
7.930000000E-01  -1.138044150E-01  
7.940000000E-01  -7.949210307E-02  
7.950000000E-01  -4.500499332E-02  
7.960000000E-01  -1.041854672E-02  
7.970000000E-01  2.419079145E-02  
7.980000000E-01  5.874636869E-02  
7.990000000E-01  9.317195843E-02  
8.000000000E-01  1.273928652E-01  
8.010000000E-01  1.613361607E-01  
8.020000000E-01  1.949317369E-01  
8.030000000E-01  2.281127667E-01  
8.040000000E-01  2.608162798E-01  
8.050000000E-01  2.929836800E-01  
8.060000000E-01  3.245609188E-01  
8.070000000E-01  3.554990126E-01  
8.080000000E-01  3.857541583E-01  
8.090000000E-01  4.152877332E-01  
8.100000000E-01  4.440664679E-01  
8.110000000E-01  4.720622729E-01  
8.120000000E-01  4.992521244E-01  
8.130000000E-01  5.256178910E-01  
8.140000000E-01  5.511461037E-01  
8.150000000E-01  5.758273802E-01  
8.160000000E-01  5.996571733E-01  
8.170000000E-01  6.226339289E-01  
8.180000000E-01  6.447593738E-01  
8.190000000E-01  6.660381127E-01  
8.200000000E-01  6.864787797E-01  
8.210000000E-01  7.060900087E-01  
8.220000000E-01  7.248844629E-01  
8.230000000E-01  7.428753811E-01  
8.240000000E-01  7.600777289E-01  
8.250000000E-01  7.765064717E-01  
8.260000000E-01  7.921788777E-01  
8.270000000E-01  8.071122147E-01  
8.280000000E-01  8.213237508E-01  
8.290000000E-01  8.348313294E-01  
8.300000000E-01  8.476522186E-01  
8.310000000E-01  8.598042618E-01  
8.320000000E-01  8.713047272E-01  
8.330000000E-01  8.821703070E-01  
8.340000000E-01  8.924176937E-01  
8.350000000E-01  9.020624283E-01  
8.360000000E-01  9.111194765E-01  
8.370000000E-01  9.196043794E-01  
8.380000000E-01  9.275298002E-01  
8.390000000E-01  9.349095533E-01  
8.400000000E-01  9.417557262E-01  
8.410000000E-01  9.480798310E-01  
8.420000000E-01  9.538922283E-01  
8.430000000E-01  9.592038547E-01  
8.440000000E-01  9.640233440E-01  
8.450000000E-01  9.683587547E-01  
8.460000000E-01  9.722181451E-01  
8.470000000E-01  9.756072712E-01  
8.480000000E-01  9.785330402E-01  
8.490000000E-01  9.810006326E-01  
8.500000000E-01  9.830135018E-01  
8.510000000E-01  9.845751016E-01  
8.520000000E-01  9.856894610E-01  
8.530000000E-01  9.863571556E-01  
8.540000000E-01  9.865804880E-01  
8.550000000E-01  9.863588824E-01  
8.560000000E-01  9.856923390E-01  
8.570000000E-01  9.845797063E-01  
8.580000000E-01  9.830192578E-01  
8.590000000E-01  9.810081154E-01  
8.600000000E-01  9.785422498E-01  
8.610000000E-01  9.756182076E-01  
8.620000000E-01  9.722302326E-01  
8.630000000E-01  9.683725690E-01  
8.640000000E-01  9.640388852E-01  
8.650000000E-01  9.592211226E-01  
8.660000000E-01  9.539112231E-01  
8.670000000E-01  9.480999769E-01  
8.680000000E-01  9.417770234E-01  
8.690000000E-01  9.349325772E-01  
8.700000000E-01  9.275545509E-01  
8.710000000E-01  9.196308569E-01  
8.720000000E-01  9.111482564E-01  
8.730000000E-01  9.020923594E-01  
8.740000000E-01  8.924493516E-01  
8.750000000E-01  8.822036918E-01  
8.760000000E-01  8.713398388E-01  
8.770000000E-01  8.598411002E-01  
8.780000000E-01  8.476907837E-01  
8.790000000E-01  8.348710457E-01  
8.800000000E-01  8.213651939E-01  
8.810000000E-01  8.071553846E-01  
8.820000000E-01  7.922237744E-01  
8.830000000E-01  7.765525197E-01  
8.840000000E-01  7.601249280E-01  
8.850000000E-01  7.429243070E-01  
8.860000000E-01  7.249345400E-01  
8.870000000E-01  7.061412370E-01  
8.880000000E-01  6.865305836E-01  
8.890000000E-01  6.660910678E-01  
8.900000000E-01  6.448129045E-01  
8.910000000E-01  6.226886108E-01  
8.920000000E-01  5.997124308E-01  
8.930000000E-01  5.758832133E-01  
8.940000000E-01  5.512016490E-01  
8.950000000E-01  5.256734938E-01  
8.960000000E-01  4.993076697E-01  
8.970000000E-01  4.721175879E-01  
8.980000000E-01  4.441213800E-01  
8.990000000E-01  4.153421849E-01  
9.000000000E-01  3.858079768E-01  
9.010000000E-01  3.555520828E-01  
9.020000000E-01  3.246131832E-01  
9.030000000E-01  2.930351386E-01  
9.040000000E-01  2.608668749E-01  
9.050000000E-01  2.281624409E-01  
9.060000000E-01  1.949804901E-01  
9.070000000E-01  1.613840505E-01  
9.080000000E-01  1.274399492E-01  
9.090000000E-01  9.321829414E-02  
9.100000000E-01  5.879195612E-02  
9.110000000E-01  2.423575148E-02  
9.120000000E-01  -1.037417380E-02  
9.130000000E-01  -4.496115571E-02  
9.140000000E-01  -7.944876048E-02  
9.150000000E-01  -1.137615328E-01  
9.160000000E-01  -1.478258192E-01  
9.170000000E-01  -1.815701877E-01  
9.180000000E-01  -2.149265450E-01  
9.190000000E-01  -2.478302513E-01  
9.200000000E-01  -2.802208688E-01  
9.210000000E-01  -3.120425068E-01  
9.220000000E-01  -3.432441098E-01  
9.230000000E-01  -3.737796872E-01  
9.240000000E-01  -4.036086595E-01  
9.250000000E-01  -4.326954547E-01  
9.260000000E-01  -4.610100264E-01  
9.270000000E-01  -4.885271634E-01  
9.280000000E-01  -5.152269500E-01  
9.290000000E-01  -5.410940177E-01  
9.300000000E-01  -5.661174878E-01  
9.310000000E-01  -5.902904529E-01  
9.320000000E-01  -6.136108411E-01  
9.330000000E-01  -6.360787673E-01  
9.340000000E-01  -6.576976851E-01  
9.350000000E-01  -6.784745018E-01  
9.360000000E-01  -6.984184270E-01  
9.370000000E-01  -7.175398214E-01  
9.380000000E-01  -7.358524993E-01  
9.390000000E-01  -7.533702753E-01  
9.400000000E-01  -7.701081147E-01  
9.410000000E-01  -7.860827101E-01  
9.420000000E-01  -8.013113293E-01  
9.430000000E-01  -8.158106648E-01  
9.440000000E-01  -8.295991357E-01  
9.450000000E-01  -8.426940099E-01  
9.460000000E-01  -8.551125555E-01  
9.470000000E-01  -8.668726159E-01  
9.480000000E-01  -8.779914593E-01  
9.490000000E-01  -8.884852022E-01  
9.500000000E-01  -8.983699616E-01  
9.510000000E-01  -9.076612785E-01  
9.520000000E-01  -9.163735429E-01  
9.530000000E-01  -9.245217205E-01  
9.540000000E-01  -9.321190500E-01  
9.550000000E-01  -9.391776189E-01  
9.560000000E-01  -9.457100904E-01  
9.570000000E-01  -9.517262498E-01  
9.580000000E-01  -9.572376089E-01  
9.590000000E-01  -9.622533775E-01  
9.600000000E-01  -9.667816138E-01  
9.610000000E-01  -9.708303762E-01  
9.620000000E-01  -9.744071476E-01  
9.630000000E-01  -9.775176838E-01  
9.640000000E-01  -9.801677410E-01  
9.650000000E-01  -9.823619239E-01  
9.660000000E-01  -9.841036861E-01  
9.670000000E-01  -9.853964811E-01  
9.680000000E-01  -9.862426115E-01  
9.690000000E-01  -9.866432283E-01  
9.700000000E-01  -9.865994828E-01  
9.710000000E-01  -9.861102237E-01  
9.720000000E-01  -9.851760268E-01  
9.730000000E-01  -9.837945895E-01  
9.740000000E-01  -9.819630339E-01  
9.750000000E-01  -9.796790576E-01  
9.760000000E-01  -9.769380558E-01  
9.770000000E-01  -9.737354237E-01  
9.780000000E-01  -9.700654053E-01  
9.790000000E-01  -9.659216691E-01  
9.800000000E-01  -9.612973078E-01  
9.810000000E-01  -9.561842630E-01  
9.820000000E-01  -9.505733253E-01  
9.830000000E-01  -9.444552849E-01  
9.840000000E-01  -9.378197811E-01  
9.850000000E-01  -9.306547264E-01  
9.860000000E-01  -9.229491844E-01  
9.870000000E-01  -9.146899163E-01  
9.880000000E-01  -9.058631076E-01  
9.890000000E-01  -8.964549441E-01  
9.900000000E-01  -8.864498846E-01  
9.910000000E-01  -8.758329635E-01  
9.920000000E-01  -8.645874884E-01  
9.930000000E-01  -8.526973426E-01  
9.940000000E-01  -8.401452581E-01  
9.950000000E-01  -8.269133914E-01  
9.960000000E-01  -8.129838988E-01  
9.970000000E-01  -7.983400880E-01  
9.980000000E-01  -7.829635398E-01  
9.990000000E-01  -7.668369864E-01  
1.000000000E+00  -7.499437352E-01  
1.001000000E+00  -7.322676696E-01  
1.002000000E+00  -7.137932483E-01  
1.003000000E+00  -6.945066571E-01  
1.004000000E+00  -6.743958083E-01  
1.005000000E+00  -6.534491899E-01  
1.006000000E+00  -6.316587435E-01  
1.007000000E+00  -6.090181377E-01  
1.008000000E+00  -5.855244943E-01  
1.009000000E+00  -5.611778134E-01  
1.010000000E+00  -5.359813759E-01  
1.011000000E+00  -5.099427222E-01  
1.012000000E+00  -4.830735368E-01  
1.013000000E+00  -4.553901668E-01  
1.014000000E+00  -4.269135065E-01  
1.015000000E+00  -3.976696304E-01  
1.016000000E+00  -3.676897361E-01  
1.017000000E+00  -3.370103740E-01  
1.018000000E+00  -3.056731600E-01  
1.019000000E+00  -2.737250629E-01  
1.020000000E+00  -2.412181744E-01  
1.021000000E+00  -2.082091910E-01  
1.022000000E+00  -1.747594716E-01  
1.023000000E+00  -1.409342891E-01  
1.024000000E+00  -1.068025425E-01  
1.025000000E+00  -7.243589412E-02  
1.026000000E+00  -3.790848669E-02  
1.027000000E+00  -3.295905017E-03  
1.028000000E+00  3.132539122E-02  
1.029000000E+00  6.587890206E-02  
1.030000000E+00  1.002887780E-01  
1.031000000E+00  1.344807321E-01  
1.032000000E+00  1.683824693E-01  
1.033000000E+00  2.019246299E-01  
1.034000000E+00  2.350413079E-01  
1.035000000E+00  2.676705111E-01  
1.036000000E+00  2.997546222E-01  
1.037000000E+00  3.312408588E-01  
1.038000000E+00  3.620814461E-01  
1.039000000E+00  3.922336747E-01  
1.040000000E+00  4.216603034E-01  
1.041000000E+00  4.503292138E-01  
1.042000000E+00  4.782135829E-01  
1.043000000E+00  5.052916531E-01  
1.044000000E+00  5.315464442E-01  
1.045000000E+00  5.569655809E-01  
1.046000000E+00  5.815413502E-01  
1.047000000E+00  6.052686867E-01  
1.048000000E+00  6.281487417E-01  
1.049000000E+00  6.501832419E-01  
1.050000000E+00  6.713785190E-01  
1.051000000E+00  6.917420557E-01  
1.052000000E+00  7.112859397E-01  
1.053000000E+00  7.300216828E-01  
1.054000000E+00  7.479642507E-01  
1.055000000E+00  7.651280333E-01  
1.056000000E+00  7.815302987E-01  
1.057000000E+00  7.971877391E-01  
1.058000000E+00  8.121181981E-01  
1.059000000E+00  8.263400949E-01  
1.060000000E+00  8.398718487E-01  
1.061000000E+00  8.527313030E-01  
1.062000000E+00  8.649363014E-01  
1.063000000E+00  8.765058386E-01  
1.064000000E+00  8.874566070E-01  
1.065000000E+00  8.978058747E-01  
1.066000000E+00  9.075697583E-01  
1.067000000E+00  9.167655258E-01  
1.068000000E+00  9.254075672E-01  
1.069000000E+00  9.335108480E-01  
1.070000000E+00  9.410897583E-01  
1.071000000E+00  9.481575368E-01  
1.072000000E+00  9.547268467E-01  
1.073000000E+00  9.608097755E-01  
1.074000000E+00  9.664172597E-01  
1.075000000E+00  9.715608112E-01  
1.076000000E+00  9.762490639E-01  
1.077000000E+00  9.804923788E-01  
1.078000000E+00  9.842988141E-01  
1.079000000E+00  9.876758526E-01  
1.080000000E+00  9.906315528E-01  
1.081000000E+00  9.931728218E-01  
1.082000000E+00  9.953042644E-01  
1.083000000E+00  9.970327878E-01  
1.084000000E+00  9.983624212E-01  
1.085000000E+00  9.992977694E-01  
1.086000000E+00  9.998422859E-01  
1.087000000E+00  1.000000000E+00  
1.088000000E+00  9.997732140E-01  
1.089000000E+00  9.991636548E-01  
1.090000000E+00  9.981736248E-01  
1.091000000E+00  9.968048507E-01  
1.092000000E+00  9.950579081E-01  
1.093000000E+00  9.929333727E-01  
1.094000000E+00  9.904306688E-01  
1.095000000E+00  9.875509477E-01  
1.096000000E+00  9.842919069E-01  
1.097000000E+00  9.806541221E-01  
1.098000000E+00  9.766352908E-01  
1.099000000E+00  9.722342618E-01  
1.100000000E+00  9.674493084E-01  
1.101000000E+00  9.622787038E-01  
1.102000000E+00  9.567195700E-01  
1.103000000E+00  9.507701801E-01  
1.104000000E+00  9.444276561E-01  
1.105000000E+00  9.376902714E-01  
1.106000000E+00  9.305551478E-01  
1.107000000E+00  9.230194075E-01  
1.108000000E+00  9.150818991E-01  
1.109000000E+00  9.067397447E-01  
1.110000000E+00  8.979917931E-01  
1.111000000E+00  8.888368931E-01  
1.112000000E+00  8.792733179E-01  
1.113000000E+00  8.693010676E-01  
1.114000000E+00  8.589201420E-01  
1.115000000E+00  8.481328436E-01  
1.116000000E+00  8.369397480E-01  
1.117000000E+00  8.253443089E-01  
1.118000000E+00  8.133517064E-01  
1.119000000E+00  8.009653944E-01  
1.120000000E+00  7.881934312E-01  
1.121000000E+00  7.750438750E-01  
1.122000000E+00  7.615259356E-01  
1.123000000E+00  7.476517005E-01  
1.124000000E+00  7.334338329E-01  
1.125000000E+00  7.188872983E-01  
1.126000000E+00  7.040287892E-01  
1.127000000E+00  6.888778758E-01  
1.128000000E+00  6.734547041E-01  
1.129000000E+00  6.577817225E-01  
1.130000000E+00  6.418836818E-01  
1.131000000E+00  6.257864839E-01  
1.132000000E+00  6.095171819E-01  
1.133000000E+00  5.931062826E-01  
1.134000000E+00  5.765831415E-01  
1.135000000E+00  5.599803375E-01  
1.136000000E+00  5.433294711E-01  
1.137000000E+00  5.266639268E-01  
1.138000000E+00  5.100169169E-01  
1.139000000E+00  4.934219410E-01  
1.140000000E+00  4.769120963E-01  
1.141000000E+00  4.605199615E-01  
1.142000000E+00  4.442773097E-01  
1.143000000E+00  4.282147628E-01  
1.144000000E+00  4.123617340E-01  
1.145000000E+00  3.967458518E-01  
1.146000000E+00  3.813930759E-01  
1.147000000E+00  3.663273511E-01  
1.148000000E+00  3.515706078E-01  
1.149000000E+00  3.371424164E-01  
1.150000000E+00  3.230602750E-01  
1.151000000E+00  3.093390916E-01  
1.152000000E+00  2.959917022E-01  
1.153000000E+00  2.830285250E-01  
1.154000000E+00  2.704577910E-01  
1.155000000E+00  2.582854291E-01  
1.156000000E+00  2.465155259E-01  
1.157000000E+00  2.351500960E-01  
1.158000000E+00  2.241892546E-01  
1.159000000E+00  2.136316202E-01  
1.160000000E+00  2.034740845E-01  
1.161000000E+00  1.937123307E-01  
1.162000000E+00  1.843407177E-01  
1.163000000E+00  1.753525111E-01  
1.164000000E+00  1.667399980E-01  
1.165000000E+00  1.584947169E-01  
1.166000000E+00  1.506074583E-01  
1.167000000E+00  1.430686097E-01  
1.168000000E+00  1.358679254E-01  
1.169000000E+00  1.289949295E-01  
1.170000000E+00  1.224388584E-01  
1.171000000E+00  1.161887757E-01  
1.172000000E+00  1.102336874E-01  
1.173000000E+00  1.045626571E-01  
1.174000000E+00  9.916469092E-02  
1.175000000E+00  9.402896759E-02  
1.176000000E+00  8.914472340E-02  
1.177000000E+00  8.450148245E-02  
1.178000000E+00  8.008888398E-02  
1.179000000E+00  7.589691255E-02  
1.180000000E+00  7.191572542E-02  
1.181000000E+00  6.813582522E-02  
1.182000000E+00  6.454800236E-02  
1.183000000E+00  6.114333505E-02  
1.184000000E+00  5.791313177E-02  
1.185000000E+00  5.484917871E-02  
1.186000000E+00  5.194345202E-02  
1.187000000E+00  4.918827321E-02  
1.188000000E+00  4.657627462E-02  
1.189000000E+00  4.410039365E-02  
1.190000000E+00  4.175387853E-02  
1.191000000E+00  3.953024801E-02  
1.192000000E+00  3.742333167E-02  
1.193000000E+00  3.542721236E-02  
1.194000000E+00  3.353627223E-02  
1.195000000E+00  3.174512943E-02  
1.196000000E+00  3.004866688E-02  
1.197000000E+00  2.844201503E-02  
1.198000000E+00  2.692052879E-02  
1.199000000E+00  2.547979331E-02  
1.200000000E+00  2.411560673E-02  
1.201000000E+00  2.282398014E-02  
1.202000000E+00  2.160112610E-02  
1.203000000E+00  2.044343561E-02  
1.204000000E+00  1.934748961E-02  
1.205000000E+00  1.831003597E-02  
1.206000000E+00  1.732799523E-02  
1.207000000E+00  1.639844335E-02  
1.208000000E+00  1.551860595E-02  
1.209000000E+00  1.468584677E-02  
1.210000000E+00  1.389767924E-02  
1.211000000E+00  1.315173189E-02  
1.212000000E+00  1.244575988E-02  
1.213000000E+00  1.177763925E-02  
1.214000000E+00  1.114536116E-02  
1.215000000E+00  1.054701463E-02  
1.216000000E+00  9.980786510E-03  
1.217000000E+00  9.444967280E-03  
1.218000000E+00  8.937939506E-03  
1.219000000E+00  8.458160582E-03  
1.220000000E+00  8.004179999E-03  
1.221000000E+00  7.574616320E-03  
1.222000000E+00  7.168168692E-03  
1.223000000E+00  6.783593821E-03  
1.224000000E+00  6.419734753E-03  
1.225000000E+00  6.075474826E-03  
1.226000000E+00  5.749771056E-03  
1.227000000E+00  5.441629958E-03  
1.228000000E+00  5.150113307E-03  
1.229000000E+00  4.874332953E-03  
1.230000000E+00  4.613447947E-03  
1.231000000E+00  4.366662810E-03  
1.232000000E+00  4.133224660E-03  
1.233000000E+00  3.912421481E-03  
1.234000000E+00  3.703579246E-03  
1.235000000E+00  3.506060768E-03  
1.236000000E+00  3.319262243E-03  
1.237000000E+00  3.142614405E-03  
1.238000000E+00  2.975576764E-03  
1.239000000E+00  2.817639342E-03  
1.240000000E+00  2.668319211E-03  
1.241000000E+00  2.527161072E-03  
1.242000000E+00  2.393733225E-03  
1.243000000E+00  2.267626996E-03  
1.244000000E+00  2.148458460E-03  
1.245000000E+00  2.035861536E-03  
1.246000000E+00  1.929493168E-03  
1.247000000E+00  1.829028142E-03  
1.248000000E+00  1.734158512E-03  
1.249000000E+00  1.644594752E-03  
1.250000000E+00  1.560063454E-03  
1.251000000E+00  1.480304446E-03  
1.252000000E+00  1.405075401E-03  
1.253000000E+00  1.334145503E-03  
1.254000000E+00  1.267298329E-03  
1.255000000E+00  1.204328388E-03  
1.256000000E+00  1.145044007E-03  
1.257000000E+00  1.089263297E-03  
1.258000000E+00  1.036815879E-03  
1.259000000E+00  9.875405869E-04  
1.260000000E+00  9.412877643E-04  
1.261000000E+00  8.979158141E-04  
1.262000000E+00  8.572911972E-04  
1.263000000E+00  8.192901600E-04  
1.264000000E+00  7.837964314E-04  
1.265000000E+00  7.507012233E-04  
1.266000000E+00  7.199032303E-04  
1.267000000E+00  6.913080542E-04  
1.268000000E+00  6.648287795E-04  
1.269000000E+00  6.403842468E-04  
1.270000000E+00  6.178996282E-04  
1.271000000E+00  5.973058519E-04  
1.272000000E+00  5.785401777E-04  
1.273000000E+00  5.615446426E-04  
1.274000000E+00  5.462678457E-04  
1.275000000E+00  5.326628758E-04  
1.276000000E+00  5.206878867E-04  
1.277000000E+00  5.103062704E-04  
1.278000000E+00  5.014857358E-04  
1.279000000E+00  4.941988268E-04  
1.280000000E+00  4.884242463E-04  
1.281000000E+00  4.841786866E-04  
1.282000000E+00  4.814147184E-04  
1.283000000E+00  4.801020076E-04  
