O    0.054250    0.000000    0.000000    0.000000     0
Q    0.067500    0.000000    0.000000    0.000000     0
O    0.312500    0.000000    0.000000    0.000000     0
Q    0.067500    0.400000   -1.500000    1.500000     0
O    0.312500    0.000000    0.000000    0.000000     0
Q    0.067500    0.000000    0.000000    0.000000     0
O    0.312500    0.000000    0.000000    0.000000     0
Q    0.067500   -0.772000   -1.500000    1.500000     0
O    0.312500    0.000000    0.000000    0.000000     0
Q    0.067500    0.000000    0.000000    0.000000     0
O    0.312500    0.000000    0.000000    0.000000     0
Q    0.067500    0.463000   -1.500000    1.500000     0
O    0.312500    0.000000    0.000000    0.000000     0
Q    0.067500    0.000000    0.000000    0.000000     0
O    0.312500    0.000000    0.000000    0.000000     0
Q    0.067500    0.000000    0.000000    0.000000     0
O    0.312500    0.000000    0.000000    0.000000     0
Q    0.067500    0.000000    0.000000    0.000000     0
O    1.439500    0.000000    0.000000    0.000000     0
Q    0.067500    0.000000    0.000000    0.000000     0
O    0.032500    0.000000    0.000000    0.000000     0
Q    0.067500    0.000000    0.000000    0.000000     0
O    1.493250    0.000000    0.000000    0.000000     0
