# Screen        Zpos	        Xrms   Yrms
LOW.SCR1	0.803000	3.27   3.37
LOW.SCR2	1.379000	2.50   2.33
LOW.SCR3	1.708000	2.20   1.97
HIGH1.SCR1	5.277000	1.73   1.10
HIGH1.SCR2	6.250000	2.80   0.79
HIGH1.SCR3	7.125000	2.83   0.78
HIGH1.SCR4	8.410000	1.10   1.20
HIGH1.SCR5	8.920000	0.66   0.83
PST.SCR1	12.278000	1.45   0.95  #2.00   0.88
PST.SCR2	13.038000	2.14   1.09  #2.70   1.07
PST.SCR3	13.798000	2.67   1.31  #3.23   1.31
PST.SCR4	14.558000	3.61   1.63  #4.20   1.66
PST.SCR5	15.318000	4.48   1.97  #4.91   1.95
#HIGH2.SCR1	16.303000	
#HIGH2.SCR2	18.262000	