%!PS-Adobe-3.0 EPSF-3.0
%%Creator: (MATLAB, The Mathworks, Inc. Version 9.2.0.556344 \(R2017a\). Operating System: Windows 8)
%%Title: ./PITZ+THz.eps
%%CreationDate: 2019-03-01T11:27:53
%%Pages: (atend)
%%BoundingBox:    33     6   850   483
%%LanguageLevel: 3
%%EndComments
%%BeginProlog
%%BeginResource: procset (Apache XML Graphics Std ProcSet) 1.2 0
%%Version: 1.2 0
%%Copyright: (Copyright 2001-2003,2010 The Apache Software Foundation. License terms: http://www.apache.org/licenses/LICENSE-2.0)
/bd{bind def}bind def
/ld{load def}bd
/GR/grestore ld
/M/moveto ld
/LJ/setlinejoin ld
/C/curveto ld
/f/fill ld
/LW/setlinewidth ld
/GC/setgray ld
/t/show ld
/N/newpath ld
/CT/concat ld
/cp/closepath ld
/S/stroke ld
/L/lineto ld
/CC/setcmykcolor ld
/A/ashow ld
/GS/gsave ld
/RC/setrgbcolor ld
/RM/rmoveto ld
/ML/setmiterlimit ld
/re {4 2 roll M
1 index 0 rlineto
0 exch rlineto
neg 0 rlineto
cp } bd
/_ctm matrix def
/_tm matrix def
/BT { _ctm currentmatrix pop matrix _tm copy pop 0 0 moveto } bd
/ET { _ctm setmatrix } bd
/iTm { _ctm setmatrix _tm concat } bd
/Tm { _tm astore pop iTm 0 0 moveto } bd
/ux 0.0 def
/uy 0.0 def
/F {
  /Tp exch def
  /Tf exch def
  Tf findfont Tp scalefont setfont
  /cf Tf def  /cs Tp def
} bd
/ULS {currentpoint /uy exch def /ux exch def} bd
/ULE {
  /Tcx currentpoint pop def
  gsave
  newpath
  cf findfont cs scalefont dup
  /FontMatrix get 0 get /Ts exch def /FontInfo get dup
  /UnderlinePosition get Ts mul /To exch def
  /UnderlineThickness get Ts mul /Tt exch def
  ux uy To add moveto  Tcx uy To add lineto
  Tt setlinewidth stroke
  grestore
} bd
/OLE {
  /Tcx currentpoint pop def
  gsave
  newpath
  cf findfont cs scalefont dup
  /FontMatrix get 0 get /Ts exch def /FontInfo get dup
  /UnderlinePosition get Ts mul /To exch def
  /UnderlineThickness get Ts mul /Tt exch def
  ux uy To add cs add moveto Tcx uy To add cs add lineto
  Tt setlinewidth stroke
  grestore
} bd
/SOE {
  /Tcx currentpoint pop def
  gsave
  newpath
  cf findfont cs scalefont dup
  /FontMatrix get 0 get /Ts exch def /FontInfo get dup
  /UnderlinePosition get Ts mul /To exch def
  /UnderlineThickness get Ts mul /Tt exch def
  ux uy To add cs 10 mul 26 idiv add moveto Tcx uy To add cs 10 mul 26 idiv add lineto
  Tt setlinewidth stroke
  grestore
} bd
/QT {
/Y22 exch store
/X22 exch store
/Y21 exch store
/X21 exch store
currentpoint
/Y21 load 2 mul add 3 div exch
/X21 load 2 mul add 3 div exch
/X21 load 2 mul /X22 load add 3 div
/Y21 load 2 mul /Y22 load add 3 div
/X22 load /Y22 load curveto
} bd
/SSPD {
dup length /d exch dict def
{
/v exch def
/k exch def
currentpagedevice k known {
/cpdv currentpagedevice k get def
v cpdv ne {
/upd false def
/nullv v type /nulltype eq def
/nullcpdv cpdv type /nulltype eq def
nullv nullcpdv or
{
/upd true def
} {
/sametype v type cpdv type eq def
sametype {
v type /arraytype eq {
/vlen v length def
/cpdvlen cpdv length def
vlen cpdvlen eq {
0 1 vlen 1 sub {
/i exch def
/obj v i get def
/cpdobj cpdv i get def
obj cpdobj ne {
/upd true def
exit
} if
} for
} {
/upd true def
} ifelse
} {
v type /dicttype eq {
v {
/dv exch def
/dk exch def
/cpddv cpdv dk get def
dv cpddv ne {
/upd true def
exit
} if
} forall
} {
/upd true def
} ifelse
} ifelse
} if
} ifelse
upd true eq {
d k v put
} if
} if
} if
} forall
d length 0 gt {
d setpagedevice
} if
} bd
/RE { % /NewFontName [NewEncodingArray] /FontName RE -
  findfont dup length dict begin
  {
    1 index /FID ne
    {def} {pop pop} ifelse
  } forall
  /Encoding exch def
  /FontName 1 index def
  currentdict definefont pop
  end
} bind def
%%EndResource
%%BeginResource: procset (Apache XML Graphics EPS ProcSet) 1.0 0
%%Version: 1.0 0
%%Copyright: (Copyright 2002-2003 The Apache Software Foundation. License terms: http://www.apache.org/licenses/LICENSE-2.0)
/BeginEPSF { %def
/b4_Inc_state save def         % Save state for cleanup
/dict_count countdictstack def % Count objects on dict stack
/op_count count 1 sub def      % Count objects on operand stack
userdict begin                 % Push userdict on dict stack
/showpage { } def              % Redefine showpage, { } = null proc
0 setgray 0 setlinecap         % Prepare graphics state
1 setlinewidth 0 setlinejoin
10 setmiterlimit [ ] 0 setdash newpath
/languagelevel where           % If level not equal to 1 then
{pop languagelevel             % set strokeadjust and
1 ne                           % overprint to their defaults.
{false setstrokeadjust false setoverprint
} if
} if
} bd
/EndEPSF { %def
count op_count sub {pop} repeat            % Clean up stacks
countdictstack dict_count sub {end} repeat
b4_Inc_state restore
} bd
%%EndResource
%FOPBeginFontDict
%%IncludeResource: font Courier-Bold
%%IncludeResource: font Helvetica
%%IncludeResource: font Courier-BoldOblique
%%IncludeResource: font Courier-Oblique
%%IncludeResource: font Times-Roman
%%IncludeResource: font Helvetica-BoldOblique
%%IncludeResource: font Helvetica-Bold
%%IncludeResource: font Helvetica-Oblique
%%IncludeResource: font Times-BoldItalic
%%IncludeResource: font Courier
%%IncludeResource: font Times-Italic
%%IncludeResource: font Times-Bold
%%IncludeResource: font Symbol
%%IncludeResource: font ZapfDingbats
%FOPEndFontDict
%%BeginResource: encoding WinAnsiEncoding
/WinAnsiEncoding [
/.notdef /.notdef /.notdef /.notdef /.notdef
/.notdef /.notdef /.notdef /.notdef /.notdef
/.notdef /.notdef /.notdef /.notdef /.notdef
/.notdef /.notdef /.notdef /.notdef /.notdef
/.notdef /.notdef /.notdef /.notdef /.notdef
/.notdef /.notdef /.notdef /.notdef /.notdef
/.notdef /.notdef /space /exclam /quotedbl
/numbersign /dollar /percent /ampersand /quotesingle
/parenleft /parenright /asterisk /plus /comma
/hyphen /period /slash /zero /one
/two /three /four /five /six
/seven /eight /nine /colon /semicolon
/less /equal /greater /question /at
/A /B /C /D /E
/F /G /H /I /J
/K /L /M /N /O
/P /Q /R /S /T
/U /V /W /X /Y
/Z /bracketleft /backslash /bracketright /asciicircum
/underscore /quoteleft /a /b /c
/d /e /f /g /h
/i /j /k /l /m
/n /o /p /q /r
/s /t /u /v /w
/x /y /z /braceleft /bar
/braceright /asciitilde /bullet /Euro /bullet
/quotesinglbase /florin /quotedblbase /ellipsis /dagger
/daggerdbl /circumflex /perthousand /Scaron /guilsinglleft
/OE /bullet /Zcaron /bullet /bullet
/quoteleft /quoteright /quotedblleft /quotedblright /bullet
/endash /emdash /asciitilde /trademark /scaron
/guilsinglright /oe /bullet /zcaron /Ydieresis
/space /exclamdown /cent /sterling /currency
/yen /brokenbar /section /dieresis /copyright
/ordfeminine /guillemotleft /logicalnot /sfthyphen /registered
/macron /degree /plusminus /twosuperior /threesuperior
/acute /mu /paragraph /middot /cedilla
/onesuperior /ordmasculine /guillemotright /onequarter /onehalf
/threequarters /questiondown /Agrave /Aacute /Acircumflex
/Atilde /Adieresis /Aring /AE /Ccedilla
/Egrave /Eacute /Ecircumflex /Edieresis /Igrave
/Iacute /Icircumflex /Idieresis /Eth /Ntilde
/Ograve /Oacute /Ocircumflex /Otilde /Odieresis
/multiply /Oslash /Ugrave /Uacute /Ucircumflex
/Udieresis /Yacute /Thorn /germandbls /agrave
/aacute /acircumflex /atilde /adieresis /aring
/ae /ccedilla /egrave /eacute /ecircumflex
/edieresis /igrave /iacute /icircumflex /idieresis
/eth /ntilde /ograve /oacute /ocircumflex
/otilde /odieresis /divide /oslash /ugrave
/uacute /ucircumflex /udieresis /yacute /thorn
/ydieresis
] def
%%EndResource
%FOPBeginFontReencode
/Courier-Bold findfont
dup length dict begin
  {1 index /FID ne {def} {pop pop} ifelse} forall
  /Encoding WinAnsiEncoding def
  currentdict
end
/Courier-Bold exch definefont pop
/Helvetica findfont
dup length dict begin
  {1 index /FID ne {def} {pop pop} ifelse} forall
  /Encoding WinAnsiEncoding def
  currentdict
end
/Helvetica exch definefont pop
/Courier-BoldOblique findfont
dup length dict begin
  {1 index /FID ne {def} {pop pop} ifelse} forall
  /Encoding WinAnsiEncoding def
  currentdict
end
/Courier-BoldOblique exch definefont pop
/Courier-Oblique findfont
dup length dict begin
  {1 index /FID ne {def} {pop pop} ifelse} forall
  /Encoding WinAnsiEncoding def
  currentdict
end
/Courier-Oblique exch definefont pop
/Times-Roman findfont
dup length dict begin
  {1 index /FID ne {def} {pop pop} ifelse} forall
  /Encoding WinAnsiEncoding def
  currentdict
end
/Times-Roman exch definefont pop
/Helvetica-BoldOblique findfont
dup length dict begin
  {1 index /FID ne {def} {pop pop} ifelse} forall
  /Encoding WinAnsiEncoding def
  currentdict
end
/Helvetica-BoldOblique exch definefont pop
/Helvetica-Bold findfont
dup length dict begin
  {1 index /FID ne {def} {pop pop} ifelse} forall
  /Encoding WinAnsiEncoding def
  currentdict
end
/Helvetica-Bold exch definefont pop
/Helvetica-Oblique findfont
dup length dict begin
  {1 index /FID ne {def} {pop pop} ifelse} forall
  /Encoding WinAnsiEncoding def
  currentdict
end
/Helvetica-Oblique exch definefont pop
/Times-BoldItalic findfont
dup length dict begin
  {1 index /FID ne {def} {pop pop} ifelse} forall
  /Encoding WinAnsiEncoding def
  currentdict
end
/Times-BoldItalic exch definefont pop
/Courier findfont
dup length dict begin
  {1 index /FID ne {def} {pop pop} ifelse} forall
  /Encoding WinAnsiEncoding def
  currentdict
end
/Courier exch definefont pop
/Times-Italic findfont
dup length dict begin
  {1 index /FID ne {def} {pop pop} ifelse} forall
  /Encoding WinAnsiEncoding def
  currentdict
end
/Times-Italic exch definefont pop
/Times-Bold findfont
dup length dict begin
  {1 index /FID ne {def} {pop pop} ifelse} forall
  /Encoding WinAnsiEncoding def
  currentdict
end
/Times-Bold exch definefont pop
%FOPEndFontReencode
%%EndProlog
%%Page: 1 1
%%PageBoundingBox: 0 0 842 497
%%BeginPageSetup
[1 0 0 -1 0 497] CT
%%EndPageSetup
GS
[0.74968 0 0 0.75035 0 -0.48029] CT
1 GC
N
0 0 1123 663 re
f
GR
GS
[0.74968 0 0 0.75035 0 -0.48029] CT
1 GC
N
0 0 1123 663 re
f
GR
GS
[0.74968 0 0 0.75035 0 -0.48029] CT
1 GC
N
51 306 M
1071 306 L
1071 51 L
51 51 L
cp
f
GR
GS
[0.74968 0 0 0.75035 0 -0.48029] CT
0.149 GC
2 setlinecap
1 LJ
0.667 LW
N
51 306 M
1071 306 L
S
GR
GS
[0.74968 0 0 0.75035 0 -0.48029] CT
0.149 GC
2 setlinecap
1 LJ
0.667 LW
N
51 306 M
51 295.8 L
S
GR
GS
[0.74968 0 0 0.75035 0 -0.48029] CT
0.149 GC
2 setlinecap
1 LJ
0.667 LW
N
107.667 306 M
107.667 295.8 L
S
GR
GS
[0.74968 0 0 0.75035 0 -0.48029] CT
0.149 GC
2 setlinecap
1 LJ
0.667 LW
N
164.333 306 M
164.333 295.8 L
S
GR
GS
[0.74968 0 0 0.75035 0 -0.48029] CT
0.149 GC
2 setlinecap
1 LJ
0.667 LW
N
221 306 M
221 295.8 L
S
GR
GS
[0.74968 0 0 0.75035 0 -0.48029] CT
0.149 GC
2 setlinecap
1 LJ
0.667 LW
N
277.667 306 M
277.667 295.8 L
S
GR
GS
[0.74968 0 0 0.75035 0 -0.48029] CT
0.149 GC
2 setlinecap
1 LJ
0.667 LW
N
334.333 306 M
334.333 295.8 L
S
GR
GS
[0.74968 0 0 0.75035 0 -0.48029] CT
0.149 GC
2 setlinecap
1 LJ
0.667 LW
N
391 306 M
391 295.8 L
S
GR
GS
[0.74968 0 0 0.75035 0 -0.48029] CT
0.149 GC
2 setlinecap
1 LJ
0.667 LW
N
447.667 306 M
447.667 295.8 L
S
GR
GS
[0.74968 0 0 0.75035 0 -0.48029] CT
0.149 GC
2 setlinecap
1 LJ
0.667 LW
N
504.333 306 M
504.333 295.8 L
S
GR
GS
[0.74968 0 0 0.75035 0 -0.48029] CT
0.149 GC
2 setlinecap
1 LJ
0.667 LW
N
561 306 M
561 295.8 L
S
GR
GS
[0.74968 0 0 0.75035 0 -0.48029] CT
0.149 GC
2 setlinecap
1 LJ
0.667 LW
N
617.667 306 M
617.667 295.8 L
S
GR
GS
[0.74968 0 0 0.75035 0 -0.48029] CT
0.149 GC
2 setlinecap
1 LJ
0.667 LW
N
674.333 306 M
674.333 295.8 L
S
GR
GS
[0.74968 0 0 0.75035 0 -0.48029] CT
0.149 GC
2 setlinecap
1 LJ
0.667 LW
N
731 306 M
731 295.8 L
S
GR
GS
[0.74968 0 0 0.75035 0 -0.48029] CT
0.149 GC
2 setlinecap
1 LJ
0.667 LW
N
787.667 306 M
787.667 295.8 L
S
GR
GS
[0.74968 0 0 0.75035 0 -0.48029] CT
0.149 GC
2 setlinecap
1 LJ
0.667 LW
N
844.333 306 M
844.333 295.8 L
S
GR
GS
[0.74968 0 0 0.75035 0 -0.48029] CT
0.149 GC
2 setlinecap
1 LJ
0.667 LW
N
901 306 M
901 295.8 L
S
GR
GS
[0.74968 0 0 0.75035 0 -0.48029] CT
0.149 GC
2 setlinecap
1 LJ
0.667 LW
N
957.667 306 M
957.667 295.8 L
S
GR
GS
[0.74968 0 0 0.75035 0 -0.48029] CT
0.149 GC
2 setlinecap
1 LJ
0.667 LW
N
1014.333 306 M
1014.333 295.8 L
S
GR
GS
[0.74968 0 0 0.75035 0 -0.48029] CT
0.149 GC
2 setlinecap
1 LJ
0.667 LW
N
1071 306 M
1071 295.8 L
S
GR
GS
[0.74968 0 0 0.75035 0 -0.48029] CT
0.149 GC
2 setlinecap
1 LJ
0.667 LW
N
62.333 306 M
62.333 300.9 L
S
GR
GS
[0.74968 0 0 0.75035 0 -0.48029] CT
0.149 GC
2 setlinecap
1 LJ
0.667 LW
N
73.667 306 M
73.667 300.9 L
S
GR
GS
[0.74968 0 0 0.75035 0 -0.48029] CT
0.149 GC
2 setlinecap
1 LJ
0.667 LW
N
85 306 M
85 300.9 L
S
GR
GS
[0.74968 0 0 0.75035 0 -0.48029] CT
0.149 GC
2 setlinecap
1 LJ
0.667 LW
N
96.333 306 M
96.333 300.9 L
S
GR
GS
[0.74968 0 0 0.75035 0 -0.48029] CT
0.149 GC
2 setlinecap
1 LJ
0.667 LW
N
119 306 M
119 300.9 L
S
GR
GS
[0.74968 0 0 0.75035 0 -0.48029] CT
0.149 GC
2 setlinecap
1 LJ
0.667 LW
N
130.333 306 M
130.333 300.9 L
S
GR
GS
[0.74968 0 0 0.75035 0 -0.48029] CT
0.149 GC
2 setlinecap
1 LJ
0.667 LW
N
141.667 306 M
141.667 300.9 L
S
GR
GS
[0.74968 0 0 0.75035 0 -0.48029] CT
0.149 GC
2 setlinecap
1 LJ
0.667 LW
N
153 306 M
153 300.9 L
S
GR
GS
[0.74968 0 0 0.75035 0 -0.48029] CT
0.149 GC
2 setlinecap
1 LJ
0.667 LW
N
175.667 306 M
175.667 300.9 L
S
GR
GS
[0.74968 0 0 0.75035 0 -0.48029] CT
0.149 GC
2 setlinecap
1 LJ
0.667 LW
N
187 306 M
187 300.9 L
S
GR
GS
[0.74968 0 0 0.75035 0 -0.48029] CT
0.149 GC
2 setlinecap
1 LJ
0.667 LW
N
198.333 306 M
198.333 300.9 L
S
GR
GS
[0.74968 0 0 0.75035 0 -0.48029] CT
0.149 GC
2 setlinecap
1 LJ
0.667 LW
N
209.667 306 M
209.667 300.9 L
S
GR
GS
[0.74968 0 0 0.75035 0 -0.48029] CT
0.149 GC
2 setlinecap
1 LJ
0.667 LW
N
232.333 306 M
232.333 300.9 L
S
GR
GS
[0.74968 0 0 0.75035 0 -0.48029] CT
0.149 GC
2 setlinecap
1 LJ
0.667 LW
N
243.667 306 M
243.667 300.9 L
S
GR
GS
[0.74968 0 0 0.75035 0 -0.48029] CT
0.149 GC
2 setlinecap
1 LJ
0.667 LW
N
255 306 M
255 300.9 L
S
GR
GS
[0.74968 0 0 0.75035 0 -0.48029] CT
0.149 GC
2 setlinecap
1 LJ
0.667 LW
N
266.333 306 M
266.333 300.9 L
S
GR
GS
[0.74968 0 0 0.75035 0 -0.48029] CT
0.149 GC
2 setlinecap
1 LJ
0.667 LW
N
289 306 M
289 300.9 L
S
GR
GS
[0.74968 0 0 0.75035 0 -0.48029] CT
0.149 GC
2 setlinecap
1 LJ
0.667 LW
N
300.333 306 M
300.333 300.9 L
S
GR
GS
[0.74968 0 0 0.75035 0 -0.48029] CT
0.149 GC
2 setlinecap
1 LJ
0.667 LW
N
311.667 306 M
311.667 300.9 L
S
GR
GS
[0.74968 0 0 0.75035 0 -0.48029] CT
0.149 GC
2 setlinecap
1 LJ
0.667 LW
N
323 306 M
323 300.9 L
S
GR
GS
[0.74968 0 0 0.75035 0 -0.48029] CT
0.149 GC
2 setlinecap
1 LJ
0.667 LW
N
345.667 306 M
345.667 300.9 L
S
GR
GS
[0.74968 0 0 0.75035 0 -0.48029] CT
0.149 GC
2 setlinecap
1 LJ
0.667 LW
N
357 306 M
357 300.9 L
S
GR
GS
[0.74968 0 0 0.75035 0 -0.48029] CT
0.149 GC
2 setlinecap
1 LJ
0.667 LW
N
368.333 306 M
368.333 300.9 L
S
GR
GS
[0.74968 0 0 0.75035 0 -0.48029] CT
0.149 GC
2 setlinecap
1 LJ
0.667 LW
N
379.667 306 M
379.667 300.9 L
S
GR
GS
[0.74968 0 0 0.75035 0 -0.48029] CT
0.149 GC
2 setlinecap
1 LJ
0.667 LW
N
402.333 306 M
402.333 300.9 L
S
GR
GS
[0.74968 0 0 0.75035 0 -0.48029] CT
0.149 GC
2 setlinecap
1 LJ
0.667 LW
N
413.667 306 M
413.667 300.9 L
S
GR
GS
[0.74968 0 0 0.75035 0 -0.48029] CT
0.149 GC
2 setlinecap
1 LJ
0.667 LW
N
425 306 M
425 300.9 L
S
GR
GS
[0.74968 0 0 0.75035 0 -0.48029] CT
0.149 GC
2 setlinecap
1 LJ
0.667 LW
N
436.333 306 M
436.333 300.9 L
S
GR
GS
[0.74968 0 0 0.75035 0 -0.48029] CT
0.149 GC
2 setlinecap
1 LJ
0.667 LW
N
459 306 M
459 300.9 L
S
GR
GS
[0.74968 0 0 0.75035 0 -0.48029] CT
0.149 GC
2 setlinecap
1 LJ
0.667 LW
N
470.333 306 M
470.333 300.9 L
S
GR
GS
[0.74968 0 0 0.75035 0 -0.48029] CT
0.149 GC
2 setlinecap
1 LJ
0.667 LW
N
481.667 306 M
481.667 300.9 L
S
GR
GS
[0.74968 0 0 0.75035 0 -0.48029] CT
0.149 GC
2 setlinecap
1 LJ
0.667 LW
N
493 306 M
493 300.9 L
S
GR
GS
[0.74968 0 0 0.75035 0 -0.48029] CT
0.149 GC
2 setlinecap
1 LJ
0.667 LW
N
515.667 306 M
515.667 300.9 L
S
GR
GS
[0.74968 0 0 0.75035 0 -0.48029] CT
0.149 GC
2 setlinecap
1 LJ
0.667 LW
N
527 306 M
527 300.9 L
S
GR
GS
[0.74968 0 0 0.75035 0 -0.48029] CT
0.149 GC
2 setlinecap
1 LJ
0.667 LW
N
538.333 306 M
538.333 300.9 L
S
GR
GS
[0.74968 0 0 0.75035 0 -0.48029] CT
0.149 GC
2 setlinecap
1 LJ
0.667 LW
N
549.667 306 M
549.667 300.9 L
S
GR
GS
[0.74968 0 0 0.75035 0 -0.48029] CT
0.149 GC
2 setlinecap
1 LJ
0.667 LW
N
572.333 306 M
572.333 300.9 L
S
GR
GS
[0.74968 0 0 0.75035 0 -0.48029] CT
0.149 GC
2 setlinecap
1 LJ
0.667 LW
N
583.667 306 M
583.667 300.9 L
S
GR
GS
[0.74968 0 0 0.75035 0 -0.48029] CT
0.149 GC
2 setlinecap
1 LJ
0.667 LW
N
595 306 M
595 300.9 L
S
GR
GS
[0.74968 0 0 0.75035 0 -0.48029] CT
0.149 GC
2 setlinecap
1 LJ
0.667 LW
N
606.333 306 M
606.333 300.9 L
S
GR
GS
[0.74968 0 0 0.75035 0 -0.48029] CT
0.149 GC
2 setlinecap
1 LJ
0.667 LW
N
629 306 M
629 300.9 L
S
GR
GS
[0.74968 0 0 0.75035 0 -0.48029] CT
0.149 GC
2 setlinecap
1 LJ
0.667 LW
N
640.333 306 M
640.333 300.9 L
S
GR
GS
[0.74968 0 0 0.75035 0 -0.48029] CT
0.149 GC
2 setlinecap
1 LJ
0.667 LW
N
651.667 306 M
651.667 300.9 L
S
GR
GS
[0.74968 0 0 0.75035 0 -0.48029] CT
0.149 GC
2 setlinecap
1 LJ
0.667 LW
N
663 306 M
663 300.9 L
S
GR
GS
[0.74968 0 0 0.75035 0 -0.48029] CT
0.149 GC
2 setlinecap
1 LJ
0.667 LW
N
685.667 306 M
685.667 300.9 L
S
GR
GS
[0.74968 0 0 0.75035 0 -0.48029] CT
0.149 GC
2 setlinecap
1 LJ
0.667 LW
N
697 306 M
697 300.9 L
S
GR
GS
[0.74968 0 0 0.75035 0 -0.48029] CT
0.149 GC
2 setlinecap
1 LJ
0.667 LW
N
708.333 306 M
708.333 300.9 L
S
GR
GS
[0.74968 0 0 0.75035 0 -0.48029] CT
0.149 GC
2 setlinecap
1 LJ
0.667 LW
N
719.667 306 M
719.667 300.9 L
S
GR
GS
[0.74968 0 0 0.75035 0 -0.48029] CT
0.149 GC
2 setlinecap
1 LJ
0.667 LW
N
742.333 306 M
742.333 300.9 L
S
GR
GS
[0.74968 0 0 0.75035 0 -0.48029] CT
0.149 GC
2 setlinecap
1 LJ
0.667 LW
N
753.667 306 M
753.667 300.9 L
S
GR
GS
[0.74968 0 0 0.75035 0 -0.48029] CT
0.149 GC
2 setlinecap
1 LJ
0.667 LW
N
765 306 M
765 300.9 L
S
GR
GS
[0.74968 0 0 0.75035 0 -0.48029] CT
0.149 GC
2 setlinecap
1 LJ
0.667 LW
N
776.333 306 M
776.333 300.9 L
S
GR
GS
[0.74968 0 0 0.75035 0 -0.48029] CT
0.149 GC
2 setlinecap
1 LJ
0.667 LW
N
799 306 M
799 300.9 L
S
GR
GS
[0.74968 0 0 0.75035 0 -0.48029] CT
0.149 GC
2 setlinecap
1 LJ
0.667 LW
N
810.333 306 M
810.333 300.9 L
S
GR
GS
[0.74968 0 0 0.75035 0 -0.48029] CT
0.149 GC
2 setlinecap
1 LJ
0.667 LW
N
821.667 306 M
821.667 300.9 L
S
GR
GS
[0.74968 0 0 0.75035 0 -0.48029] CT
0.149 GC
2 setlinecap
1 LJ
0.667 LW
N
833 306 M
833 300.9 L
S
GR
GS
[0.74968 0 0 0.75035 0 -0.48029] CT
0.149 GC
2 setlinecap
1 LJ
0.667 LW
N
855.667 306 M
855.667 300.9 L
S
GR
GS
[0.74968 0 0 0.75035 0 -0.48029] CT
0.149 GC
2 setlinecap
1 LJ
0.667 LW
N
867 306 M
867 300.9 L
S
GR
GS
[0.74968 0 0 0.75035 0 -0.48029] CT
0.149 GC
2 setlinecap
1 LJ
0.667 LW
N
878.333 306 M
878.333 300.9 L
S
GR
GS
[0.74968 0 0 0.75035 0 -0.48029] CT
0.149 GC
2 setlinecap
1 LJ
0.667 LW
N
889.667 306 M
889.667 300.9 L
S
GR
GS
[0.74968 0 0 0.75035 0 -0.48029] CT
0.149 GC
2 setlinecap
1 LJ
0.667 LW
N
912.333 306 M
912.333 300.9 L
S
GR
GS
[0.74968 0 0 0.75035 0 -0.48029] CT
0.149 GC
2 setlinecap
1 LJ
0.667 LW
N
923.667 306 M
923.667 300.9 L
S
GR
GS
[0.74968 0 0 0.75035 0 -0.48029] CT
0.149 GC
2 setlinecap
1 LJ
0.667 LW
N
935 306 M
935 300.9 L
S
GR
GS
[0.74968 0 0 0.75035 0 -0.48029] CT
0.149 GC
2 setlinecap
1 LJ
0.667 LW
N
946.333 306 M
946.333 300.9 L
S
GR
GS
[0.74968 0 0 0.75035 0 -0.48029] CT
0.149 GC
2 setlinecap
1 LJ
0.667 LW
N
969 306 M
969 300.9 L
S
GR
GS
[0.74968 0 0 0.75035 0 -0.48029] CT
0.149 GC
2 setlinecap
1 LJ
0.667 LW
N
980.333 306 M
980.333 300.9 L
S
GR
GS
[0.74968 0 0 0.75035 0 -0.48029] CT
0.149 GC
2 setlinecap
1 LJ
0.667 LW
N
991.667 306 M
991.667 300.9 L
S
GR
GS
[0.74968 0 0 0.75035 0 -0.48029] CT
0.149 GC
2 setlinecap
1 LJ
0.667 LW
N
1003 306 M
1003 300.9 L
S
GR
GS
[0.74968 0 0 0.75035 0 -0.48029] CT
0.149 GC
2 setlinecap
1 LJ
0.667 LW
N
1025.667 306 M
1025.667 300.9 L
S
GR
GS
[0.74968 0 0 0.75035 0 -0.48029] CT
0.149 GC
2 setlinecap
1 LJ
0.667 LW
N
1037 306 M
1037 300.9 L
S
GR
GS
[0.74968 0 0 0.75035 0 -0.48029] CT
0.149 GC
2 setlinecap
1 LJ
0.667 LW
N
1048.333 306 M
1048.333 300.9 L
S
GR
GS
[0.74968 0 0 0.75035 0 -0.48029] CT
0.149 GC
2 setlinecap
1 LJ
0.667 LW
N
1059.667 306 M
1059.667 300.9 L
S
GR
GS
[0.74968 0 0 0.75035 38.23364 233.12786] CT
0.149 GC
/Helvetica 13.333 F
GS
[1 0 0 1 0 0] CT
-4 14 moveto 
1 -1 scale
(0) t 
GR
GR
GS
[0.74968 0 0 0.75035 80.71546 233.12786] CT
0.149 GC
/Helvetica 13.333 F
GS
[1 0 0 1 0 0] CT
-4 14 moveto 
1 -1 scale
(1) t 
GR
GR
GS
[0.74968 0 0 0.75035 123.19728 233.12786] CT
0.149 GC
/Helvetica 13.333 F
GS
[1 0 0 1 0 0] CT
-4 14 moveto 
1 -1 scale
(2) t 
GR
GR
GS
[0.74968 0 0 0.75035 165.67911 233.12786] CT
0.149 GC
/Helvetica 13.333 F
GS
[1 0 0 1 0 0] CT
-4 14 moveto 
1 -1 scale
(3) t 
GR
GR
GS
[0.74968 0 0 0.75035 208.16092 233.12786] CT
0.149 GC
/Helvetica 13.333 F
GS
[1 0 0 1 0 0] CT
-4 14 moveto 
1 -1 scale
(4) t 
GR
GR
GS
[0.74968 0 0 0.75035 250.64276 233.12786] CT
0.149 GC
/Helvetica 13.333 F
GS
[1 0 0 1 0 0] CT
-4 14 moveto 
1 -1 scale
(5) t 
GR
GR
GS
[0.74968 0 0 0.75035 293.12458 233.12786] CT
0.149 GC
/Helvetica 13.333 F
GS
[1 0 0 1 0 0] CT
-4 14 moveto 
1 -1 scale
(6) t 
GR
GR
GS
[0.74968 0 0 0.75035 335.60639 233.12786] CT
0.149 GC
/Helvetica 13.333 F
GS
[1 0 0 1 0 0] CT
-4 14 moveto 
1 -1 scale
(7) t 
GR
GR
GS
[0.74968 0 0 0.75035 378.08823 233.12786] CT
0.149 GC
/Helvetica 13.333 F
GS
[1 0 0 1 0 0] CT
-4 14 moveto 
1 -1 scale
(8) t 
GR
GR
GS
[0.74968 0 0 0.75035 420.57005 233.12786] CT
0.149 GC
/Helvetica 13.333 F
GS
[1 0 0 1 0 0] CT
-4 14 moveto 
1 -1 scale
(9) t 
GR
GR
GS
[0.74968 0 0 0.75035 463.05188 233.12786] CT
0.149 GC
/Helvetica 13.333 F
GS
[1 0 0 1 0 0] CT
-7.5 14 moveto 
1 -1 scale
(10) t 
GR
GR
GS
[0.74968 0 0 0.75035 505.53368 233.12786] CT
0.149 GC
/Helvetica 13.333 F
GS
[1 0 0 1 0 0] CT
-7.5 14 moveto 
1 -1 scale
(11) t 
GR
GR
GS
[0.74968 0 0 0.75035 548.01551 233.12786] CT
0.149 GC
/Helvetica 13.333 F
GS
[1 0 0 1 0 0] CT
-7.5 14 moveto 
1 -1 scale
(12) t 
GR
GR
GS
[0.74968 0 0 0.75035 590.49735 233.12786] CT
0.149 GC
/Helvetica 13.333 F
GS
[1 0 0 1 0 0] CT
-7.5 14 moveto 
1 -1 scale
(13) t 
GR
GR
GS
[0.74968 0 0 0.75035 632.97914 233.12786] CT
0.149 GC
/Helvetica 13.333 F
GS
[1 0 0 1 0 0] CT
-7.5 14 moveto 
1 -1 scale
(14) t 
GR
GR
GS
[0.74968 0 0 0.75035 675.46098 233.12786] CT
0.149 GC
/Helvetica 13.333 F
GS
[1 0 0 1 0 0] CT
-7.5 14 moveto 
1 -1 scale
(15) t 
GR
GR
GS
[0.74968 0 0 0.75035 717.94282 233.12786] CT
0.149 GC
/Helvetica 13.333 F
GS
[1 0 0 1 0 0] CT
-7.5 14 moveto 
1 -1 scale
(16) t 
GR
GR
GS
[0.74968 0 0 0.75035 760.42461 233.12786] CT
0.149 GC
/Helvetica 13.333 F
GS
[1 0 0 1 0 0] CT
-7.5 14 moveto 
1 -1 scale
(17) t 
GR
GR
GS
[0.74968 0 0 0.75035 802.90645 233.12786] CT
0.149 GC
/Helvetica 13.333 F
GS
[1 0 0 1 0 0] CT
-7.5 14 moveto 
1 -1 scale
(18) t 
GR
GR
GS
[0.74968 0 0 0.75035 0 -0.48029] CT
0.933 0.584 0.373 RC
N
51 299.2 M
61.71 299.2 L
61.71 231.2 L
51 231.2 L
cp
f
GR
GS
[0.74968 0 0 0.75035 0 -0.48029] CT
0.933 0.584 0.373 RC
10.0 ML
0.667 LW
N
51 299.2 M
61.71 299.2 L
61.71 231.2 L
51 231.2 L
cp
S
GR
GS
[0 -0.75035 0.74968 0 42.48182 206.16537] CT
/Helvetica 12 F
GS
[1 0 0 1 0 0] CT
0 5 moveto 
1 -1 scale
(GUN) t 
GR
GR
GS
[0.74968 0 0 0.75035 0 -0.48029] CT
0.933 0.584 0.373 RC
N
202.583 299.2 M
299.483 299.2 L
299.483 231.2 L
202.583 231.2 L
cp
f
GR
GS
[0.74968 0 0 0.75035 0 -0.48029] CT
0.933 0.584 0.373 RC
10.0 ML
0.667 LW
N
202.583 299.2 M
299.483 299.2 L
299.483 231.2 L
202.583 231.2 L
cp
S
GR
GS
[0.74968 0 0 0.75035 188.19447 198.51184] CT
/Helvetica 12 F
GS
[1 0 0 1 0 0] CT
-44.5 5 moveto 
1 -1 scale
(CDS-BOOSTER) t 
GR
GR
GS
[0.74968 0 0 0.75035 0 -0.48029] CT
0.933 0.584 0.373 RC
N
654.047 299.2 M
692.965 299.2 L
692.965 231.2 L
654.047 231.2 L
cp
f
GR
GS
[0.74968 0 0 0.75035 0 -0.48029] CT
0.933 0.584 0.373 RC
10.0 ML
0.667 LW
N
654.047 299.2 M
692.965 299.2 L
692.965 231.2 L
654.047 231.2 L
cp
S
GR
GS
[0.74968 0 0 0.75035 504.91344 198.51184] CT
/Helvetica 12 F
GS
[1 0 0 1 0 0] CT
-12 5 moveto 
1 -1 scale
(TDS) t 
GR
GR
GS
[0.74968 0 0 0.75035 0 -0.48029] CT
1 0 0 RC
N
320.648 299.2 M
324.218 299.2 L
324.218 129.2 L
320.648 129.2 L
cp
f
GR
GS
[0.74968 0 0 0.75035 0 -0.48029] CT
1 0 0 RC
10.0 ML
0.667 LW
N
320.648 299.2 M
324.218 299.2 L
324.218 129.2 L
320.648 129.2 L
cp
S
GR
GS
[0 -0.75035 0.74968 0 241.72156 96.4646] CT
1 0 0 RC
/Helvetica 10.667 F
GS
[1 0 0 1 0 0] CT
0 4.5 moveto 
1 -1 scale
(HIGH1.Q1) t 
GR
GR
GS
[0.74968 0 0 0.75035 0 -0.48029] CT
1 0 0 RC
N
332.832 299.2 M
336.402 299.2 L
336.402 129.2 L
332.832 129.2 L
cp
f
GR
GS
[0.74968 0 0 0.75035 0 -0.48029] CT
1 0 0 RC
10.0 ML
0.667 LW
N
332.832 299.2 M
336.402 299.2 L
336.402 129.2 L
332.832 129.2 L
cp
S
GR
GS
[0 -0.75035 0.74968 0 250.85517 96.4646] CT
1 0 0 RC
/Helvetica 10.667 F
GS
[1 0 0 1 0 0] CT
0 4.5 moveto 
1 -1 scale
(HIGH1.Q2) t 
GR
GR
GS
[0.74968 0 0 0.75035 0 -0.48029] CT
1 0 0 RC
N
366.69 299.2 M
370.26 299.2 L
370.26 129.2 L
366.69 129.2 L
cp
f
GR
GS
[0.74968 0 0 0.75035 0 -0.48029] CT
1 0 0 RC
10.0 ML
0.667 LW
N
366.69 299.2 M
370.26 299.2 L
370.26 129.2 L
366.69 129.2 L
cp
S
GR
GS
[0 -0.75035 0.74968 0 276.23806 96.4646] CT
1 0 0 RC
/Helvetica 10.667 F
GS
[1 0 0 1 0 0] CT
0 4.5 moveto 
1 -1 scale
(HIGH1.Q3) t 
GR
GR
GS
[0.74968 0 0 0.75035 0 -0.48029] CT
1 0 0 RC
N
380.857 299.2 M
384.427 299.2 L
384.427 129.2 L
380.857 129.2 L
cp
f
GR
GS
[0.74968 0 0 0.75035 0 -0.48029] CT
1 0 0 RC
10.0 ML
0.667 LW
N
380.857 299.2 M
384.427 299.2 L
384.427 129.2 L
380.857 129.2 L
cp
S
GR
GS
[0 -0.75035 0.74968 0 286.85851 96.4646] CT
1 0 0 RC
/Helvetica 10.667 F
GS
[1 0 0 1 0 0] CT
0 4.5 moveto 
1 -1 scale
(HIGH1.Q4) t 
GR
GR
GS
[0.74968 0 0 0.75035 0 -0.48029] CT
1 0 0 RC
N
425.907 299.2 M
429.477 299.2 L
429.477 129.2 L
425.907 129.2 L
cp
f
GR
GS
[0.74968 0 0 0.75035 0 -0.48029] CT
1 0 0 RC
10.0 ML
0.667 LW
N
425.907 299.2 M
429.477 299.2 L
429.477 129.2 L
425.907 129.2 L
cp
S
GR
GS
[0 -0.75035 0.74968 0 320.63157 96.4646] CT
1 0 0 RC
/Helvetica 10.667 F
GS
[1 0 0 1 0 0] CT
0 4.5 moveto 
1 -1 scale
(HIGH1.Q5) t 
GR
GR
GS
[0.74968 0 0 0.75035 0 -0.48029] CT
1 0 0 RC
N
439.79 299.2 M
443.36 299.2 L
443.36 129.2 L
439.79 129.2 L
cp
f
GR
GS
[0.74968 0 0 0.75035 0 -0.48029] CT
1 0 0 RC
10.0 ML
0.667 LW
N
439.79 299.2 M
443.36 299.2 L
443.36 129.2 L
439.79 129.2 L
cp
S
GR
GS
[0 -0.75035 0.74968 0 331.03959 96.4646] CT
1 0 0 RC
/Helvetica 10.667 F
GS
[1 0 0 1 0 0] CT
0 4.5 moveto 
1 -1 scale
(HIGH1.Q6) t 
GR
GR
GS
[0.74968 0 0 0.75035 0 -0.48029] CT
1 0 0 RC
N
512.748 299.2 M
516.318 299.2 L
516.318 129.2 L
512.748 129.2 L
cp
f
GR
GS
[0.74968 0 0 0.75035 0 -0.48029] CT
1 0 0 RC
10.0 ML
0.667 LW
N
512.748 299.2 M
516.318 299.2 L
516.318 129.2 L
512.748 129.2 L
cp
S
GR
GS
[0 -0.75035 0.74968 0 385.73494 96.4646] CT
1 0 0 RC
/Helvetica 10.667 F
GS
[1 0 0 1 0 0] CT
0 4.5 moveto 
1 -1 scale
(HIGH1.Q7) t 
GR
GR
GS
[0.74968 0 0 0.75035 0 -0.48029] CT
1 0 0 RC
N
539.665 299.2 M
543.235 299.2 L
543.235 129.2 L
539.665 129.2 L
cp
f
GR
GS
[0.74968 0 0 0.75035 0 -0.48029] CT
1 0 0 RC
10.0 ML
0.667 LW
N
539.665 299.2 M
543.235 299.2 L
543.235 129.2 L
539.665 129.2 L
cp
S
GR
GS
[0 -0.75035 0.74968 0 405.91383 96.4646] CT
1 0 0 RC
/Helvetica 10.667 F
GS
[1 0 0 1 0 0] CT
0 4.5 moveto 
1 -1 scale
(HIGH1.Q8) t 
GR
GR
GS
[0.74968 0 0 0.75035 0 -0.48029] CT
1 0 0 RC
N
627.668 299.2 M
631.238 299.2 L
631.238 129.2 L
627.668 129.2 L
cp
f
GR
GS
[0.74968 0 0 0.75035 0 -0.48029] CT
1 0 0 RC
10.0 ML
0.667 LW
N
627.668 299.2 M
631.238 299.2 L
631.238 129.2 L
627.668 129.2 L
cp
S
GR
GS
[0 -0.75035 0.74968 0 471.88811 96.4646] CT
1 0 0 RC
/Helvetica 10.667 F
GS
[1 0 0 1 0 0] CT
0 4.5 moveto 
1 -1 scale
(HIGH1.Q9) t 
GR
GR
GS
[0.74968 0 0 0.75035 0 -0.48029] CT
1 0 0 RC
N
637.868 299.2 M
641.438 299.2 L
641.438 129.2 L
637.868 129.2 L
cp
f
GR
GS
[0.74968 0 0 0.75035 0 -0.48029] CT
1 0 0 RC
10.0 ML
0.667 LW
N
637.868 299.2 M
641.438 299.2 L
641.438 129.2 L
637.868 129.2 L
cp
S
GR
GS
[0 -0.75035 0.74968 0 479.53481 96.4646] CT
1 0 0 RC
/Helvetica 10.667 F
GS
[1 0 0 1 0 0] CT
0 4.5 moveto 
1 -1 scale
(HIGH1.Q10) t 
GR
GR
GS
[0.74968 0 0 0.75035 0 -0.48029] CT
1 0 0 RC
N
734.202 299.2 M
737.772 299.2 L
737.772 129.2 L
734.202 129.2 L
cp
f
GR
GS
[0.74968 0 0 0.75035 0 -0.48029] CT
1 0 0 RC
10.0 ML
0.667 LW
N
734.202 299.2 M
737.772 299.2 L
737.772 129.2 L
734.202 129.2 L
cp
S
GR
GS
[0 -0.75035 0.74968 0 551.75394 96.4646] CT
1 0 0 RC
/Helvetica 10.667 F
GS
[1 0 0 1 0 0] CT
0 4.5 moveto 
1 -1 scale
(PST.QM1) t 
GR
GR
GS
[0.74968 0 0 0.75035 0 -0.48029] CT
1 0 0 RC
N
755.735 299.2 M
759.305 299.2 L
759.305 129.2 L
755.735 129.2 L
cp
f
GR
GS
[0.74968 0 0 0.75035 0 -0.48029] CT
1 0 0 RC
10.0 ML
0.667 LW
N
755.735 299.2 M
759.305 299.2 L
759.305 129.2 L
755.735 129.2 L
cp
S
GR
GS
[0 -0.75035 0.74968 0 567.89702 96.4646] CT
1 0 0 RC
/Helvetica 10.667 F
GS
[1 0 0 1 0 0] CT
0 4.5 moveto 
1 -1 scale
(PST.QM2) t 
GR
GR
GS
[0.74968 0 0 0.75035 0 -0.48029] CT
1 0 0 RC
N
777.268 299.2 M
780.838 299.2 L
780.838 129.2 L
777.268 129.2 L
cp
f
GR
GS
[0.74968 0 0 0.75035 0 -0.48029] CT
1 0 0 RC
10.0 ML
0.667 LW
N
777.268 299.2 M
780.838 299.2 L
780.838 129.2 L
777.268 129.2 L
cp
S
GR
GS
[0 -0.75035 0.74968 0 584.04006 96.4646] CT
1 0 0 RC
/Helvetica 10.667 F
GS
[1 0 0 1 0 0] CT
0 4.5 moveto 
1 -1 scale
(PST.QM3) t 
GR
GR
GS
[0.74968 0 0 0.75035 0 -0.48029] CT
1 0 0 RC
N
798.802 299.2 M
802.372 299.2 L
802.372 129.2 L
798.802 129.2 L
cp
f
GR
GS
[0.74968 0 0 0.75035 0 -0.48029] CT
1 0 0 RC
10.0 ML
0.667 LW
N
798.802 299.2 M
802.372 299.2 L
802.372 129.2 L
798.802 129.2 L
cp
S
GR
GS
[0 -0.75035 0.74968 0 600.18319 96.4646] CT
1 0 0 RC
/Helvetica 10.667 F
GS
[1 0 0 1 0 0] CT
0 4.5 moveto 
1 -1 scale
(PST.QT1) t 
GR
GR
GS
[0.74968 0 0 0.75035 0 -0.48029] CT
1 0 0 RC
N
820.335 299.2 M
823.905 299.2 L
823.905 129.2 L
820.335 129.2 L
cp
f
GR
GS
[0.74968 0 0 0.75035 0 -0.48029] CT
1 0 0 RC
10.0 ML
0.667 LW
N
820.335 299.2 M
823.905 299.2 L
823.905 129.2 L
820.335 129.2 L
cp
S
GR
GS
[0 -0.75035 0.74968 0 616.32628 96.4646] CT
1 0 0 RC
/Helvetica 10.667 F
GS
[1 0 0 1 0 0] CT
0 4.5 moveto 
1 -1 scale
(PST.QT2) t 
GR
GR
GS
[0.74968 0 0 0.75035 0 -0.48029] CT
1 0 0 RC
N
841.868 299.2 M
845.438 299.2 L
845.438 129.2 L
841.868 129.2 L
cp
f
GR
GS
[0.74968 0 0 0.75035 0 -0.48029] CT
1 0 0 RC
10.0 ML
0.667 LW
N
841.868 299.2 M
845.438 299.2 L
845.438 129.2 L
841.868 129.2 L
cp
S
GR
GS
[0 -0.75035 0.74968 0 632.46937 96.4646] CT
1 0 0 RC
/Helvetica 10.667 F
GS
[1 0 0 1 0 0] CT
0 4.5 moveto 
1 -1 scale
(PST.QT3) t 
GR
GR
GS
[0.74968 0 0 0.75035 0 -0.48029] CT
1 0 0 RC
N
863.402 299.2 M
866.972 299.2 L
866.972 129.2 L
863.402 129.2 L
cp
f
GR
GS
[0.74968 0 0 0.75035 0 -0.48029] CT
1 0 0 RC
10.0 ML
0.667 LW
N
863.402 299.2 M
866.972 299.2 L
866.972 129.2 L
863.402 129.2 L
cp
S
GR
GS
[0 -0.75035 0.74968 0 648.61245 96.4646] CT
1 0 0 RC
/Helvetica 10.667 F
GS
[1 0 0 1 0 0] CT
0 4.5 moveto 
1 -1 scale
(PST.QT4) t 
GR
GR
GS
[0.74968 0 0 0.75035 0 -0.48029] CT
1 0 0 RC
N
884.935 299.2 M
888.505 299.2 L
888.505 129.2 L
884.935 129.2 L
cp
f
GR
GS
[0.74968 0 0 0.75035 0 -0.48029] CT
1 0 0 RC
10.0 ML
0.667 LW
N
884.935 299.2 M
888.505 299.2 L
888.505 129.2 L
884.935 129.2 L
cp
S
GR
GS
[0 -0.75035 0.74968 0 664.75559 96.4646] CT
1 0 0 RC
/Helvetica 10.667 F
GS
[1 0 0 1 0 0] CT
0 4.5 moveto 
1 -1 scale
(PST.QT5) t 
GR
GR
GS
[0.74968 0 0 0.75035 0 -0.48029] CT
1 0 0 RC
N
906.468 299.2 M
910.038 299.2 L
910.038 129.2 L
906.468 129.2 L
cp
f
GR
GS
[0.74968 0 0 0.75035 0 -0.48029] CT
1 0 0 RC
10.0 ML
0.667 LW
N
906.468 299.2 M
910.038 299.2 L
910.038 129.2 L
906.468 129.2 L
cp
S
GR
GS
[0 -0.75035 0.74968 0 680.89867 96.4646] CT
1 0 0 RC
/Helvetica 10.667 F
GS
[1 0 0 1 0 0] CT
0 4.5 moveto 
1 -1 scale
(PST.QT6) t 
GR
GR
GS
[0.74968 0 0 0.75035 0 -0.48029] CT
1 0 0 RC
N
991.865 299.2 M
995.435 299.2 L
995.435 129.2 L
991.865 129.2 L
cp
f
GR
GS
[0.74968 0 0 0.75035 0 -0.48029] CT
1 0 0 RC
10.0 ML
0.667 LW
N
991.865 299.2 M
995.435 299.2 L
995.435 129.2 L
991.865 129.2 L
cp
S
GR
GS
[0 -0.75035 0.74968 0 744.91878 96.4646] CT
1 0 0 RC
/Helvetica 10.667 F
GS
[1 0 0 1 0 0] CT
0 4.5 moveto 
1 -1 scale
(HIGH2.Q1) t 
GR
GR
GS
[0.74968 0 0 0.75035 0 -0.48029] CT
1 0 0 RC
N
997.532 299.2 M
1001.102 299.2 L
1001.102 129.2 L
997.532 129.2 L
cp
f
GR
GS
[0.74968 0 0 0.75035 0 -0.48029] CT
1 0 0 RC
10.0 ML
0.667 LW
N
997.532 299.2 M
1001.102 299.2 L
1001.102 129.2 L
997.532 129.2 L
cp
S
GR
GS
[0 -0.75035 0.74968 0 749.16698 96.4646] CT
1 0 0 RC
/Helvetica 10.667 F
GS
[1 0 0 1 0 0] CT
0 4.5 moveto 
1 -1 scale
(HIGH2.Q2) t 
GR
GR
GS
[0.74968 0 0 0.75035 0 -0.48029] CT
0 0 1 RC
N
93.103 299.2 M
99.903 299.2 L
99.903 197.2 L
93.103 197.2 L
cp
f
GR
GS
[0.74968 0 0 0.75035 0 -0.48029] CT
0 0 1 RC
10.0 ML
0.667 LW
N
93.103 299.2 M
99.903 299.2 L
99.903 197.2 L
93.103 197.2 L
cp
S
GR
GS
[0 -0.75035 0.74968 0 72.34654 147.48821] CT
0 0 1 RC
/Helvetica 10.667 F
GS
[1 0 0 1 0 0] CT
0 4.5 moveto 
1 -1 scale
(LOW.SCR1) t 
GR
GR
GS
[0.74968 0 0 0.75035 0 -0.48029] CT
0 0 1 RC
N
125.743 299.2 M
132.543 299.2 L
132.543 197.2 L
125.743 197.2 L
cp
f
GR
GS
[0.74968 0 0 0.75035 0 -0.48029] CT
0 0 1 RC
10.0 ML
0.667 LW
N
125.743 299.2 M
132.543 299.2 L
132.543 197.2 L
125.743 197.2 L
cp
S
GR
GS
[0 -0.75035 0.74968 0 96.81607 147.48821] CT
0 0 1 RC
/Helvetica 10.667 F
GS
[1 0 0 1 0 0] CT
0 4.5 moveto 
1 -1 scale
(LOW.SCR2) t 
GR
GR
GS
[0.74968 0 0 0.75035 0 -0.48029] CT
0 0 1 RC
N
144.387 299.2 M
151.187 299.2 L
151.187 197.2 L
144.387 197.2 L
cp
f
GR
GS
[0.74968 0 0 0.75035 0 -0.48029] CT
0 0 1 RC
10.0 ML
0.667 LW
N
144.387 299.2 M
151.187 299.2 L
151.187 197.2 L
144.387 197.2 L
cp
S
GR
GS
[0 -0.75035 0.74968 0 110.79259 147.48821] CT
0 0 1 RC
/Helvetica 10.667 F
GS
[1 0 0 1 0 0] CT
0 4.5 moveto 
1 -1 scale
(LOW.SCR3) t 
GR
GR
GS
[0.74968 0 0 0.75035 0 -0.48029] CT
0 0 1 RC
N
346.63 299.2 M
353.43 299.2 L
353.43 197.2 L
346.63 197.2 L
cp
f
GR
GS
[0.74968 0 0 0.75035 0 -0.48029] CT
0 0 1 RC
10.0 ML
0.667 LW
N
346.63 299.2 M
353.43 299.2 L
353.43 197.2 L
346.63 197.2 L
cp
S
GR
GS
[0 -0.75035 0.74968 0 262.41022 147.48821] CT
0 0 1 RC
/Helvetica 10.667 F
GS
[1 0 0 1 0 0] CT
0 4.5 moveto 
1 -1 scale
(HIGH1.SCR1) t 
GR
GR
GS
[0.74968 0 0 0.75035 0 -0.48029] CT
0 0 1 RC
N
401.767 299.2 M
408.567 299.2 L
408.567 197.2 L
401.767 197.2 L
cp
f
GR
GS
[0.74968 0 0 0.75035 0 -0.48029] CT
0 0 1 RC
10.0 ML
0.667 LW
N
401.767 299.2 M
408.567 299.2 L
408.567 197.2 L
401.767 197.2 L
cp
S
GR
GS
[0 -0.75035 0.74968 0 303.74503 147.48821] CT
0 0 1 RC
/Helvetica 10.667 F
GS
[1 0 0 1 0 0] CT
0 4.5 moveto 
1 -1 scale
(HIGH1.SCR2) t 
GR
GR
GS
[0.74968 0 0 0.75035 0 -0.48029] CT
0 0 1 RC
N
451.35 299.2 M
458.15 299.2 L
458.15 197.2 L
451.35 197.2 L
cp
f
GR
GS
[0.74968 0 0 0.75035 0 -0.48029] CT
0 0 1 RC
10.0 ML
0.667 LW
N
451.35 299.2 M
458.15 299.2 L
458.15 197.2 L
451.35 197.2 L
cp
S
GR
GS
[0 -0.75035 0.74968 0 340.91663 147.48821] CT
0 0 1 RC
/Helvetica 10.667 F
GS
[1 0 0 1 0 0] CT
0 4.5 moveto 
1 -1 scale
(HIGH1.SCR3) t 
GR
GR
GS
[0.74968 0 0 0.75035 0 -0.48029] CT
0 0 1 RC
N
524.167 299.2 M
530.967 299.2 L
530.967 197.2 L
524.167 197.2 L
cp
f
GR
GS
[0.74968 0 0 0.75035 0 -0.48029] CT
0 0 1 RC
10.0 ML
0.667 LW
N
524.167 299.2 M
530.967 299.2 L
530.967 197.2 L
524.167 197.2 L
cp
S
GR
GS
[0 -0.75035 0.74968 0 395.50576 147.48821] CT
0 0 1 RC
/Helvetica 10.667 F
GS
[1 0 0 1 0 0] CT
0 4.5 moveto 
1 -1 scale
(HIGH1.SCR4 ) t 
GR
GR
GS
[0.74968 0 0 0.75035 0 -0.48029] CT
0 0 1 RC
N
553.067 299.2 M
559.867 299.2 L
559.867 197.2 L
553.067 197.2 L
cp
f
GR
GS
[0.74968 0 0 0.75035 0 -0.48029] CT
0 0 1 RC
10.0 ML
0.667 LW
N
553.067 299.2 M
559.867 299.2 L
559.867 197.2 L
553.067 197.2 L
cp
S
GR
GS
[0 -0.75035 0.74968 0 417.17151 147.48821] CT
0 0 1 RC
/Helvetica 10.667 F
GS
[1 0 0 1 0 0] CT
0 4.5 moveto 
1 -1 scale
(HIGH1.SCR5) t 
GR
GR
GS
[0.74968 0 0 0.75035 0 -0.48029] CT
0 0 1 RC
N
743.353 299.2 M
750.153 299.2 L
750.153 197.2 L
743.353 197.2 L
cp
f
GR
GS
[0.74968 0 0 0.75035 0 -0.48029] CT
0 0 1 RC
10.0 ML
0.667 LW
N
743.353 299.2 M
750.153 299.2 L
750.153 197.2 L
743.353 197.2 L
cp
S
GR
GS
[0 -0.75035 0.74968 0 559.82543 147.48821] CT
0 0 1 RC
/Helvetica 10.667 F
GS
[1 0 0 1 0 0] CT
0 4.5 moveto 
1 -1 scale
(PST.SCR1) t 
GR
GR
GS
[0.74968 0 0 0.75035 0 -0.48029] CT
0 0 1 RC
N
786.42 299.2 M
793.22 299.2 L
793.22 197.2 L
786.42 197.2 L
cp
f
GR
GS
[0.74968 0 0 0.75035 0 -0.48029] CT
0 0 1 RC
10.0 ML
0.667 LW
N
786.42 299.2 M
793.22 299.2 L
793.22 197.2 L
786.42 197.2 L
cp
S
GR
GS
[0 -0.75035 0.74968 0 592.11165 147.48821] CT
0 0 1 RC
/Helvetica 10.667 F
GS
[1 0 0 1 0 0] CT
0 4.5 moveto 
1 -1 scale
(PST.SCR2) t 
GR
GR
GS
[0.74968 0 0 0.75035 0 -0.48029] CT
0 0 1 RC
N
829.487 299.2 M
836.287 299.2 L
836.287 197.2 L
829.487 197.2 L
cp
f
GR
GS
[0.74968 0 0 0.75035 0 -0.48029] CT
0 0 1 RC
10.0 ML
0.667 LW
N
829.487 299.2 M
836.287 299.2 L
836.287 197.2 L
829.487 197.2 L
cp
S
GR
GS
[0 -0.75035 0.74968 0 624.39782 147.48821] CT
0 0 1 RC
/Helvetica 10.667 F
GS
[1 0 0 1 0 0] CT
0 4.5 moveto 
1 -1 scale
(PST.SCR3) t 
GR
GR
GS
[0.74968 0 0 0.75035 0 -0.48029] CT
0 0 1 RC
N
872.553 299.2 M
879.353 299.2 L
879.353 197.2 L
872.553 197.2 L
cp
f
GR
GS
[0.74968 0 0 0.75035 0 -0.48029] CT
0 0 1 RC
10.0 ML
0.667 LW
N
872.553 299.2 M
879.353 299.2 L
879.353 197.2 L
872.553 197.2 L
cp
S
GR
GS
[0 -0.75035 0.74968 0 656.684 147.48821] CT
0 0 1 RC
/Helvetica 10.667 F
GS
[1 0 0 1 0 0] CT
0 4.5 moveto 
1 -1 scale
(PST.SCR4) t 
GR
GR
GS
[0.74968 0 0 0.75035 0 -0.48029] CT
0 0 1 RC
N
915.62 299.2 M
922.42 299.2 L
922.42 197.2 L
915.62 197.2 L
cp
f
GR
GS
[0.74968 0 0 0.75035 0 -0.48029] CT
0 0 1 RC
10.0 ML
0.667 LW
N
915.62 299.2 M
922.42 299.2 L
922.42 197.2 L
915.62 197.2 L
cp
S
GR
GS
[0 -0.75035 0.74968 0 688.97022 147.48821] CT
0 0 1 RC
/Helvetica 10.667 F
GS
[1 0 0 1 0 0] CT
0 4.5 moveto 
1 -1 scale
(PST.SCR5) t 
GR
GR
GS
[0.74968 0 0 0.75035 0 -0.48029] CT
0 0 1 RC
N
971.437 299.2 M
978.237 299.2 L
978.237 197.2 L
971.437 197.2 L
cp
f
GR
GS
[0.74968 0 0 0.75035 0 -0.48029] CT
0 0 1 RC
10.0 ML
0.667 LW
N
971.437 299.2 M
978.237 299.2 L
978.237 197.2 L
971.437 197.2 L
cp
S
GR
GS
[0 -0.75035 0.74968 0 730.81475 147.48821] CT
0 0 1 RC
/Helvetica 10.667 F
GS
[1 0 0 1 0 0] CT
0 4.5 moveto 
1 -1 scale
(HIGH2.SCR1) t 
GR
GR
GS
[0.74968 0 0 0.75035 0 -0.48029] CT
0 1 0 RC
N
77.463 299.2 M
80.297 299.2 L
80.297 129.2 L
77.463 129.2 L
cp
f
GR
GS
[0.74968 0 0 0.75035 0 -0.48029] CT
0 1 0 RC
10.0 ML
0.667 LW
N
77.463 299.2 M
80.297 299.2 L
80.297 129.2 L
77.463 129.2 L
cp
S
GR
GS
[0 -0.75035 0.74968 0 59.1347 96.4646] CT
0 1 0 RC
/Helvetica 10.667 F
GS
[1 0 0 1 0 0] CT
0 4.5 moveto 
1 -1 scale
(LOW.ST1) t 
GR
GR
GS
[0.74968 0 0 0.75035 0 -0.48029] CT
0 1 0 RC
N
104.153 299.2 M
106.987 299.2 L
106.987 129.2 L
104.153 129.2 L
cp
f
GR
GS
[0.74968 0 0 0.75035 0 -0.48029] CT
0 1 0 RC
10.0 ML
0.667 LW
N
104.153 299.2 M
106.987 299.2 L
106.987 129.2 L
104.153 129.2 L
cp
S
GR
GS
[0 -0.75035 0.74968 0 79.14364 96.4646] CT
0 1 0 RC
/Helvetica 10.667 F
GS
[1 0 0 1 0 0] CT
0 4.5 moveto 
1 -1 scale
(LOW.ST2) t 
GR
GR
GS
[0.74968 0 0 0.75035 0 -0.48029] CT
0 1 0 RC
N
121.55 299.2 M
124.383 299.2 L
124.383 129.2 L
121.55 129.2 L
cp
f
GR
GS
[0.74968 0 0 0.75035 0 -0.48029] CT
0 1 0 RC
10.0 ML
0.667 LW
N
121.55 299.2 M
124.383 299.2 L
124.383 129.2 L
121.55 129.2 L
cp
S
GR
GS
[0 -0.75035 0.74968 0 92.18556 96.4646] CT
0 1 0 RC
/Helvetica 10.667 F
GS
[1 0 0 1 0 0] CT
0 4.5 moveto 
1 -1 scale
(LOW.ST3) t 
GR
GR
GS
[0.74968 0 0 0.75035 0 -0.48029] CT
0 1 0 RC
N
132.487 299.2 M
135.32 299.2 L
135.32 129.2 L
132.487 129.2 L
cp
f
GR
GS
[0.74968 0 0 0.75035 0 -0.48029] CT
0 1 0 RC
10.0 ML
0.667 LW
N
132.487 299.2 M
135.32 299.2 L
135.32 129.2 L
132.487 129.2 L
cp
S
GR
GS
[0 -0.75035 0.74968 0 100.38455 96.4646] CT
0 1 0 RC
/Helvetica 10.667 F
GS
[1 0 0 1 0 0] CT
0 4.5 moveto 
1 -1 scale
(LOW.ST4) t 
GR
GR
GS
[0.74968 0 0 0.75035 0 -0.48029] CT
0 1 0 RC
N
162.123 299.2 M
164.957 299.2 L
164.957 129.2 L
162.123 129.2 L
cp
f
GR
GS
[0.74968 0 0 0.75035 0 -0.48029] CT
0 1 0 RC
10.0 ML
0.667 LW
N
162.123 299.2 M
164.957 299.2 L
164.957 129.2 L
162.123 129.2 L
cp
S
GR
GS
[0 -0.75035 0.74968 0 122.60254 96.4646] CT
0 1 0 RC
/Helvetica 10.667 F
GS
[1 0 0 1 0 0] CT
0 4.5 moveto 
1 -1 scale
(LOW.ST5-A) t 
GR
GR
GS
[0.74968 0 0 0.75035 0 -0.48029] CT
0 1 0 RC
N
326.967 299.2 M
329.8 299.2 L
329.8 129.2 L
326.967 129.2 L
cp
f
GR
GS
[0.74968 0 0 0.75035 0 -0.48029] CT
0 1 0 RC
10.0 ML
0.667 LW
N
326.967 299.2 M
329.8 299.2 L
329.8 129.2 L
326.967 129.2 L
cp
S
GR
GS
[0 -0.75035 0.74968 0 246.18216 96.4646] CT
0 1 0 RC
/Helvetica 10.667 F
GS
[1 0 0 1 0 0] CT
0 4.5 moveto 
1 -1 scale
(HIGH1.ST1) t 
GR
GR
GS
[0.74968 0 0 0.75035 0 -0.48029] CT
0 1 0 RC
N
357.113 299.2 M
359.947 299.2 L
359.947 129.2 L
357.113 129.2 L
cp
f
GR
GS
[0.74968 0 0 0.75035 0 -0.48029] CT
0 1 0 RC
10.0 ML
0.667 LW
N
357.113 299.2 M
359.947 299.2 L
359.947 129.2 L
357.113 129.2 L
cp
S
GR
GS
[0 -0.75035 0.74968 0 268.78249 96.4646] CT
0 1 0 RC
/Helvetica 10.667 F
GS
[1 0 0 1 0 0] CT
0 4.5 moveto 
1 -1 scale
(HIGH1.STA1) t 
GR
GR
GS
[0.74968 0 0 0.75035 0 -0.48029] CT
0 1 0 RC
N
448.517 299.2 M
451.35 299.2 L
451.35 129.2 L
448.517 129.2 L
cp
f
GR
GS
[0.74968 0 0 0.75035 0 -0.48029] CT
0 1 0 RC
10.0 ML
0.667 LW
N
448.517 299.2 M
451.35 299.2 L
451.35 129.2 L
448.517 129.2 L
cp
S
GR
GS
[0 -0.75035 0.74968 0 337.30566 96.4646] CT
0 1 0 RC
/Helvetica 10.667 F
GS
[1 0 0 1 0 0] CT
0 4.5 moveto 
1 -1 scale
(HIGH1.ST2) t 
GR
GR
GS
[0.74968 0 0 0.75035 0 -0.48029] CT
0 1 0 RC
N
463.108 299.2 M
465.942 299.2 L
465.942 129.2 L
463.108 129.2 L
cp
f
GR
GS
[0.74968 0 0 0.75035 0 -0.48029] CT
0 1 0 RC
10.0 ML
0.667 LW
N
463.108 299.2 M
465.942 299.2 L
465.942 129.2 L
463.108 129.2 L
cp
S
GR
GS
[0 -0.75035 0.74968 0 348.24474 96.4646] CT
0 1 0 RC
/Helvetica 10.667 F
GS
[1 0 0 1 0 0] CT
0 4.5 moveto 
1 -1 scale
(HIGH1.STA2) t 
GR
GR
GS
[0.74968 0 0 0.75035 0 -0.48029] CT
0 1 0 RC
N
510.17 299.2 M
513.003 299.2 L
513.003 129.2 L
510.17 129.2 L
cp
f
GR
GS
[0.74968 0 0 0.75035 0 -0.48029] CT
0 1 0 RC
10.0 ML
0.667 LW
N
510.17 299.2 M
513.003 299.2 L
513.003 129.2 L
510.17 129.2 L
cp
S
GR
GS
[0 -0.75035 0.74968 0 383.5259 96.4646] CT
0 1 0 RC
/Helvetica 10.667 F
GS
[1 0 0 1 0 0] CT
0 4.5 moveto 
1 -1 scale
(HIGH1.ST3) t 
GR
GR
GS
[0.74968 0 0 0.75035 0 -0.48029] CT
0 1 0 RC
N
606.22 299.2 M
609.053 299.2 L
609.053 129.2 L
606.22 129.2 L
cp
f
GR
GS
[0.74968 0 0 0.75035 0 -0.48029] CT
0 1 0 RC
10.0 ML
0.667 LW
N
606.22 299.2 M
609.053 299.2 L
609.053 129.2 L
606.22 129.2 L
cp
S
GR
GS
[0 -0.75035 0.74968 0 455.53258 96.4646] CT
0 1 0 RC
/Helvetica 10.667 F
GS
[1 0 0 1 0 0] CT
0 4.5 moveto 
1 -1 scale
(HIGH1.ST4) t 
GR
GR
GS
[0.74968 0 0 0.75035 0 -0.48029] CT
0 1 0 RC
N
706.917 299.2 M
709.75 299.2 L
709.75 129.2 L
706.917 129.2 L
cp
f
GR
GS
[0.74968 0 0 0.75035 0 -0.48029] CT
0 1 0 RC
10.0 ML
0.667 LW
N
706.917 299.2 M
709.75 299.2 L
709.75 129.2 L
706.917 129.2 L
cp
S
GR
GS
[0 -0.75035 0.74968 0 531.02282 96.4646] CT
0 1 0 RC
/Helvetica 10.667 F
GS
[1 0 0 1 0 0] CT
0 4.5 moveto 
1 -1 scale
(PST.ST1) t 
GR
GR
GS
[0.74968 0 0 0.75035 0 -0.48029] CT
0 1 0 RC
N
751.683 299.2 M
754.517 299.2 L
754.517 129.2 L
751.683 129.2 L
cp
f
GR
GS
[0.74968 0 0 0.75035 0 -0.48029] CT
0 1 0 RC
10.0 ML
0.667 LW
N
751.683 299.2 M
754.517 299.2 L
754.517 129.2 L
751.683 129.2 L
cp
S
GR
GS
[0 -0.75035 0.74968 0 564.58345 96.4646] CT
0 1 0 RC
/Helvetica 10.667 F
GS
[1 0 0 1 0 0] CT
0 4.5 moveto 
1 -1 scale
(PST.ST2 ) t 
GR
GR
GS
[0.74968 0 0 0.75035 0 -0.48029] CT
0 1 0 RC
N
794.75 299.2 M
797.583 299.2 L
797.583 129.2 L
794.75 129.2 L
cp
f
GR
GS
[0.74968 0 0 0.75035 0 -0.48029] CT
0 1 0 RC
10.0 ML
0.667 LW
N
794.75 299.2 M
797.583 299.2 L
797.583 129.2 L
794.75 129.2 L
cp
S
GR
GS
[0 -0.75035 0.74968 0 596.86958 96.4646] CT
0 1 0 RC
/Helvetica 10.667 F
GS
[1 0 0 1 0 0] CT
0 4.5 moveto 
1 -1 scale
(PST.ST3 ) t 
GR
GR
GS
[0.74968 0 0 0.75035 0 -0.48029] CT
0 1 0 RC
N
837.817 299.2 M
840.65 299.2 L
840.65 129.2 L
837.817 129.2 L
cp
f
GR
GS
[0.74968 0 0 0.75035 0 -0.48029] CT
0 1 0 RC
10.0 ML
0.667 LW
N
837.817 299.2 M
840.65 299.2 L
840.65 129.2 L
837.817 129.2 L
cp
S
GR
GS
[0 -0.75035 0.74968 0 629.1558 96.4646] CT
0 1 0 RC
/Helvetica 10.667 F
GS
[1 0 0 1 0 0] CT
0 4.5 moveto 
1 -1 scale
(PST.ST4) t 
GR
GR
GS
[0.74968 0 0 0.75035 0 -0.48029] CT
0 1 0 RC
N
880.883 299.2 M
883.717 299.2 L
883.717 129.2 L
880.883 129.2 L
cp
f
GR
GS
[0.74968 0 0 0.75035 0 -0.48029] CT
0 1 0 RC
10.0 ML
0.667 LW
N
880.883 299.2 M
883.717 299.2 L
883.717 129.2 L
880.883 129.2 L
cp
S
GR
GS
[0 -0.75035 0.74968 0 661.44197 96.4646] CT
0 1 0 RC
/Helvetica 10.667 F
GS
[1 0 0 1 0 0] CT
0 4.5 moveto 
1 -1 scale
(PST.ST5) t 
GR
GR
GS
[0.74968 0 0 0.75035 0 -0.48029] CT
0 1 0 RC
N
898.507 299.2 M
901.34 299.2 L
901.34 129.2 L
898.507 129.2 L
cp
f
GR
GS
[0.74968 0 0 0.75035 0 -0.48029] CT
0 1 0 RC
10.0 ML
0.667 LW
N
898.507 299.2 M
901.34 299.2 L
901.34 129.2 L
898.507 129.2 L
cp
S
GR
GS
[0 -0.75035 0.74968 0 674.65383 96.4646] CT
0 1 0 RC
/Helvetica 10.667 F
GS
[1 0 0 1 0 0] CT
0 4.5 moveto 
1 -1 scale
(PST.ST6) t 
GR
GR
GS
[0.74968 0 0 0.75035 0 -0.48029] CT
0 1 0 RC
N
981.92 299.2 M
984.753 299.2 L
984.753 129.2 L
981.92 129.2 L
cp
f
GR
GS
[0.74968 0 0 0.75035 0 -0.48029] CT
0 1 0 RC
10.0 ML
0.667 LW
N
981.92 299.2 M
984.753 299.2 L
984.753 129.2 L
981.92 129.2 L
cp
S
GR
GS
[0 -0.75035 0.74968 0 737.18703 96.4646] CT
0 1 0 RC
/Helvetica 10.667 F
GS
[1 0 0 1 0 0] CT
0 4.5 moveto 
1 -1 scale
(HIGH2.ST1) t 
GR
GR
GS
[0.74968 0 0 0.75035 0 -0.48029] CT
0 1 0 RC
N
1003.397 299.2 M
1006.23 299.2 L
1006.23 129.2 L
1003.397 129.2 L
cp
f
GR
GS
[0.74968 0 0 0.75035 0 -0.48029] CT
0 1 0 RC
10.0 ML
0.667 LW
N
1003.397 299.2 M
1006.23 299.2 L
1006.23 129.2 L
1003.397 129.2 L
cp
S
GR
GS
[0 -0.75035 0.74968 0 753.2877 96.4646] CT
0 1 0 RC
/Helvetica 10.667 F
GS
[1 0 0 1 0 0] CT
0 4.5 moveto 
1 -1 scale
(HIGH2.ST2) t 
GR
GR
GS
[0.74968 0 0 0.75035 0 -0.48029] CT
N
88.343 299.2 M
88.91 299.2 L
88.91 197.2 L
88.343 197.2 L
cp
f
GR
GS
[0.74968 0 0 0.75035 0 -0.48029] CT
10.0 ML
0.667 LW
N
88.343 299.2 M
88.91 299.2 L
88.91 197.2 L
88.343 197.2 L
cp
S
GR
GS
[0 -0.75035 0.74968 0 66.44157 147.48821] CT
/Helvetica 10.667 F
GS
[1 0 0 1 0 0] CT
0 4.5 moveto 
1 -1 scale
(LOW.BPM1) t 
GR
GR
GS
[0.74968 0 0 0.75035 0 -0.48029] CT
N
125.46 299.2 M
126.027 299.2 L
126.027 197.2 L
125.46 197.2 L
cp
f
GR
GS
[0.74968 0 0 0.75035 0 -0.48029] CT
10.0 ML
0.667 LW
N
125.46 299.2 M
126.027 299.2 L
126.027 197.2 L
125.46 197.2 L
cp
S
GR
GS
[0 -0.75035 0.74968 0 94.26716 147.48821] CT
/Helvetica 10.667 F
GS
[1 0 0 1 0 0] CT
0 4.5 moveto 
1 -1 scale
(LOW.BPM2) t 
GR
GR
GS
[0.74968 0 0 0.75035 0 -0.48029] CT
N
189.833 299.2 M
190.4 299.2 L
190.4 197.2 L
189.833 197.2 L
cp
f
GR
GS
[0.74968 0 0 0.75035 0 -0.48029] CT
10.0 ML
0.667 LW
N
189.833 299.2 M
190.4 299.2 L
190.4 197.2 L
189.833 197.2 L
cp
S
GR
GS
[0 -0.75035 0.74968 0 142.52652 147.48821] CT
/Helvetica 10.667 F
GS
[1 0 0 1 0 0] CT
0 4.5 moveto 
1 -1 scale
(BOOST.BPM1) t 
GR
GR
GS
[0.74968 0 0 0.75035 0 -0.48029] CT
N
311.667 299.2 M
312.233 299.2 L
312.233 197.2 L
311.667 197.2 L
cp
f
GR
GS
[0.74968 0 0 0.75035 0 -0.48029] CT
10.0 ML
0.667 LW
N
311.667 299.2 M
312.233 299.2 L
312.233 197.2 L
311.667 197.2 L
cp
S
GR
GS
[0 -0.75035 0.74968 0 233.86244 147.48821] CT
/Helvetica 10.667 F
GS
[1 0 0 1 0 0] CT
0 4.5 moveto 
1 -1 scale
(BOOST.BPM2) t 
GR
GR
GS
[0.74968 0 0 0.75035 0 -0.48029] CT
N
651.327 299.2 M
651.893 299.2 L
651.893 197.2 L
651.327 197.2 L
cp
f
GR
GS
[0.74968 0 0 0.75035 0 -0.48029] CT
10.0 ML
0.667 LW
N
651.327 299.2 M
651.893 299.2 L
651.893 197.2 L
651.327 197.2 L
cp
S
GR
GS
[0 -0.75035 0.74968 0 488.49847 147.48821] CT
/Helvetica 10.667 F
GS
[1 0 0 1 0 0] CT
0 4.5 moveto 
1 -1 scale
(RFD.BPM1) t 
GR
GR
GS
[0.74968 0 0 0.75035 0 -0.48029] CT
N
695.119 299.2 M
695.685 299.2 L
695.685 197.2 L
695.119 197.2 L
cp
f
GR
GS
[0.74968 0 0 0.75035 0 -0.48029] CT
10.0 ML
0.667 LW
N
695.119 299.2 M
695.685 299.2 L
695.685 197.2 L
695.119 197.2 L
cp
S
GR
GS
[0 -0.75035 0.74968 0 521.32846 147.48821] CT
/Helvetica 10.667 F
GS
[1 0 0 1 0 0] CT
0 4.5 moveto 
1 -1 scale
(RFD.BPM2) t 
GR
GR
GS
[0.74968 0 0 0.75035 0 -0.48029] CT
N
742.124 299.2 M
742.69 299.2 L
742.69 197.2 L
742.124 197.2 L
cp
f
GR
GS
[0.74968 0 0 0.75035 0 -0.48029] CT
10.0 ML
0.667 LW
N
742.124 299.2 M
742.69 299.2 L
742.69 197.2 L
742.124 197.2 L
cp
S
GR
GS
[0 -0.75035 0.74968 0 556.56709 147.48821] CT
/Helvetica 10.667 F
GS
[1 0 0 1 0 0] CT
0 4.5 moveto 
1 -1 scale
(PST.BPM1) t 
GR
GR
GS
[0.74968 0 0 0.75035 0 -0.48029] CT
N
785.19 299.2 M
785.757 299.2 L
785.757 197.2 L
785.19 197.2 L
cp
f
GR
GS
[0.74968 0 0 0.75035 0 -0.48029] CT
10.0 ML
0.667 LW
N
785.19 299.2 M
785.757 299.2 L
785.757 197.2 L
785.19 197.2 L
cp
S
GR
GS
[0 -0.75035 0.74968 0 588.85326 147.48821] CT
/Helvetica 10.667 F
GS
[1 0 0 1 0 0] CT
0 4.5 moveto 
1 -1 scale
(PST.BPM2) t 
GR
GR
GS
[0.74968 0 0 0.75035 0 -0.48029] CT
N
828.257 299.2 M
828.824 299.2 L
828.824 197.2 L
828.257 197.2 L
cp
f
GR
GS
[0.74968 0 0 0.75035 0 -0.48029] CT
10.0 ML
0.667 LW
N
828.257 299.2 M
828.824 299.2 L
828.824 197.2 L
828.257 197.2 L
cp
S
GR
GS
[0 -0.75035 0.74968 0 621.13948 147.48821] CT
/Helvetica 10.667 F
GS
[1 0 0 1 0 0] CT
0 4.5 moveto 
1 -1 scale
(PST.BPM3) t 
GR
GR
GS
[0.74968 0 0 0.75035 0 -0.48029] CT
N
871.324 299.2 M
871.89 299.2 L
871.89 197.2 L
871.324 197.2 L
cp
f
GR
GS
[0.74968 0 0 0.75035 0 -0.48029] CT
10.0 ML
0.667 LW
N
871.324 299.2 M
871.89 299.2 L
871.89 197.2 L
871.324 197.2 L
cp
S
GR
GS
[0 -0.75035 0.74968 0 653.42566 147.48821] CT
/Helvetica 10.667 F
GS
[1 0 0 1 0 0] CT
0 4.5 moveto 
1 -1 scale
(PST.BPM4) t 
GR
GR
GS
[0.74968 0 0 0.75035 0 -0.48029] CT
N
914.39 299.2 M
914.957 299.2 L
914.957 197.2 L
914.39 197.2 L
cp
f
GR
GS
[0.74968 0 0 0.75035 0 -0.48029] CT
10.0 ML
0.667 LW
N
914.39 299.2 M
914.957 299.2 L
914.957 197.2 L
914.39 197.2 L
cp
S
GR
GS
[0 -0.75035 0.74968 0 685.71183 147.48821] CT
/Helvetica 10.667 F
GS
[1 0 0 1 0 0] CT
0 4.5 moveto 
1 -1 scale
(PST.BPM5) t 
GR
GR
GS
[0.74968 0 0 0.75035 0 -0.48029] CT
0.584 0.816 0.988 RC
N
105.57 299.2 M
120.643 299.2 L
120.643 231.2 L
105.57 231.2 L
cp
f
GR
GS
[0.74968 0 0 0.75035 0 -0.48029] CT
0.584 0.816 0.988 RC
10.0 ML
0.667 LW
N
105.57 299.2 M
120.643 299.2 L
120.643 231.2 L
105.57 231.2 L
cp
S
GR
GS
[0 -0.75035 0.74968 0 84.79372 194.68506] CT
/Helvetica 12 F
GS
[1 0 0 1 0 0] CT
-33.5 5 moveto 
1 -1 scale
(LOW.DIPOL) t 
GR
GR
GS
[0.74968 0 0 0.75035 0 -0.48029] CT
0.584 0.816 0.988 RC
N
468.633 299.2 M
502.633 299.2 L
502.633 231.2 L
468.633 231.2 L
cp
f
GR
GS
[0.74968 0 0 0.75035 0 -0.48029] CT
0.584 0.816 0.988 RC
10.0 ML
0.667 LW
N
468.633 299.2 M
502.633 299.2 L
502.633 231.2 L
468.633 231.2 L
cp
S
GR
GS
[0 -0.75035 0.74968 0 364.06922 194.68506] CT
/Helvetica 12 F
GS
[1 0 0 1 0 0] CT
-38.5 5 moveto 
1 -1 scale
(HIGH1.DIPOL) t 
GR
GR
GS
[0.74968 0 0 0.75035 0 -0.48029] CT
0.584 0.816 0.988 RC
N
1022.267 299.2 M
1071.122 299.2 L
1071.122 231.2 L
1022.267 231.2 L
cp
f
GR
GS
[0.74968 0 0 0.75035 0 -0.48029] CT
0.584 0.816 0.988 RC
10.0 ML
0.667 LW
N
1071.122 231.2 M
1022.267 231.2 L
1022.267 299.2 L
1071.122 299.2 L
S
GR
GS
[0 -0.75035 0.74968 0 784.97912 194.68506] CT
/Helvetica 12 F
GS
[1 0 0 1 0 0] CT
-27 5 moveto 
1 -1 scale
(DISP3.D1) t 
GR
GR
GS
[0.74968 0 0 0.75035 0 -0.48029] CT
1 GC
N
51 612 M
1071 612 L
1071 357 L
51 357 L
cp
f
GR
GS
[0.74968 0 0 0.75035 0 -0.48029] CT
0.149 GC
2 setlinecap
1 LJ
0.667 LW
N
51 612 M
1071 612 L
S
GR
GS
[0.74968 0 0 0.75035 0 -0.48029] CT
0.149 GC
2 setlinecap
1 LJ
0.667 LW
N
51 612 M
51 601.8 L
S
GR
GS
[0.74968 0 0 0.75035 0 -0.48029] CT
0.149 GC
2 setlinecap
1 LJ
0.667 LW
N
107.667 612 M
107.667 601.8 L
S
GR
GS
[0.74968 0 0 0.75035 0 -0.48029] CT
0.149 GC
2 setlinecap
1 LJ
0.667 LW
N
164.333 612 M
164.333 601.8 L
S
GR
GS
[0.74968 0 0 0.75035 0 -0.48029] CT
0.149 GC
2 setlinecap
1 LJ
0.667 LW
N
221 612 M
221 601.8 L
S
GR
GS
[0.74968 0 0 0.75035 0 -0.48029] CT
0.149 GC
2 setlinecap
1 LJ
0.667 LW
N
277.667 612 M
277.667 601.8 L
S
GR
GS
[0.74968 0 0 0.75035 0 -0.48029] CT
0.149 GC
2 setlinecap
1 LJ
0.667 LW
N
334.333 612 M
334.333 601.8 L
S
GR
GS
[0.74968 0 0 0.75035 0 -0.48029] CT
0.149 GC
2 setlinecap
1 LJ
0.667 LW
N
391 612 M
391 601.8 L
S
GR
GS
[0.74968 0 0 0.75035 0 -0.48029] CT
0.149 GC
2 setlinecap
1 LJ
0.667 LW
N
447.667 612 M
447.667 601.8 L
S
GR
GS
[0.74968 0 0 0.75035 0 -0.48029] CT
0.149 GC
2 setlinecap
1 LJ
0.667 LW
N
504.333 612 M
504.333 601.8 L
S
GR
GS
[0.74968 0 0 0.75035 0 -0.48029] CT
0.149 GC
2 setlinecap
1 LJ
0.667 LW
N
561 612 M
561 601.8 L
S
GR
GS
[0.74968 0 0 0.75035 0 -0.48029] CT
0.149 GC
2 setlinecap
1 LJ
0.667 LW
N
617.667 612 M
617.667 601.8 L
S
GR
GS
[0.74968 0 0 0.75035 0 -0.48029] CT
0.149 GC
2 setlinecap
1 LJ
0.667 LW
N
674.333 612 M
674.333 601.8 L
S
GR
GS
[0.74968 0 0 0.75035 0 -0.48029] CT
0.149 GC
2 setlinecap
1 LJ
0.667 LW
N
731 612 M
731 601.8 L
S
GR
GS
[0.74968 0 0 0.75035 0 -0.48029] CT
0.149 GC
2 setlinecap
1 LJ
0.667 LW
N
787.667 612 M
787.667 601.8 L
S
GR
GS
[0.74968 0 0 0.75035 0 -0.48029] CT
0.149 GC
2 setlinecap
1 LJ
0.667 LW
N
844.333 612 M
844.333 601.8 L
S
GR
GS
[0.74968 0 0 0.75035 0 -0.48029] CT
0.149 GC
2 setlinecap
1 LJ
0.667 LW
N
901 612 M
901 601.8 L
S
GR
GS
[0.74968 0 0 0.75035 0 -0.48029] CT
0.149 GC
2 setlinecap
1 LJ
0.667 LW
N
957.667 612 M
957.667 601.8 L
S
GR
GS
[0.74968 0 0 0.75035 0 -0.48029] CT
0.149 GC
2 setlinecap
1 LJ
0.667 LW
N
1014.333 612 M
1014.333 601.8 L
S
GR
GS
[0.74968 0 0 0.75035 0 -0.48029] CT
0.149 GC
2 setlinecap
1 LJ
0.667 LW
N
1071 612 M
1071 601.8 L
S
GR
GS
[0.74968 0 0 0.75035 0 -0.48029] CT
0.149 GC
2 setlinecap
1 LJ
0.667 LW
N
62.333 612 M
62.333 606.9 L
S
GR
GS
[0.74968 0 0 0.75035 0 -0.48029] CT
0.149 GC
2 setlinecap
1 LJ
0.667 LW
N
73.667 612 M
73.667 606.9 L
S
GR
GS
[0.74968 0 0 0.75035 0 -0.48029] CT
0.149 GC
2 setlinecap
1 LJ
0.667 LW
N
85 612 M
85 606.9 L
S
GR
GS
[0.74968 0 0 0.75035 0 -0.48029] CT
0.149 GC
2 setlinecap
1 LJ
0.667 LW
N
96.333 612 M
96.333 606.9 L
S
GR
GS
[0.74968 0 0 0.75035 0 -0.48029] CT
0.149 GC
2 setlinecap
1 LJ
0.667 LW
N
119 612 M
119 606.9 L
S
GR
GS
[0.74968 0 0 0.75035 0 -0.48029] CT
0.149 GC
2 setlinecap
1 LJ
0.667 LW
N
130.333 612 M
130.333 606.9 L
S
GR
GS
[0.74968 0 0 0.75035 0 -0.48029] CT
0.149 GC
2 setlinecap
1 LJ
0.667 LW
N
141.667 612 M
141.667 606.9 L
S
GR
GS
[0.74968 0 0 0.75035 0 -0.48029] CT
0.149 GC
2 setlinecap
1 LJ
0.667 LW
N
153 612 M
153 606.9 L
S
GR
GS
[0.74968 0 0 0.75035 0 -0.48029] CT
0.149 GC
2 setlinecap
1 LJ
0.667 LW
N
175.667 612 M
175.667 606.9 L
S
GR
GS
[0.74968 0 0 0.75035 0 -0.48029] CT
0.149 GC
2 setlinecap
1 LJ
0.667 LW
N
187 612 M
187 606.9 L
S
GR
GS
[0.74968 0 0 0.75035 0 -0.48029] CT
0.149 GC
2 setlinecap
1 LJ
0.667 LW
N
198.333 612 M
198.333 606.9 L
S
GR
GS
[0.74968 0 0 0.75035 0 -0.48029] CT
0.149 GC
2 setlinecap
1 LJ
0.667 LW
N
209.667 612 M
209.667 606.9 L
S
GR
GS
[0.74968 0 0 0.75035 0 -0.48029] CT
0.149 GC
2 setlinecap
1 LJ
0.667 LW
N
232.333 612 M
232.333 606.9 L
S
GR
GS
[0.74968 0 0 0.75035 0 -0.48029] CT
0.149 GC
2 setlinecap
1 LJ
0.667 LW
N
243.667 612 M
243.667 606.9 L
S
GR
GS
[0.74968 0 0 0.75035 0 -0.48029] CT
0.149 GC
2 setlinecap
1 LJ
0.667 LW
N
255 612 M
255 606.9 L
S
GR
GS
[0.74968 0 0 0.75035 0 -0.48029] CT
0.149 GC
2 setlinecap
1 LJ
0.667 LW
N
266.333 612 M
266.333 606.9 L
S
GR
GS
[0.74968 0 0 0.75035 0 -0.48029] CT
0.149 GC
2 setlinecap
1 LJ
0.667 LW
N
289 612 M
289 606.9 L
S
GR
GS
[0.74968 0 0 0.75035 0 -0.48029] CT
0.149 GC
2 setlinecap
1 LJ
0.667 LW
N
300.333 612 M
300.333 606.9 L
S
GR
GS
[0.74968 0 0 0.75035 0 -0.48029] CT
0.149 GC
2 setlinecap
1 LJ
0.667 LW
N
311.667 612 M
311.667 606.9 L
S
GR
GS
[0.74968 0 0 0.75035 0 -0.48029] CT
0.149 GC
2 setlinecap
1 LJ
0.667 LW
N
323 612 M
323 606.9 L
S
GR
GS
[0.74968 0 0 0.75035 0 -0.48029] CT
0.149 GC
2 setlinecap
1 LJ
0.667 LW
N
345.667 612 M
345.667 606.9 L
S
GR
GS
[0.74968 0 0 0.75035 0 -0.48029] CT
0.149 GC
2 setlinecap
1 LJ
0.667 LW
N
357 612 M
357 606.9 L
S
GR
GS
[0.74968 0 0 0.75035 0 -0.48029] CT
0.149 GC
2 setlinecap
1 LJ
0.667 LW
N
368.333 612 M
368.333 606.9 L
S
GR
GS
[0.74968 0 0 0.75035 0 -0.48029] CT
0.149 GC
2 setlinecap
1 LJ
0.667 LW
N
379.667 612 M
379.667 606.9 L
S
GR
GS
[0.74968 0 0 0.75035 0 -0.48029] CT
0.149 GC
2 setlinecap
1 LJ
0.667 LW
N
402.333 612 M
402.333 606.9 L
S
GR
GS
[0.74968 0 0 0.75035 0 -0.48029] CT
0.149 GC
2 setlinecap
1 LJ
0.667 LW
N
413.667 612 M
413.667 606.9 L
S
GR
GS
[0.74968 0 0 0.75035 0 -0.48029] CT
0.149 GC
2 setlinecap
1 LJ
0.667 LW
N
425 612 M
425 606.9 L
S
GR
GS
[0.74968 0 0 0.75035 0 -0.48029] CT
0.149 GC
2 setlinecap
1 LJ
0.667 LW
N
436.333 612 M
436.333 606.9 L
S
GR
GS
[0.74968 0 0 0.75035 0 -0.48029] CT
0.149 GC
2 setlinecap
1 LJ
0.667 LW
N
459 612 M
459 606.9 L
S
GR
GS
[0.74968 0 0 0.75035 0 -0.48029] CT
0.149 GC
2 setlinecap
1 LJ
0.667 LW
N
470.333 612 M
470.333 606.9 L
S
GR
GS
[0.74968 0 0 0.75035 0 -0.48029] CT
0.149 GC
2 setlinecap
1 LJ
0.667 LW
N
481.667 612 M
481.667 606.9 L
S
GR
GS
[0.74968 0 0 0.75035 0 -0.48029] CT
0.149 GC
2 setlinecap
1 LJ
0.667 LW
N
493 612 M
493 606.9 L
S
GR
GS
[0.74968 0 0 0.75035 0 -0.48029] CT
0.149 GC
2 setlinecap
1 LJ
0.667 LW
N
515.667 612 M
515.667 606.9 L
S
GR
GS
[0.74968 0 0 0.75035 0 -0.48029] CT
0.149 GC
2 setlinecap
1 LJ
0.667 LW
N
527 612 M
527 606.9 L
S
GR
GS
[0.74968 0 0 0.75035 0 -0.48029] CT
0.149 GC
2 setlinecap
1 LJ
0.667 LW
N
538.333 612 M
538.333 606.9 L
S
GR
GS
[0.74968 0 0 0.75035 0 -0.48029] CT
0.149 GC
2 setlinecap
1 LJ
0.667 LW
N
549.667 612 M
549.667 606.9 L
S
GR
GS
[0.74968 0 0 0.75035 0 -0.48029] CT
0.149 GC
2 setlinecap
1 LJ
0.667 LW
N
572.333 612 M
572.333 606.9 L
S
GR
GS
[0.74968 0 0 0.75035 0 -0.48029] CT
0.149 GC
2 setlinecap
1 LJ
0.667 LW
N
583.667 612 M
583.667 606.9 L
S
GR
GS
[0.74968 0 0 0.75035 0 -0.48029] CT
0.149 GC
2 setlinecap
1 LJ
0.667 LW
N
595 612 M
595 606.9 L
S
GR
GS
[0.74968 0 0 0.75035 0 -0.48029] CT
0.149 GC
2 setlinecap
1 LJ
0.667 LW
N
606.333 612 M
606.333 606.9 L
S
GR
GS
[0.74968 0 0 0.75035 0 -0.48029] CT
0.149 GC
2 setlinecap
1 LJ
0.667 LW
N
629 612 M
629 606.9 L
S
GR
GS
[0.74968 0 0 0.75035 0 -0.48029] CT
0.149 GC
2 setlinecap
1 LJ
0.667 LW
N
640.333 612 M
640.333 606.9 L
S
GR
GS
[0.74968 0 0 0.75035 0 -0.48029] CT
0.149 GC
2 setlinecap
1 LJ
0.667 LW
N
651.667 612 M
651.667 606.9 L
S
GR
GS
[0.74968 0 0 0.75035 0 -0.48029] CT
0.149 GC
2 setlinecap
1 LJ
0.667 LW
N
663 612 M
663 606.9 L
S
GR
GS
[0.74968 0 0 0.75035 0 -0.48029] CT
0.149 GC
2 setlinecap
1 LJ
0.667 LW
N
685.667 612 M
685.667 606.9 L
S
GR
GS
[0.74968 0 0 0.75035 0 -0.48029] CT
0.149 GC
2 setlinecap
1 LJ
0.667 LW
N
697 612 M
697 606.9 L
S
GR
GS
[0.74968 0 0 0.75035 0 -0.48029] CT
0.149 GC
2 setlinecap
1 LJ
0.667 LW
N
708.333 612 M
708.333 606.9 L
S
GR
GS
[0.74968 0 0 0.75035 0 -0.48029] CT
0.149 GC
2 setlinecap
1 LJ
0.667 LW
N
719.667 612 M
719.667 606.9 L
S
GR
GS
[0.74968 0 0 0.75035 0 -0.48029] CT
0.149 GC
2 setlinecap
1 LJ
0.667 LW
N
742.333 612 M
742.333 606.9 L
S
GR
GS
[0.74968 0 0 0.75035 0 -0.48029] CT
0.149 GC
2 setlinecap
1 LJ
0.667 LW
N
753.667 612 M
753.667 606.9 L
S
GR
GS
[0.74968 0 0 0.75035 0 -0.48029] CT
0.149 GC
2 setlinecap
1 LJ
0.667 LW
N
765 612 M
765 606.9 L
S
GR
GS
[0.74968 0 0 0.75035 0 -0.48029] CT
0.149 GC
2 setlinecap
1 LJ
0.667 LW
N
776.333 612 M
776.333 606.9 L
S
GR
GS
[0.74968 0 0 0.75035 0 -0.48029] CT
0.149 GC
2 setlinecap
1 LJ
0.667 LW
N
799 612 M
799 606.9 L
S
GR
GS
[0.74968 0 0 0.75035 0 -0.48029] CT
0.149 GC
2 setlinecap
1 LJ
0.667 LW
N
810.333 612 M
810.333 606.9 L
S
GR
GS
[0.74968 0 0 0.75035 0 -0.48029] CT
0.149 GC
2 setlinecap
1 LJ
0.667 LW
N
821.667 612 M
821.667 606.9 L
S
GR
GS
[0.74968 0 0 0.75035 0 -0.48029] CT
0.149 GC
2 setlinecap
1 LJ
0.667 LW
N
833 612 M
833 606.9 L
S
GR
GS
[0.74968 0 0 0.75035 0 -0.48029] CT
0.149 GC
2 setlinecap
1 LJ
0.667 LW
N
855.667 612 M
855.667 606.9 L
S
GR
GS
[0.74968 0 0 0.75035 0 -0.48029] CT
0.149 GC
2 setlinecap
1 LJ
0.667 LW
N
867 612 M
867 606.9 L
S
GR
GS
[0.74968 0 0 0.75035 0 -0.48029] CT
0.149 GC
2 setlinecap
1 LJ
0.667 LW
N
878.333 612 M
878.333 606.9 L
S
GR
GS
[0.74968 0 0 0.75035 0 -0.48029] CT
0.149 GC
2 setlinecap
1 LJ
0.667 LW
N
889.667 612 M
889.667 606.9 L
S
GR
GS
[0.74968 0 0 0.75035 0 -0.48029] CT
0.149 GC
2 setlinecap
1 LJ
0.667 LW
N
912.333 612 M
912.333 606.9 L
S
GR
GS
[0.74968 0 0 0.75035 0 -0.48029] CT
0.149 GC
2 setlinecap
1 LJ
0.667 LW
N
923.667 612 M
923.667 606.9 L
S
GR
GS
[0.74968 0 0 0.75035 0 -0.48029] CT
0.149 GC
2 setlinecap
1 LJ
0.667 LW
N
935 612 M
935 606.9 L
S
GR
GS
[0.74968 0 0 0.75035 0 -0.48029] CT
0.149 GC
2 setlinecap
1 LJ
0.667 LW
N
946.333 612 M
946.333 606.9 L
S
GR
GS
[0.74968 0 0 0.75035 0 -0.48029] CT
0.149 GC
2 setlinecap
1 LJ
0.667 LW
N
969 612 M
969 606.9 L
S
GR
GS
[0.74968 0 0 0.75035 0 -0.48029] CT
0.149 GC
2 setlinecap
1 LJ
0.667 LW
N
980.333 612 M
980.333 606.9 L
S
GR
GS
[0.74968 0 0 0.75035 0 -0.48029] CT
0.149 GC
2 setlinecap
1 LJ
0.667 LW
N
991.667 612 M
991.667 606.9 L
S
GR
GS
[0.74968 0 0 0.75035 0 -0.48029] CT
0.149 GC
2 setlinecap
1 LJ
0.667 LW
N
1003 612 M
1003 606.9 L
S
GR
GS
[0.74968 0 0 0.75035 0 -0.48029] CT
0.149 GC
2 setlinecap
1 LJ
0.667 LW
N
1025.667 612 M
1025.667 606.9 L
S
GR
GS
[0.74968 0 0 0.75035 0 -0.48029] CT
0.149 GC
2 setlinecap
1 LJ
0.667 LW
N
1037 612 M
1037 606.9 L
S
GR
GS
[0.74968 0 0 0.75035 0 -0.48029] CT
0.149 GC
2 setlinecap
1 LJ
0.667 LW
N
1048.333 612 M
1048.333 606.9 L
S
GR
GS
[0.74968 0 0 0.75035 0 -0.48029] CT
0.149 GC
2 setlinecap
1 LJ
0.667 LW
N
1059.667 612 M
1059.667 606.9 L
S
GR
GS
[0.74968 0 0 0.75035 38.23364 462.73412] CT
0.149 GC
/Helvetica 13.333 F
GS
[1 0 0 1 0 0] CT
-7.5 14 moveto 
1 -1 scale
(18) t 
GR
GR
GS
[0.74968 0 0 0.75035 80.71546 462.73412] CT
0.149 GC
/Helvetica 13.333 F
GS
[1 0 0 1 0 0] CT
-7.5 14 moveto 
1 -1 scale
(19) t 
GR
GR
GS
[0.74968 0 0 0.75035 123.19728 462.73412] CT
0.149 GC
/Helvetica 13.333 F
GS
[1 0 0 1 0 0] CT
-7.5 14 moveto 
1 -1 scale
(20) t 
GR
GR
GS
[0.74968 0 0 0.75035 165.67911 462.73412] CT
0.149 GC
/Helvetica 13.333 F
GS
[1 0 0 1 0 0] CT
-7.5 14 moveto 
1 -1 scale
(21) t 
GR
GR
GS
[0.74968 0 0 0.75035 208.16092 462.73412] CT
0.149 GC
/Helvetica 13.333 F
GS
[1 0 0 1 0 0] CT
-7.5 14 moveto 
1 -1 scale
(22) t 
GR
GR
GS
[0.74968 0 0 0.75035 250.64276 462.73412] CT
0.149 GC
/Helvetica 13.333 F
GS
[1 0 0 1 0 0] CT
-7.5 14 moveto 
1 -1 scale
(23) t 
GR
GR
GS
[0.74968 0 0 0.75035 293.12458 462.73412] CT
0.149 GC
/Helvetica 13.333 F
GS
[1 0 0 1 0 0] CT
-7.5 14 moveto 
1 -1 scale
(24) t 
GR
GR
GS
[0.74968 0 0 0.75035 335.60639 462.73412] CT
0.149 GC
/Helvetica 13.333 F
GS
[1 0 0 1 0 0] CT
-7.5 14 moveto 
1 -1 scale
(25) t 
GR
GR
GS
[0.74968 0 0 0.75035 378.08823 462.73412] CT
0.149 GC
/Helvetica 13.333 F
GS
[1 0 0 1 0 0] CT
-7.5 14 moveto 
1 -1 scale
(26) t 
GR
GR
GS
[0.74968 0 0 0.75035 420.57005 462.73412] CT
0.149 GC
/Helvetica 13.333 F
GS
[1 0 0 1 0 0] CT
-7.5 14 moveto 
1 -1 scale
(27) t 
GR
GR
GS
[0.74968 0 0 0.75035 463.05188 462.73412] CT
0.149 GC
/Helvetica 13.333 F
GS
[1 0 0 1 0 0] CT
-7.5 14 moveto 
1 -1 scale
(28) t 
GR
GR
GS
[0.74968 0 0 0.75035 505.53368 462.73412] CT
0.149 GC
/Helvetica 13.333 F
GS
[1 0 0 1 0 0] CT
-7.5 14 moveto 
1 -1 scale
(29) t 
GR
GR
GS
[0.74968 0 0 0.75035 548.01551 462.73412] CT
0.149 GC
/Helvetica 13.333 F
GS
[1 0 0 1 0 0] CT
-7.5 14 moveto 
1 -1 scale
(30) t 
GR
GR
GS
[0.74968 0 0 0.75035 590.49735 462.73412] CT
0.149 GC
/Helvetica 13.333 F
GS
[1 0 0 1 0 0] CT
-7.5 14 moveto 
1 -1 scale
(31) t 
GR
GR
GS
[0.74968 0 0 0.75035 632.97914 462.73412] CT
0.149 GC
/Helvetica 13.333 F
GS
[1 0 0 1 0 0] CT
-7.5 14 moveto 
1 -1 scale
(32) t 
GR
GR
GS
[0.74968 0 0 0.75035 675.46098 462.73412] CT
0.149 GC
/Helvetica 13.333 F
GS
[1 0 0 1 0 0] CT
-7.5 14 moveto 
1 -1 scale
(33) t 
GR
GR
GS
[0.74968 0 0 0.75035 717.94282 462.73412] CT
0.149 GC
/Helvetica 13.333 F
GS
[1 0 0 1 0 0] CT
-7.5 14 moveto 
1 -1 scale
(34) t 
GR
GR
GS
[0.74968 0 0 0.75035 760.42461 462.73412] CT
0.149 GC
/Helvetica 13.333 F
GS
[1 0 0 1 0 0] CT
-7.5 14 moveto 
1 -1 scale
(35) t 
GR
GR
GS
[0.74968 0 0 0.75035 802.90645 462.73412] CT
0.149 GC
/Helvetica 13.333 F
GS
[1 0 0 1 0 0] CT
-7.5 14 moveto 
1 -1 scale
(36) t 
GR
GR
GS
[0.74968 0 0 0.75035 420.57037 476.49052] CT
0.149 GC
/Helvetica 14.667 F
GS
[1 0 0 1 0 0] CT
-17.5 16 moveto 
1 -1 scale
(z \(m\)) t 
GR
GR
GS
[0.74968 0 0 0.75035 0 -0.48029] CT
0.502 GC
[10 6] 0 setdash
2 LJ
0.667 LW
N
73.667 608.6 M
1014.333 608.6 L
1014.333 374 L
73.667 374 L
cp
S
GR
GS
[0.74968 0 0 0.75035 0 -0.48029] CT
0.651 GC
N
395.93 605.2 M
480.93 605.2 L
480.93 537.2 L
395.93 537.2 L
cp
f
GR
GS
[0.74968 0 0 0.75035 0 -0.48029] CT
0.651 GC
10.0 ML
0.667 LW
N
395.93 605.2 M
480.93 605.2 L
480.93 537.2 L
395.93 537.2 L
cp
S
GR
GS
[0.74968 0 0 0.75035 328.68186 428.11812] CT
/Helvetica 12 F
GS
[1 0 0 1 0 0] CT
-12 5 moveto 
1 -1 scale
(Wall) t 
GR
GR
GS
[0.74968 0 0 0.75035 0 -0.48029] CT
0.651 GC
N
592.167 605.2 M
611.433 605.2 L
611.433 568.208 L
592.167 568.208 L
cp
f
GR
GS
[0.74968 0 0 0.75035 0 -0.48029] CT
0.651 GC
10.0 ML
0.667 LW
N
592.167 605.2 M
611.433 605.2 L
611.433 568.208 L
592.167 568.208 L
cp
S
GR
GS
[0.74968 0 0 0.75035 0 -0.48029] CT
1 0 1 RC
N
611.433 605.2 M
630.7 605.2 L
630.7 568.208 L
611.433 568.208 L
cp
f
GR
GS
[0.74968 0 0 0.75035 0 -0.48029] CT
1 0 1 RC
10.0 ML
0.667 LW
N
611.433 605.2 M
630.7 605.2 L
630.7 568.208 L
611.433 568.208 L
cp
S
GR
GS
[0.74968 0 0 0.75035 0 -0.48029] CT
0.651 GC
N
611.433 568.208 M
630.7 568.208 L
630.7 531.216 L
611.433 531.216 L
cp
f
GR
GS
[0.74968 0 0 0.75035 0 -0.48029] CT
0.651 GC
10.0 ML
0.667 LW
N
611.433 568.208 M
630.7 568.208 L
630.7 531.216 L
611.433 531.216 L
cp
S
GR
GS
[0.74968 0 0 0.75035 0 -0.48029] CT
1 0 1 RC
N
592.167 568.208 M
611.433 568.208 L
611.433 531.216 L
592.167 531.216 L
cp
f
GR
GS
[0.74968 0 0 0.75035 0 -0.48029] CT
1 0 1 RC
10.0 ML
0.667 LW
N
592.167 568.208 M
611.433 568.208 L
611.433 531.216 L
592.167 531.216 L
cp
S
GR
GS
[0.74968 0 0 0.75035 0 -0.48029] CT
0.651 GC
N
630.7 605.2 M
649.967 605.2 L
649.967 568.208 L
630.7 568.208 L
cp
f
GR
GS
[0.74968 0 0 0.75035 0 -0.48029] CT
0.651 GC
10.0 ML
0.667 LW
N
630.7 605.2 M
649.967 605.2 L
649.967 568.208 L
630.7 568.208 L
cp
S
GR
GS
[0.74968 0 0 0.75035 0 -0.48029] CT
1 0 1 RC
N
649.967 605.2 M
669.233 605.2 L
669.233 568.208 L
649.967 568.208 L
cp
f
GR
GS
[0.74968 0 0 0.75035 0 -0.48029] CT
1 0 1 RC
10.0 ML
0.667 LW
N
649.967 605.2 M
669.233 605.2 L
669.233 568.208 L
649.967 568.208 L
cp
S
GR
GS
[0.74968 0 0 0.75035 0 -0.48029] CT
0.651 GC
N
649.967 568.208 M
669.233 568.208 L
669.233 531.216 L
649.967 531.216 L
cp
f
GR
GS
[0.74968 0 0 0.75035 0 -0.48029] CT
0.651 GC
10.0 ML
0.667 LW
N
649.967 568.208 M
669.233 568.208 L
669.233 531.216 L
649.967 531.216 L
cp
S
GR
GS
[0.74968 0 0 0.75035 0 -0.48029] CT
1 0 1 RC
N
630.7 568.208 M
649.967 568.208 L
649.967 531.216 L
630.7 531.216 L
cp
f
GR
GS
[0.74968 0 0 0.75035 0 -0.48029] CT
1 0 1 RC
10.0 ML
0.667 LW
N
630.7 568.208 M
649.967 568.208 L
649.967 531.216 L
630.7 531.216 L
cp
S
GR
GS
[0.74968 0 0 0.75035 0 -0.48029] CT
0.651 GC
N
669.233 605.2 M
688.5 605.2 L
688.5 568.208 L
669.233 568.208 L
cp
f
GR
GS
[0.74968 0 0 0.75035 0 -0.48029] CT
0.651 GC
10.0 ML
0.667 LW
N
669.233 605.2 M
688.5 605.2 L
688.5 568.208 L
669.233 568.208 L
cp
S
GR
GS
[0.74968 0 0 0.75035 0 -0.48029] CT
1 0 1 RC
N
688.5 605.2 M
707.767 605.2 L
707.767 568.208 L
688.5 568.208 L
cp
f
GR
GS
[0.74968 0 0 0.75035 0 -0.48029] CT
1 0 1 RC
10.0 ML
0.667 LW
N
688.5 605.2 M
707.767 605.2 L
707.767 568.208 L
688.5 568.208 L
cp
S
GR
GS
[0.74968 0 0 0.75035 0 -0.48029] CT
0.651 GC
N
688.5 568.208 M
707.767 568.208 L
707.767 531.216 L
688.5 531.216 L
cp
f
GR
GS
[0.74968 0 0 0.75035 0 -0.48029] CT
0.651 GC
10.0 ML
0.667 LW
N
688.5 568.208 M
707.767 568.208 L
707.767 531.216 L
688.5 531.216 L
cp
S
GR
GS
[0.74968 0 0 0.75035 0 -0.48029] CT
1 0 1 RC
N
669.233 568.208 M
688.5 568.208 L
688.5 531.216 L
669.233 531.216 L
cp
f
GR
GS
[0.74968 0 0 0.75035 0 -0.48029] CT
1 0 1 RC
10.0 ML
0.667 LW
N
669.233 568.208 M
688.5 568.208 L
688.5 531.216 L
669.233 531.216 L
cp
S
GR
GS
[0.74968 0 0 0.75035 0 -0.48029] CT
0.651 GC
N
707.767 605.2 M
727.033 605.2 L
727.033 568.208 L
707.767 568.208 L
cp
f
GR
GS
[0.74968 0 0 0.75035 0 -0.48029] CT
0.651 GC
10.0 ML
0.667 LW
N
707.767 605.2 M
727.033 605.2 L
727.033 568.208 L
707.767 568.208 L
cp
S
GR
GS
[0.74968 0 0 0.75035 0 -0.48029] CT
1 0 1 RC
N
727.033 605.2 M
746.3 605.2 L
746.3 568.208 L
727.033 568.208 L
cp
f
GR
GS
[0.74968 0 0 0.75035 0 -0.48029] CT
1 0 1 RC
10.0 ML
0.667 LW
N
727.033 605.2 M
746.3 605.2 L
746.3 568.208 L
727.033 568.208 L
cp
S
GR
GS
[0.74968 0 0 0.75035 0 -0.48029] CT
0.651 GC
N
727.033 568.208 M
746.3 568.208 L
746.3 531.216 L
727.033 531.216 L
cp
f
GR
GS
[0.74968 0 0 0.75035 0 -0.48029] CT
0.651 GC
10.0 ML
0.667 LW
N
727.033 568.208 M
746.3 568.208 L
746.3 531.216 L
727.033 531.216 L
cp
S
GR
GS
[0.74968 0 0 0.75035 0 -0.48029] CT
1 0 1 RC
N
707.767 568.208 M
727.033 568.208 L
727.033 531.216 L
707.767 531.216 L
cp
f
GR
GS
[0.74968 0 0 0.75035 0 -0.48029] CT
1 0 1 RC
10.0 ML
0.667 LW
N
707.767 568.208 M
727.033 568.208 L
727.033 531.216 L
707.767 531.216 L
cp
S
GR
GS
[0.74968 0 0 0.75035 0 -0.48029] CT
0.651 GC
N
746.3 605.2 M
765.567 605.2 L
765.567 568.208 L
746.3 568.208 L
cp
f
GR
GS
[0.74968 0 0 0.75035 0 -0.48029] CT
0.651 GC
10.0 ML
0.667 LW
N
746.3 605.2 M
765.567 605.2 L
765.567 568.208 L
746.3 568.208 L
cp
S
GR
GS
[0.74968 0 0 0.75035 0 -0.48029] CT
1 0 1 RC
N
765.567 605.2 M
784.833 605.2 L
784.833 568.208 L
765.567 568.208 L
cp
f
GR
GS
[0.74968 0 0 0.75035 0 -0.48029] CT
1 0 1 RC
10.0 ML
0.667 LW
N
765.567 605.2 M
784.833 605.2 L
784.833 568.208 L
765.567 568.208 L
cp
S
GR
GS
[0.74968 0 0 0.75035 0 -0.48029] CT
0.651 GC
N
765.567 568.208 M
784.833 568.208 L
784.833 531.216 L
765.567 531.216 L
cp
f
GR
GS
[0.74968 0 0 0.75035 0 -0.48029] CT
0.651 GC
10.0 ML
0.667 LW
N
765.567 568.208 M
784.833 568.208 L
784.833 531.216 L
765.567 531.216 L
cp
S
GR
GS
[0.74968 0 0 0.75035 0 -0.48029] CT
1 0 1 RC
N
746.3 568.208 M
765.567 568.208 L
765.567 531.216 L
746.3 531.216 L
cp
f
GR
GS
[0.74968 0 0 0.75035 0 -0.48029] CT
1 0 1 RC
10.0 ML
0.667 LW
N
746.3 568.208 M
765.567 568.208 L
765.567 531.216 L
746.3 531.216 L
cp
S
GR
GS
[0.74968 0 0 0.75035 516.15415 377.0945] CT
/Helvetica 12 F
GS
[1 0 0 1 0 0] CT
-19 5 moveto 
1 -1 scale
(LCLS-I) t 
GR
GR
GS
[0.74968 0 0 0.75035 0 -0.48029] CT
1 0 0 RC
N
139.145 605.2 M
142.715 605.2 L
142.715 435.2 L
139.145 435.2 L
cp
f
GR
GS
[0.74968 0 0 0.75035 0 -0.48029] CT
1 0 0 RC
10.0 ML
0.667 LW
N
139.145 605.2 M
142.715 605.2 L
142.715 435.2 L
139.145 435.2 L
cp
S
GR
GS
[0 -0.75035 0.74968 0 105.65229 326.07089] CT
1 0 0 RC
/Helvetica 10.667 F
GS
[1 0 0 1 0 0] CT
0 4.5 moveto 
1 -1 scale
(HIGH2.Q3) t 
GR
GR
GS
[0.74968 0 0 0.75035 0 -0.48029] CT
1 0 0 RC
N
210.97 605.2 M
214.54 605.2 L
214.54 435.2 L
210.97 435.2 L
cp
f
GR
GS
[0.74968 0 0 0.75035 0 -0.48029] CT
1 0 0 RC
10.0 ML
0.667 LW
N
210.97 605.2 M
214.54 605.2 L
214.54 435.2 L
210.97 435.2 L
cp
S
GR
GS
[0 -0.75035 0.74968 0 159.498 326.07089] CT
1 0 0 RC
/Helvetica 10.667 F
GS
[1 0 0 1 0 0] CT
0 4.5 moveto 
1 -1 scale
(HIGH2.Q4) t 
GR
GR
GS
[0.74968 0 0 0.75035 0 -0.48029] CT
1 0 0 RC
N
282.795 605.2 M
286.365 605.2 L
286.365 435.2 L
282.795 435.2 L
cp
f
GR
GS
[0.74968 0 0 0.75035 0 -0.48029] CT
1 0 0 RC
10.0 ML
0.667 LW
N
282.795 605.2 M
286.365 605.2 L
286.365 435.2 L
282.795 435.2 L
cp
S
GR
GS
[0 -0.75035 0.74968 0 213.3437 326.07089] CT
1 0 0 RC
/Helvetica 10.667 F
GS
[1 0 0 1 0 0] CT
0 4.5 moveto 
1 -1 scale
(HIGH2.Q5) t 
GR
GR
GS
[0.74968 0 0 0.75035 0 -0.48029] CT
1 0 0 RC
N
522.382 605.2 M
525.952 605.2 L
525.952 435.2 L
522.382 435.2 L
cp
f
GR
GS
[0.74968 0 0 0.75035 0 -0.48029] CT
1 0 0 RC
10.0 ML
0.667 LW
N
522.382 605.2 M
525.952 605.2 L
525.952 435.2 L
522.382 435.2 L
cp
S
GR
GS
[0 -0.75035 0.74968 0 392.95688 326.07089] CT
1 0 0 RC
/Helvetica 10.667 F
GS
[1 0 0 1 0 0] CT
0 4.5 moveto 
1 -1 scale
(HIGH3.Q1) t 
GR
GR
GS
[0.74968 0 0 0.75035 0 -0.48029] CT
1 0 0 RC
N
545.048 605.2 M
548.618 605.2 L
548.618 435.2 L
545.048 435.2 L
cp
f
GR
GS
[0.74968 0 0 0.75035 0 -0.48029] CT
1 0 0 RC
10.0 ML
0.667 LW
N
545.048 605.2 M
548.618 605.2 L
548.618 435.2 L
545.048 435.2 L
cp
S
GR
GS
[0 -0.75035 0.74968 0 409.94957 326.07089] CT
1 0 0 RC
/Helvetica 10.667 F
GS
[1 0 0 1 0 0] CT
0 4.5 moveto 
1 -1 scale
(HIGH3.Q2) t 
GR
GR
GS
[0.74968 0 0 0.75035 0 -0.48029] CT
1 0 0 RC
N
567.715 605.2 M
571.285 605.2 L
571.285 435.2 L
567.715 435.2 L
cp
f
GR
GS
[0.74968 0 0 0.75035 0 -0.48029] CT
1 0 0 RC
10.0 ML
0.667 LW
N
567.715 605.2 M
571.285 605.2 L
571.285 435.2 L
567.715 435.2 L
cp
S
GR
GS
[0 -0.75035 0.74968 0 426.94232 326.07089] CT
1 0 0 RC
/Helvetica 10.667 F
GS
[1 0 0 1 0 0] CT
0 4.5 moveto 
1 -1 scale
(HIGH3.Q3) t 
GR
GR
GS
[0.74968 0 0 0.75035 0 -0.48029] CT
1 0 0 RC
N
828.382 605.2 M
831.952 605.2 L
831.952 435.2 L
828.382 435.2 L
cp
f
GR
GS
[0.74968 0 0 0.75035 0 -0.48029] CT
1 0 0 RC
10.0 ML
0.667 LW
N
828.382 605.2 M
831.952 605.2 L
831.952 435.2 L
828.382 435.2 L
cp
S
GR
GS
[0 -0.75035 0.74968 0 622.35872 326.07089] CT
1 0 0 RC
/Helvetica 10.667 F
GS
[1 0 0 1 0 0] CT
0 4.5 moveto 
1 -1 scale
(HIGH3.Q4) t 
GR
GR
GS
[0.74968 0 0 0.75035 0 -0.48029] CT
1 0 0 RC
N
851.048 605.2 M
854.618 605.2 L
854.618 435.2 L
851.048 435.2 L
cp
f
GR
GS
[0.74968 0 0 0.75035 0 -0.48029] CT
1 0 0 RC
10.0 ML
0.667 LW
N
851.048 605.2 M
854.618 605.2 L
854.618 435.2 L
851.048 435.2 L
cp
S
GR
GS
[0 -0.75035 0.74968 0 639.35151 326.07089] CT
1 0 0 RC
/Helvetica 10.667 F
GS
[1 0 0 1 0 0] CT
0 4.5 moveto 
1 -1 scale
(HIGH3.Q5) t 
GR
GR
GS
[0.74968 0 0 0.75035 0 -0.48029] CT
0 0 1 RC
N
62.447 605.2 M
69.247 605.2 L
69.247 503.2 L
62.447 503.2 L
cp
f
GR
GS
[0.74968 0 0 0.75035 0 -0.48029] CT
0 0 1 RC
10.0 ML
0.667 LW
N
62.447 605.2 M
69.247 605.2 L
69.247 503.2 L
62.447 503.2 L
cp
S
GR
GS
[0 -0.75035 0.74968 0 49.36384 377.0945] CT
0 0 1 RC
/Helvetica 10.667 F
GS
[1 0 0 1 0 0] CT
0 4.5 moveto 
1 -1 scale
(HIGH2.SCR2) t 
GR
GR
GS
[0.74968 0 0 0.75035 0 -0.48029] CT
0 0 1 RC
N
323 605.2 M
329.8 605.2 L
329.8 503.2 L
323 503.2 L
cp
f
GR
GS
[0.74968 0 0 0.75035 0 -0.48029] CT
0 0 1 RC
10.0 ML
0.667 LW
N
323 605.2 M
329.8 605.2 L
329.8 503.2 L
323 503.2 L
cp
S
GR
GS
[0 -0.75035 0.74968 0 244.69532 377.0945] CT
0 0 1 RC
/Helvetica 10.667 F
GS
[1 0 0 1 0 0] CT
0 4.5 moveto 
1 -1 scale
(HIGH2.SCR3) t 
GR
GR
GS
[0.74968 0 0 0.75035 0 -0.48029] CT
0 0 1 RC
N
554.767 605.2 M
561.567 605.2 L
561.567 503.2 L
554.767 503.2 L
cp
f
GR
GS
[0.74968 0 0 0.75035 0 -0.48029] CT
0 0 1 RC
10.0 ML
0.667 LW
N
554.767 605.2 M
561.567 605.2 L
561.567 503.2 L
554.767 503.2 L
cp
S
GR
GS
[0 -0.75035 0.74968 0 418.44597 377.0945] CT
0 0 1 RC
/Helvetica 10.667 F
GS
[1 0 0 1 0 0] CT
0 4.5 moveto 
1 -1 scale
(HIGH3.SCR1) t 
GR
GR
GS
[0.74968 0 0 0.75035 0 -0.48029] CT
0 0 1 RC
N
815.433 605.2 M
822.233 605.2 L
822.233 503.2 L
815.433 503.2 L
cp
f
GR
GS
[0.74968 0 0 0.75035 0 -0.48029] CT
0 0 1 RC
10.0 ML
0.667 LW
N
815.433 605.2 M
822.233 605.2 L
822.233 503.2 L
815.433 503.2 L
cp
S
GR
GS
[0 -0.75035 0.74968 0 613.86232 377.0945] CT
0 0 1 RC
/Helvetica 10.667 F
GS
[1 0 0 1 0 0] CT
0 4.5 moveto 
1 -1 scale
(HIGH3.SCR2) t 
GR
GR
GS
[0.74968 0 0 0.75035 0 -0.48029] CT
0 1 0 RC
N
114.013 605.2 M
116.847 605.2 L
116.847 435.2 L
114.013 435.2 L
cp
f
GR
GS
[0.74968 0 0 0.75035 0 -0.48029] CT
0 1 0 RC
10.0 ML
0.667 LW
N
114.013 605.2 M
116.847 605.2 L
116.847 435.2 L
114.013 435.2 L
cp
S
GR
GS
[0 -0.75035 0.74968 0 86.53543 326.07089] CT
0 1 0 RC
/Helvetica 10.667 F
GS
[1 0 0 1 0 0] CT
0 4.5 moveto 
1 -1 scale
(HIGH2.ST3) t 
GR
GR
GS
[0.74968 0 0 0.75035 0 -0.48029] CT
0 1 0 RC
N
206.805 605.2 M
209.638 605.2 L
209.638 435.2 L
206.805 435.2 L
cp
f
GR
GS
[0.74968 0 0 0.75035 0 -0.48029] CT
0 1 0 RC
10.0 ML
0.667 LW
N
206.805 605.2 M
209.638 605.2 L
209.638 435.2 L
206.805 435.2 L
cp
S
GR
GS
[0 -0.75035 0.74968 0 156.09946 326.07089] CT
0 1 0 RC
/Helvetica 10.667 F
GS
[1 0 0 1 0 0] CT
0 4.5 moveto 
1 -1 scale
(HIGH2.ST4) t 
GR
GR
GS
[0.74968 0 0 0.75035 0 -0.48029] CT
0 1 0 RC
N
274.663 605.2 M
277.497 605.2 L
277.497 435.2 L
274.663 435.2 L
cp
f
GR
GS
[0.74968 0 0 0.75035 0 -0.48029] CT
0 1 0 RC
10.0 ML
0.667 LW
N
274.663 605.2 M
277.497 605.2 L
277.497 435.2 L
274.663 435.2 L
cp
S
GR
GS
[0 -0.75035 0.74968 0 206.97145 326.07089] CT
0 1 0 RC
/Helvetica 10.667 F
GS
[1 0 0 1 0 0] CT
0 4.5 moveto 
1 -1 scale
(HIGH2.STA4) t 
GR
GR
GS
[0.74968 0 0 0.75035 0 -0.48029] CT
0 1 0 RC
N
517.083 605.2 M
519.917 605.2 L
519.917 435.2 L
517.083 435.2 L
cp
f
GR
GS
[0.74968 0 0 0.75035 0 -0.48029] CT
0 1 0 RC
10.0 ML
0.667 LW
N
517.083 605.2 M
519.917 605.2 L
519.917 435.2 L
517.083 435.2 L
cp
S
GR
GS
[0 -0.75035 0.74968 0 388.70868 326.07089] CT
0 1 0 RC
/Helvetica 10.667 F
GS
[1 0 0 1 0 0] CT
0 4.5 moveto 
1 -1 scale
(HIGH3.ST1) t 
GR
GR
GS
[0.74968 0 0 0.75035 0 -0.48029] CT
0 1 0 RC
N
534.083 605.2 M
536.917 605.2 L
536.917 435.2 L
534.083 435.2 L
cp
f
GR
GS
[0.74968 0 0 0.75035 0 -0.48029] CT
0 1 0 RC
10.0 ML
0.667 LW
N
534.083 605.2 M
536.917 605.2 L
536.917 435.2 L
534.083 435.2 L
cp
S
GR
GS
[0 -0.75035 0.74968 0 401.45318 326.07089] CT
0 1 0 RC
/Helvetica 10.667 F
GS
[1 0 0 1 0 0] CT
0 4.5 moveto 
1 -1 scale
(HIGH3.STA1) t 
GR
GR
GS
[0.74968 0 0 0.75035 0 -0.48029] CT
N
200.94 605.2 M
201.507 605.2 L
201.507 503.2 L
200.94 503.2 L
cp
f
GR
GS
[0.74968 0 0 0.75035 0 -0.48029] CT
10.0 ML
0.667 LW
N
200.94 605.2 M
201.507 605.2 L
201.507 503.2 L
200.94 503.2 L
cp
S
GR
GS
[0 -0.75035 0.74968 0 150.85291 377.0945] CT
/Helvetica 10.667 F
GS
[1 0 0 1 0 0] CT
0 4.5 moveto 
1 -1 scale
(HIGH2.BPM1) t 
GR
GR
GS
[0.74968 0 0 0.75035 0 -0.48029] CT
N
339.15 605.2 M
339.717 605.2 L
339.717 503.2 L
339.15 503.2 L
cp
f
GR
GS
[0.74968 0 0 0.75035 0 -0.48029] CT
10.0 ML
0.667 LW
N
339.15 605.2 M
339.717 605.2 L
339.717 503.2 L
339.15 503.2 L
cp
S
GR
GS
[0 -0.75035 0.74968 0 254.46613 377.0945] CT
/Helvetica 10.667 F
GS
[1 0 0 1 0 0] CT
0 4.5 moveto 
1 -1 scale
(HIGH2.BPM2) t 
GR
GR
GS
[0.74968 0 0 0.75035 0 -0.48029] CT
N
368.617 605.2 M
369.183 605.2 L
369.183 503.2 L
368.617 503.2 L
cp
f
GR
GS
[0.74968 0 0 0.75035 0 -0.48029] CT
10.0 ML
0.667 LW
N
368.617 605.2 M
369.183 605.2 L
369.183 503.2 L
368.617 503.2 L
cp
S
GR
GS
[0 -0.75035 0.74968 0 276.55668 377.0945] CT
/Helvetica 10.667 F
GS
[1 0 0 1 0 0] CT
0 4.5 moveto 
1 -1 scale
(HIGH2.BPM3) t 
GR
GR
GS
[0.74968 0 0 0.75035 0 -0.48029] CT
N
509.15 605.2 M
509.717 605.2 L
509.717 503.2 L
509.15 503.2 L
cp
f
GR
GS
[0.74968 0 0 0.75035 0 -0.48029] CT
10.0 ML
0.667 LW
N
509.15 605.2 M
509.717 605.2 L
509.717 503.2 L
509.15 503.2 L
cp
S
GR
GS
[0 -0.75035 0.74968 0 381.9116 377.0945] CT
/Helvetica 10.667 F
GS
[1 0 0 1 0 0] CT
0 4.5 moveto 
1 -1 scale
(HIGH3.BPM1) t 
GR
GR
GS
[0.74968 0 0 0.75035 0 -0.48029] CT
N
575.167 605.2 M
575.733 605.2 L
575.733 503.2 L
575.167 503.2 L
cp
f
GR
GS
[0.74968 0 0 0.75035 0 -0.48029] CT
10.0 ML
0.667 LW
N
575.167 605.2 M
575.733 605.2 L
575.733 503.2 L
575.167 503.2 L
cp
S
GR
GS
[0 -0.75035 0.74968 0 431.40287 377.0945] CT
/Helvetica 10.667 F
GS
[1 0 0 1 0 0] CT
0 4.5 moveto 
1 -1 scale
(HIGH3.BPM2) t 
GR
GR
GS
[0.74968 0 0 0.75035 0 -0.48029] CT
N
801.267 605.2 M
801.833 605.2 L
801.833 503.2 L
801.267 503.2 L
cp
f
GR
GS
[0.74968 0 0 0.75035 0 -0.48029] CT
10.0 ML
0.667 LW
N
801.267 605.2 M
801.833 605.2 L
801.833 503.2 L
801.267 503.2 L
cp
S
GR
GS
[0 -0.75035 0.74968 0 600.90542 377.0945] CT
/Helvetica 10.667 F
GS
[1 0 0 1 0 0] CT
0 4.5 moveto 
1 -1 scale
(HIGH3.BPM3) t 
GR
GR
GS
[0.74968 0 0 0.75035 0 -0.48029] CT
0.584 0.816 0.988 RC
N
79.333 605.2 M
96.333 605.2 L
96.333 571.2 L
79.333 571.2 L
cp
f
GR
GS
[0.74968 0 0 0.75035 0 -0.48029] CT
0.584 0.816 0.988 RC
10.0 ML
0.667 LW
N
79.333 605.2 M
96.333 605.2 L
96.333 571.2 L
79.333 571.2 L
cp
S
GR
GS
[0 -0.75035 0.74968 0 65.84681 394.95276] CT
/Helvetica 12 F
GS
[1 0 0 1 0 0] CT
-36.5 5 moveto 
1 -1 scale
(CHICANE.D1) t 
GR
GR
GS
[0.74968 0 0 0.75035 0 -0.48029] CT
0.584 0.816 0.988 RC
N
150.79 605.2 M
196.407 605.2 L
196.407 537.2 L
150.79 537.2 L
cp
f
GR
GS
[0.74968 0 0 0.75035 0 -0.48029] CT
0.584 0.816 0.988 RC
10.0 ML
0.667 LW
N
150.79 605.2 M
196.407 605.2 L
196.407 537.2 L
150.79 537.2 L
cp
S
GR
GS
[0 -0.75035 0.74968 0 130.14306 424.29132] CT
/Helvetica 12 F
GS
[1 0 0 1 0 0] CT
-27 5 moveto 
1 -1 scale
(DISP3.D3) t 
GR
GR
GS
[0.74968 0 0 0.75035 0 -0.48029] CT
0.584 0.816 0.988 RC
N
153 527 M
170 527 L
170 493 L
153 493 L
cp
f
GR
GS
[0.74968 0 0 0.75035 0 -0.48029] CT
0.584 0.816 0.988 RC
10.0 ML
0.667 LW
N
153 527 M
170 527 L
170 493 L
153 493 L
cp
S
GR
GS
[0 -0.75035 0.74968 0 134.87977 369.44095] CT
/Helvetica 12 F
GS
[1 0 0 1 0 0] CT
-36.5 5 moveto 
1 -1 scale
(CHICANE.D2) t 
GR
GR
GS
[0.74968 0 0 0.75035 0 -0.48029] CT
0.584 0.816 0.988 RC
N
226.667 527 M
243.667 527 L
243.667 493 L
226.667 493 L
cp
f
GR
GS
[0.74968 0 0 0.75035 0 -0.48029] CT
0.584 0.816 0.988 RC
10.0 ML
0.667 LW
N
226.667 527 M
243.667 527 L
243.667 493 L
226.667 493 L
cp
S
GR
GS
[0 -0.75035 0.74968 0 190.10619 369.44095] CT
/Helvetica 12 F
GS
[1 0 0 1 0 0] CT
-36.5 5 moveto 
1 -1 scale
(CHICANE.D3) t 
GR
GR
GS
[0.74968 0 0 0.75035 0 -0.48029] CT
0.584 0.816 0.988 RC
N
300.333 605.2 M
317.333 605.2 L
317.333 571.2 L
300.333 571.2 L
cp
f
GR
GS
[0.74968 0 0 0.75035 0 -0.48029] CT
0.584 0.816 0.988 RC
10.0 ML
0.667 LW
N
300.333 605.2 M
317.333 605.2 L
317.333 571.2 L
300.333 571.2 L
cp
S
GR
GS
[0 -0.75035 0.74968 0 231.5259 394.95276] CT
/Helvetica 12 F
GS
[1 0 0 1 0 0] CT
-36.5 5 moveto 
1 -1 scale
(CHICANE.D4) t 
GR
GR
GS
[0.74968 0 0 0.75035 0 -0.48029] CT
0.584 0.816 0.988 RC
N
484.5 605.2 M
501.5 605.2 L
501.5 537.2 L
484.5 537.2 L
cp
f
GR
GS
[0.74968 0 0 0.75035 0 -0.48029] CT
0.584 0.816 0.988 RC
10.0 ML
0.667 LW
N
484.5 605.2 M
501.5 605.2 L
501.5 537.2 L
484.5 537.2 L
cp
S
GR
GS
[0 -0.75035 0.74968 0 369.59184 424.29132] CT
/Helvetica 12 F
GS
[1 0 0 1 0 0] CT
-28 5 moveto 
1 -1 scale
(HIGH3.D1) t 
GR
GR
GS
[0.74968 0 0 0.75035 0 -0.48029] CT
0.584 0.816 0.988 RC
N
861.333 605.2 M
878.333 605.2 L
878.333 537.2 L
861.333 537.2 L
cp
f
GR
GS
[0.74968 0 0 0.75035 0 -0.48029] CT
0.584 0.816 0.988 RC
10.0 ML
0.667 LW
N
861.333 605.2 M
878.333 605.2 L
878.333 537.2 L
861.333 537.2 L
cp
S
GR
GS
[0 -0.75035 0.74968 0 652.09601 424.29132] CT
/Helvetica 12 F
GS
[1 0 0 1 0 0] CT
-28 5 moveto 
1 -1 scale
(HIGH3.D2) t 
GR
GR
GS
[0.74968 0 0 0.75035 0 -0.48029] CT
0.929 0.69 0.129 RC
N
348.5 605.2 M
359.833 605.2 L
359.833 600.1 L
348.5 600.1 L
cp
f
GR
GS
[0.74968 0 0 0.75035 0 -0.48029] CT
0.929 0.69 0.129 RC
10.0 ML
0.667 LW
N
348.5 605.2 M
359.833 605.2 L
359.833 600.1 L
348.5 600.1 L
cp
S
GR
GS
[0.74968 0 0 0.75035 0 -0.48029] CT
0.929 0.69 0.129 RC
N
348.5 595 M
359.833 595 L
359.833 589.9 L
348.5 589.9 L
cp
f
GR
GS
[0.74968 0 0 0.75035 0 -0.48029] CT
0.929 0.69 0.129 RC
10.0 ML
0.667 LW
N
348.5 595 M
359.833 595 L
359.833 589.9 L
348.5 589.9 L
cp
S
GR
GS
[0 -0.75035 0.74968 0 265.51141 407.70867] CT
/Helvetica 12 F
GS
[1 0 0 1 0 0] CT
-39.5 5 moveto 
1 -1 scale
(COLLIMATOR) t 
GR
GR
GS
[0.74968 0 0 0.75035 38.23364 14.52666] CT
N
0 0 M
0 22 L
113 22 L
113 0 L
cp
clip
0.94 GC
N
0 0 113 22 re
f
GR
GS
[0.74968 0 0 0.75035 38.23364 14.52666] CT
N
0 0 M
0 22 L
113 22 L
113 0 L
cp
clip
0.94 GC
N
0 0 113 22 re
f
GR
GS
[0.74968 0 0 0.75035 38.98332 18.2784] CT
[1 0 0 1 0 0] CT
N
-1 -5 M
-1 17 L
112 17 L
112 -5 L
cp
clip
GS
0 0 translate
13 13 scale
%AXGBeginBitmap: java.awt.image.BufferedImage
{{
/RawData currentfile /ASCII85Decode filter def
/Data RawData /FlateDecode filter def
/DeviceRGB setcolorspace
<<
  /Decode [0 1 0 1 0 1]
  /BitsPerComponent 8
  /Width 13
  /ImageType 1
  /DataSource Data
  /ImageMatrix [13 0 0 13 0 0]
  /Height 13
>> image
} stopped {handleerror} if
  RawData flushfile
} exec
GapQJ-5QM,"K8']dA'2Q*ZdCdm(fA)U*_r`qqJSu\<J/;JQiI<(+9HQ_Q!gC%*/SZ6<%Eo61t@b-)MS;
T0cLdWZ`3%j=);X!!&r0?>]~>

%AXGEndBitmap
GR
GR
GS
[0.74968 0 0 0.75035 38.23364 14.52666] CT
1 0 0 RC
/Helvetica 13.333 F
GS
N
-1 -1 M
114 -1 L
114 22 L
-1 22 L
-1 -1 L
cp
clip
[1 0 0 1 0 0] CT
18 16 moveto 
1 -1 scale
(Quadrupole) t 
GR
GR
GS
[0.74968 0 0 0.75035 122.94739 14.52666] CT
N
0 0 M
0 22 L
113 22 L
113 0 L
cp
clip
0.94 GC
N
0 0 113 22 re
f
GR
GS
[0.74968 0 0 0.75035 122.94739 14.52666] CT
N
0 0 M
0 22 L
113 22 L
113 0 L
cp
clip
0.94 GC
N
0 0 113 22 re
f
GR
GS
[0.74968 0 0 0.75035 123.69707 18.2784] CT
[1 0 0 1 0 0] CT
N
-1 -5 M
-1 17 L
112 17 L
112 -5 L
cp
clip
GS
0 0 translate
13 13 scale
%AXGBeginBitmap: java.awt.image.BufferedImage
{{
/RawData currentfile /ASCII85Decode filter def
/Data RawData /FlateDecode filter def
/DeviceRGB setcolorspace
<<
  /Decode [0 1 0 1 0 1]
  /BitsPerComponent 8
  /Width 13
  /ImageType 1
  /DataSource Data
  /ImageMatrix [13 0 0 13 0 0]
  /Height 13
>> image
} stopped {handleerror} if
  RawData flushfile
} exec
GapQJ-5QM,"K8']dA'2Q*ZdCdm(fA)U*_r`qqJSu\<J/;JQiI<(+9HQ_Q!gC%*/SZ6<%Eo61t@b-)MS;
T0cLdWZ`3%j=);X!!&r0?>]~>

%AXGEndBitmap
GR
GR
GS
[0.74968 0 0 0.75035 122.94739 14.52666] CT
0 0 1 RC
/Helvetica 13.333 F
GS
N
0 -1 M
114 -1 L
114 22 L
0 22 L
0 -1 L
cp
clip
[1 0 0 1 0 0] CT
18 16 moveto 
1 -1 scale
(Screen) t 
GR
GR
GS
[0.74968 0 0 0.75035 207.66115 14.52666] CT
N
0 0 M
0 22 L
113 22 L
113 0 L
cp
clip
0.94 GC
N
0 0 113 22 re
f
GR
GS
[0.74968 0 0 0.75035 207.66115 14.52666] CT
N
0 0 M
0 22 L
113 22 L
113 0 L
cp
clip
0.94 GC
N
0 0 113 22 re
f
GR
GS
[0.74968 0 0 0.75035 208.41082 18.2784] CT
[1 0 0 1 0 0] CT
N
-1 -5 M
-1 17 L
112 17 L
112 -5 L
cp
clip
GS
0 0 translate
13 13 scale
%AXGBeginBitmap: java.awt.image.BufferedImage
{{
/RawData currentfile /ASCII85Decode filter def
/Data RawData /FlateDecode filter def
/DeviceRGB setcolorspace
<<
  /Decode [0 1 0 1 0 1]
  /BitsPerComponent 8
  /Width 13
  /ImageType 1
  /DataSource Data
  /ImageMatrix [13 0 0 13 0 0]
  /Height 13
>> image
} stopped {handleerror} if
  RawData flushfile
} exec
GapQJ-5QM,"K8']dA'2Q*ZdCdm(fA)U*_r`qqJSu\<J/;JQiI<(+9HQ_Q!gC%*/SZ6<%Eo61t@b-)MS;
T0cLdWZ`3%j=);X!!&r0?>]~>

%AXGEndBitmap
GR
GR
GS
[0.74968 0 0 0.75035 207.66115 14.52666] CT
0 1 0 RC
/Helvetica 13.333 F
GS
N
0 -1 M
114 -1 L
114 22 L
0 22 L
0 -1 L
cp
clip
[1 0 0 1 0 0] CT
18 16 moveto 
1 -1 scale
(Steerer) t 
GR
GR
GS
[0.74968 0 0 0.75035 293.12458 14.52666] CT
N
0 0 M
0 22 L
113 22 L
113 0 L
cp
clip
0.94 GC
N
0 0 113 22 re
f
GR
GS
[0.74968 0 0 0.75035 293.12458 14.52666] CT
N
0 0 M
0 22 L
113 22 L
113 0 L
cp
clip
0.94 GC
N
0 0 113 22 re
f
GR
GS
[0.74968 0 0 0.75035 293.87426 18.2784] CT
[1 0 0 1 0 0] CT
N
-1 -5 M
-1 17 L
112 17 L
112 -5 L
cp
clip
GS
0 0 translate
13 13 scale
%AXGBeginBitmap: java.awt.image.BufferedImage
{{
/RawData currentfile /ASCII85Decode filter def
/Data RawData /FlateDecode filter def
/DeviceRGB setcolorspace
<<
  /Decode [0 1 0 1 0 1]
  /BitsPerComponent 8
  /Width 13
  /ImageType 1
  /DataSource Data
  /ImageMatrix [13 0 0 13 0 0]
  /Height 13
>> image
} stopped {handleerror} if
  RawData flushfile
} exec
GapQJ-5QM,"@eXc*bE7i!)Xel<<~>

%AXGEndBitmap
GR
GR
GS
[0.74968 0 0 0.75035 293.12458 14.52666] CT
1 0 1 RC
/Helvetica 13.333 F
GS
N
-1 -1 M
113 -1 L
113 22 L
-1 22 L
-1 -1 L
cp
clip
[1 0 0 1 0 0] CT
18 16 moveto 
1 -1 scale
(ICT) t 
GR
GR
GS
[0.74968 0 0 0.75035 377.83833 14.52666] CT
N
0 0 M
0 22 L
113 22 L
113 0 L
cp
clip
0.94 GC
N
0 0 113 22 re
f
GR
GS
[0.74968 0 0 0.75035 377.83833 14.52666] CT
N
0 0 M
0 22 L
113 22 L
113 0 L
cp
clip
0.94 GC
N
0 0 113 22 re
f
GR
GS
[0.74968 0 0 0.75035 378.58801 18.2784] CT
[1 0 0 1 0 0] CT
N
-1 -5 M
-1 17 L
112 17 L
112 -5 L
cp
clip
GS
0 0 translate
13 13 scale
%AXGBeginBitmap: java.awt.image.BufferedImage
{{
/RawData currentfile /ASCII85Decode filter def
/Data RawData /FlateDecode filter def
/DeviceRGB setcolorspace
<<
  /Decode [0 1 0 1 0 1]
  /BitsPerComponent 8
  /Width 13
  /ImageType 1
  /DataSource Data
  /ImageMatrix [13 0 0 13 0 0]
  /Height 13
>> image
} stopped {handleerror} if
  RawData flushfile
} exec
GapQJ-5QM,"@eXc*bE7i!)Xel<<~>

%AXGEndBitmap
GR
GR
GS
[0.74968 0 0 0.75035 377.83833 14.52666] CT
0 1 1 RC
/Helvetica 13.333 F
GS
N
-1 -1 M
114 -1 L
114 22 L
-1 22 L
-1 -1 L
cp
clip
[1 0 0 1 0 0] CT
18 16 moveto 
1 -1 scale
(Faraday Cup) t 
GR
GR
GS
[0.74968 0 0 0.75035 462.55208 14.52666] CT
N
0 0 M
0 22 L
113 22 L
113 0 L
cp
clip
0.94 GC
N
0 0 113 22 re
f
GR
GS
[0.74968 0 0 0.75035 462.55208 14.52666] CT
N
0 0 M
0 22 L
113 22 L
113 0 L
cp
clip
0.94 GC
N
0 0 113 22 re
f
GR
GS
[0.74968 0 0 0.75035 463.30176 18.2784] CT
[1 0 0 1 0 0] CT
N
-1 -5 M
-1 17 L
112 17 L
112 -5 L
cp
clip
GS
0 0 translate
13 13 scale
%AXGBeginBitmap: java.awt.image.BufferedImage
{{
/RawData currentfile /ASCII85Decode filter def
/Data RawData /FlateDecode filter def
/DeviceRGB setcolorspace
<<
  /Decode [0 1 0 1 0 1]
  /BitsPerComponent 8
  /Width 13
  /ImageType 1
  /DataSource Data
  /ImageMatrix [13 0 0 13 0 0]
  /Height 13
>> image
} stopped {handleerror} if
  RawData flushfile
} exec
GapQJ-5QM,"K8']dA'2Q*ZdCdm(fA)U*_r`qqJSu\<J/;JQiI<(+9HQ_Q!gC%*/SZ6<%Eo61t@b-)MS;
T0cLdWZ`3%j=);X!!&r0?>]~>

%AXGEndBitmap
GR
GR
GS
[0.74968 0 0 0.75035 462.55208 14.52666] CT
/Helvetica 13.333 F
GS
N
0 -1 M
113 -1 L
113 22 L
0 22 L
0 -1 L
cp
clip
[1 0 0 1 0 0] CT
18 16 moveto 
1 -1 scale
(BPM) t 
GR
GR
GS
[0.74968 0 0 0.75035 548.01551 14.52666] CT
N
0 0 M
0 22 L
113 22 L
113 0 L
cp
clip
0.94 GC
N
0 0 113 22 re
f
GR
GS
[0.74968 0 0 0.75035 548.01551 14.52666] CT
N
0 0 M
0 22 L
113 22 L
113 0 L
cp
clip
0.94 GC
N
0 0 113 22 re
f
GR
GS
[0.74968 0 0 0.75035 548.76519 18.2784] CT
[1 0 0 1 0 0] CT
N
-1 -5 M
-1 17 L
112 17 L
112 -5 L
cp
clip
GS
0 0 translate
13 13 scale
%AXGBeginBitmap: java.awt.image.BufferedImage
{{
/RawData currentfile /ASCII85Decode filter def
/Data RawData /FlateDecode filter def
/DeviceRGB setcolorspace
<<
  /Decode [0 1 0 1 0 1]
  /BitsPerComponent 8
  /Width 13
  /ImageType 1
  /DataSource Data
  /ImageMatrix [13 0 0 13 0 0]
  /Height 13
>> image
} stopped {handleerror} if
  RawData flushfile
} exec
GapQJ-5QM,"K8']dA'2Q*ZdCdm(fA)U*_r`qqJSu\<J/;JQiI<(+9HQ_Q!gC%*/SZ6<%Eo61t@b-)MS;
T0cLdWZ`3%j=);X!!&r0?>]~>

%AXGEndBitmap
GR
GR
GS
[0.74968 0 0 0.75035 548.01551 14.52666] CT
0.584 0.816 0.988 RC
/Helvetica 13.333 F
GS
N
-1 -1 M
113 -1 L
113 22 L
-1 22 L
-1 -1 L
cp
clip
[1 0 0 1 0 0] CT
18 16 moveto 
1 -1 scale
(Dipole) t 
GR
GR
GS
[0.74968 0 0 0.75035 632.72927 14.52666] CT
N
0 0 M
0 22 L
113 22 L
113 0 L
cp
clip
0.94 GC
N
0 0 113 22 re
f
GR
GS
[0.74968 0 0 0.75035 632.72927 14.52666] CT
N
0 0 M
0 22 L
113 22 L
113 0 L
cp
clip
0.94 GC
N
0 0 113 22 re
f
GR
GS
[0.74968 0 0 0.75035 633.47895 18.2784] CT
[1 0 0 1 0 0] CT
N
-1 -5 M
-1 17 L
112 17 L
112 -5 L
cp
clip
GS
0 0 translate
13 13 scale
%AXGBeginBitmap: java.awt.image.BufferedImage
{{
/RawData currentfile /ASCII85Decode filter def
/Data RawData /FlateDecode filter def
/DeviceRGB setcolorspace
<<
  /Decode [0 1 0 1 0 1]
  /BitsPerComponent 8
  /Width 13
  /ImageType 1
  /DataSource Data
  /ImageMatrix [13 0 0 13 0 0]
  /Height 13
>> image
} stopped {handleerror} if
  RawData flushfile
} exec
GapQJ-5QM,"K8']dA'2Q*ZdCdm(fA)U*_r`qqJSu\<J/;JQiI<(+9HQ_Q!gC%*/SZ6<%Eo61t@b-)MS;
T0cLdWZ`3%j=);X!!&r0?>]~>

%AXGEndBitmap
GR
GR
GS
[0.74968 0 0 0.75035 632.72927 14.52666] CT
0.93 0.69 0.13 RC
/Helvetica 13.333 F
GS
N
-1 -1 M
113 -1 L
113 22 L
-1 22 L
-1 -1 L
cp
clip
[1 0 0 1 0 0] CT
18 16 moveto 
1 -1 scale
(Collimator) t 
GR
GR
GS
[0.74968 0 0 0.75035 764.67281 16.7777] CT
N
0 0 M
0 22 L
103 22 L
103 0 L
cp
clip
0.94 GC
N
0 0 113 22 re
f
GR
GS
[0.74968 0 0 0.75035 764.67281 16.7777] CT
/Helvetica 13.333 F
GS
N
-1 -1 M
103 -1 L
103 22 L
-1 22 L
-1 -1 L
cp
clip
[1 0 0 1 0 0] CT
26 13 moveto 
1 -1 scale
(36.2382 m) t 
GR
GR
GS
[0.74968 0 0 0.75035 733.18628 16.7777] CT
N
0 0 M
0 22 L
71 22 L
71 0 L
cp
clip
0.94 GC
N
0 0 71 22 re
f
GR
GS
[0.74968 0 0 0.75035 733.18628 16.7777] CT
/Helvetica 13.333 F
GS
N
-1 -1 M
72 -1 L
72 22 L
-1 22 L
-1 -1 L
cp
clip
[1 0 0 1 0 0] CT
1 13 moveto 
1 -1 scale
(Position at: ) t 
GR
GR
GS
[0.74968 0 0 0.75035 733.18628 16.7777] CT
/Helvetica 13.333 F
GS
N
-2 -1 M
72 -1 L
72 22 L
-2 22 L
-2 -1 L
cp
clip
[1 0 0 1 0 0] CT
35 29 moveto 
1 -1 scale
() t 
GR
GR
%%Trailer
%%Pages: 1
%%EOF
