-0.19	-0.0012162383
-0.189	-0.0011971153
-0.188	-0.0011486687
-0.187	-0.0011053232
-0.186	-0.0010326549
-0.185	-0.0011078731
-0.184	-0.0010619772
-0.183	-0.0011473942
-0.182	-0.0010288302
-0.181	-0.0010517782
-0.18	-0.0009969582
-0.179	-0.0010326549
-0.178	-0.0010148066
-0.177	-0.0009306643
-0.176	-0.0009650861
-0.175	-0.0009893089
-0.174	-0.0010148066
-0.173	-0.0009893089
-0.172	-0.000901342
-0.171	-0.0008962424
-0.17	-0.0009829344
-0.169	-0.0010046075
-0.168	-0.0009281145
-0.167	-0.0009561619
-0.166	-0.000856721
-0.165	-0.0009128159
-0.164	-0.0009383136
-0.163	-0.0009676359
-0.162	-0.0008324983
-0.161	-0.000901342
-0.16	-0.000857996
-0.159	-0.0008452471
-0.158	-0.0008643704
-0.157	-0.0007662045
-0.156	-0.0006858869
-0.155	-0.0008528964
-0.154	-0.0009089912
-0.153	-0.0008133751
-0.152	-0.0008554462
-0.151	-0.0008108253
-0.15	-0.000857996
-0.149	-0.0008210244
-0.148	-0.000716484
-0.147	-0.0006323416
-0.146	-0.0006387163
-0.145	-0.0006489153
-0.144	-0.0006922611
-0.143	-0.0006068441
-0.142	-0.0005800716
-0.141	-0.0004576827
-0.14	-0.0005214269
-0.139	-0.000553299
-0.138	-0.0004066875
-0.137	-0.0003595169
-0.136	-0.0001810333
-0.135	-0.0002740998
-0.134	-0.0003021471
-0.133	-0.000195057
-0.132	-0.000173384
-0.131	-0.0001657347
-0.13	-0.0002103556
-0.129	-0.0002090807
-0.128	-0.0001007157
-0.127	-0.0001070901
-0.126	3.69716704429129E-005
-0.125	4.97204231190728E-005
-0.124	9.94408573886125E-005
-0.123	0.000130038
-0.122	0.0002435026
-0.121	0.0003556923
-0.12	0.0003786402
-0.119	0.0004602326
-0.118	0.0004627823
-0.117	0.0005826213
-0.116	0.0006183182
-0.115	0.0006769627
-0.114	0.0007572802
-0.113	0.0007840529
-0.112	0.0009038919
-0.111	0.0010454037
-0.11	0.0010581527
-0.109	0.0011703419
-0.108	0.0012850813
-0.107	0.0014699393
-0.106	0.0015375089
-0.105	0.0016535228
-0.104	0.001807784
-0.103	0.0019837171
-0.102	0.0021316036
-0.101	0.0023521587
-0.1	0.0025344666
-0.099	0.0026402823
-0.098	0.0028825095
-0.097	0.0030138229
-0.096	0.0032203541
-0.095	0.0033350924
-0.094	0.0036818619
-0.093	0.0039304638
-0.092	0.0041344449
-0.091	0.0044404159
-0.09	0.0046737205
-0.089	0.0049312461
-0.088	0.0052040713
-0.087	0.0055610379
-0.086	0.0059562517
-0.085	0.0062545746
-0.084	0.006667637
-0.083	0.0071380674
-0.082	0.0075957505
-0.081	0.00819877
-0.08	0.0086067333
-0.079	0.0091855295
-0.078	0.0098484683
-0.077	0.0104527622
-0.076	0.0109767394
-0.075	0.0116231019
-0.074	0.012381657
-0.073	0.0131886609
-0.072	0.0140173302
-0.071	0.0148995551
-0.07	0.0156912606
-0.069	0.01670224
-0.068	0.0177795089
-0.067	0.0188363948
-0.066	0.0199748574
-0.065	0.0211248051
-0.064	0.0224226303
-0.063	0.0239435651
-0.062	0.0252617956
-0.061	0.0267840128
-0.06	0.0281749109
-0.059	0.0296410189
-0.058	0.0313021932
-0.057	0.0330959577
-0.056	0.0350885907
-0.055	0.0371475245
-0.054	0.0393275746
-0.053	0.0416134426
-0.052	0.0440306186
-0.051	0.0467040434
-0.05	0.0496146052
-0.049	0.052713844
-0.048	0.0561037533
-0.047	0.05964028
-0.046	0.0634942494
-0.045	0.0674361848
-0.044	0.0719441737
-0.043	0.0767147783
-0.042	0.0818066725
-0.041	0.0872912082
-0.04	0.0933277811
-0.039	0.1005232221
-0.038	0.1082209581
-0.037	0.1162833145
-0.036	0.1244731095
-0.035	0.1331742649
-0.034	0.1426721213
-0.033	0.1530916752
-0.032	0.1640735472
-0.031	0.1763456397
-0.03	0.1897509541
-0.029	0.2056092599
-0.028	0.221668943
-0.027	0.2383750187
-0.026	0.2567141919
-0.025	0.2770435004
-0.024	0.3010151089
-0.023	0.3250299812
-0.022	0.3504193717
-0.021	0.3781200309
-0.02	0.4077648856
-0.019	0.4399683264
-0.018	0.4761062095
-0.017	0.5132601232
-0.016	0.5520917361
-0.015	0.5940864021
-0.014	0.6353045495
-0.013	0.6783625239
-0.012	0.7177868957
-0.011	0.7590574503
-0.01	0.798062453
-0.009	0.8344922554
-0.008	0.8677157409
-0.007	0.8924076696
-0.006	0.9135502932
-0.005	0.9310760397
-0.004	0.9472900453
-0.003	0.9595518794
-0.002	0.9661047859
-0.001	0.9696208627
0	0.9698631623
0.001	0.9683421271
0.002	0.9626153587
0.003	0.9527108449
0.004	0.9397083968
0.005	0.9237149474
0.006	0.9048912865
0.007	0.8809591506
0.008	0.8502001413
0.009	0.8145186468
0.01	0.778615481
0.011	0.7392853307
0.012	0.700113294
0.013	0.6570859833
0.014	0.6137960791
0.015	0.5727218842
0.016	0.5327224829
0.017	0.4959688709
0.018	0.4579174562
0.019	0.4241101322
0.02	0.3930361222
0.021	0.3646266277
0.022	0.3386610927
0.023	0.3136415632
0.024	0.2895181968
0.025	0.2673225232
0.026	0.2485014269
0.027	0.2311974631
0.028	0.2147641278
0.029	0.1986318551
0.03	0.1836137371
0.031	0.1711555433
0.032	0.1597822899
0.033	0.1489394643
0.034	0.1388245411
0.035	0.129511448
0.036	0.1211048879
0.037	0.1133306708
0.038	0.1053830639
0.039	0.0978255673
0.04	0.0911145806
0.041	0.0854502772
0.042	0.0801697171
0.043	0.0751364743
0.044	0.070480608
0.045	0.0662122984
0.046	0.0623175406
0.047	0.0587402143
0.048	0.055331182
0.049	0.0519540178
0.05	0.0488037767
0.051	0.0461227026
0.052	0.0436379549
0.053	0.0411519359
0.054	0.0387564253
0.055	0.0365419537
0.056	0.0345901091
0.057	0.0327899777
0.058	0.0309974955
0.059	0.0293018997
0.06	0.0277656665
0.061	0.0262460028
0.062	0.0249558268
0.063	0.0236069994
0.064	0.0221561899
0.065	0.0208456086
0.066	0.0196803625
0.067	0.0185826882
0.068	0.0175742511
0.069	0.0166104493
0.07	0.0155803357
0.071	0.0147287188
0.072	0.0139000495
0.073	0.0131861074
0.074	0.0122898664
0.075	0.0114446164
0.076	0.0107867823
0.077	0.010207985
0.078	0.0097146058
0.079	0.0090771637
0.08	0.0084014766
0.081	0.0078022817
0.082	0.0074147183
0.083	0.0069251626
0.084	0.0064547311
0.085	0.0059817494
0.086	0.0056515551
0.087	0.00532901
0.088	0.0050663831
0.089	0.0047846342
0.09	0.0043728474
0.091	0.004106397
0.092	0.0040248046
0.093	0.0037596286
0.094	0.0035033775
0.095	0.0031923062
0.096	0.0029946988
0.097	0.0028034671
0.098	0.0026198836
0.099	0.0024057032
0.1	0.002196623
0.101	0.002014314
0.102	0.0018562294
0.103	0.0017287405
0.104	0.0016547973
0.105	0.0015400579
0.106	0.0013641247
0.107	0.0012022144
0.108	0.0011040483
0.109	0.0010288303
0.11	0.0008248491
0.111	0.0006221428
0.112	0.0005405503
0.113	0.000489555
0.114	0.0004946545
0.115	0.0003340193
0.116	0.0002473273
0.117	0.0002039813
0.118	0.0001096399
0.119	0.0001274883
0.12	-5.09952783158481E-005
0.121	-0.0001631849
0.122	-0.0001899575
0.123	-0.0002103556
0.124	-0.0002753746
0.125	-0.0003301945
0.126	-0.0003378438
0.127	-0.0004462089
0.128	-0.0004589578
0.129	-0.0004474837
0.13	-0.0006272422
0.131	-0.0006489153
0.132	-0.0006030194
0.133	-0.000716484
0.134	-0.000671863
0.135	-0.0007636547
0.136	-0.0007649295
0.137	-0.0008261238
0.138	-0.0008847685
0.139	-0.0008184746
0.14	-0.0008222992
0.141	-0.0008324983
0.142	-0.0009191903
0.143	-0.0008911429
0.144	-0.0009268396
0.145	-0.0009816596
0.146	-0.0011652428
0.147	-0.0010938493
0.148	-0.0010747261
0.149	-0.0010339297
0.15	-0.0010428539
0.151	-0.0012264376
0.152	-0.0012289866
0.153	-0.0012506598
0.154	-0.0012379115
0.155	-0.0013399014
0.156	-0.001376873
0.157	-0.0012226119
0.158	-0.0012340869
0.159	-0.0013335267
0.16	-0.0013959961
0.161	-0.0013551999
0.162	-0.0013348023
0.163	-0.0013488263
0.164	-0.0013360768
0.165	-0.0014138447
0.166	-0.0014406169
0.167	-0.0014673903
0.168	-0.0014163948
0.169	-0.0013743229
0.17	-0.0015311342
0.171	-0.0015732049
0.172	-0.0015247595
0.173	-0.0014941626
0.174	-0.0015183847
0.175	-0.0015859543
0.176	-0.0017032428
0.177	-0.0017134421
0.178	-0.0017006938
0.179	-0.0015579065
0.18	-0.0016025273
0.181	-0.0016280251
0.182	-0.0016356743
0.183	-0.0015770295
0.184	-0.0016675468
0.185	-0.0017784616
0.186	-0.0016624465
0.187	-0.0016127266
0.188	-0.001675196
0.189	-0.001677745
0.19	-0.0017759115